year,price
2005,1154.6534561201556
2006,1153.7423684614205
2007,1399.919669082812
2008,1909.6852389295316
2009,2107.653875082426
2010,1919.0716859133422
2011,2108.9143116820164
2012,3007.093777787911
2013,3287.228802015886
2014,3459.3726628201516
2015,3283.9733364097397
