Crop,Precision,Recall,F1-score,Support,
Arecanut,0.20,0.93,0.33,27,
Arhar,0.93,0.25,0.39,157,
Bajra,0.84,0.59,0.69,119,
Banana,0.42,0.52,0.47,33,
Barley,0.57,0.16,0.25,105,
Castor seeds,0.50,0.79,0.61,28,
Chilli,0.77,0.68,0.72,74,
Coconut,0.33,0.72,0.45,36,
Cotton,0.68,0.67,0.68,94,
Green gram,1.00,0.46,0.63,213,
Groundnut,0.87,0.60,0.71,128,
Horse gram,0.31,0.57,0.40,49,
Jowar,0.90,0.60,0.72,179,
Jute,0.18,0.84,0.29,25,
Maize,0.98,0.71,0.82,226,
Mustard,0.91,0.53,0.67,233,
Onion,0.81,0.74,0.77,101,
Ragi,0.47,0.71,0.57,59,
Rice,1.00,0.13,0.23,284,
Sesame,0.96,0.24,0.38,104,
Soyabean,0.76,0.54,0.63,78,
Sugarcane,1.00,0.41,0.58,159,
Sunflower,0.74,0.53,0.62,47,
Tobacco,0.56,0.31,0.40,16,
Turmeric,0.00,0.00,0.00,10,
Urad,0.00,0.00,0.00,134,
Wheat,1.00,0.75,0.86,244,
Beetroot,1.00,0.43,0.60,7,
Black pepper,0.00,0.00,0.00,1,
Bottle gourd,0.00,0.00,0.00,3,
Brinjal,0.38,1.00,0.55,3,
Cabbage,0.00,0.00,0.00,0,
Cardamom,0.15,1.00,0.25,17,
Carrot,0.09,0.88,0.16,8,
Cashewnut,0.47,0.92,0.63,93,
Cauliflower,0.05,1.00,0.10,14,
Coriander,0.04,1.00,0.08,10,
Cucumber,0.00,0.00,0.00,0,
Drumstick,0.09,0.83,0.16,6,
Jackfruit,0.88,0.22,0.36,129,
Orange,0.44,0.64,0.52,11,
Potato,0.30,0.67,0.41,18,
Sweet potato,0.00,0.00,0.00,1,
Tapioca,0.26,0.82,0.39,17,
Tea,0.00,0.00,0.00,32,

avg / total,0.78,0.50,0.54,3332,

