year,price
2005,527.8842936467873
2006,585.8032014201593
2007,570.6855080655681
2008,635.5984220513333
2009,644.6480745132061
2010,748.7271309304726
2011,738.7282970114575
2012,946.250201078121
2013,1178.2105427017107
2014,1082.025165818613
2015,1211.2414718418556
