year,price
2005,557.9565848816029
2006,632.7329787572346
2007,746.9306625193169
2008,728.6134677553955
2009,839.4291098650191
2010,916.7391951940584
2011,1017.7675581795971
2012,1169.7567335903846
2013,1313.501756770261
2014,1253.5318008515446
2015,1312.459595267746
