year,price
2005,1997.0241752707127
2006,2363.099248452697
2007,2728.420010934937
2008,3092.9540706755174
2009,3941.307472057403
2010,5064.216068694668
2011,6598.845266666666
2012,6593.947275750758
2013,8240.252164593141
2014,7258.969287217119
2015,6953.918549822064
