
"Year"	"Jan"	"Feb"	"Mar"	"Apr"	"May"	"Jun"	"Jul"	"Aug"	"Sep"	"Oct"	"Nov"	"Dec"
"1901"	"19.035"	"20.327"	"27.134"	"30.516"	"33.085"	"33.165"	"30.583"	"28.441"	"28.669"	"28.75"	"25.251"	"22.238"
"1902"	"21.233"	"22.868"	"28.159"	"31.349"	"33.184"	"32.658"	"30.62"	"29.627"	"28.733"	"28.853"	"24.474"	"20.765"
"1903"	"19.95"	"20.923"	"25.143"	"29.09"	"32.518"	"32.96"	"30.5"	"29.076"	"28.759"	"28.052"	"22.811"	"20.32"
"1904"	"20.454"	"21.908"	"25.655"	"30.824"	"32.917"	"31.813"	"29.182"	"28.646"	"28.671"	"28.725"	"24.348"	"21.549"
"1905"	"19.248"	"19.243"	"24.628"	"28.536"	"33.65"	"32.574"	"29.514"	"29.24"	"29.166"	"28.947"	"25.519"	"21.121"
"1906"	"18.943"	"20.594"	"25.433"	"29.841"	"33.211"	"31.448"	"29.608"	"28.747"	"28.232"	"28.118"	"24.996"	"21.581"
"1907"	"20.975"	"21.877"	"26.149"	"29.624"	"31.966"	"32.122"	"31.2"	"27.806"	"28.569"	"28.536"	"25.508"	"20.185"
"1908"	"19.842"	"21.428"	"25.224"	"30.805"	"32.501"	"32.185"	"28.93"	"28.113"	"28.669"	"28.685"	"24.126"	"20.225"
"1909"	"19.853"	"22.014"	"27.258"	"29.699"	"32.748"	"31.588"	"29.066"	"28.278"	"28.104"	"27.62"	"24.346"	"20.695"
"1910"	"20.148"	"22.111"	"26.462"	"29.898"	"32.372"	"31.245"	"29.241"	"28.619"	"28.439"	"27.119"	"23.024"	"20.827"
"1911"	"20.99"	"21.615"	"25.122"	"29.435"	"33.071"	"30.934"	"30.086"	"28.538"	"28.037"	"28.235"	"24.345"	"22.264"
"1912"	"21.147"	"23.184"	"26.263"	"30.653"	"33.079"	"33.159"	"29.785"	"28.511"	"28.5"	"28.337"	"23.62"	"20.612"
"1913"	"19.961"	"22.051"	"24.534"	"30.675"	"32.3"	"31.295"	"29.418"	"28.176"	"28.511"	"28.897"	"24.707"	"21.144"
"1914"	"21.387"	"21.9"	"25.779"	"29.868"	"33.211"	"31.468"	"29.418"	"28.813"	"28.839"	"28.713"	"26.024"	"20.662"
"1915"	"20.22"	"20.945"	"26.696"	"29.816"	"33.192"	"33.402"	"30.942"	"28.946"	"29.278"	"29.159"	"25.234"	"21.458"
"1916"	"20.889"	"21.147"	"27.766"	"30.942"	"33.077"	"30.78"	"30.233"	"28.501"	"29.106"	"28.286"	"23.234"	"20.722"
"1917"	"21.147"	"22.14"	"26.481"	"29.365"	"31.295"	"31.143"	"29.079"	"28.519"	"28.172"	"27.616"	"23.393"	"20.646"
"1918"	"19.11"	"22.268"	"26.542"	"29"	"33.071"	"31.34"	"30.385"	"28.666"	"28.539"	"28.302"	"25.724"	"20.591"
"1919"	"20.521"	"21.814"	"26.755"	"29.933"	"32.786"	"31.467"	"29.194"	"28.114"	"28.605"	"28.118"	"25.312"	"20.825"
"1920"	"20.815"	"21.727"	"27.148"	"30.167"	"31.422"	"31.787"	"29.044"	"28.413"	"29.339"	"29.064"	"25.333"	"21.005"
"1921"	"20.684"	"21.914"	"27.999"	"31.374"	"33.188"	"32.302"	"30.72"	"28.808"	"27.932"	"28.024"	"24.229"	"22.258"
"1922"	"19.648"	"23.141"	"26.988"	"30.882"	"32.972"	"31.983"	"29.512"	"28.546"	"28.205"	"27.88"	"24.206"	"20.253"
"1923"	"20.548"	"21.344"	"27.146"	"30.282"	"32.226"	"33.065"	"29.514"	"28.076"	"28.837"	"27.328"	"23.717"	"21.721"
"1924"	"20.252"	"22.564"	"28.3"	"31.156"	"32.77"	"32.754"	"29.894"	"28.652"	"28.467"	"27.252"	"22.828"	"21.187"
"1925"	"18.461"	"20.514"	"27.146"	"31.584"	"32.589"	"30.963"	"29.093"	"28.966"	"28.845"	"29.563"	"25.287"	"21.505"
"1926"	"20.868"	"23.835"	"26.956"	"28.758"	"32.425"	"33.666"	"30.211"	"28.815"	"28.11"	"27.847"	"23.159"	"20.423"
"1927"	"18.866"	"21.144"	"25.613"	"29.441"	"32.084"	"31.853"	"28.867"	"27.981"	"28.698"	"28.024"	"22.441"	"21.327"
"1928"	"20.062"	"21.634"	"26.389"	"30.029"	"32.786"	"31.653"	"28.828"	"27.946"	"28.205"	"27.699"	"24.479"	"20.123"
"1929"	"19.148"	"21.126"	"27.548"	"30.674"	"33.172"	"31.841"	"29.544"	"27.979"	"28.504"	"28.104"	"25.787"	"20.178"
"1930"	"20.235"	"21.122"	"26.897"	"30.016"	"32.786"	"32.084"	"28.444"	"27.946"	"28.872"	"28.977"	"23.745"	"21.358"
"1931"	"21.286"	"21.487"	"25.973"	"30.967"	"33.172"	"33.292"	"30.127"	"28.745"	"28.386"	"27.324"	"24.426"	"21.523"
"1932"	"21.435"	"21.636"	"26.401"	"29.929"	"32.87"	"31.919"	"29.077"	"28.468"	"28.638"	"29.19"	"24.2"	"21.757"
"1933"	"20.102"	"22.552"	"26.866"	"29.916"	"31.646"	"31.448"	"29.28"	"27.979"	"28.214"	"28.132"	"24.702"	"21.05"
"1934"	"18.535"	"22.564"	"26.127"	"30.4"	"32.488"	"31.953"	"29.08"	"28.322"	"28"	"27.387"	"24.04"	"21.773"
"1935"	"18.563"	"21.947"	"26.136"	"28.792"	"32.406"	"32.086"	"28.944"	"27.927"	"27.753"	"27.888"	"24.527"	"21.37"
"1936"	"19.448"	"22.128"	"26.127"	"29.217"	"33.024"	"30.749"	"29.28"	"28.632"	"28.306"	"27.644"	"24.914"	"20.753"
"1937"	"19.176"	"22.683"	"25.655"	"29.27"	"32.274"	"31.906"	"28.576"	"28.217"	"28.139"	"27.724"	"25.01"	"20.259"
"1938"	"20.46"	"20.809"	"27.799"	"30.708"	"32.868"	"30.081"	"28.906"	"28.601"	"28.738"	"27.698"	"23.313"	"21.419"
"1939"	"20.848"	"22.734"	"25.322"	"29.235"	"32.217"	"31.921"	"29.345"	"28.854"	"28.072"	"28.11"	"24.397"	"21.282"
"1940"	"21.044"	"22.694"	"25.102"	"29.498"	"32.919"	"31.947"	"29.128"	"28.193"	"28.239"	"28.357"	"24.827"	"20.834"
"1941"	"19.828"	"23.461"	"27.312"	"30.849"	"32.798"	"32.273"	"28.334"	"28.48"	"28.767"	"29.324"	"24.754"	"22.537"
"1942"	"19.795"	"22.628"	"27.461"	"31.407"	"32.359"	"32.46"	"28.59"	"27.627"	"27.706"	"27.977"	"24.166"	"20.126"
"1943"	"19.929"	"22.37"	"27.118"	"29.676"	"33.406"	"30.492"	"28.113"	"27.738"	"27.638"	"27.545"	"25.104"	"21.317"
"1944"	"20.096"	"21.515"	"26.041"	"29.218"	"32.853"	"31.559"	"28.396"	"27.839"	"28.706"	"27.793"	"24.49"	"21.831"
"1945"	"18.501"	"21.637"	"27.12"	"29.495"	"31.972"	"32.022"	"28.16"	"28.261"	"27.839"	"27.377"	"23.167"	"19.719"
"1946"	"19.886"	"23.447"	"26.213"	"30.789"	"31.934"	"31.03"	"28.781"	"27.299"	"27.991"	"28.391"	"23.003"	"21.059"
"1947"	"19.795"	"22.679"	"27.063"	"29.495"	"32.786"	"32.587"	"29.561"	"29.435"	"27.718"	"26.593"	"24.066"	"20.912"
"1948"	"19.738"	"21.986"	"27.226"	"31.222"	"33.506"	"32.528"	"30.754"	"28.879"	"28.848"	"29.108"	"25.29"	"21.321"
"1949"	"22.069"	"22.502"	"27.79"	"31.307"	"33.493"	"32.23"	"29.867"	"28.833"	"28.539"	"28.338"	"23.886"	"20.277"
"1950"	"20.438"	"19.933"	"26.16"	"30.28"	"32.775"	"32.354"	"28.027"	"28.166"	"28.005"	"28.94"	"23.555"	"20.635"
"1951"	"19.215"	"21.814"	"26.97"	"28.802"	"32.388"	"32.07"	"30.393"	"28.241"	"29.838"	"30.281"	"26.191"	"21.245"
"1952"	"21.252"	"23.635"	"26.622"	"31.061"	"33.287"	"31.853"	"29.066"	"27.679"	"28.343"	"28.894"	"23.87"	"21.905"
"1953"	"20.047"	"24.503"	"28.737"	"30.841"	"32.268"	"31.886"	"29.148"	"27.415"	"28.025"	"27.967"	"23.972"	"21.979"
"1954"	"19.409"	"23.713"	"27.435"	"30.544"	"32.93"	"31.969"	"29.033"	"28.752"	"26.983"	"26.593"	"23.923"	"20.6"
"1955"	"20.917"	"23.308"	"28.313"	"28.897"	"32.55"	"31.448"	"30.058"	"27.829"	"27.958"	"27.616"	"22.88"	"20.74"
"1956"	"20.454"	"22.034"	"27.86"	"30.718"	"32.677"	"31.18"	"27.42"	"27.379"	"27.891"	"26.546"	"23.651"	"20.731"
"1957"	"19.815"	"20.481"	"25.175"	"29.735"	"31.838"	"31.927"	"29.713"	"28.546"	"28.78"	"28.99"	"26.344"	"22.384"
"1958"	"21.929"	"22.625"	"27.674"	"31.454"	"33.304"	"32.691"	"29.08"	"28.979"	"27.539"	"27.69"	"24.899"	"22.059"
"1959"	"20.201"	"22.314"	"27.793"	"30.863"	"33.578"	"31.952"	"27.948"	"27.496"	"27.476"	"27.543"	"24.624"	"21.662"
"1960"	"19.787"	"24.294"	"25.776"	"29.982"	"32.501"	"31.268"	"29.617"	"27.596"	"28.894"	"28.324"	"24.441"	"22.335"
"1961"	"20.615"	"21.036"	"28.06"	"30.24"	"32.566"	"31.116"	"28.401"	"28.513"	"27.398"	"27.106"	"24.8"	"20.589"
"1962"	"18.912"	"23.277"	"26.616"	"30.423"	"33.273"	"31.853"	"29.1"	"28.45"	"28.02"	"26.502"	"24.685"	"21.806"
"1963"	"21.204"	"24.021"	"27.172"	"29.789"	"32.183"	"31.983"	"29.418"	"27.941"	"27.437"	"28.323"	"25.625"	"22.353"
"1964"	"18.768"	"22.611"	"28.32"	"31.296"	"32.501"	"31.454"	"28.799"	"27.992"	"28.257"	"27.935"	"23.875"	"21.029"
"1965"	"22.081"	"22.902"	"26.437"	"29.933"	"32.048"	"32.356"	"29.258"	"28.747"	"28.739"	"29.219"	"25.891"	"22.172"
"1966"	"21.756"	"24.767"	"26.396"	"30.024"	"32.399"	"32.014"	"30.106"	"28.993"	"28.655"	"29.639"	"26.111"	"21.478"
"1967"	"19.201"	"24.162"	"26.81"	"30.045"	"32.938"	"31.187"	"28.882"	"27.927"	"28.167"	"28.711"	"25.359"	"22.935"
"1968"	"19.567"	"21.465"	"26.856"	"30.271"	"31.838"	"32.844"	"30.228"	"27.759"	"29.773"	"28.972"	"25.33"	"21.647"
"1969"	"20.83"	"23.274"	"29.052"	"31.657"	"33.239"	"32.44"	"30.193"	"28.213"	"28.673"	"29.01"	"26.991"	"22.72"
"1970"	"20.951"	"23.086"	"27.195"	"31.582"	"33.644"	"30.747"	"29.051"	"28.45"	"27.917"	"29.107"	"23.72"	"20.378"
"1971"	"19.814"	"22.58"	"27.24"	"31.684"	"32.335"	"30.334"	"28.627"	"27.998"	"28.706"	"27.447"	"23.947"	"20.716"
"1972"	"20.385"	"20.186"	"27.585"	"29.819"	"32.786"	"32.542"	"29.439"	"28.891"	"29.179"	"29.398"	"24.816"	"21.505"
"1973"	"19.094"	"23.478"	"27.347"	"31.875"	"33.312"	"32.139"	"28.441"	"27.932"	"26.762"	"27.792"	"24.005"	"21.031"
"1974"	"19.93"	"20.974"	"28.118"	"31.011"	"31.732"	"32.235"	"29.767"	"29.134"	"29.871"	"29.105"	"23.413"	"20.671"
"1975"	"19.11"	"22.294"	"25.827"	"28.553"	"32.917"	"31.437"	"29.498"	"28.3"	"27.988"	"27.96"	"23.488"	"20.886"
"1976"	"20.401"	"22.539"	"27.15"	"30.498"	"32.391"	"31.241"	"29.247"	"27.993"	"27.991"	"29.212"	"27.418"	"22.168"
"1977"	"20.013"	"22.92"	"28.882"	"31.89"	"32.966"	"31.407"	"29.171"	"28.811"	"28.553"	"29.776"	"26.855"	"22.292"
"1978"	"19.687"	"22.521"	"25.761"	"31.467"	"33.591"	"31.816"	"29.227"	"28.493"	"27.917"	"28.955"	"26.411"	"22.311"
"1979"	"20.887"	"21.31"	"26.193"	"30.406"	"32.719"	"33.106"	"30.111"	"28.045"	"29.732"	"29.387"	"26.806"	"22.525"
"1980"	"20.587"	"23.131"	"27.362"	"29.779"	"33.98"	"30.682"	"29.679"	"28.695"	"29.392"	"29.794"	"26.391"	"21.727"
"1981"	"20.85"	"22.868"	"27.608"	"31.539"	"33.292"	"33.01"	"29.406"	"28.162"	"28.926"	"28.877"	"23.255"	"21.256"
"1982"	"20.848"	"22.009"	"25.841"	"30.313"	"31.387"	"32.254"	"30.188"	"28.663"	"29.052"	"29.838"	"25.3"	"22.165"
"1983"	"19.637"	"20.848"	"25.677"	"29.183"	"32.9"	"32.227"	"29.804"	"28.439"	"28.957"	"27.311"	"22.986"	"20.576"
"1984"	"18.837"	"20.376"	"27.845"	"31.563"	"33.342"	"31.853"	"29.053"	"27.346"	"27.753"	"27.878"	"24.38"	"21.351"
"1985"	"19.633"	"21.801"	"28.3"	"30.724"	"32.993"	"31.992"	"29.523"	"28.113"	"29.006"	"27.619"	"25.25"	"22.583"
"1986"	"20.979"	"22.632"	"27.16"	"31.036"	"32.898"	"31.471"	"29.478"	"27.781"	"29.194"	"29.127"	"26.126"	"20.856"
"1987"	"21.348"	"23.547"	"27.729"	"31.036"	"32.861"	"32.609"	"31.314"	"30.306"	"30.816"	"30.719"	"27.008"	"22.933"
"1988"	"22.367"	"24.37"	"27.037"	"31.854"	"33.592"	"32.653"	"29.146"	"28.733"	"29.444"	"28.521"	"25.088"	"22.384"
"1989"	"19.738"	"22.508"	"26.559"	"30.657"	"33.106"	"31.154"	"29.183"	"27.847"	"29.059"	"28.924"	"26.64"	"21.926"
"1990"	"22.449"	"22.914"	"25.764"	"30.705"	"32.88"	"31.858"	"29.223"	"27.913"	"28.009"	"28.333"	"25.754"	"22.117"
"1991"	"19.711"	"22.523"	"27.213"	"30.803"	"33.146"	"32.981"	"29.418"	"28.3"	"28.544"	"28"	"25.605"	"21.503"
"1992"	"20.667"	"20.687"	"26.77"	"29.461"	"32.819"	"33.076"	"30.191"	"28.413"	"27.839"	"28.23"	"25.158"	"22.64"
"1993"	"21.231"	"23.454"	"26.53"	"30.486"	"33.281"	"32.874"	"29.547"	"29.554"	"28.921"	"29.463"	"26.333"	"22.865"
"1994"	"21.883"	"22.009"	"28.382"	"30.417"	"33.226"	"31.248"	"28.115"	"28.799"	"28.399"	"28.293"	"25.42"	"21.265"
"1995"	"19.588"	"22.714"	"26.133"	"30.223"	"33.301"	"33.768"	"30.217"	"29.374"	"29.272"	"29.982"	"25.071"	"22.409"
"1996"	"21.006"	"23.573"	"28.981"	"30.736"	"33.005"	"32.366"	"29.706"	"28.016"	"28.212"	"28.207"	"24.756"	"22.125"
"1997"	"20.001"	"21.881"	"27.431"	"29.13"	"31.805"	"31.346"	"29.43"	"28.096"	"28.539"	"28.043"	"26.672"	"21.791"
"1998"	"20.7"	"22.085"	"26.513"	"31.502"	"34.077"	"32.761"	"29.43"	"29.32"	"28.629"	"30.363"	"24.883"	"21.158"
"1999"	"19.647"	"23.716"	"27.047"	"31.175"	"32.153"	"31.02"	"29.26"	"28.433"	"29.136"	"27.878"	"25.135"	"21.353"
"2000"	"21.161"	"21.308"	"26.172"	"31.752"	"31.98"	"32.068"	"28.847"	"29.125"	"29.16"	"29.681"	"26.013"	"22.643"
"2001"	"20.347"	"22.56"	"27.063"	"30.667"	"32.595"	"29.932"	"28.048"	"28.364"	"29.724"	"29.457"	"25.733"	"22.191"
"2002"	"19.922"	"22.548"	"27.554"	"31.519"	"33.545"	"32.027"	"29.886"	"28.179"	"28.726"	"30.012"	"25.776"	"22.748"
