
"Year"	"Jan"	"Feb"	"Mar"	"Apr"	"May"	"Jun"	"Jul"	"Aug"	"Sep"	"Oct"	"Nov"	"Dec"
"1901"	"10.922"	"4.362"	"25.161"	"12.714"	"34.244"	"171.109"	"157.499"	"141.114"	"58.109"	"140.062"	"0.301"	"0"
"1902"	"2.627"	"0"	"0.009"	"2.778"	"1.716"	"55.998"	"119.227"	"81.06"	"219.968"	"84.588"	"95.004"	"32.967"
"1903"	"0.383"	"0"	"0"	"2.031"	"82.865"	"58.523"	"230.105"	"170.377"	"210.164"	"35.04"	"0.318"	"0.41"
"1904"	"0.128"	"0.456"	"1.87"	"6.629"	"1.685"	"46.917"	"109.794"	"35.129"	"468.966"	"50.26"	"0.3"	"0.019"
"1905"	"0.036"	"0.44"	"0"	"0.167"	"0.548"	"81.132"	"141.955"	"73.108"	"143.706"	"9.678"	"2.915"	"0"
"1906"	"6.827"	"3.089"	"0.428"	"0"	"0.239"	"152.53"	"185.13"	"118.715"	"101.154"	"8.292"	"0.466"	"13.091"
"1907"	"0"	"4.794"	"0.082"	"37.114"	"0.199"	"95.918"	"201.584"	"98.631"	"35.905"	"1.129"	"0.387"	"3.736"
"1908"	"0.057"	"0"	"8.406"	"0.867"	"0.266"	"98.365"	"121.329"	"105.359"	"130.713"	"3.518"	"0.3"	"0"
"1909"	"4.439"	"0.997"	"0.139"	"3.87"	"40.341"	"173.462"	"120.969"	"79.695"	"209.961"	"10.351"	"0.3"	"30.737"
"1910"	"0"	"0"	"0.02"	"0"	"9.391"	"190.577"	"163.199"	"101.978"	"240.184"	"71.063"	"42.461"	"0"
"1911"	"3.598"	"0"	"0.017"	"0.005"	"1.307"	"55.9"	"133.572"	"59.704"	"31.798"	"0.93"	"109.864"	"0.064"
"1912"	"0"	"1.499"	"0"	"2.792"	"5.834"	"58.212"	"146.145"	"60.18"	"3.729"	"37.013"	"77.556"	"0.231"
"1913"	"0"	"0.009"	"0.017"	"0.334"	"20.983"	"164.651"	"172.655"	"43.25"	"112.049"	"3.368"	"0.3"	"22.339"
"1914"	"0"	"1.95"	"0.776"	"2.004"	"12.415"	"196.12"	"144.596"	"60.038"	"309.542"	"8.479"	"36.965"	"12.499"
"1915"	"7.666"	"0.145"	"28.556"	"24.408"	"19.494"	"189.071"	"132.521"	"40.384"	"237.678"	"101.673"	"10.534"	"32.274"
"1916"	"0"	"0.169"	"5.768"	"0.727"	"31.555"	"118.847"	"289.042"	"118.545"	"350.15"	"119.802"	"56.121"	"0"
"1917"	"0.754"	"6.833"	"5.741"	"35.427"	"8.797"	"140.214"	"48.227"	"185.422"	"311.84"	"108.607"	"12.766"	"0"
"1918"	"0.251"	"0.938"	"0.839"	"0.02"	"80.996"	"85.315"	"50.052"	"47.444"	"44.336"	"2.543"	"39.082"	"9.508"
"1919"	"4.775"	"0.801"	"0.151"	"2.744"	"5.172"	"153.488"	"125.89"	"75.003"	"278.524"	"46.644"	"61.263"	"0.386"
"1920"	"12.281"	"1.989"	"0.034"	"2.99"	"1.817"	"67.506"	"75.537"	"42.066"	"79.173"	"1.616"	"0.3"	"0"
"1921"	"0.62"	"0"	"0"	"0.85"	"0.199"	"101.622"	"192.563"	"58.269"	"188.152"	"5.632"	"0.76"	"0"
"1922"	"10.81"	"2.229"	"0"	"6.54"	"19.025"	"153.285"	"112.8"	"24.9"	"149.467"	"15.446"	"117.588"	"13.797"
"1923"	"3.182"	"3.941"	"24.717"	"6.773"	"22.283"	"28.81"	"202.432"	"34.025"	"300.927"	"1.161"	"0.314"	"9.139"
"1924"	"2.273"	"0"	"0.467"	"7.88"	"0.829"	"69.048"	"130.614"	"145.803"	"183.186"	"108.08"	"6.747"	"19.597"
"1925"	"0"	"0"	"0.003"	"0"	"61.642"	"88.405"	"60.359"	"81.02"	"105.851"	"16.659"	"121.589"	"28.764"
"1926"	"18.554"	"1.14"	"0.034"	"15.302"	"15.577"	"79.389"	"196.497"	"164.685"	"96.829"	"0.505"	"3.875"	"5.484"
"1927"	"0"	"0.893"	"2.491"	"5.246"	"0.594"	"123.999"	"148.747"	"22.572"	"201.342"	"64.801"	"115.852"	"7.152"
"1928"	"0.009"	"7.73"	"1.051"	"1.312"	"0.256"	"124.729"	"139.761"	"95.502"	"350.959"	"114.415"	"5.821"	"30.025"
"1929"	"0.009"	"1.266"	"0.153"	"27.828"	"1.767"	"170.817"	"112.213"	"30.745"	"116.027"	"35.558"	"0.3"	"0.541"
"1930"	"0.009"	"0.585"	"0.066"	"0.005"	"19.727"	"87.985"	"55.168"	"64.179"	"294.454"	"59.029"	"24.899"	"0.46"
"1931"	"0.018"	"0.009"	"0.397"	"3.409"	"0.243"	"82.071"	"194.467"	"95.605"	"226.807"	"168.384"	"54.095"	"5.278"
"1932"	"0"	"1.022"	"5.309"	"18.416"	"8.475"	"70.933"	"211.456"	"83.357"	"125.057"	"72.291"	"54.482"	"1.538"
"1933"	"2.01"	"0.91"	"1.729"	"1.4"	"78.741"	"135.287"	"102.717"	"105.812"	"386.047"	"41.674"	"2.813"	"25.644"
"1934"	"0.971"	"0"	"0.003"	"1.661"	"1.105"	"81.227"	"195.019"	"172.142"	"215.875"	"8.171"	"101.472"	"2.089"
"1935"	"0.055"	"0"	"0"	"9.476"	"0.375"	"178.082"	"197.602"	"160.847"	"244.368"	"101.65"	"12.11"	"1.054"
"1936"	"0.934"	"3.992"	"7.905"	"2.512"	"78.927"	"85.923"	"56.211"	"36.078"	"165.988"	"1.148"	"183.418"	"0.02"
"1937"	"0"	"1.544"	"0.527"	"15.737"	"0.897"	"76.134"	"186.536"	"15.179"	"118.697"	"87.92"	"0.3"	"17.63"
"1938"	"0.04"	"0.017"	"1.814"	"9.687"	"57.421"	"166.623"	"299.821"	"100.733"	"285.121"	"120.948"	"0.306"	"0.049"
"1939"	"0.175"	"0"	"5.612"	"2.069"	"0.201"	"84.889"	"120.101"	"149.832"	"45.097"	"15.975"	"36.005"	"1.683"
"1940"	"0.158"	"5.51"	"1.183"	"18.699"	"28.506"	"145.017"	"119.674"	"93.616"	"228.679"	"89.774"	"30.511"	"20.21"
"1941"	"2.437"	"5.282"	"6.541"	"4.149"	"2.056"	"13.028"	"178.933"	"59.421"	"194.885"	"13.185"	"0.3"	"0"
"1942"	"0"	"3.938"	"0"	"1.604"	"1.045"	"119.93"	"160.188"	"174.711"	"129.641"	"4.121"	"0.301"	"40.756"
"1943"	"1.563"	"0"	"1.189"	"0.358"	"72.364"	"138.378"	"140.793"	"16.273"	"294.308"	"159.77"	"0.508"	"0"
"1944"	"0.038"	"1.435"	"11.59"	"0.03"	"2.19"	"83.823"	"233.504"	"175.308"	"163.045"	"71.323"	"7.443"	"0"
"1945"	"5.79"	"0"	"0"	"2.075"	"0.213"	"45.978"	"118.404"	"135.384"	"265.577"	"20.865"	"4.263"	"0.026"
"1946"	"0"	"3.86"	"0.051"	"9.64"	"10.996"	"177.389"	"139.619"	"74.613"	"226.117"	"1.559"	"81.78"	"19.532"
"1947"	"5.482"	"3.203"	"8.875"	"30.638"	"9.665"	"44.544"	"143.999"	"188.766"	"309.278"	"17.847"	"2.8"	"39.523"
"1948"	"7.739"	"1.823"	"0.901"	"2.298"	"0.528"	"221.752"	"169.947"	"80.441"	"112.977"	"16.771"	"148.115"	"0.036"
"1949"	"0"	"0"	"0.017"	"1.146"	"63.172"	"115.922"	"228.872"	"69.283"	"471.683"	"36.295"	"13.992"	"0"
"1950"	"0.009"	"0.055"	"1.742"	"2.176"	"18.745"	"43.127"	"146.737"	"53.161"	"293.27"	"29.314"	"0.49"	"12.788"
"1951"	"1.431"	"0"	"3.487"	"8.151"	"5.457"	"132.013"	"276.836"	"66.833"	"53.903"	"97.748"	"21.387"	"0"
"1952"	"0"	"1.664"	"0"	"0.113"	"16.462"	"133.97"	"115.098"	"48.574"	"106.222"	"28.439"	"0.3"	"4.515"
"1953"	"5.138"	"0"	"0"	"14.9"	"0.199"	"163.111"	"194.126"	"97.647"	"155.556"	"84.84"	"0.3"	"0"
"1954"	"4.099"	"0.743"	"13.024"	"7.894"	"3.375"	"151.44"	"235.78"	"94.658"	"280.095"	"12.941"	"0.3"	"3.6"
"1955"	"3.94"	"0"	"3.204"	"5.753"	"5.354"	"160.942"	"156.421"	"190.079"	"237.497"	"119.755"	"0.4"	"0"
"1956"	"0.613"	"0"	"0"	"6.518"	"93.854"	"116.83"	"194.127"	"64.818"	"310.971"	"82.442"	"55.373"	"20.473"
"1957"	"0.082"	"0"	"3.973"	"16.416"	"45.497"	"126.685"	"127.03"	"148.057"	"150.73"	"50.321"	"14.178"	"0"
"1958"	"0.396"	"0"	"1.408"	"5.41"	"6.216"	"84.578"	"192.598"	"268.978"	"108.862"	"70.688"	"101.963"	"0.487"
"1959"	"0.406"	"0"	"0"	"2.425"	"12.795"	"161.081"	"146.358"	"132.233"	"218.539"	"160.484"	"23.089"	"0"
"1960"	"2.797"	"0"	"2.035"	"0.664"	"82.694"	"79.262"	"111.445"	"93.609"	"256.936"	"79.387"	"13.983"	"0.009"
"1961"	"0.026"	"4.275"	"0.302"	"3.324"	"99.862"	"99.414"	"134.028"	"84.872"	"159.442"	"118.08"	"4.343"	"1.304"
"1962"	"0.105"	"0"	"11.672"	"6.664"	"69.331"	"52.416"	"158.053"	"117.811"	"255.173"	"9.17"	"38.268"	"57.789"
"1963"	"0.164"	"1.826"	"5.189"	"2.688"	"1.498"	"109.793"	"161.426"	"152.621"	"46.96"	"68.572"	"4.433"	"0.03"
"1964"	"0"	"0"	"4.745"	"8.917"	"4.504"	"107.539"	"149.177"	"100.046"	"216.862"	"21.652"	"15.475"	"0.029"
"1965"	"9.71"	"0.355"	"0.043"	"14.168"	"0.219"	"49.434"	"187.578"	"188.995"	"57.287"	"2.594"	"3.188"	"23.74"
"1966"	"5.737"	"0"	"1.992"	"0.373"	"50.76"	"66.554"	"207.855"	"51.325"	"198.015"	"0.62"	"104.053"	"20.711"
"1967"	"0"	"0.042"	"4.661"	"2.354"	"0.496"	"153.874"	"244.374"	"112.965"	"150.723"	"33.232"	"0.3"	"73.086"
"1968"	"0.028"	"4.062"	"13.758"	"6.797"	"0.233"	"50.275"	"190.191"	"125.347"	"194.769"	"47.414"	"37.701"	"0.018"
"1969"	"0.105"	"0"	"0"	"0.389"	"0.859"	"145.178"	"161.254"	"130.522"	"330.963"	"4.553"	"32.711"	"0.026"
"1970"	"0.144"	"0"	"0"	"14.667"	"18.228"	"198.734"	"63.125"	"256.916"	"185.203"	"32.497"	"0.3"	"0"
"1971"	"0"	"0.052"	"0"	"0.011"	"67.539"	"90.279"	"24.505"	"160.611"	"246.371"	"80.467"	"0.3"	"0"
"1972"	"0"	"0"	"0"	"1.67"	"1.738"	"92.067"	"46.642"	"64.633"	"85.643"	"0.85"	"76.095"	"0.006"
"1973"	"0"	"2.367"	"0"	"0.003"	"6.224"	"96.941"	"143.061"	"212.125"	"213.936"	"49.275"	"0.951"	"5.706"
"1974"	"0"	"0.708"	"6.654"	"5.93"	"54.675"	"72.911"	"144.287"	"137.868"	"127.589"	"102.52"	"0.3"	"0"
"1975"	"0.775"	"0.466"	"0"	"0"	"12.494"	"94.013"	"140.227"	"185.004"	"205.793"	"100.799"	"0.306"	"0"
"1976"	"0.014"	"0"	"3.037"	"1.929"	"0.82"	"127.358"	"170.373"	"147.488"	"78.583"	"0.648"	"98.692"	"8.282"
"1977"	"0"	"0"	"13.932"	"0.082"	"3.947"	"119.995"	"108.622"	"75.142"	"77.425"	"66.895"	"141.912"	"7.942"
"1978"	"4.053"	"11.137"	"13.49"	"10.705"	"12.811"	"122.359"	"147.885"	"106.69"	"98.313"	"39.155"	"49.116"	"5.018"
"1979"	"2.696"	"3.87"	"6.108"	"0.053"	"5.29"	"80.253"	"166.1"	"119.157"	"221.157"	"30.821"	"91.974"	"2.247"
"1980"	"0.228"	"0.291"	"1.151"	"4.275"	"4.005"	"210.03"	"97.885"	"167.705"	"63.169"	"0.508"	"3.887"	"4.943"
"1981"	"9.404"	"0.663"	"2.354"	"0.062"	"24.783"	"67.891"	"115.834"	"106.264"	"253.505"	"105.973"	"13.151"	"21.726"
"1982"	"5.13"	"0.467"	"0.586"	"4.981"	"37.522"	"57.667"	"155.005"	"35.337"	"108.382"	"34.456"	"49.679"	"0"
"1983"	"0.677"	"0"	"0"	"0.048"	"0.78"	"65.35"	"140.617"	"180.653"	"386.116"	"75.475"	"0.301"	"1.435"
"1984"	"2.276"	"3.189"	"0.052"	"0.006"	"0.202"	"57.28"	"171.398"	"42.266"	"134.95"	"187.643"	"1.262"	"0.118"
"1985"	"4.653"	"0"	"0.034"	"15.333"	"2.814"	"116.699"	"131.007"	"110.33"	"71.962"	"122.094"	"64.908"	"0.023"
"1986"	"0.048"	"5.145"	"0"	"2.715"	"10.376"	"163.358"	"163.644"	"125.677"	"74.605"	"5.42"	"1.264"	"30.938"
"1987"	"17.515"	"4.673"	"1.604"	"0.892"	"49.637"	"110.891"	"60"	"134.385"	"44.528"	"89.383"	"38.123"	"37.019"
"1988"	"0"	"0"	"0"	"16.261"	"18.491"	"82.742"	"246.913"	"109.288"	"328.517"	"70.687"	"3.751"	"0.03"
"1989"	"0"	"0"	"19.566"	"5.553"	"22.586"	"140.698"	"100.901"	"91.557"	"187.799"	"7.292"	"0.303"	"7.887"
"1990"	"0.051"	"1.089"	"0.029"	"0"	"82.417"	"120.09"	"174.345"	"190.224"	"74.179"	"82.983"	"24.027"	"8.983"
"1991"	"0.003"	"0.68"	"1.283"	"11.956"	"9.063"	"160.086"	"156.388"	"62.942"	"73.903"	"0.84"	"18.313"	"0"
"1992"	"0"	"0"	"0"	"0.637"	"28.264"	"65.557"	"81.429"	"148.336"	"251.802"	"38.66"	"1.835"	"0"
"1993"	"0"	"0.896"	"2.63"	"0.247"	"2.857"	"74.348"	"169.093"	"76.509"	"136.389"	"138.939"	"4.168"	"34.369"
"1994"	"7.708"	"0.831"	"4.408"	"15.472"	"15.793"	"213.55"	"172.771"	"100.074"	"155.584"	"51.465"	"13.292"	"0"
"1995"	"7.238"	"0"	"8.773"	"9.17"	"29.956"	"68.529"	"226.095"	"43.945"	"235.96"	"49.134"	"0.695"	"0"
"1996"	"2.453"	"1.599"	"2.261"	"2.174"	"7.438"	"91.956"	"211.32"	"102.49"	"224.057"	"135.449"	"3.141"	"0"
"1997"	"10.647"	"0"	"2.118"	"16.664"	"3.308"	"173.255"	"143.606"	"177.972"	"41.28"	"26.394"	"123.125"	"32.961"
"1998"	"1.098"	"1.057"	"2.218"	"0.41"	"10.62"	"65.81"	"151.874"	"123.437"	"300.989"	"52.316"	"64.21"	"0"
"1999"	"0"	"5.917"	"0"	"0.008"	"41.288"	"156.561"	"97.13"	"77.208"	"248.182"	"128.323"	"0.3"	"0.728"
"2000"	"0"	"0.547"	"0"	"0.014"	"26.111"	"110.986"	"117.923"	"79.066"	"77.284"	"19.89"	"8.86"	"6.671"
"2001"	"3.273"	"0"	"6.701"	"1.897"	"13.211"	"124.162"	"69.595"	"73.019"	"68.796"	"65.934"	"13.576"	"0"
"2002"	"2.935"	"2.06"	"3.018"	"23.699"	"5.642"	"180.658"	"23.734"	"125.241"	"111.635"	"20.206"	"3.439"	"0"
