
"Year"	"Jan"	"Feb"	"Mar"	"Apr"	"May"	"Jun"	"Jul"	"Aug"	"Sep"	"Oct"	"Nov"	"Dec"
"1901"	"19.504"	"20.51"	"26.942"	"30.629"	"32.996"	"32.378"	"28.655"	"26.365"	"27.343"	"27.841"	"23.425"	"21.567"
"1902"	"21.842"	"23.359"	"28.405"	"31.498"	"33.146"	"31.933"	"28.81"	"27.95"	"26.843"	"26.623"	"22.083"	"20.064"
"1903"	"20.688"	"20.845"	"24.999"	"29.64"	"32.161"	"32.132"	"28.605"	"27.129"	"26.637"	"25.945"	"21.005"	"19.627"
"1904"	"21.043"	"21.756"	"25.369"	"31.205"	"33.028"	"30.316"	"27.347"	"27.024"	"27.13"	"26.99"	"22.362"	"20.986"
"1905"	"19.688"	"19.341"	"24.716"	"28.681"	"34.226"	"31.834"	"27.346"	"27.339"	"27.022"	"26.773"	"23.729"	"20.36"
"1906"	"19.138"	"20.615"	"25.941"	"30.736"	"33.589"	"30.012"	"27.3"	"27.034"	"26.08"	"25.929"	"23.465"	"20.826"
"1907"	"21.022"	"21.937"	"25.698"	"29.091"	"31.572"	"31.282"	"29.267"	"25.777"	"26.856"	"27.703"	"24.037"	"19.473"
"1908"	"19.922"	"21.46"	"25.134"	"31.384"	"32.43"	"31.014"	"26.699"	"26.337"	"27.084"	"26.728"	"22.928"	"19.574"
"1909"	"20.949"	"22.351"	"27.636"	"29.54"	"32.911"	"30.175"	"27.07"	"26.633"	"26.432"	"25.93"	"22.96"	"20.768"
"1910"	"20.596"	"22.058"	"26.586"	"30.275"	"32.428"	"29.555"	"27.151"	"27.041"	"26.685"	"25.132"	"20.98"	"20.576"
"1911"	"22.071"	"21.746"	"24.937"	"30.029"	"33.482"	"29.625"	"28.559"	"27.028"	"26.499"	"27.621"	"23.858"	"22.414"
"1912"	"21.486"	"23.643"	"26.343"	"31.179"	"33.383"	"32.679"	"28.25"	"26.622"	"26.894"	"26.768"	"22.175"	"20.164"
"1913"	"19.999"	"22.782"	"25.19"	"31.593"	"32.178"	"29.631"	"27.396"	"26.279"	"27.286"	"27.571"	"23.566"	"21.366"
"1914"	"22.046"	"22.551"	"25.748"	"30.395"	"33.622"	"30.214"	"27.403"	"27.147"	"27.395"	"26.882"	"24.468"	"20.815"
"1915"	"21.126"	"21.443"	"26.644"	"30.417"	"33.523"	"33.183"	"29.362"	"27.184"	"28.089"	"27.293"	"24.078"	"20.878"
"1916"	"20.971"	"21.54"	"28.195"	"31.74"	"33.665"	"29.001"	"28.632"	"26.928"	"27.682"	"26.284"	"22.072"	"20.127"
"1917"	"21.386"	"21.988"	"26.302"	"29.285"	"30.867"	"29.512"	"27.137"	"27.171"	"26.775"	"25.58"	"21.22"	"20.525"
"1918"	"19.23"	"22.989"	"26.401"	"29.371"	"33.09"	"30.097"	"28.996"	"27.169"	"27.251"	"27.611"	"24.904"	"20.706"
"1919"	"21.68"	"22.351"	"27.389"	"30.568"	"32.843"	"30.059"	"27.293"	"26.731"	"27.287"	"26.171"	"24.234"	"20.569"
"1920"	"21.317"	"21.835"	"27.191"	"30.374"	"30.623"	"30.772"	"26.962"	"26.653"	"27.846"	"27.559"	"23.91"	"21.381"
"1921"	"21.389"	"22.19"	"28.443"	"32.225"	"33.381"	"30.851"	"29.153"	"26.938"	"26.135"	"26.271"	"22.206"	"21.835"
"1922"	"20.227"	"23.85"	"27.398"	"31.331"	"33.176"	"30.654"	"27.215"	"26.792"	"26.687"	"26.364"	"22.508"	"19.456"
"1923"	"20.989"	"21.318"	"27.197"	"30.586"	"32.234"	"32.876"	"27.662"	"26.23"	"27.096"	"25.923"	"22.814"	"22.165"
"1924"	"21.382"	"23.296"	"28.591"	"31.842"	"32.524"	"31.775"	"27.938"	"27.171"	"26.986"	"25.118"	"21.179"	"20.769"
"1925"	"18.562"	"20.975"	"27.089"	"32.232"	"31.973"	"29.223"	"27.143"	"27.424"	"27.794"	"28.248"	"24.259"	"20.91"
"1926"	"21.72"	"24.287"	"26.901"	"28.595"	"32.867"	"33.483"	"28.358"	"26.973"	"27.134"	"27.068"	"22.11"	"20.308"
"1927"	"20.083"	"21.517"	"26.035"	"30.337"	"32.225"	"30.59"	"26.942"	"26.235"	"26.991"	"26.366"	"20.51"	"20.978"
"1928"	"20.573"	"22.191"	"26.343"	"30.173"	"32.878"	"30.561"	"26.937"	"26.336"	"26.696"	"26.471"	"23.577"	"20.021"
"1929"	"19.67"	"21.488"	"27.793"	"30.632"	"33.123"	"30.221"	"27.304"	"26.347"	"27.281"	"26.275"	"23.949"	"20.358"
"1930"	"20.994"	"20.905"	"27.255"	"30.245"	"32.928"	"30.985"	"26.412"	"26.232"	"27.294"	"27.436"	"21.921"	"21.275"
"1931"	"22.091"	"22.365"	"26.007"	"31.637"	"33.23"	"32.559"	"27.914"	"26.737"	"26.685"	"25.636"	"22.455"	"20.683"
"1932"	"21.801"	"20.898"	"25.894"	"29.834"	"33.077"	"30.782"	"26.998"	"27.071"	"27.135"	"27.186"	"22.475"	"21.084"
"1933"	"20.588"	"22.915"	"27.022"	"30.179"	"30.974"	"29.761"	"27.472"	"26.432"	"26.432"	"25.832"	"23.156"	"20.33"
"1934"	"19.373"	"22.944"	"26.049"	"30.78"	"32.441"	"30.982"	"27.062"	"26.285"	"26.035"	"25.522"	"22.019"	"20.93"
"1935"	"19.024"	"22.203"	"25.707"	"28.434"	"32.862"	"30.967"	"26.985"	"26.369"	"26.134"	"26.191"	"22.785"	"20.985"
"1936"	"19.99"	"22.06"	"26.203"	"29.472"	"33.419"	"29.211"	"27.419"	"26.82"	"26.971"	"26.364"	"23.519"	"20.02"
"1937"	"19.132"	"22.96"	"25.397"	"29.714"	"32.527"	"30.878"	"26.553"	"26.48"	"26.689"	"25.939"	"23.785"	"20.088"
"1938"	"22.035"	"20.647"	"28.206"	"31.087"	"32.596"	"27.522"	"26.696"	"27.041"	"27.464"	"26.149"	"21.865"	"20.782"
"1939"	"21.54"	"23.258"	"25.144"	"29.684"	"32.285"	"30.721"	"27.358"	"27.428"	"26.374"	"26.73"	"22.181"	"19.931"
"1940"	"20.791"	"22.801"	"24.645"	"29.881"	"32.927"	"30.721"	"26.896"	"26.239"	"26.897"	"26.431"	"22.808"	"20.278"
"1941"	"19.982"	"22.889"	"27.499"	"31.382"	"33.083"	"31.673"	"27.092"	"26.879"	"27.382"	"27.584"	"23.448"	"22.17"
"1942"	"19.979"	"22.797"	"27.497"	"31.985"	"33.074"	"31.813"	"26.551"	"26.577"	"26.272"	"26.269"	"22.211"	"20.312"
"1943"	"21.425"	"21.581"	"26.99"	"30.086"	"33.432"	"29.326"	"26.498"	"25.836"	"26.68"	"25.681"	"23.658"	"19.634"
"1944"	"20.233"	"21.718"	"25.846"	"29.687"	"33.116"	"30.61"	"26.946"	"26.275"	"27.135"	"25.523"	"22.997"	"22.078"
"1945"	"19.328"	"20.992"	"26.446"	"29.489"	"32.387"	"31.321"	"26.645"	"26.986"	"26.584"	"26.133"	"21.621"	"18.98"
"1946"	"20.53"	"23.594"	"26.495"	"31.792"	"32.175"	"29.521"	"26.852"	"25.973"	"26.69"	"26.96"	"20.586"	"22.512"
"1947"	"20.118"	"22.771"	"26.892"	"29.891"	"32.977"	"31.281"	"27.31"	"27.715"	"26.482"	"25.276"	"23.22"	"21.469"
"1948"	"21.272"	"22.284"	"27.089"	"31.777"	"33.801"	"30.458"	"27.469"	"26.577"	"26.438"	"27.594"	"23.905"	"20.071"
"1949"	"22.177"	"22.246"	"27.405"	"31.242"	"33.235"	"30.064"	"27.896"	"27.388"	"26.827"	"26.743"	"22.569"	"20.345"
"1950"	"21.394"	"20.756"	"26.002"	"30.297"	"32.425"	"31.225"	"27.141"	"27.09"	"26.643"	"25.663"	"21.085"	"19.908"
"1951"	"19.771"	"21.846"	"26.85"	"29.223"	"32.64"	"30.877"	"28.322"	"26.476"	"28.309"	"28.736"	"24.696"	"20.169"
"1952"	"21.366"	"24.061"	"26.125"	"31.66"	"33.391"	"30.628"	"27.576"	"26.033"	"27.294"	"27.28"	"22.593"	"22.774"
"1953"	"20.434"	"24.814"	"29.214"	"31.187"	"32.605"	"30.936"	"27.598"	"26.339"	"27.154"	"26.316"	"22.764"	"21.618"
"1954"	"19.778"	"23.577"	"27.038"	"31.022"	"33.643"	"30.984"	"27.608"	"27.142"	"25.39"	"24.915"	"22.869"	"20.869"
"1955"	"21.715"	"22.967"	"28.276"	"28.928"	"32.55"	"30.114"	"28.02"	"26.336"	"26.521"	"25.647"	"21.414"	"20.409"
"1956"	"21.296"	"22.619"	"27.81"	"31.097"	"32.535"	"29.368"	"26.094"	"26.03"	"26.589"	"25.82"	"22.351"	"21.071"
"1957"	"20.584"	"20.849"	"25.47"	"30.439"	"32.176"	"31.37"	"27.622"	"26.793"	"26.709"	"27.095"	"25.026"	"22.723"
"1958"	"22.03"	"22.704"	"27.361"	"31.934"	"33.386"	"31.882"	"27.313"	"27.407"	"26.373"	"26.422"	"23.664"	"21.554"
"1959"	"21.22"	"22.64"	"27.81"	"31.069"	"33.273"	"30.836"	"26.446"	"26.088"	"26.425"	"26.529"	"23.462"	"21.71"
"1960"	"19.53"	"24.042"	"25.836"	"30.438"	"32.318"	"30.309"	"28.013"	"25.822"	"27.487"	"26.587"	"23.165"	"22.921"
"1961"	"21.328"	"20.945"	"28.245"	"30.892"	"32.844"	"29.968"	"27.007"	"26.83"	"25.628"	"25.43"	"23.47"	"19.959"
"1962"	"19.171"	"22.688"	"26.637"	"30.529"	"33.171"	"31.215"	"27.69"	"26.942"	"26.584"	"25.28"	"23.623"	"21.266"
"1963"	"20.454"	"24.008"	"26.756"	"29.651"	"32.323"	"30.675"	"27.716"	"26.331"	"26.538"	"26.542"	"24.741"	"21.566"
"1964"	"19.485"	"22.509"	"28.305"	"32.126"	"32.428"	"30.522"	"27.308"	"26.535"	"26.898"	"27.137"	"22.472"	"21.071"
"1965"	"21.981"	"22.558"	"26.412"	"30.335"	"33.593"	"31.528"	"28.197"	"27.588"	"27.223"	"27.977"	"24.509"	"21.561"
"1966"	"21.22"	"24.497"	"26.486"	"30.859"	"31.959"	"31.433"	"29.058"	"26.788"	"26.937"	"28.189"	"25.127"	"21.417"
"1967"	"19.92"	"24.406"	"26.694"	"30.117"	"32.755"	"30.076"	"27.712"	"26.277"	"26.392"	"27.139"	"24.332"	"22.807"
"1968"	"19.686"	"21.34"	"26.1"	"30.327"	"31.825"	"31.757"	"27.592"	"25.879"	"28.178"	"26.441"	"23.123"	"21.116"
"1969"	"21.038"	"23.511"	"29.018"	"31.639"	"33.224"	"31.279"	"27.749"	"26.318"	"26.683"	"27.383"	"25.414"	"21.524"
"1970"	"21.124"	"23.003"	"26.859"	"31.932"	"33.738"	"29.148"	"27.809"	"26.929"	"26.572"	"27.221"	"22.278"	"20.385"
"1971"	"20.121"	"22.592"	"26.788"	"32.147"	"32.16"	"29.105"	"26.697"	"26.444"	"27.281"	"25.938"	"22.567"	"19.777"
"1972"	"20.713"	"20.739"	"28.167"	"30.234"	"32.983"	"31.469"	"28.168"	"26.728"	"27.136"	"27.847"	"23.534"	"21.748"
"1973"	"20.655"	"23.678"	"27.465"	"32.997"	"34.297"	"30.96"	"26.429"	"26.33"	"25.881"	"26.321"	"23.134"	"21.483"
"1974"	"20.421"	"22.198"	"28.812"	"31.831"	"32.315"	"31.257"	"28.08"	"26.828"	"28.251"	"26.858"	"22.225"	"20.276"
"1975"	"19.38"	"22.118"	"26.144"	"31.549"	"32.98"	"30.474"	"27.404"	"26.725"	"26.766"	"27.028"	"21.956"	"20.458"
"1976"	"21.021"	"23.239"	"27.632"	"30.589"	"32.336"	"29.15"	"27.79"	"26.466"	"26.743"	"27.839"	"26.248"	"22.469"
"1977"	"20.625"	"23.745"	"29.308"	"31.146"	"32.209"	"30.566"	"27.705"	"26.772"	"26.578"	"28.001"	"25.296"	"21.664"
"1978"	"20.171"	"22.309"	"25.859"	"31.253"	"33.59"	"30.016"	"26.981"	"26.188"	"27.352"	"27.282"	"25.038"	"21.007"
"1979"	"22.372"	"21.458"	"26.045"	"31.223"	"32.145"	"31.766"	"28.116"	"26.284"	"28.445"	"28.234"	"25.523"	"21.92"
"1980"	"21.578"	"23.31"	"27.452"	"32.336"	"33.737"	"28.875"	"27.206"	"26.716"	"27.842"	"28.39"	"25.187"	"21.087"
"1981"	"19.933"	"23.655"	"27.262"	"31.343"	"32.978"	"32.061"	"27.251"	"26.278"	"27.55"	"27.311"	"22.574"	"20.923"
"1982"	"21.49"	"22.037"	"25.796"	"30.039"	"31.642"	"31.561"	"28.75"	"26.735"	"27.599"	"28.17"	"24.031"	"22.736"
"1983"	"20.545"	"21.408"	"26.305"	"29.096"	"33.055"	"31.676"	"28.544"	"27.423"	"27.537"	"25.968"	"22.068"	"20.524"
"1984"	"20.093"	"20.866"	"28.274"	"31.547"	"33.669"	"30.765"	"27.658"	"25.865"	"26.478"	"26.773"	"23.279"	"21.883"
"1985"	"21.097"	"22.494"	"28.96"	"30.993"	"33.472"	"30.918"	"28.301"	"26.525"	"27.649"	"25.484"	"23.534"	"22.349"
"1986"	"21.447"	"22.963"	"27.557"	"31.536"	"32.846"	"30.909"	"27.194"	"26.23"	"28.056"	"27.57"	"24.685"	"20.646"
"1987"	"21.638"	"23.76"	"27.844"	"31.293"	"32.345"	"31.676"	"29.317"	"28.086"	"28.545"	"28.041"	"24.68"	"21.423"
"1988"	"22.58"	"24.466"	"27.312"	"32.09"	"33.938"	"31.218"	"27.578"	"27.369"	"28.39"	"26.578"	"23.531"	"21.436"
"1989"	"20.578"	"23.14"	"26.486"	"30.487"	"33.434"	"29.856"	"27.943"	"26.532"	"27.878"	"27.487"	"25.235"	"21.413"
"1990"	"23.071"	"23.241"	"26.097"	"31.086"	"32.154"	"29.651"	"26.883"	"26.918"	"26.897"	"27.213"	"24.41"	"21.877"
"1991"	"20.134"	"23.37"	"27.463"	"30.675"	"33.72"	"31.367"	"27.694"	"26.82"	"27.253"	"27.333"	"24.409"	"21.295"
"1992"	"21.375"	"21.793"	"27.558"	"30.854"	"32.979"	"32.522"	"29.305"	"26.93"	"26.763"	"27.091"	"23.98"	"21.819"
"1993"	"21.948"	"23.19"	"26.667"	"30.452"	"33.684"	"31.781"	"27.789"	"27.38"	"27.096"	"27.877"	"24.621"	"21.71"
"1994"	"22.269"	"22.037"	"27.421"	"30.317"	"33.742"	"29.812"	"26.781"	"26.326"	"26.174"	"27.285"	"23.988"	"21.191"
"1995"	"19.423"	"22.887"	"26.733"	"30.982"	"33.206"	"33.413"	"28.498"	"27.717"	"28.146"	"28.387"	"24.237"	"22.518"
"1996"	"22.461"	"24.315"	"29.163"	"31.188"	"33.283"	"32.112"	"28.622"	"26.823"	"27.579"	"26.771"	"24.264"	"21.713"
"1997"	"20.716"	"22.302"	"27.994"	"29.766"	"31.976"	"30.01"	"27.751"	"26.977"	"27.475"	"27.315"	"26.351"	"22.007"
"1998"	"21.313"	"22.944"	"27.245"	"32.286"	"34.535"	"32.288"	"28.011"	"27.94"	"27.827"	"28.506"	"24.866"	"22.012"
"1999"	"20.974"	"24.196"	"28.295"	"32.338"	"33.121"	"30.154"	"27.795"	"27.029"	"27.339"	"27.086"	"23.695"	"21.121"
"2000"	"21.872"	"21.808"	"27.03"	"33.039"	"31.584"	"30.317"	"26.805"	"27.877"	"27.599"	"28.526"	"25.668"	"22.379"
"2001"	"21.223"	"24.294"	"27.426"	"31.061"	"32.332"	"29.047"	"26.461"	"26.741"	"28.306"	"27.531"	"24.422"	"22.491"
"2002"	"20.159"	"23.499"	"27.851"	"31.985"	"33.542"	"30.317"	"28.35"	"26.073"	"26.93"	"28.114"	"24.916"	"23.279"
