
"Year"	"Jan"	"Feb"	"Mar"	"Apr"	"May"	"Jun"	"Jul"	"Aug"	"Sep"	"Oct"	"Nov"	"Dec"
"1901"	"13.412"	"16.819"	"24.121"	"29.659"	"34.067"	"36.772"	"32.266"	"28.48"	"29.171"	"27.955"	"21.317"	"16.343"
"1902"	"16.509"	"19.137"	"26.45"	"30.757"	"34.509"	"34.72"	"30.002"	"29.75"	"28.19"	"26.398"	"20.161"	"14.733"
"1903"	"15.374"	"17.288"	"23.244"	"28.849"	"33.141"	"36.588"	"32.415"	"28.644"	"28.944"	"25.266"	"19.514"	"14.499"
"1904"	"15.078"	"18.03"	"23.485"	"30.703"	"33.365"	"34.877"	"28.534"	"27.513"	"27.848"	"26.127"	"19.832"	"15.634"
"1905"	"13.648"	"13.485"	"21.031"	"27.576"	"34.725"	"36.764"	"30.933"	"29.207"	"29.773"	"26.767"	"22.068"	"15.753"
"1906"	"14.423"	"16.488"	"22.131"	"29.924"	"36.085"	"34.119"	"30.212"	"28.853"	"27.637"	"26.283"	"21.411"	"16.178"
"1907"	"16.506"	"16.458"	"21.642"	"27.764"	"32.547"	"35.319"	"33.059"	"28.077"	"29.517"	"27.085"	"21.187"	"14.299"
"1908"	"14.191"	"18.062"	"23.391"	"31.056"	"34.007"	"36.059"	"28.976"	"27.796"	"28.486"	"25.819"	"20.192"	"14.588"
"1909"	"14.852"	"16.919"	"24.149"	"27.774"	"32.995"	"32.821"	"28.826"	"28.248"	"27.929"	"26.154"	"21.756"	"14.789"
"1910"	"14.294"	"18.115"	"24.059"	"29.313"	"34.256"	"33.857"	"30.444"	"28.787"	"28.431"	"24.852"	"19.547"	"15.156"
"1911"	"16.887"	"18.198"	"22.055"	"29.758"	"35.544"	"34.74"	"31.508"	"28.914"	"27.537"	"26.56"	"19.087"	"15.009"
"1912"	"15.673"	"18.917"	"23.159"	"29.95"	"34.656"	"36.62"	"31.153"	"28.82"	"27.412"	"26.157"	"19.622"	"14.941"
"1913"	"15.371"	"17.893"	"21.957"	"31.168"	"32.359"	"32.699"	"30.565"	"29.942"	"30.3"	"27.825"	"20.725"	"15.615"
"1914"	"17.066"	"18.294"	"23.49"	"30.53"	"34.299"	"34.297"	"29.896"	"28.54"	"28.945"	"25.793"	"21.489"	"14.847"
"1915"	"15.094"	"16.188"	"23.209"	"29.283"	"35.821"	"35.548"	"32.085"	"29.328"	"29.892"	"27.882"	"20.786"	"16.083"
"1916"	"15.637"	"17.401"	"26.259"	"31.383"	"34.249"	"32.912"	"30.594"	"28.139"	"28.385"	"25.403"	"18.616"	"14.198"
"1917"	"15.437"	"17.747"	"23.207"	"27.094"	"30.325"	"33.467"	"29.315"	"27.997"	"27.678"	"24.998"	"17.929"	"15.394"
"1918"	"13.915"	"18.163"	"23.705"	"28.216"	"35.634"	"34.183"	"33.165"	"30.348"	"29.662"	"27.12"	"20.942"	"14.582"
"1919"	"15.218"	"16.852"	"24.302"	"29.309"	"33.551"	"36.11"	"29.061"	"27.928"	"28.411"	"25.659"	"20.179"	"14.798"
"1920"	"14.983"	"17.562"	"24.261"	"29.753"	"31.335"	"33.792"	"29.208"	"29.103"	"30.278"	"28.112"	"22.16"	"16.268"
"1921"	"16.258"	"18.743"	"26.585"	"32.583"	"36.559"	"35.384"	"32.691"	"28.131"	"27.621"	"25.72"	"20.339"	"17.197"
"1922"	"14.921"	"19.401"	"25.283"	"30.774"	"34.672"	"34.042"	"29.935"	"27.705"	"27.649"	"25.807"	"20.218"	"14.93"
"1923"	"14.873"	"17.45"	"24.449"	"30.657"	"33.725"	"37.44"	"31.1"	"27.864"	"28.583"	"25.322"	"20.379"	"15.474"
"1924"	"14.132"	"17.573"	"25.23"	"30.632"	"32.17"	"36.634"	"29.902"	"28.328"	"28.013"	"25.243"	"19.844"	"15.279"
"1925"	"13.135"	"16.011"	"23.788"	"31.465"	"32.981"	"31.531"	"28.133"	"29.389"	"29.251"	"26.679"	"19.63"	"14.798"
"1926"	"15.184"	"19.115"	"22.694"	"26.874"	"32.1"	"36.563"	"31.013"	"28.441"	"27.678"	"24.709"	"18.225"	"14.065"
"1927"	"12.971"	"16.164"	"22.187"	"28.959"	"33.213"	"34.919"	"29.911"	"27.904"	"28.394"	"25.956"	"19.369"	"16.243"
"1928"	"14.61"	"18.094"	"24.126"	"29.504"	"35.166"	"34.549"	"30.384"	"30.2"	"29.802"	"26.966"	"21.693"	"15.044"
"1929"	"14.717"	"16.335"	"25.446"	"30.613"	"34.977"	"34.697"	"29.864"	"27.883"	"29.852"	"26.303"	"21.182"	"14.733"
"1930"	"14.738"	"17.6"	"25.083"	"29.677"	"33.928"	"34.465"	"28.738"	"28.141"	"28.985"	"26.736"	"20.129"	"15.369"
"1931"	"16.686"	"16.9"	"23.36"	"31.325"	"34.445"	"35.886"	"31.218"	"29.17"	"28.092"	"25.143"	"19.983"	"15.74"
"1932"	"17.508"	"17.1"	"24.183"	"29.364"	"33.413"	"36.232"	"31.433"	"28.354"	"28.552"	"26.044"	"19.534"	"15.123"
"1933"	"13.107"	"18.255"	"24.337"	"28.215"	"31.291"	"33.605"	"29.66"	"27.961"	"27.476"	"25.115"	"19.98"	"15.199"
"1934"	"13.677"	"18.48"	"22.562"	"29.434"	"33.446"	"33.544"	"29.712"	"27.943"	"28.069"	"23.818"	"19.294"	"16.073"
"1935"	"13.405"	"18.137"	"23.793"	"27.154"	"34.236"	"36.061"	"29.886"	"28.14"	"28.308"	"25.216"	"20.982"	"15.388"
"1936"	"13.462"	"18.013"	"23.782"	"29.437"	"35.582"	"32.758"	"29.385"	"28.141"	"28.081"	"25.669"	"20.798"	"15.419"
"1937"	"13.875"	"18.447"	"22.211"	"28.454"	"33.943"	"35.479"	"30.348"	"29.492"	"28.768"	"25.585"	"21.203"	"14.575"
"1938"	"14.774"	"16.436"	"25.547"	"31.037"	"35.781"	"32.49"	"30.384"	"28.98"	"29.731"	"26.706"	"19.517"	"15.106"
"1939"	"16.095"	"18.482"	"21.854"	"28.707"	"35.205"	"33.512"	"29.857"	"29.936"	"28.171"	"26.867"	"19.997"	"15.235"
"1940"	"14.995"	"17.266"	"22.274"	"28.523"	"34.642"	"35.481"	"31.28"	"28.154"	"28.325"	"26.07"	"21.556"	"15.221"
"1941"	"14.477"	"18.537"	"25.997"	"32.097"	"35.361"	"34.054"	"32.354"	"29.798"	"29.573"	"28.737"	"21.234"	"17.092"
"1942"	"13.617"	"18.964"	"25.441"	"31.462"	"35.338"	"36.204"	"29.449"	"28.032"	"27.603"	"25.925"	"21.462"	"15.004"
"1943"	"16.065"	"17.69"	"24.852"	"28.54"	"34.404"	"34.091"	"30.13"	"27.536"	"28.631"	"25.691"	"21.966"	"16.463"
"1944"	"14.517"	"17.618"	"22.496"	"28.734"	"35.267"	"33.702"	"29.842"	"29.153"	"28.735"	"25.25"	"21.296"	"16.881"
"1945"	"13.296"	"17.395"	"24.983"	"28.953"	"34.036"	"35.4"	"30.667"	"29.227"	"28.082"	"25.25"	"20.346"	"14.315"
"1946"	"15.622"	"19.92"	"23.941"	"31.676"	"34.448"	"34.117"	"29.896"	"28.593"	"29.054"	"26.703"	"20.274"	"16.315"
"1947"	"13.611"	"19.117"	"25.413"	"31.222"	"35.053"	"35.781"	"30.508"	"29.086"	"28.154"	"24.609"	"21.546"	"16.172"
"1948"	"15.052"	"17.421"	"22.932"	"31.352"	"35.61"	"36.193"	"30.658"	"28.575"	"28.314"	"26.75"	"20.038"	"15.865"
"1949"	"16.597"	"18.738"	"24.757"	"31.267"	"35.297"	"35.351"	"30.333"	"28.726"	"28.811"	"25.948"	"19.333"	"14.734"
"1950"	"15.998"	"16.803"	"22.764"	"28.841"	"34.563"	"35.424"	"30.172"	"28.521"	"28.109"	"25.562"	"19.719"	"14.2"
"1951"	"13.936"	"17.496"	"23.67"	"27.879"	"34.14"	"34.785"	"31.913"	"28.849"	"28.413"	"29.002"	"22.276"	"15.548"
"1952"	"16.352"	"20.51"	"23.99"	"31.665"	"35.444"	"33.116"	"29.927"	"27.956"	"29.421"	"26.908"	"20.723"	"16.186"
"1953"	"13.601"	"19.34"	"27.323"	"31.199"	"35.631"	"36.463"	"30.754"	"28.526"	"28.614"	"26.106"	"20.09"	"17.435"
"1954"	"13.552"	"19.631"	"24.21"	"30.98"	"35.908"	"35.83"	"30.925"	"29.135"	"28.005"	"24.122"	"21.091"	"15.203"
"1955"	"14.673"	"18.281"	"26.23"	"28.647"	"33.767"	"35.283"	"30.478"	"28.34"	"28.481"	"24.666"	"19.718"	"15.79"
"1956"	"15.251"	"18.311"	"24.649"	"30.764"	"35.395"	"33.911"	"28.721"	"28.128"	"28.88"	"25.059"	"19.342"	"16.134"
"1957"	"14.668"	"17.086"	"22.784"	"29.147"	"32.984"	"34.034"	"30.111"	"29.349"	"27.519"	"26.117"	"22.071"	"16.605"
"1958"	"17.317"	"19.3"	"25.425"	"32.183"	"34.754"	"35.527"	"29.901"	"28.663"	"27.919"	"25.541"	"20.784"	"17.228"
"1959"	"15.407"	"18.103"	"25.629"	"30.54"	"33.753"	"35.15"	"29.632"	"28.557"	"28.651"	"26.876"	"21.181"	"17.039"
"1960"	"14.953"	"21.202"	"24.435"	"29.825"	"34.366"	"35.886"	"30.239"	"28.063"	"28.828"	"25.545"	"20.081"	"16.61"
"1961"	"15.409"	"16.536"	"24.661"	"29.353"	"33.972"	"33.66"	"29.371"	"27.85"	"28.1"	"25.026"	"19.809"	"13.606"
"1962"	"14.131"	"18.512"	"23.607"	"30.303"	"33.77"	"35.216"	"30.805"	"28.61"	"27.645"	"24.398"	"21.022"	"16.734"
"1963"	"14.486"	"19.833"	"23.934"	"28.916"	"32.926"	"33.77"	"30.585"	"27.868"	"27.424"	"26.7"	"23.064"	"16.178"
"1964"	"14.3"	"18.315"	"26.175"	"31.257"	"32.695"	"34.751"	"29.303"	"29.166"	"27.885"	"26.181"	"19.989"	"16.533"
"1965"	"17.121"	"18.488"	"23.631"	"28.458"	"33.235"	"36.01"	"30.517"	"29.44"	"28.098"	"26.717"	"21.962"	"16.039"
"1966"	"16.195"	"21.034"	"24.074"	"30.117"	"33.9"	"33.031"	"31.779"	"28.154"	"29.062"	"27.59"	"22.043"	"15.49"
"1967"	"14.358"	"20.405"	"23.11"	"29.491"	"34.293"	"34.666"	"29.625"	"27.109"	"26.81"	"26.155"	"21.263"	"16.53"
"1968"	"14.381"	"16.964"	"24.319"	"29.196"	"32.909"	"34.237"	"28.789"	"27.884"	"28.841"	"25.67"	"21.29"	"16.49"
"1969"	"15.515"	"19.205"	"26.757"	"29.961"	"32.964"	"35.414"	"29.343"	"27.81"	"27.676"	"27.455"	"22.176"	"16.209"
"1970"	"15.815"	"17.56"	"24.02"	"32.006"	"34.536"	"32.712"	"30.875"	"28.597"	"27.979"	"26.412"	"20.465"	"16.476"
"1971"	"13.779"	"18.555"	"23.708"	"30.501"	"32.527"	"30.843"	"27.922"	"27.178"	"27.618"	"25.984"	"20.199"	"16.09"
"1972"	"14.913"	"16.294"	"24.946"	"29.99"	"35.381"	"36.278"	"32.309"	"27.548"	"27.079"	"25.657"	"21.412"	"16.25"
"1973"	"15.456"	"19.386"	"23.97"	"32.43"	"36.003"	"35.352"	"29.963"	"28.072"	"28.048"	"25.605"	"20.209"	"14.884"
"1974"	"14.56"	"16.821"	"25.582"	"32.3"	"34.234"	"34.333"	"28.733"	"27.613"	"29.239"	"26.908"	"20.195"	"14.934"
"1975"	"13.896"	"17.593"	"23.568"	"31.347"	"35.781"	"33.179"	"29.124"	"27.914"	"27.17"	"26.686"	"19.681"	"16.18"
"1976"	"16.027"	"19.186"	"24.041"	"30.034"	"34.098"	"32.279"	"30.203"	"27.691"	"28.074"	"26.49"	"22.19"	"16.047"
"1977"	"14.293"	"18.67"	"25.946"	"29.577"	"32.166"	"32.833"	"28.072"	"27.747"	"26.725"	"26.047"	"22.812"	"17.14"
"1978"	"15.032"	"17.598"	"22.275"	"29.125"	"36.075"	"33.876"	"28.84"	"26.846"	"27.002"	"26.679"	"22.319"	"16.127"
"1979"	"16.16"	"16.762"	"22.562"	"30.117"	"30.718"	"32.85"	"29.156"	"28.7"	"29.597"	"28.476"	"23.676"	"17.066"
"1980"	"15.194"	"19.809"	"24.013"	"31.175"	"34.645"	"31.622"	"27.974"	"27.314"	"28.553"	"27.737"	"21.69"	"16.173"
"1981"	"15.64"	"19.103"	"23.711"	"29.688"	"33.286"	"34.103"	"28.246"	"28.073"	"29.541"	"26.825"	"20.537"	"15.605"
"1982"	"15.764"	"17.391"	"21.667"	"29.211"	"31.605"	"33.891"	"31.583"	"27.719"	"28.259"	"27.499"	"21.727"	"16.785"
"1983"	"14.625"	"17.01"	"23.694"	"27.372"	"32.266"	"33.418"	"29.905"	"28.417"	"28.061"	"25.529"	"19.672"	"16.166"
"1984"	"14.896"	"16.1"	"25.52"	"30.602"	"37.017"	"34.583"	"30.068"	"27.634"	"27.521"	"25.857"	"20.414"	"16.764"
"1985"	"15.168"	"19.284"	"26.256"	"31.229"	"35.175"	"35.021"	"29.816"	"28.128"	"27.351"	"24.122"	"21.157"	"17.309"
"1986"	"14.989"	"17.439"	"24.008"	"30.202"	"32.413"	"33.731"	"28.553"	"29.225"	"28.86"	"26.768"	"22.1"	"15.558"
"1987"	"15.736"	"19.671"	"24.989"	"31.193"	"31.998"	"36.097"	"32.611"	"30.492"	"29.708"	"27.455"	"21.438"	"16.164"
"1988"	"15.721"	"19.901"	"24.884"	"31.487"	"36.313"	"33.499"	"29.292"	"28.454"	"29.366"	"26.017"	"20.919"	"17.014"
"1989"	"14.216"	"17.976"	"23.748"	"29.328"	"34.527"	"32.82"	"30.266"	"28.602"	"28.617"	"26.759"	"20.102"	"15.711"
"1990"	"17.003"	"18.5"	"23.085"	"30.634"	"33.507"	"33.916"	"28.829"	"28.874"	"27.643"	"26.269"	"21.388"	"16.358"
"1991"	"14.571"	"19.196"	"24.361"	"29.129"	"34.519"	"35.122"	"32.277"	"28.167"	"28.692"	"25.729"	"20.539"	"16.237"
"1992"	"15.635"	"17.685"	"24.376"	"29.903"	"33.065"	"35.948"	"30.54"	"28.543"	"27.479"	"25.998"	"20.989"	"16.828"
"1993"	"15.661"	"19.369"	"22.334"	"29.345"	"35.453"	"34.902"	"31.084"	"29.887"	"27.139"	"26.547"	"22.188"	"16.084"
"1994"	"17.061"	"18.027"	"25.407"	"28.577"	"35.013"	"34.541"	"29.096"	"27.966"	"27.876"	"25.824"	"21.006"	"16.616"
"1995"	"14.297"	"18.377"	"23.085"	"29.824"	"34.898"	"35.641"	"30.976"	"28.093"	"28.401"	"27.087"	"21.027"	"16.985"
"1996"	"15.305"	"17.999"	"24.711"	"29.484"	"33.863"	"33.551"	"29.596"	"27.433"	"28.222"	"26.045"	"20.537"	"14.514"
"1997"	"14.429"	"17.809"	"24.188"	"28.453"	"32.289"	"33.272"	"30.817"	"28.404"	"28.298"	"24.89"	"20.598"	"14.29"
"1998"	"14.291"	"18.884"	"22.292"	"30.491"	"35.16"	"34.579"	"30.23"	"28.819"	"28.972"	"26.927"	"21.89"	"16.266"
"1999"	"14.757"	"18.922"	"24.963"	"31.767"	"34.301"	"33.526"	"30.626"	"28.825"	"28.028"	"26.505"	"22.366"	"16.225"
"2000"	"15.571"	"17.474"	"23.793"	"31.967"	"34.156"	"32.674"	"29.479"	"29.104"	"28.318"	"27.515"	"23.326"	"16.694"
"2001"	"14.657"	"19.375"	"24.432"	"29.812"	"33.62"	"31.936"	"29.604"	"29.356"	"29.465"	"27.52"	"22.163"	"17.098"
"2002"	"15.436"	"18.075"	"25.22"	"31.63"	"35.258"	"34.32"	"32.519"	"28.972"	"27.657"	"27.088"	"21.751"	"17.355"
