
"Year"	"Jan"	"Feb"	"Mar"	"Apr"	"May"	"Jun"	"Jul"	"Aug"	"Sep"	"Oct"	"Nov"	"Dec"
"1901"	"12.551"	"5.184"	"5.212"	"0.192"	"15.376"	"17.392"	"129.645"	"133.698"	"0.565"	"0.035"	"0"	"0.746"
"1902"	"0"	"0"	"1.263"	"2.465"	"7.444"	"78.665"	"128.475"	"90.403"	"46.852"	"1.456"	"0"	"0"
"1903"	"2.841"	"0"	"1.462"	"0"	"5.24"	"5.658"	"131.649"	"81.705"	"52.618"	"2.633"	"0"	"3.099"
"1904"	"5.97"	"0.084"	"22.08"	"0.705"	"16.067"	"29.949"	"78.406"	"98.304"	"108.225"	"0.963"	"20.55"	"13.569"
"1905"	"21.81"	"8.679"	"2.854"	"1.911"	"0.808"	"12.234"	"69.623"	"1.501"	"62.23"	"0.288"	"0"	"1.961"
"1906"	"0"	"61.486"	"13.758"	"0.011"	"1.117"	"62.794"	"99.787"	"102.132"	"126.185"	"0"	"0"	"12.558"
"1907"	"6.1"	"21.988"	"5.075"	"21.7"	"3.623"	"12.538"	"87.995"	"137.506"	"0.557"	"0.011"	"0"	"0"
"1908"	"17.477"	"5.438"	"0"	"8.314"	"6.873"	"10.634"	"260.144"	"356.271"	"41.905"	"0.006"	"0.069"	"0.294"
"1909"	"3.997"	"10.506"	"0"	"25.583"	"21.266"	"109.292"	"234.786"	"145.473"	"119.974"	"0.215"	"0"	"20.133"
"1910"	"8.369"	"4.914"	"0.732"	"3.771"	"0.608"	"28.171"	"107.529"	"208.911"	"70.877"	"3.132"	"0"	"0.191"
"1911"	"20.8"	"0.011"	"28.545"	"1.708"	"1.03"	"48.47"	"23.237"	"34.775"	"89.791"	"7.029"	"36.012"	"0"
"1912"	"16.009"	"8.536"	"1.614"	"13.933"	"8.627"	"24.616"	"96.596"	"143.327"	"83.449"	"2.901"	"0.983"	"0.494"
"1913"	"0.64"	"20.21"	"5.483"	"2.638"	"22.748"	"81.311"	"67.495"	"44.883"	"17.012"	"0.009"	"4.352"	"5.505"
"1914"	"8.74"	"4.196"	"0.691"	"11.114"	"15.885"	"39.192"	"213.697"	"55.603"	"140.167"	"4.172"	"11.422"	"0.775"
"1915"	"14.521"	"39.227"	"28.144"	"13.765"	"0.404"	"17.499"	"50.928"	"44.78"	"47.017"	"10.169"	"0"	"0.291"
"1916"	"0.528"	"15.551"	"0.595"	"8.325"	"17.31"	"45.275"	"166.63"	"218.602"	"79.616"	"11.227"	"0.005"	"0"
"1917"	"6.563"	"4.708"	"3.605"	"20.67"	"39.665"	"55.414"	"136.243"	"183.151"	"179.784"	"12.631"	"0"	"4.736"
"1918"	"2.957"	"0.009"	"5.809"	"3.986"	"1.972"	"15.844"	"13.198"	"106.086"	"6.746"	"0"	"0.237"	"4.385"
"1919"	"30.875"	"3.885"	"2.249"	"9.588"	"8.427"	"0.4"	"76.584"	"216.475"	"101.904"	"0"	"4.056"	"6.162"
"1920"	"3.897"	"4.259"	"7.912"	"11.214"	"14.718"	"92.721"	"198.336"	"67.306"	"1.293"	"0.01"	"0"	"0"
"1921"	"9.473"	"0"	"0"	"1.945"	"0.306"	"14.405"	"164.103"	"212.227"	"85.478"	"2.815"	"0"	"1.862"
"1922"	"7.231"	"0.859"	"0.349"	"3.512"	"2.015"	"28.23"	"112.162"	"77.14"	"112.761"	"3.108"	"0"	"13.256"
"1923"	"6.837"	"27.339"	"0.707"	"1.771"	"15.817"	"14.758"	"165.913"	"194.022"	"11.963"	"1.749"	"0"	"23.143"
"1924"	"26.437"	"10.673"	"1.468"	"1.008"	"13.39"	"17.929"	"62.236"	"148.235"	"137.995"	"7.36"	"1.92"	"18.86"
"1925"	"2.433"	"0.006"	"0.014"	"0.006"	"16.858"	"82.74"	"152.146"	"53.754"	"5.307"	"0.345"	"27.056"	"0"
"1926"	"3.987"	"0"	"21.421"	"6.531"	"13.596"	"1.162"	"192.346"	"191.178"	"32.292"	"0"	"2.673"	"7.531"
"1927"	"0"	"16.805"	"8.568"	"1.901"	"17.958"	"14.421"	"146.218"	"116.531"	"6.738"	"8.044"	"0"	"18.229"
"1928"	"7.618"	"19.505"	"4.924"	"8.274"	"4.943"	"25.517"	"70.199"	"117.242"	"37.413"	"3.524"	"15.279"	"5.992"
"1929"	"2.323"	"0.011"	"0"	"10.16"	"9.103"	"17.818"	"139.538"	"72.179"	"6.107"	"0.257"	"0"	"21.857"
"1930"	"16.342"	"11.898"	"0"	"6.487"	"13.643"	"61.569"	"212.579"	"30.552"	"13.685"	"3.229"	"3.774"	"0.554"
"1931"	"2.475"	"10.519"	"4.647"	"2.711"	"7.662"	"5.33"	"189.997"	"147.352"	"45.637"	"12.658"	"0"	"0"
"1932"	"0.921"	"0.598"	"7.7"	"4.742"	"6.028"	"5.113"	"105.264"	"86.488"	"95.021"	"0"	"0"	"1.648"
"1933"	"0.482"	"11.708"	"3.498"	"2.295"	"30.843"	"110.703"	"98.953"	"325.957"	"107.777"	"4.911"	"0.909"	"0"
"1934"	"9.575"	"0.011"	"22.686"	"0"	"4.437"	"45.761"	"173.447"	"167.404"	"7.281"	"0"	"0"	"15.661"
"1935"	"15.211"	"18.849"	"6.38"	"19.939"	"0.511"	"27.637"	"140.454"	"107.761"	"103.803"	"1.75"	"5.225"	"2.702"
"1936"	"0.874"	"9.833"	"6.62"	"0.545"	"0.356"	"159.504"	"92.16"	"96.986"	"64.339"	"0.92"	"16.013"	"20.167"
"1937"	"0"	"50.792"	"0.281"	"8.637"	"2.108"	"17.879"	"213.507"	"5.868"	"63.451"	"0.046"	"0"	"5.755"
"1938"	"19.195"	"1.877"	"4.821"	"1.966"	"0.656"	"37.828"	"68.807"	"56.93"	"11.44"	"0.94"	"0"	"2.76"
"1939"	"0.238"	"21.801"	"6.481"	"0.041"	"0.738"	"55.018"	"37.658"	"64.908"	"37.157"	"0.011"	"0"	"0"
"1940"	"17.878"	"22.543"	"1.527"	"0.015"	"1.238"	"22.046"	"110.194"	"171.709"	"4.693"	"0.313"	"0.035"	"0.207"
"1941"	"23.826"	"2.644"	"2.103"	"0.006"	"15.072"	"56.954"	"19.859"	"64.35"	"29.606"	"0.044"	"0"	"3.735"
"1942"	"7.265"	"11.959"	"0.83"	"6.328"	"15.617"	"40.84"	"333.697"	"114.756"	"134.666"	"0.011"	"0"	"7.38"
"1943"	"4.405"	"0"	"0.005"	"13.104"	"2.421"	"26.795"	"159.247"	"35.908"	"48.966"	"0"	"0"	"0"
"1944"	"16.632"	"28.617"	"28.574"	"24.736"	"0.946"	"34.041"	"219.309"	"157.154"	"62.642"	"10.277"	"0"	"0.633"
"1945"	"16.385"	"0"	"0.29"	"13.687"	"19.954"	"35.832"	"130.152"	"167.376"	"140.575"	"1.298"	"0"	"0"
"1946"	"0"	"4.636"	"0.294"	"0.192"	"7.586"	"71.872"	"123.818"	"144.932"	"18.822"	"2.383"	"0.01"	"2.61"
"1947"	"3.64"	"5.226"	"3.701"	"0.312"	"3.183"	"1.347"	"42.161"	"90.01"	"125.773"	"10.613"	"0"	"2.895"
"1948"	"21.464"	"19.317"	"11.213"	"1.088"	"2.969"	"12.439"	"116.016"	"169.923"	"70.199"	"1.817"	"0.711"	"3.874"
"1949"	"8.157"	"13.484"	"2.095"	"0.099"	"5.72"	"7.22"	"326.528"	"66.956"	"61.321"	"0.303"	"0"	"0"
"1950"	"8.696"	"2.312"	"9.828"	"0.009"	"7.201"	"9.586"	"350.895"	"178.666"	"85.347"	"0"	"0"	"0"
"1951"	"7.244"	"0.443"	"17.351"	"11.554"	"4.66"	"11.521"	"78.302"	"97.911"	"29.595"	"1.191"	"22.663"	"0"
"1952"	"2.772"	"8.413"	"15.933"	"2.078"	"16.344"	"31.842"	"59.137"	"195.597"	"0.557"	"0.009"	"0.01"	"1.68"
"1953"	"28.9"	"0.009"	"0"	"1.945"	"2.337"	"18.03"	"128.75"	"193.133"	"33.086"	"0.308"	"0.38"	"0.293"
"1954"	"9.008"	"38.885"	"3.493"	"0.006"	"1.363"	"26.839"	"138.016"	"15.955"	"139.284"	"7.757"	"0.236"	"0"
"1955"	"11.632"	"0.841"	"5.38"	"9.084"	"7.868"	"40.085"	"54.894"	"231.895"	"96.126"	"14.409"	"0"	"0.479"
"1956"	"14.997"	"0.447"	"13.418"	"1.738"	"0.2"	"24.55"	"189.496"	"160.103"	"6.194"	"21.577"	"1.059"	"4.432"
"1957"	"29.131"	"0.009"	"14.323"	"2.457"	"10.74"	"32.282"	"148.624"	"96.784"	"67.388"	"6.106"	"12.895"	"6.495"
"1958"	"21.297"	"0.447"	"5.712"	"0.511"	"4.266"	"6.068"	"212.874"	"91.575"	"176.501"	"0.994"	"14.002"	"12.706"
"1959"	"13.689"	"3.068"	"2.504"	"0.53"	"14.379"	"23.311"	"171.37"	"177.823"	"128.517"	"0.576"	"9.24"	"0"
"1960"	"5.617"	"0"	"8.78"	"3.22"	"0.225"	"38.634"	"134.502"	"175.49"	"7.834"	"13.847"	"0"	"4.482"
"1961"	"10.549"	"23.853"	"0.192"	"3.119"	"19.939"	"54.364"	"131.236"	"269.68"	"83.119"	"13.665"	"8.728"	"4.233"
"1962"	"11.638"	"6.458"	"9.191"	"0.03"	"4.459"	"12.395"	"150.68"	"74.968"	"104.816"	"0"	"3.174"	"10.122"
"1963"	"0"	"5.045"	"1.686"	"2.108"	"10.574"	"43.289"	"46.153"	"154.874"	"83.64"	"0.099"	"1.265"	"8.588"
"1964"	"1.351"	"0.539"	"1.765"	"2.496"	"17.398"	"21.465"	"301.386"	"265.059"	"56.823"	"0.064"	"0.331"	"6.416"
"1965"	"5.026"	"4.92"	"1.563"	"7.673"	"5.052"	"5.887"	"153.117"	"82.677"	"56.706"	"0.795"	"2.142"	"0"
"1966"	"2.314"	"26.14"	"0.636"	"0.749"	"51.005"	"74.389"	"73.235"	"152.758"	"57.625"	"10.48"	"5.42"	"0"
"1967"	"0"	"1.439"	"33.255"	"1.61"	"0.627"	"15.384"	"112.366"	"277.28"	"73.56"	"9.325"	"21.75"	"26.875"
"1968"	"6.146"	"7.413"	"3.534"	"0.458"	"7.092"	"9.558"	"147.963"	"111.593"	"0.557"	"0.878"	"0"	"0.482"
"1969"	"0.615"	"4.131"	"6.246"	"5.11"	"17.899"	"22.923"	"149.868"	"74.525"	"63.85"	"2.171"	"0"	"0"
"1970"	"20.296"	"39.665"	"21.488"	"3.363"	"28.982"	"56.175"	"33.537"	"128.76"	"103.71"	"0.781"	"0"	"0"
"1971"	"5.372"	"5.804"	"0.342"	"10.197"	"48.886"	"64.723"	"104.516"	"215.347"	"54.934"	"3.225"	"0"	"0"
"1972"	"8.529"	"5.032"	"0.492"	"9.234"	"0.372"	"46.566"	"143.315"	"212.077"	"25.071"	"5.755"	"4.164"	"1.916"
"1973"	"8.694"	"3.264"	"0.493"	"0.006"	"13.167"	"7.705"	"112.52"	"211.177"	"27.283"	"6.427"	"0"	"4.607"
"1974"	"0.193"	"0.29"	"1.463"	"5.174"	"17.187"	"26.686"	"295.29"	"42.509"	"6.905"	"3.357"	"0"	"9.052"
"1975"	"9.207"	"3.203"	"5.877"	"0.194"	"1.134"	"60.68"	"242.438"	"173.943"	"140.464"	"8.921"	"0"	"2.068"
"1976"	"5.524"	"9.978"	"4.434"	"7.16"	"38.645"	"40.642"	"208.145"	"266.245"	"96.027"	"2.224"	"0.767"	"0.446"
"1977"	"16.398"	"0.35"	"0.006"	"19.246"	"22.474"	"97.922"	"311.813"	"63.661"	"141.181"	"6.156"	"4.45"	"4.754"
"1978"	"0.484"	"13.085"	"10.445"	"9.928"	"0.2"	"63.364"	"260.847"	"179.754"	"97.674"	"0.249"	"0.97"	"0.749"
"1979"	"10.679"	"33.003"	"10.509"	"2.713"	"19.571"	"39.625"	"81.409"	"43.875"	"41.882"	"4.849"	"3.382"	"5.954"
"1980"	"2.367"	"3.566"	"13.298"	"0.655"	"8.459"	"43.835"	"237.714"	"68.433"	"37.069"	"2.535"	"13.527"	"8.123"
"1981"	"12.802"	"7.6"	"13.616"	"0"	"10.795"	"82.385"	"208.776"	"55.935"	"31.455"	"0.487"	"47.447"	"5.457"
"1982"	"13.644"	"4.728"	"29.895"	"30.927"	"65.147"	"49.312"	"296.878"	"205.628"	"0.557"	"9.097"	"5.688"	"8.197"
"1983"	"18.433"	"9.828"	"7.549"	"27.883"	"64.429"	"46.631"	"213.837"	"211.685"	"65.072"	"7.279"	"0"	"2.304"
"1984"	"0.288"	"5.802"	"0.481"	"13.488"	"1.557"	"13.728"	"111.327"	"180.456"	"63.552"	"0"	"0"	"0.97"
"1985"	"0.823"	"0.006"	"0.303"	"11.46"	"10.622"	"33.223"	"250.326"	"161.848"	"26.396"	"11.689"	"0.192"	"12.126"
"1986"	"9.207"	"23.486"	"4.833"	"2.857"	"19.656"	"57.634"	"120.261"	"105.468"	"33.971"	"0.486"	"0"	"8.81"
"1987"	"15.593"	"16.485"	"10.477"	"1.883"	"37.474"	"16.678"	"30.103"	"73.924"	"7.937"	"3.785"	"0"	"2.921"
"1988"	"0.508"	"8.029"	"25.679"	"2.725"	"2.52"	"44.79"	"149.918"	"216.198"	"80.569"	"8.405"	"0"	"1.923"
"1989"	"37.87"	"1.74"	"12.953"	"0.011"	"2.183"	"12.243"	"89.742"	"122.647"	"46.712"	"0.577"	"7.259"	"1.706"
"1990"	"0.094"	"24.947"	"2.842"	"2.677"	"46.355"	"27.86"	"101.593"	"167.7"	"98.097"	"0.449"	"4.109"	"11.547"
"1991"	"0"	"19.728"	"1.565"	"3.083"	"30.335"	"37.135"	"63.961"	"140.436"	"41.518"	"0.595"	"11.108"	"16.95"
"1992"	"10.397"	"19.849"	"1.192"	"3.583"	"11.863"	"7.208"	"62.388"	"135.859"	"68.367"	"8.408"	"24.492"	"0.011"
"1993"	"4.524"	"5.174"	"3.853"	"3.796"	"10.141"	"70.449"	"233.923"	"76.591"	"90.095"	"2.467"	"0.148"	"0"
"1994"	"19.567"	"2.676"	"6.927"	"4.886"	"24.496"	"33.989"	"253.629"	"156.813"	"26.662"	"0.011"	"0"	"1.097"
"1995"	"28.523"	"25.634"	"12.186"	"3.47"	"0.225"	"27.948"	"146.242"	"263.249"	"72.808"	"3.323"	"1.537"	"0.347"
"1996"	"5.677"	"9.96"	"4.787"	"1.604"	"12.092"	"148.911"	"117.293"	"185.02"	"49.752"	"4.228"	"0"	"0"
"1997"	"6.494"	"2.317"	"4.698"	"20.298"	"39.326"	"106.823"	"69.092"	"147.705"	"31.069"	"17.594"	"16.976"	"7.992"
"1998"	"0"	"11.921"	"11.121"	"13.387"	"8.577"	"63.906"	"170.67"	"101.366"	"100.885"	"13.016"	"16.029"	"4.432"
"1999"	"26.164"	"2.122"	"0.296"	"0"	"26.129"	"32.782"	"95.431"	"49.074"	"33.038"	"4.127"	"0"	"0"
"2000"	"11.78"	"23.839"	"6.91"	"0.395"	"10.336"	"58.104"	"219.684"	"75.383"	"10.46"	"0"	"4.888"	"12.276"
"2001"	"4.13"	"6.032"	"2.929"	"16.61"	"53.608"	"77.488"	"92.757"	"121.18"	"39.895"	"2.593"	"0"	"0"
"2002"	"5.545"	"6.831"	"2.301"	"2.675"	"4.69"	"22.725"	"9.071"	"65.905"	"65.499"	"0.205"	"7.613"	"16.587"
