
"Year"	"Jan"	"Feb"	"Mar"	"Apr"	"May"	"Jun"	"Jul"	"Aug"	"Sep"	"Oct"	"Nov"	"Dec"
"1901"	"16.619"	"18.778"	"25.598"	"30.521"	"34.346"	"34.273"	"29.004"	"25.601"	"26.757"	"26.958"	"21.669"	"19.039"
"1902"	"19.424"	"21.632"	"28.183"	"31.61"	"34.657"	"33.534"	"28.225"	"27.447"	"26.183"	"25.282"	"20.107"	"17.285"
"1903"	"18.531"	"19.444"	"24.482"	"29.629"	"32.691"	"34.347"	"29.237"	"26.412"	"25.991"	"24.41"	"19.591"	"17.303"
"1904"	"18.527"	"20.025"	"24.41"	"31.346"	"33.685"	"31.555"	"26.207"	"25.646"	"26.111"	"25.682"	"20.768"	"18.338"
"1905"	"17.223"	"16.585"	"23.459"	"28.511"	"35.389"	"34.047"	"27.823"	"27.057"	"26.752"	"25.751"	"22.361"	"18.178"
"1906"	"17.078"	"18.879"	"24.698"	"30.924"	"35.512"	"31.469"	"27.073"	"26.895"	"25.329"	"24.675"	"21.825"	"18.592"
"1907"	"19.107"	"19.513"	"24.26"	"28.691"	"32.499"	"32.808"	"29.765"	"25.347"	"26.747"	"26.891"	"22.289"	"17.004"
"1908"	"17.459"	"20.452"	"24.44"	"31.729"	"33.955"	"33.218"	"26.344"	"25.601"	"26.535"	"25.493"	"21.221"	"17.285"
"1909"	"18.484"	"20.221"	"26.711"	"28.845"	"33.715"	"30.586"	"26.408"	"25.903"	"25.682"	"25.176"	"21.78"	"17.791"
"1910"	"17.965"	"20.733"	"25.933"	"30.182"	"33.955"	"30.33"	"27.091"	"26.294"	"26.183"	"24.028"	"19.472"	"18.385"
"1911"	"19.932"	"20.534"	"23.764"	"30.376"	"35.065"	"30.172"	"28.493"	"26.413"	"25.521"	"25.792"	"20.659"	"18.754"
"1912"	"19.003"	"21.817"	"25.225"	"30.749"	"34.5"	"34.074"	"28.083"	"26.02"	"25.882"	"25.471"	"20.121"	"17.473"
"1913"	"18.067"	"20.421"	"23.856"	"31.857"	"32.681"	"29.878"	"27.211"	"25.995"	"27.195"	"27.077"	"21.732"	"18.173"
"1914"	"20.232"	"20.778"	"24.663"	"30.238"	"34.121"	"31.177"	"26.965"	"26.394"	"26.772"	"25.891"	"22.679"	"18.156"
"1915"	"18.627"	"18.866"	"25.136"	"30.138"	"34.786"	"34.269"	"29.128"	"26.377"	"27.694"	"26.358"	"21.821"	"18.631"
"1916"	"18.659"	"19.707"	"27.721"	"31.71"	"34.464"	"29.287"	"28.311"	"26.155"	"26.718"	"24.625"	"19.613"	"17.219"
"1917"	"18.793"	"19.896"	"24.798"	"28.745"	"31.072"	"30.268"	"26.488"	"25.999"	"26.008"	"24.506"	"19.204"	"18.357"
"1918"	"16.566"	"21.179"	"25.782"	"29.443"	"34.965"	"31.043"	"28.972"	"26.387"	"26.887"	"26.729"	"22.528"	"17.391"
"1919"	"18.547"	"19.814"	"26.198"	"30.163"	"33.273"	"31.735"	"26.397"	"25.536"	"26.229"	"24.821"	"21.521"	"17.791"
"1920"	"18.465"	"20.187"	"26.175"	"30.482"	"31.099"	"31.365"	"26.379"	"26.001"	"27.468"	"27.095"	"22.535"	"19.476"
"1921"	"19.232"	"20.825"	"28.02"	"32.476"	"35.065"	"31.744"	"29.308"	"25.782"	"25.444"	"25.229"	"20.782"	"19.904"
"1922"	"17.412"	"22.178"	"26.725"	"31.328"	"34.311"	"31.135"	"26.962"	"25.843"	"25.935"	"25.082"	"20.778"	"17.332"
"1923"	"18.256"	"19.936"	"26.317"	"31.068"	"33.199"	"34.635"	"27.691"	"25.154"	"26.437"	"24.672"	"21.24"	"18.988"
"1924"	"18.053"	"21.023"	"27.417"	"31.82"	"32.916"	"33.245"	"27.346"	"26.165"	"25.988"	"24.282"	"19.697"	"17.891"
"1925"	"16.27"	"19.312"	"26.274"	"32.148"	"32.209"	"29.723"	"25.802"	"26.786"	"26.986"	"26.435"	"20.929"	"17.658"
"1926"	"18.746"	"22.149"	"24.685"	"27.38"	"32.511"	"34.512"	"28.025"	"26.202"	"25.988"	"24.053"	"18.947"	"16.554"
"1927"	"16.354"	"18.447"	"23.633"	"29.644"	"33.319"	"32.219"	"26.919"	"25.719"	"26.517"	"24.753"	"18.626"	"18.138"
"1928"	"17.666"	"20.378"	"25.353"	"29.957"	"34.104"	"31.666"	"26.62"	"26.314"	"26.758"	"25.428"	"21.85"	"16.977"
"1929"	"17.331"	"18.823"	"26.865"	"30.238"	"34.158"	"31.432"	"26.753"	"25.329"	"26.729"	"24.957"	"22.068"	"17.338"
"1930"	"18.366"	"19.772"	"26.464"	"29.691"	"33.395"	"32.015"	"26.1"	"25.786"	"26.794"	"26.577"	"20.372"	"18.847"
"1931"	"20.232"	"19.827"	"25.281"	"32.193"	"34.447"	"33.862"	"28.237"	"26.42"	"26.029"	"23.945"	"20.607"	"18.184"
"1932"	"20.572"	"19.272"	"25.11"	"29.911"	"33.853"	"32.689"	"27.158"	"26.202"	"26.32"	"25.81"	"20.54"	"18.847"
"1933"	"17.672"	"21.288"	"25.96"	"29.459"	"31.123"	"30.924"	"27.591"	"25.973"	"25.536"	"24.421"	"20.932"	"18.042"
"1934"	"16.874"	"21.406"	"24.816"	"30.71"	"33.5"	"31.869"	"26.672"	"25.85"	"25.29"	"24.11"	"20.326"	"18.176"
"1935"	"16.267"	"20.278"	"25.182"	"27.764"	"34.009"	"32.418"	"26.683"	"25.554"	"25.8"	"24.635"	"21.497"	"18.091"
"1936"	"16.7"	"20.132"	"25.178"	"29.618"	"34.804"	"30.287"	"27.126"	"26.001"	"25.963"	"24.911"	"21.075"	"17.385"
"1937"	"17.017"	"20.803"	"24.116"	"29.092"	"33.608"	"32.162"	"26.652"	"25.949"	"26.219"	"24.449"	"22.021"	"17.31"
"1938"	"18.625"	"18.778"	"27.256"	"31.267"	"34.67"	"27.998"	"26.566"	"26.448"	"27.376"	"25.304"	"20.298"	"18.396"
"1939"	"19.421"	"20.81"	"23.632"	"29.743"	"33.866"	"31.15"	"26.707"	"26.804"	"25.704"	"25.912"	"21.029"	"17.731"
"1940"	"18.213"	"20.313"	"23.819"	"29.771"	"34.047"	"31.963"	"27.174"	"25.601"	"26.172"	"25.318"	"21.43"	"17.574"
"1941"	"17.459"	"20.606"	"26.968"	"31.815"	"34.465"	"32.397"	"27.473"	"26.187"	"27.023"	"27.008"	"22.072"	"19.904"
"1942"	"16.646"	"20.56"	"26.503"	"31.956"	"34.566"	"33.581"	"26.026"	"25.816"	"25.739"	"25.186"	"21.091"	"17.391"
"1943"	"18.535"	"19.653"	"26.372"	"29.81"	"34.819"	"31.017"	"26.591"	"25.047"	"26.302"	"24.519"	"23.57"	"17.844"
"1944"	"17.412"	"19.76"	"24.18"	"29.767"	"34.437"	"31.221"	"26.426"	"25.719"	"26.383"	"23.982"	"21.298"	"19.657"
"1945"	"16.158"	"19.471"	"26.019"	"29.249"	"33.51"	"32.577"	"26.701"	"26.463"	"25.782"	"24.317"	"20.026"	"16.556"
"1946"	"18.84"	"22.096"	"25.535"	"32.318"	"33.924"	"30.61"	"26.718"	"25.401"	"26.202"	"25.51"	"18.884"	"18.98"
"1947"	"16.49"	"20.113"	"26.062"	"30.522"	"34.566"	"32.408"	"26.847"	"26.755"	"25.635"	"23.972"	"21.525"	"18.838"
"1948"	"17.782"	"19.605"	"25.459"	"31.967"	"35.455"	"31.739"	"27.537"	"26.02"	"25.782"	"25.945"	"20.33"	"17.631"
"1949"	"19.861"	"20.624"	"26.436"	"31.823"	"34.74"	"31.899"	"27.464"	"26.691"	"26.373"	"25.153"	"20.313"	"17.739"
"1950"	"19.161"	"19.05"	"24.56"	"29.975"	"34.166"	"32.752"	"27.145"	"26.027"	"26.202"	"24.728"	"19.801"	"17.31"
"1951"	"16.994"	"20.039"	"25.777"	"29.229"	"33.919"	"32.377"	"28.837"	"25.995"	"27.178"	"27.797"	"22.917"	"17.731"
"1952"	"19.479"	"22.37"	"25.41"	"31.81"	"35.312"	"31.555"	"27.026"	"25.201"	"26.93"	"26.144"	"21.334"	"19.437"
"1953"	"17.086"	"22.932"	"28.846"	"31.59"	"34.311"	"33.218"	"27.558"	"26.257"	"26.63"	"25.176"	"21.272"	"19.836"
"1954"	"17.187"	"21.768"	"25.863"	"31.375"	"35.354"	"32.769"	"27.899"	"26.358"	"24.986"	"23.522"	"21.414"	"18.556"
"1955"	"18.4"	"21.306"	"27.782"	"29.086"	"33.648"	"31.696"	"27.5"	"26.066"	"25.79"	"23.445"	"19.725"	"18.142"
"1956"	"18.447"	"20.585"	"26.728"	"31.229"	"34.451"	"29.933"	"25.833"	"25.19"	"25.81"	"24.136"	"19.495"	"18.584"
"1957"	"17.666"	"19.025"	"23.579"	"29.964"	"32.752"	"32.4"	"27.162"	"26.595"	"25.603"	"25.622"	"23.132"	"19.545"
"1958"	"19.871"	"20.868"	"26.403"	"32.257"	"34.5"	"33.435"	"26.679"	"26.891"	"25.493"	"24.187"	"21.653"	"19.132"
"1959"	"18.294"	"20.213"	"27.222"	"31.029"	"33.6"	"32.023"	"26.638"	"25.659"	"25.682"	"25.282"	"21.432"	"19.058"
"1960"	"16.748"	"22.682"	"25.182"	"30.641"	"34.313"	"33.077"	"27.81"	"24.901"	"26.721"	"24.66"	"20.775"	"19.713"
"1961"	"17.607"	"18.413"	"26.823"	"30.592"	"33.99"	"31.072"	"26.54"	"25.893"	"24.914"	"23.564"	"20.679"	"16.957"
"1962"	"16.449"	"20.116"	"24.965"	"30.223"	"33.468"	"31.735"	"27.24"	"25.443"	"25.084"	"23.206"	"21.291"	"19.043"
"1963"	"17.187"	"21.726"	"24.482"	"28.096"	"32.265"	"30.217"	"26.466"	"24.935"	"25.391"	"25.157"	"23.164"	"18.674"
"1964"	"17.205"	"20.825"	"27.735"	"32.403"	"33.4"	"30.961"	"27.49"	"26.159"	"26.121"	"26.111"	"20.998"	"18.857"
"1965"	"19.331"	"20.961"	"25.172"	"29.839"	"33.848"	"32.804"	"28.172"	"27.248"	"26.164"	"26.454"	"22.446"	"18.627"
"1966"	"18.749"	"22.953"	"25.591"	"30.266"	"33.121"	"31.165"	"29.082"	"25.754"	"27.192"	"27.155"	"23.258"	"18.234"
"1967"	"17.675"	"22.85"	"24.129"	"29.416"	"34.224"	"31.234"	"27.278"	"25.426"	"25.003"	"26.609"	"22.593"	"19.174"
"1968"	"17.478"	"19.797"	"26.657"	"29.591"	"32.134"	"31.269"	"27.015"	"25.42"	"27.265"	"25.292"	"22.435"	"18.976"
"1969"	"18.147"	"21.65"	"27.488"	"29.909"	"33.187"	"30.941"	"27.254"	"25.229"	"25.857"	"28.004"	"23.578"	"19.143"
"1970"	"18.759"	"20.585"	"26.308"	"32.937"	"35.219"	"30.639"	"27.891"	"25.882"	"25.536"	"25.407"	"20.579"	"18.404"
"1971"	"17.962"	"21.169"	"25.764"	"31.296"	"31.533"	"29.101"	"25.815"	"25.746"	"26.07"	"24.731"	"21.302"	"17.431"
"1972"	"18.502"	"19.503"	"27.048"	"29.726"	"34.169"	"32.066"	"28.564"	"25.892"	"25.866"	"25.701"	"22.085"	"19.372"
"1973"	"18.198"	"21.471"	"26.373"	"32.28"	"34.856"	"31.919"	"26.262"	"26.239"	"25.709"	"25.034"	"21.465"	"17.963"
"1974"	"17.678"	"20.16"	"26.584"	"31.119"	"32.713"	"32.183"	"27.455"	"25.831"	"27.465"	"25.444"	"20.575"	"18.283"
"1975"	"16.312"	"20.615"	"24.816"	"31.571"	"34.127"	"31.391"	"26.165"	"26.173"	"25.896"	"25.231"	"19.648"	"18.16"
"1976"	"18.738"	"21.423"	"26.401"	"30.682"	"34.004"	"29.887"	"27.665"	"25.62"	"26.101"	"26.265"	"24.024"	"19.624"
"1977"	"18.669"	"21.744"	"28.17"	"30.478"	"32.028"	"32.189"	"27.392"	"26.024"	"26.055"	"26.05"	"22.409"	"19.479"
"1978"	"17.951"	"20.036"	"24.781"	"30.733"	"35.545"	"30.991"	"26.524"	"24.808"	"26.482"	"26.328"	"22.966"	"17.474"
"1979"	"19.201"	"19.347"	"24.521"	"31.168"	"32.28"	"32.075"	"26.807"	"25.317"	"28.088"	"27.047"	"23.736"	"19.585"
"1980"	"19.374"	"21.968"	"26.25"	"32.148"	"33.009"	"29.754"	"27.041"	"25.505"	"27.246"	"26.696"	"23.183"	"18.339"
"1981"	"17.43"	"22.176"	"25.567"	"30.643"	"33.831"	"32.82"	"25.538"	"25.719"	"26.591"	"26.037"	"20.964"	"18.296"
"1982"	"18.94"	"19.772"	"24.339"	"29.833"	"32.288"	"32.804"	"28.185"	"25.685"	"26.922"	"26.88"	"21.693"	"20.238"
"1983"	"17.914"	"19.789"	"25.427"	"29.044"	"33.387"	"33.032"	"27.715"	"26.801"	"26.383"	"24.666"	"20.477"	"18.505"
"1984"	"17.914"	"18.5"	"26.9"	"31.338"	"35.388"	"31.459"	"28.148"	"24.901"	"25.706"	"25.924"	"21.952"	"19.827"
"1985"	"19.068"	"21.378"	"28.31"	"31.275"	"34.765"	"32.244"	"28.421"	"25.455"	"26.859"	"24.185"	"22.023"	"20.352"
"1986"	"18.937"	"20.484"	"25.613"	"31.002"	"33.954"	"32.087"	"26.226"	"25.701"	"27.676"	"25.181"	"22.912"	"18.181"
"1987"	"18.353"	"21.964"	"26.443"	"31.648"	"32.711"	"33.343"	"28.375"	"27.502"	"27.797"	"26.748"	"22.658"	"18.857"
"1988"	"19.801"	"22.778"	"26.628"	"32.029"	"35.757"	"32.24"	"27.071"	"27.047"	"28.091"	"25.428"	"21.853"	"19.233"
"1989"	"17.939"	"21.171"	"25.308"	"30.41"	"35.092"	"30.607"	"27.88"	"25.844"	"27.529"	"26.638"	"23.143"	"18.599"
"1990"	"20.784"	"21.148"	"24.543"	"31.126"	"32.56"	"29.963"	"26.257"	"26.702"	"25.827"	"26.125"	"22.679"	"19.063"
"1991"	"17.537"	"22.213"	"27.011"	"30.453"	"35.009"	"32.482"	"27.998"	"25.736"	"27.094"	"26.798"	"21.89"	"18.948"
"1992"	"19.134"	"20.089"	"26.881"	"30.792"	"33.6"	"32.678"	"28.674"	"26.199"	"26.278"	"25.568"	"21.74"	"19.64"
"1993"	"19.489"	"21.269"	"24.459"	"30.799"	"35.534"	"32.754"	"27.699"	"26.349"	"25.602"	"26.354"	"22.348"	"18.72"
"1994"	"19.719"	"20.133"	"27.176"	"29.492"	"35.109"	"30.82"	"26.384"	"25.585"	"26.093"	"25.833"	"21.979"	"18.49"
"1995"	"16.649"	"20.468"	"24.205"	"30.034"	"34.255"	"34.737"	"28.33"	"26.498"	"27.283"	"27.127"	"21.945"	"19.411"
"1996"	"18.811"	"21.739"	"27.35"	"31.373"	"34.787"	"33.629"	"28.273"	"25.797"	"27.044"	"25.282"	"22.186"	"18.42"
"1997"	"18.046"	"20.678"	"26.924"	"29.246"	"32.241"	"30.669"	"27.265"	"26.402"	"26.782"	"25.048"	"22.689"	"17.023"
"1998"	"17.928"	"21.277"	"24.72"	"31.27"	"35.392"	"33.05"	"27.771"	"27.429"	"27.702"	"27.071"	"22.541"	"19.922"
"1999"	"18.726"	"21.448"	"26.852"	"32.695"	"34.29"	"31.043"	"27.683"	"25.963"	"26.044"	"25.664"	"22.991"	"18.785"
"2000"	"19.771"	"19.832"	"25.652"	"32.991"	"32.62"	"30.825"	"26.68"	"27.24"	"27.031"	"27.816"	"24.231"	"20.293"
"2001"	"18.622"	"22.646"	"26.728"	"30.445"	"33.616"	"29.351"	"25.924"	"26.813"	"28.279"	"27.049"	"23.316"	"20.722"
"2002"	"18.486"	"21.595"	"27.078"	"32.403"	"35.37"	"32.018"	"29.349"	"25.903"	"26.77"	"27.055"	"23.159"	"21.593"
