
"Year"	"Jan"	"Feb"	"Mar"	"Apr"	"May"	"Jun"	"Jul"	"Aug"	"Sep"	"Oct"	"Nov"	"Dec"
"1901"	"12.864"	"16.044"	"22.952"	"28.822"	"33.161"	"36.379"	"32.925"	"29.763"	"30.02"	"28.129"	"21.59"	"16.094"
"1902"	"16.113"	"18.605"	"24.807"	"29.53"	"33.617"	"34.086"	"30.787"	"30.495"	"29.287"	"26.129"	"20.527"	"15.091"
"1903"	"14.693"	"16.358"	"21.637"	"28.15"	"32.917"	"35.843"	"33.102"	"29.748"	"30.142"	"25.834"	"20.204"	"15.035"
"1904"	"14.512"	"17.991"	"22.521"	"30.094"	"32.425"	"34.582"	"29.921"	"28.774"	"28.881"	"26.291"	"19.766"	"15.348"
"1905"	"12.415"	"12.872"	"19.175"	"26.409"	"33.603"	"35.882"	"31.653"	"30.137"	"30.59"	"27.002"	"21.863"	"15.523"
"1906"	"13.688"	"15.125"	"20.766"	"29.149"	"35.238"	"33.822"	"31.285"	"29.626"	"28.955"	"26.678"	"21.836"	"16.316"
"1907"	"16.436"	"15.025"	"19.484"	"26.75"	"31.711"	"34.951"	"33.43"	"29.459"	"30.596"	"27.381"	"21.073"	"14.679"
"1908"	"14.201"	"17.53"	"22.632"	"30.629"	"33.24"	"35.717"	"30.16"	"28.867"	"29.421"	"26.182"	"20.173"	"14.711"
"1909"	"13.977"	"16.118"	"23.394"	"27.148"	"32.501"	"32.727"	"30.168"	"29.635"	"29.451"	"26.938"	"21.483"	"15.173"
"1910"	"14.358"	"17.143"	"23.021"	"28.672"	"33.482"	"33.788"	"31"	"29.848"	"29.477"	"25.259"	"19.85"	"14.932"
"1911"	"15.709"	"17.689"	"20.553"	"28.937"	"34.89"	"34.77"	"32.596"	"30.222"	"28.758"	"26.661"	"18.922"	"14.871"
"1912"	"14.798"	"18.02"	"22.048"	"28.809"	"33.575"	"35.719"	"31.82"	"29.742"	"28.437"	"26.426"	"19.408"	"14.977"
"1913"	"14.932"	"16.503"	"20.514"	"30.103"	"31.578"	"32.645"	"31.421"	"31.166"	"31.177"	"27.373"	"20.142"	"14.809"
"1914"	"16.423"	"16.843"	"22.024"	"29.391"	"33.28"	"34.096"	"31.061"	"29.738"	"29.738"	"25.302"	"21.022"	"14.682"
"1915"	"14.724"	"15.616"	"22.057"	"28.702"	"35.046"	"34.631"	"32.772"	"30.552"	"30.652"	"28.082"	"21.152"	"15.876"
"1916"	"15.188"	"16.749"	"25.648"	"30.602"	"33.729"	"33.171"	"31.132"	"29.412"	"29.233"	"25.873"	"19.516"	"14.266"
"1917"	"14.838"	"17.041"	"21.891"	"25.846"	"29.111"	"33.292"	"30.412"	"29.284"	"28.416"	"25.176"	"18.939"	"15.111"
"1918"	"13.739"	"17.659"	"22.572"	"27.256"	"34.732"	"33.759"	"33.758"	"31.34"	"30.563"	"26.975"	"20.472"	"14.126"
"1919"	"14.086"	"16.094"	"22.84"	"27.911"	"32.469"	"35.662"	"30.304"	"29.304"	"29.364"	"26.024"	"20.163"	"14.559"
"1920"	"15.115"	"16.226"	"22.218"	"28.921"	"30.452"	"33.388"	"30.373"	"30.251"	"30.891"	"27.739"	"21.907"	"16.463"
"1921"	"15.052"	"18.216"	"25.723"	"31.683"	"36.288"	"34.867"	"32.849"	"29.158"	"28.424"	"25.511"	"20.384"	"16.624"
"1922"	"13.916"	"18.47"	"24.415"	"29.78"	"34.284"	"33.77"	"30.969"	"28.757"	"28.529"	"25.762"	"20.242"	"14.334"
"1923"	"14.68"	"16.126"	"23.353"	"30.2"	"33.257"	"36.845"	"31.726"	"29.199"	"29.37"	"25.418"	"20.364"	"15.155"
"1924"	"13.421"	"16.815"	"24.166"	"29.859"	"31.023"	"36.667"	"30.881"	"29.353"	"28.688"	"25.768"	"20.073"	"15.416"
"1925"	"12.505"	"15.687"	"22.652"	"30.668"	"32.77"	"31.422"	"29.501"	"30.22"	"29.976"	"26.575"	"19.455"	"15.101"
"1926"	"14.442"	"18.267"	"21.055"	"25.93"	"31.33"	"36.167"	"31.753"	"29.488"	"28.854"	"25.414"	"18.311"	"14.616"
"1927"	"12.9"	"15.317"	"21.51"	"28.365"	"32.177"	"34.592"	"30.74"	"28.909"	"29.321"	"26.219"	"19.828"	"16.4"
"1928"	"13.995"	"17.41"	"23.03"	"28.539"	"34.614"	"34.202"	"31.474"	"31.358"	"30.881"	"27.38"	"21.294"	"15.104"
"1929"	"14.16"	"15.979"	"24.459"	"29.841"	"34.533"	"34.331"	"30.971"	"29.058"	"30.463"	"26.322"	"21.107"	"14.328"
"1930"	"13.627"	"16.822"	"24.083"	"29.077"	"33.309"	"33.898"	"29.949"	"29.446"	"29.972"	"26.375"	"20.203"	"15.323"
"1931"	"15.952"	"15.6"	"22.261"	"30.605"	"33.561"	"35.571"	"31.715"	"30.324"	"28.961"	"25.697"	"20.143"	"15.897"
"1932"	"16.626"	"16.172"	"23.386"	"28.813"	"32.566"	"36.016"	"32.229"	"29.373"	"29.484"	"26.235"	"20.297"	"14.861"
"1933"	"12.589"	"17.252"	"23.233"	"27.191"	"30.4"	"33.389"	"30.319"	"29.004"	"28.567"	"25.464"	"20.343"	"15.504"
"1934"	"13.125"	"18.172"	"21.564"	"28.997"	"32.883"	"33.171"	"30.692"	"28.795"	"29.553"	"24.737"	"19.81"	"15.366"
"1935"	"12.482"	"17.363"	"22.743"	"26.053"	"33.967"	"35.907"	"30.914"	"29.128"	"29.251"	"25.589"	"20.689"	"14.662"
"1936"	"12.976"	"16.644"	"22.656"	"28.49"	"34.394"	"31.855"	"30.009"	"29.055"	"28.855"	"25.593"	"20.69"	"15.239"
"1937"	"13.354"	"17.06"	"21.254"	"27.064"	"32.926"	"34.857"	"31.251"	"30.484"	"29.716"	"25.697"	"20.279"	"14.422"
"1938"	"13.617"	"15.514"	"24.237"	"30.287"	"34.619"	"32.731"	"31.101"	"29.913"	"30.385"	"26.945"	"19.123"	"15.397"
"1939"	"15.179"	"16.975"	"20.309"	"27.862"	"34.809"	"33.041"	"30.848"	"30.803"	"29.312"	"26.855"	"20.243"	"15.574"
"1940"	"14.423"	"16.263"	"20.605"	"27.672"	"33.881"	"35.12"	"31.966"	"29.357"	"29.023"	"26.419"	"21.457"	"14.625"
"1941"	"13.579"	"17.943"	"25.102"	"31.722"	"34.497"	"33.608"	"33.207"	"30.805"	"30.249"	"28.422"	"21.026"	"16.947"
"1942"	"13.279"	"18.421"	"24.671"	"30.361"	"34.349"	"35.789"	"30.576"	"29.018"	"28.551"	"26.219"	"21.637"	"14.691"
"1943"	"14.791"	"17.578"	"23.676"	"27.313"	"33.697"	"34.1"	"31.041"	"28.755"	"29.771"	"26.219"	"21.831"	"16.434"
"1944"	"13.495"	"16.458"	"21.516"	"27.712"	"35.021"	"33.476"	"30.969"	"30.222"	"29.663"	"25.971"	"21.297"	"16.93"
"1945"	"12.484"	"16.493"	"23.621"	"27.874"	"33.513"	"35.292"	"31.446"	"30.171"	"29.056"	"25.477"	"20.943"	"14.334"
"1946"	"15.749"	"19.258"	"22.711"	"30.048"	"32.991"	"34.093"	"30.979"	"30.045"	"30.094"	"26.568"	"20.781"	"15.996"
"1947"	"13.216"	"18.443"	"23.953"	"30.708"	"34.223"	"35.75"	"31.522"	"30.131"	"29.311"	"25.056"	"21.535"	"15.875"
"1948"	"14.689"	"16.693"	"21.566"	"30.724"	"34.727"	"36.273"	"31.399"	"29.437"	"29.332"	"26.488"	"20.096"	"15.434"
"1949"	"16.239"	"17.571"	"23.511"	"30.18"	"33.952"	"35.286"	"31.051"	"29.698"	"29.768"	"26.558"	"19.707"	"14.202"
"1950"	"15.371"	"16.02"	"21.469"	"28.299"	"33.789"	"34.676"	"30.709"	"29.518"	"28.951"	"25.909"	"20.176"	"14.251"
"1951"	"13.281"	"17.151"	"22.558"	"26.886"	"33.479"	"34.418"	"32.602"	"30.12"	"29.351"	"28.945"	"21.952"	"15.877"
"1952"	"15.878"	"19.587"	"22.334"	"30.664"	"34.167"	"32.867"	"30.846"	"29.223"	"30.403"	"27.069"	"20.983"	"16.04"
"1953"	"12.94"	"18.929"	"26.122"	"30.303"	"34.752"	"35.813"	"31.473"	"29.647"	"29.704"	"26.445"	"20.455"	"17.207"
"1954"	"12.929"	"18.41"	"23.555"	"30.437"	"35.316"	"35.293"	"31.515"	"30.268"	"29.366"	"24.463"	"20.961"	"14.66"
"1955"	"13.892"	"17.86"	"25.096"	"27.669"	"32.803"	"35.142"	"31.39"	"29.261"	"29.377"	"25.057"	"20.265"	"15.286"
"1956"	"14.575"	"18.117"	"23.269"	"30.258"	"34.715"	"34.035"	"29.874"	"29.534"	"30.048"	"25.257"	"19.97"	"15.399"
"1957"	"13.77"	"16.662"	"21.753"	"28.271"	"32.583"	"33.719"	"31.188"	"30.377"	"28.785"	"26.308"	"21.905"	"16.24"
"1958"	"16.339"	"18.202"	"24.253"	"31.303"	"34.048"	"35.176"	"30.82"	"29.54"	"29.305"	"26.281"	"21.236"	"16.918"
"1959"	"14.996"	"17.24"	"24.416"	"29.721"	"33.438"	"34.93"	"30.53"	"29.915"	"29.954"	"27.018"	"21.056"	"17.069"
"1960"	"14.299"	"20.992"	"22.987"	"28.762"	"33.897"	"35.37"	"31.083"	"29.64"	"29.897"	"25.857"	"20.264"	"16.98"
"1961"	"14.976"	"15.677"	"23.581"	"28.908"	"33.277"	"33.596"	"30.726"	"29.256"	"29.648"	"25.503"	"19.479"	"13.212"
"1962"	"13.83"	"17.848"	"22.89"	"29.701"	"33.314"	"35.098"	"31.882"	"29.975"	"28.812"	"25.278"	"21.201"	"16.226"
"1963"	"14.694"	"19.517"	"23.063"	"28.541"	"32.412"	"33.949"	"32.089"	"29.278"	"28.633"	"27.064"	"22.3"	"16.031"
"1964"	"13.715"	"17.587"	"25.194"	"30.247"	"31.66"	"34.821"	"29.88"	"30.212"	"28.753"	"26.698"	"20.12"	"16.163"
"1965"	"16.597"	"17.126"	"22.198"	"27.359"	"32.557"	"36.062"	"31.126"	"30.029"	"29.218"	"26.586"	"21.669"	"15.681"
"1966"	"15.808"	"20.095"	"23.387"	"29.854"	"33.674"	"33.41"	"32.309"	"29.538"	"29.525"	"27.11"	"21.343"	"15.526"
"1967"	"14.06"	"19.738"	"22.021"	"28.709"	"33.391"	"34.864"	"30.523"	"28.274"	"28.269"	"25.697"	"20.31"	"15.867"
"1968"	"13.464"	"15.894"	"22.693"	"28.63"	"32.865"	"34.049"	"29.793"	"29.184"	"29.951"	"25.828"	"20.716"	"16.096"
"1969"	"14.783"	"18.607"	"26"	"29.299"	"32.032"	"35.492"	"30.343"	"29.205"	"28.573"	"26.711"	"21.789"	"16.206"
"1970"	"14.959"	"16.771"	"22.476"	"30.865"	"33.598"	"32.348"	"31.562"	"29.759"	"29.317"	"26.61"	"20.578"	"16.602"
"1971"	"13.925"	"17.704"	"23.281"	"29.438"	"30.998"	"31.287"	"29.321"	"28.029"	"28.54"	"25.9"	"20.578"	"16.429"
"1972"	"15.39"	"15.628"	"24.189"	"28.552"	"34.693"	"35.085"	"31.903"	"28.867"	"27.961"	"25.611"	"21.328"	"16.322"
"1973"	"14.855"	"18.583"	"23.091"	"31.635"	"34.126"	"33.843"	"31.269"	"28.856"	"29.016"	"25.692"	"20.691"	"14.641"
"1974"	"14.015"	"16.88"	"24.871"	"31.27"	"33.393"	"33.79"	"30.313"	"29.225"	"29.588"	"27.234"	"20.578"	"14.659"
"1975"	"13.37"	"16.772"	"22.818"	"30.972"	"34.565"	"32.643"	"30.257"	"28.957"	"27.965"	"26.953"	"20.193"	"16.323"
"1976"	"15.822"	"17.988"	"23.009"	"28.625"	"32.583"	"32.135"	"30.858"	"28.112"	"28.545"	"26.94"	"22.27"	"16.443"
"1977"	"14.779"	"18.295"	"25.166"	"28.876"	"30.857"	"33.148"	"29.103"	"29.169"	"27.841"	"26.544"	"22.868"	"16.644"
"1978"	"14.44"	"16.697"	"20.869"	"29.001"	"35.608"	"33.25"	"29.557"	"28.453"	"28.228"	"26.423"	"21.339"	"16.43"
"1979"	"15.402"	"15.918"	"21.411"	"29.97"	"30.232"	"34.155"	"30.87"	"30.337"	"30.068"	"27.724"	"22.566"	"16.329"
"1980"	"14.804"	"18.682"	"22.392"	"31.295"	"35.229"	"32.709"	"29.442"	"29.407"	"28.974"	"26.962"	"21.3"	"16.411"
"1981"	"14.659"	"18.331"	"22.053"	"29.685"	"32.93"	"34.62"	"29.822"	"29.587"	"29.623"	"26.652"	"20.239"	"15.461"
"1982"	"15.385"	"16.236"	"20.135"	"28.266"	"30.908"	"33.782"	"32.225"	"29.359"	"28.995"	"26.746"	"21.209"	"16.731"
"1983"	"14.01"	"16.052"	"22.075"	"26.393"	"31.658"	"33.188"	"30.882"	"29.578"	"28.901"	"25.645"	"20.109"	"15.674"
"1984"	"13.922"	"15.664"	"24.747"	"29.655"	"35.444"	"33.956"	"30.147"	"29.328"	"28.253"	"26.214"	"20.286"	"16.356"
"1985"	"14.114"	"18.08"	"25.416"	"30.024"	"34.208"	"34.315"	"30.176"	"29.308"	"28.05"	"24.594"	"21.044"	"16.729"
"1986"	"14.773"	"17.011"	"22.545"	"29.136"	"31.422"	"33.826"	"29.824"	"29.953"	"29.444"	"25.784"	"21.633"	"14.835"
"1987"	"15.25"	"19.122"	"24.36"	"30.281"	"31.304"	"35.562"	"33.273"	"30.759"	"30.881"	"27.578"	"21.656"	"16.522"
"1988"	"16.812"	"19.355"	"23.761"	"30.93"	"35.154"	"33.427"	"30.215"	"29.329"	"29.743"	"26.922"	"21.161"	"16.242"
"1989"	"13.832"	"17.234"	"22.957"	"28.403"	"33.905"	"32.567"	"30.342"	"29.29"	"29.382"	"26.472"	"20.357"	"15.544"
"1990"	"17.157"	"17.216"	"21.039"	"29.026"	"32.298"	"34.31"	"29.964"	"29.636"	"28.681"	"25.886"	"21.36"	"16.076"
"1991"	"13.14"	"18.383"	"23.328"	"28.152"	"33.75"	"33.921"	"32.499"	"29.268"	"29.654"	"25.88"	"19.969"	"15.323"
"1992"	"14.813"	"16.51"	"23.104"	"29.315"	"32.508"	"34.355"	"31.183"	"29.171"	"28.437"	"25.757"	"20.712"	"16.022"
"1993"	"14.624"	"19.381"	"20.577"	"28.003"	"33.753"	"34.678"	"30.843"	"30.203"	"28.67"	"26.3"	"21.589"	"16.166"
"1994"	"16.86"	"17.396"	"24.309"	"27.886"	"34.024"	"34.712"	"30.695"	"29.549"	"28.981"	"25.964"	"21.001"	"16.493"
"1995"	"14.066"	"17.881"	"22.164"	"29.342"	"35.225"	"35.828"	"31.173"	"28.963"	"29.432"	"27.308"	"21.291"	"16.584"
"1996"	"14.147"	"17.821"	"23.946"	"29.539"	"33.646"	"33.128"	"30.655"	"28.264"	"29.055"	"26.497"	"20.346"	"15.038"
"1997"	"14.079"	"17.037"	"22.621"	"27.921"	"31.39"	"32.507"	"32.146"	"29.375"	"29.142"	"24.353"	"20.287"	"14.454"
"1998"	"12.265"	"17.966"	"21.238"	"29.618"	"34.3"	"34.487"	"30.739"	"29.471"	"29.699"	"26.765"	"22.299"	"16.856"
"1999"	"14.229"	"19.276"	"24.75"	"32.073"	"33.772"	"33.297"	"31.737"	"30.38"	"29.349"	"26.931"	"22.593"	"16.663"
"2000"	"15.158"	"16.833"	"22.569"	"31.159"	"33.823"	"32.447"	"30.535"	"30.043"	"29.487"	"27.501"	"23.238"	"16.845"
"2001"	"14.156"	"18.289"	"23.309"	"28.884"	"32.905"	"32.167"	"31.137"	"30.614"	"30.356"	"27.78"	"22.293"	"16.916"
"2002"	"15.181"	"17.426"	"24.148"	"30.64"	"34.703"	"34.246"	"33.392"	"30.308"	"28.116"	"27.081"	"21.495"	"16.488"
