
"Year"	"Jan"	"Feb"	"Mar"	"Apr"	"May"	"Jun"	"Jul"	"Aug"	"Sep"	"Oct"	"Nov"	"Dec"
"1901"	"26.255"	"12.184"	"7.694"	"0.153"	"11.432"	"26.153"	"163.518"	"258.611"	"17.431"	"1.061"	"0"	"3.973"
"1902"	"0.26"	"0.364"	"1.368"	"4.627"	"6.259"	"93.776"	"272.657"	"163.107"	"90.434"	"2.426"	"0"	"0"
"1903"	"4.216"	"1.269"	"5.632"	"0.366"	"4.182"	"4.685"	"130.593"	"147.231"	"52.882"	"21.595"	"0"	"0.081"
"1904"	"4.701"	"0.143"	"16.033"	"0.182"	"16.573"	"50.976"	"220.064"	"271.217"	"169.087"	"0.618"	"17.553"	"14.208"
"1905"	"28.76"	"18.667"	"6.596"	"1.576"	"2.541"	"19.42"	"129.59"	"28.765"	"76.248"	"0.134"	"0"	"1.28"
"1906"	"1.599"	"37.358"	"15.893"	"0.294"	"1.347"	"119.903"	"161.115"	"122.823"	"232.719"	"0.616"	"0"	"6.674"
"1907"	"11.461"	"41.637"	"9.241"	"32.2"	"6.048"	"9.318"	"67.376"	"225.388"	"1.359"	"0.101"	"0"	"0"
"1908"	"27.308"	"8.854"	"0.151"	"2.618"	"9.18"	"14.944"	"364.886"	"474.168"	"19.974"	"1.899"	"0.041"	"0.602"
"1909"	"13.458"	"11.197"	"0"	"24.336"	"25.68"	"139.206"	"311.515"	"120.204"	"121.463"	"1.162"	"0"	"21.422"
"1910"	"13.895"	"8.647"	"0.896"	"2.266"	"2.811"	"33.976"	"188.606"	"175.92"	"174.55"	"11.318"	"0.184"	"0.191"
"1911"	"36.941"	"0.018"	"16.163"	"0.832"	"0.149"	"58.61"	"37.751"	"71.449"	"263.808"	"15.701"	"42.917"	"2.949"
"1912"	"29.656"	"12.977"	"5.76"	"15.466"	"8.338"	"26.448"	"182.388"	"235.399"	"231.864"	"0.154"	"4.292"	"1.702"
"1913"	"1.238"	"39.941"	"5.809"	"1.979"	"21.113"	"109.967"	"96.591"	"72.333"	"16.989"	"0.283"	"0.953"	"6.93"
"1914"	"0.062"	"7.567"	"2.544"	"15.301"	"16.869"	"42.439"	"309.638"	"112.539"	"289.463"	"12.031"	"8.796"	"0.044"
"1915"	"17.945"	"29.909"	"42.307"	"18.393"	"2.922"	"34.667"	"106.692"	"159.226"	"99.136"	"6.385"	"0"	"0.603"
"1916"	"0.018"	"24.518"	"0"	"2.951"	"3.728"	"63.113"	"200.224"	"317.892"	"129.563"	"12.156"	"0"	"0"
"1917"	"5.713"	"10.444"	"10.659"	"16.049"	"23.274"	"81.439"	"300.413"	"177.206"	"223.083"	"38.306"	"0"	"3.281"
"1918"	"10.264"	"0"	"6.38"	"4.746"	"2.625"	"29.221"	"42.037"	"193.746"	"22.561"	"0.344"	"2.726"	"0.253"
"1919"	"39.663"	"1.77"	"3.901"	"5.776"	"5.847"	"12.124"	"157.296"	"270.382"	"42.6"	"1.603"	"2.58"	"7.378"
"1920"	"7.062"	"13.134"	"12.427"	"0.369"	"11.327"	"96.865"	"286.535"	"111.068"	"25.089"	"0.721"	"0"	"0.027"
"1921"	"27.497"	"0.242"	"0.171"	"2.185"	"0.229"	"22.818"	"87.269"	"287.407"	"210.437"	"12.481"	"0"	"0.033"
"1922"	"16.165"	"1.693"	"0.242"	"1.117"	"0.32"	"51.464"	"162.206"	"230.691"	"182.42"	"4.441"	"0.594"	"24.378"
"1923"	"4.086"	"40.486"	"0.31"	"0.066"	"5.638"	"3.543"	"197.47"	"305.766"	"100.708"	"10.717"	"2.305"	"7.924"
"1924"	"26.935"	"18.096"	"1.341"	"0.324"	"8.121"	"21.872"	"109.06"	"274.067"	"297.958"	"31.829"	"2.32"	"13.672"
"1925"	"4.815"	"0.027"	"0.272"	"0.679"	"19.973"	"109.752"	"346.216"	"139.061"	"13.794"	"1.235"	"31.87"	"0"
"1926"	"7.253"	"2.987"	"33.283"	"12.166"	"17.997"	"9.787"	"266.969"	"281.527"	"64.476"	"0.686"	"3.767"	"0.433"
"1927"	"0.151"	"22.886"	"9.871"	"3.479"	"15.526"	"17.401"	"183.195"	"261.691"	"33.611"	"31.484"	"4.034"	"13.891"
"1928"	"15.816"	"39.336"	"5.459"	"9.473"	"4.161"	"37.503"	"116.679"	"39.374"	"35.752"	"23.969"	"17.313"	"18.835"
"1929"	"6.589"	"0.455"	"0.502"	"13.052"	"0.98"	"32.173"	"111.031"	"115.296"	"10.09"	"5.421"	"0"	"19.103"
"1930"	"27.361"	"17.79"	"0.573"	"1.007"	"6.328"	"82.747"	"348.281"	"111.752"	"42.197"	"18.6"	"2.116"	"1.837"
"1931"	"2.218"	"16.364"	"3.886"	"3.509"	"4.747"	"8.597"	"217.3"	"136.182"	"180.673"	"47.528"	"0.184"	"0"
"1932"	"0.073"	"1.294"	"12.159"	"5.787"	"3.834"	"14.618"	"94.242"	"157.443"	"258.175"	"0.705"	"0.04"	"1.107"
"1933"	"2.155"	"12.772"	"2.697"	"4.037"	"33.647"	"205.679"	"145.205"	"436.853"	"269.19"	"30.838"	"0.044"	"0.04"
"1934"	"19.883"	"0.213"	"27.69"	"0.049"	"2.58"	"66.143"	"248.327"	"261.022"	"26.82"	"0.101"	"0"	"16.831"
"1935"	"25.112"	"22.047"	"3.075"	"11.137"	"0.463"	"41.703"	"222.677"	"130.906"	"168.443"	"3.683"	"5.017"	"6.323"
"1936"	"1.637"	"13.95"	"11.733"	"1.309"	"4.637"	"242.006"	"224.79"	"253.101"	"138.686"	"1.213"	"7.281"	"30.609"
"1937"	"0.171"	"56.748"	"0.441"	"12.729"	"6.849"	"41.298"	"169.249"	"60.784"	"139.983"	"1.554"	"1.275"	"11.162"
"1938"	"33.614"	"3.379"	"5.373"	"1.308"	"1.785"	"43.833"	"192.493"	"87.091"	"28.133"	"3.006"	"0.184"	"0"
"1939"	"5.643"	"21.71"	"4.939"	"1.003"	"0.817"	"86.412"	"148.139"	"99.377"	"93.396"	"2.301"	"0"	"0"
"1940"	"27.137"	"32.808"	"3.776"	"3.928"	"4.784"	"19.91"	"177.875"	"225.613"	"17.018"	"0.404"	"0.895"	"2.146"
"1941"	"33.544"	"4.21"	"2.117"	"0"	"15.488"	"49.666"	"55.896"	"127.462"	"49.481"	"0.687"	"0.184"	"4.98"
"1942"	"15.32"	"14.434"	"0.575"	"8.675"	"5.135"	"33.556"	"401.546"	"205.729"	"182.757"	"0.101"	"0"	"7.178"
"1943"	"12.814"	"0.364"	"1.207"	"18.603"	"9.172"	"53.012"	"139.322"	"203.479"	"120.605"	"0.101"	"0"	"0"
"1944"	"22.991"	"35.118"	"35.607"	"39.066"	"0.116"	"52.872"	"284.386"	"89.189"	"141.875"	"32.588"	"0.04"	"0.044"
"1945"	"18.406"	"0"	"0.585"	"6.414"	"12.797"	"25.451"	"161.216"	"321.206"	"190.744"	"9.724"	"0"	"0"
"1946"	"0.018"	"7.622"	"0.333"	"2.095"	"14.403"	"87.207"	"224.502"	"217.531"	"41.505"	"5.162"	"1.731"	"3.464"
"1947"	"8.147"	"7.873"	"7.74"	"0.761"	"3.567"	"13.096"	"162.84"	"139.248"	"283.687"	"28.677"	"0.184"	"4.637"
"1948"	"38.062"	"23.134"	"9.637"	"0.675"	"5.501"	"8.371"	"223.529"	"340.651"	"193.417"	"12.896"	"1.505"	"0.246"
"1949"	"1.14"	"18.252"	"3.251"	"1.535"	"6.807"	"7.059"	"425.566"	"193.415"	"159.938"	"4.148"	"0.04"	"0.162"
"1950"	"8.128"	"2.564"	"8.978"	"0.04"	"14.27"	"23.625"	"362.896"	"217.482"	"157.664"	"0.101"	"0.04"	"0.6"
"1951"	"14.001"	"1.962"	"26.507"	"13.761"	"3.558"	"25.741"	"117.789"	"146.712"	"136.33"	"5.663"	"24.084"	"0"
"1952"	"4.798"	"14.892"	"20.166"	"6.004"	"15.786"	"39.462"	"97.826"	"397.113"	"5.29"	"0.101"	"1.445"	"11.102"
"1953"	"47.704"	"0.142"	"0.18"	"2.721"	"1.645"	"27.972"	"239.059"	"237.669"	"51.441"	"0.948"	"0.022"	"0.06"
"1954"	"19.358"	"46.664"	"7.027"	"0"	"0.553"	"15.008"	"248.065"	"100.603"	"83.849"	"34.884"	"0.002"	"0.059"
"1955"	"26.555"	"0.762"	"4.637"	"11.849"	"3.927"	"69.14"	"180.097"	"281.647"	"198.147"	"67.805"	"0"	"0.042"
"1956"	"15.891"	"1.716"	"15.756"	"1.604"	"4.647"	"39.22"	"318.009"	"205.169"	"26.98"	"70.101"	"0.919"	"6.331"
"1957"	"33.364"	"0.018"	"24.271"	"5.189"	"7.976"	"34.3"	"294.203"	"121.463"	"201.349"	"22.765"	"11.33"	"10.309"
"1958"	"13.002"	"3.267"	"7.313"	"1.3"	"3.514"	"10.006"	"402.988"	"277.419"	"251.207"	"15.845"	"2.303"	"4.881"
"1959"	"23.711"	"1.753"	"1.872"	"0.759"	"28.419"	"23.274"	"178.022"	"209.653"	"85.233"	"4.092"	"6.485"	"0"
"1960"	"7.009"	"0"	"21.429"	"4.204"	"5.67"	"24.102"	"229.787"	"375.283"	"43.376"	"66.509"	"0"	"3.141"
"1961"	"18.462"	"34.848"	"0"	"3.25"	"13.007"	"59.608"	"190.023"	"553.265"	"64.172"	"54.056"	"2.11"	"4.577"
"1962"	"25.177"	"7.797"	"7.431"	"0.537"	"2.003"	"26.005"	"211.474"	"146.689"	"175.807"	"0.11"	"2.84"	"9.119"
"1963"	"5.561"	"6.457"	"5.354"	"4.436"	"11.56"	"72.666"	"92.172"	"280.351"	"276.874"	"1.183"	"4.82"	"13.696"
"1964"	"0.679"	"0.853"	"1.335"	"2.825"	"14.549"	"16.157"	"485.666"	"361.544"	"204.828"	"0.102"	"0"	"7.82"
"1965"	"4.548"	"9.71"	"1.867"	"11.479"	"4.321"	"4.912"	"211.835"	"172.252"	"147.942"	"9.592"	"0.095"	"0"
"1966"	"1.806"	"15.413"	"0.593"	"0.562"	"39.677"	"105.158"	"128.116"	"278.056"	"53.347"	"15.884"	"10.775"	"0.333"
"1967"	"0.027"	"1.435"	"26.887"	"0.784"	"0.769"	"25.021"	"223.32"	"526.956"	"117.058"	"12.18"	"8.968"	"35.229"
"1968"	"18.905"	"7.585"	"5.713"	"1.168"	"3.087"	"27.147"	"271.561"	"215.253"	"20.904"	"9.227"	"0"	"0.284"
"1969"	"3.566"	"10.07"	"6.779"	"1.941"	"21.522"	"35.157"	"250.97"	"177.511"	"178.392"	"0.283"	"0.939"	"0"
"1970"	"32.75"	"39.107"	"22.427"	"0"	"35.776"	"88.565"	"79.578"	"256.109"	"131.829"	"5.733"	"0"	"0"
"1971"	"12.643"	"11.144"	"1.165"	"8.457"	"28.994"	"87.351"	"229.253"	"313.253"	"140.053"	"21.12"	"2.287"	"0"
"1972"	"5.735"	"14.964"	"0.782"	"6.643"	"0.301"	"27.208"	"217.616"	"307.591"	"81.517"	"17.412"	"4.035"	"2.133"
"1973"	"18.402"	"10.363"	"1.507"	"0"	"8.231"	"23.866"	"160.033"	"334.464"	"90.03"	"37.78"	"0"	"2.718"
"1974"	"0.887"	"0.901"	"1.748"	"0.153"	"6.267"	"15.844"	"266.152"	"105.002"	"8.88"	"26.598"	"0"	"4.64"
"1975"	"14.58"	"4.522"	"5.106"	"0.64"	"0.736"	"77.926"	"364.922"	"250.872"	"240.519"	"32.709"	"0"	"0"
"1976"	"0.085"	"15.636"	"5.462"	"5.365"	"31.573"	"75.28"	"286.12"	"348.815"	"68.846"	"0.523"	"4.607"	"0.618"
"1977"	"23.616"	"0.993"	"0.049"	"28.299"	"21.162"	"57.042"	"400.004"	"121.9"	"158.831"	"23.563"	"0"	"6.412"
"1978"	"0.404"	"17.831"	"21.376"	"7.082"	"0.4"	"93.057"	"230.934"	"294.139"	"200.487"	"0.705"	"0.621"	"5.299"
"1979"	"11.174"	"43.994"	"9.978"	"3.499"	"16.586"	"54.008"	"128.761"	"64.339"	"29.534"	"1.548"	"4.834"	"5.368"
"1980"	"2.466"	"7.286"	"18.721"	"1.093"	"6.414"	"65.058"	"334.175"	"181.386"	"71.084"	"10.013"	"1.802"	"15.124"
"1981"	"18.269"	"8.756"	"16.683"	"0.142"	"15.893"	"169.237"	"236.001"	"90.181"	"69.138"	"0.156"	"32.563"	"6.504"
"1982"	"15.689"	"6.196"	"30.701"	"33.749"	"41.171"	"50.695"	"201.926"	"315.454"	"13.098"	"15.663"	"13.486"	"8.236"
"1983"	"30.91"	"13.262"	"4.889"	"41.061"	"45.456"	"59.373"	"184.656"	"255.831"	"155.678"	"21.88"	"0"	"4.311"
"1984"	"1.154"	"7.696"	"0.356"	"32.257"	"2.129"	"44.885"	"151.248"	"293.943"	"104.477"	"0.151"	"0"	"0.569"
"1985"	"2.211"	"0.142"	"1.637"	"14.263"	"4.393"	"46.465"	"434.831"	"274.274"	"92.98"	"59.848"	"0"	"21.286"
"1986"	"14.902"	"29.295"	"7.808"	"4.517"	"23.229"	"52.105"	"117.753"	"140.412"	"78.829"	"11.069"	"1.169"	"20.315"
"1987"	"19.749"	"13.83"	"8.392"	"2.368"	"44.855"	"11.044"	"56.926"	"153.347"	"26.81"	"1.818"	"0"	"5.536"
"1988"	"1.78"	"12.439"	"22.609"	"10.79"	"4.514"	"61.299"	"262.317"	"410.21"	"117.384"	"0.515"	"0.04"	"2.178"
"1989"	"40.992"	"2.74"	"20.324"	"0.26"	"2.709"	"19.241"	"101.111"	"168.821"	"111.782"	"3.676"	"8.292"	"3.979"
"1990"	"0.018"	"31.913"	"3.121"	"2.761"	"29.041"	"57.066"	"205.654"	"302.464"	"235.281"	"1.343"	"3.055"	"16.942"
"1991"	"0.826"	"31.914"	"3.606"	"3.732"	"31.629"	"26.102"	"57.766"	"325.75"	"93.296"	"0.101"	"14.163"	"21.372"
"1992"	"16.731"	"19.347"	"6.268"	"6.026"	"7.669"	"15.132"	"90.113"	"204.733"	"99.568"	"15.163"	"30.316"	"0"
"1993"	"10.269"	"5.07"	"8.829"	"5.476"	"13.172"	"118.566"	"316.619"	"151.209"	"225.403"	"0.91"	"0"	"0"
"1994"	"19.176"	"9.279"	"12.713"	"8.116"	"11.008"	"50.34"	"471.992"	"257.796"	"13.217"	"0.101"	"0"	"0.897"
"1995"	"41.304"	"17.726"	"16.382"	"5.689"	"0.37"	"24.897"	"86.873"	"474.326"	"167.707"	"0.492"	"2.805"	"0.329"
"1996"	"7.515"	"13.004"	"2.643"	"1.396"	"17.827"	"139.385"	"176.326"	"306.869"	"217.461"	"18.301"	"0"	"0"
"1997"	"5.555"	"1.374"	"5.598"	"21.545"	"34.427"	"115.32"	"55.783"	"188.58"	"100.485"	"38.299"	"20.574"	"10.748"
"1998"	"0.633"	"17.43"	"20.21"	"8.398"	"11.703"	"89.785"	"156.062"	"251.418"	"171.343"	"38.29"	"14.932"	"0.409"
"1999"	"28.641"	"4.383"	"0"	"0"	"8.597"	"88.114"	"127.372"	"125.582"	"121.286"	"27.656"	"0"	"1.086"
"2000"	"17.594"	"33.628"	"9.041"	"1.814"	"11.854"	"75.786"	"255.706"	"158.851"	"39.417"	"0.101"	"1.109"	"14.388"
"2001"	"8.74"	"10.707"	"3.144"	"25.971"	"47.348"	"92.494"	"126.598"	"251.188"	"44.879"	"7.222"	"0"	"0.18"
"2002"	"14.084"	"15.4"	"3.473"	"1.352"	"3.902"	"34.244"	"21.224"	"148.954"	"183.428"	"3.867"	"0.5"	"7.925"
