
"Year"	"Jan"	"Feb"	"Mar"	"Apr"	"May"	"Jun"	"Jul"	"Aug"	"Sep"	"Oct"	"Nov"	"Dec"
"1901"	"84.059"	"36.538"	"8.495"	"3.963"	"4.757"	"34.547"	"181.14"	"302.016"	"233.455"	"7.142"	"2.201"	"0"
"1902"	"13.259"	"5.068"	"0.739"	"3.113"	"4.751"	"31.98"	"362.784"	"187.674"	"299.674"	"3.666"	"2.058"	"0.066"
"1903"	"4.604"	"4.112"	"2.236"	"1.374"	"11.627"	"61.927"	"113.74"	"312.523"	"153.953"	"72.774"	"0"	"0"
"1904"	"5.505"	"4.175"	"29.68"	"0.201"	"47.339"	"55.277"	"303.01"	"511.568"	"73.289"	"85.444"	"11.019"	"8.998"
"1905"	"15.268"	"15.775"	"33.016"	"4.137"	"2.853"	"15.729"	"335.074"	"286.525"	"314.011"	"2.791"	"0"	"1.03"
"1906"	"8.245"	"50.977"	"20.716"	"0.139"	"6.473"	"98.285"	"403.903"	"246.268"	"199.782"	"29.069"	"0.564"	"1.13"
"1907"	"0.2"	"92.289"	"23.402"	"23.91"	"4.71"	"175.36"	"187.882"	"350.847"	"81.235"	"1.658"	"0.298"	"1.03"
"1908"	"16.706"	"45.277"	"4.761"	"0.141"	"1.026"	"21.287"	"304.807"	"400.53"	"63.809"	"46.732"	"0"	"0.533"
"1909"	"3.92"	"6.672"	"0.099"	"28.124"	"1.735"	"245.609"	"476.703"	"190.776"	"157.211"	"0.757"	"0"	"10.865"
"1910"	"12.105"	"4.743"	"14.288"	"2.682"	"8.891"	"117.055"	"180.637"	"311.679"	"216.642"	"37.835"	"73.798"	"0"
"1911"	"18.67"	"0.198"	"43.354"	"2.467"	"3.424"	"246.063"	"80.902"	"283.694"	"282.645"	"97.024"	"74.15"	"0"
"1912"	"2.638"	"6.262"	"5.544"	"4.654"	"10.256"	"49.808"	"288.435"	"312.728"	"76.884"	"2.397"	"36.239"	"0.332"
"1913"	"0.2"	"68.962"	"40.872"	"0.209"	"22.497"	"210.407"	"223.825"	"311.588"	"105.269"	"33.431"	"3.882"	"12.851"
"1914"	"4.937"	"15.088"	"24.248"	"17.078"	"31.08"	"50.21"	"335.387"	"359.861"	"128.104"	"2.565"	"0"	"2.192"
"1915"	"14.585"	"64.329"	"42.333"	"3.85"	"4.359"	"61.634"	"292.414"	"275.206"	"263.806"	"68.619"	"32.342"	"1.263"
"1916"	"0.2"	"29.306"	"0"	"1.318"	"2.443"	"176.295"	"320.177"	"405.838"	"149.899"	"87.481"	"7.765"	"0"
"1917"	"4.55"	"55.245"	"16.584"	"1.71"	"37.742"	"164.609"	"269.63"	"451.06"	"165.744"	"101.764"	"0"	"3.817"
"1918"	"0.2"	"0.561"	"4.949"	"1.532"	"5.017"	"265.269"	"90.351"	"408.984"	"134.951"	"0.617"	"0.929"	"0.166"
"1919"	"67.19"	"16.151"	"13.893"	"6.746"	"16.074"	"120.662"	"301.749"	"453.086"	"168.748"	"68.339"	"1.425"	"0.532"
"1920"	"0.2"	"23.079"	"34.278"	"0.006"	"8.748"	"40.425"	"632.359"	"286.689"	"81.379"	"2.391"	"0"	"0"
"1921"	"59.117"	"10.938"	"0.135"	"0.741"	"0.006"	"189.251"	"251.022"	"424.828"	"113.211"	"3.65"	"0"	"0"
"1922"	"28.066"	"5.022"	"0"	"4.435"	"0.137"	"139.33"	"417.399"	"389.954"	"323.064"	"28.602"	"11.113"	"6.527"
"1923"	"0.531"	"48.835"	"0.596"	"0.535"	"0.624"	"57.278"	"339.767"	"532.959"	"207.64"	"26.942"	"7.133"	"1.759"
"1924"	"18.958"	"15.099"	"1.137"	"7.899"	"3.548"	"41.94"	"389.643"	"270.615"	"228.834"	"52.709"	"39.326"	"1.362"
"1925"	"3.69"	"3.017"	"4.043"	"0.345"	"20.498"	"102.857"	"507.788"	"429.692"	"260.419"	"4.334"	"34.96"	"0"
"1926"	"10.929"	"1.292"	"70.479"	"6.754"	"25.701"	"18.774"	"300.089"	"296.816"	"222.334"	"32.921"	"5.672"	"5.855"
"1927"	"17.412"	"43.389"	"43.892"	"0.34"	"4.922"	"35.286"	"424.828"	"364.152"	"141.362"	"45.84"	"57.284"	"0.398"
"1928"	"23.883"	"26.437"	"0.838"	"12.786"	"8.537"	"69.076"	"348.213"	"132.96"	"89.201"	"93.192"	"0"	"7.346"
"1929"	"61.127"	"6.495"	"2.511"	"1.886"	"3.858"	"72.717"	"463.535"	"354.219"	"84.859"	"122.526"	"0"	"18.03"
"1930"	"10.152"	"15.833"	"3.391"	"5.913"	"1.912"	"51.365"	"376.925"	"223.641"	"184.692"	"15.146"	"41.129"	"11.065"
"1931"	"1.365"	"54.328"	"13.995"	"0.205"	"2.41"	"63.168"	"352.706"	"341.566"	"237.426"	"80.263"	"15.421"	"1.532"
"1932"	"0.2"	"15.967"	"0.912"	"0.508"	"11.609"	"55.056"	"334.387"	"376.231"	"124.541"	"23.525"	"25.323"	"1.529"
"1933"	"18.125"	"33.978"	"6.274"	"24.814"	"24.392"	"134.474"	"208.724"	"360.128"	"121.356"	"53.946"	"0.196"	"0.066"
"1934"	"27.36"	"5.396"	"12.598"	"2.886"	"0.279"	"104.923"	"246.522"	"383.103"	"201.776"	"20.498"	"29.504"	"1.294"
"1935"	"8.359"	"19.283"	"1.736"	"7.684"	"0.684"	"126.665"	"336.739"	"507.641"	"200.377"	"1.658"	"0"	"3.652"
"1936"	"5.416"	"45.062"	"15.087"	"1.395"	"17.869"	"207.735"	"405.355"	"323.273"	"279.927"	"64.095"	"3.054"	"13.772"
"1937"	"0.2"	"57.506"	"7.542"	"11.673"	"7.255"	"67.407"	"363.736"	"318.612"	"192.023"	"78.624"	"0"	"0"
"1938"	"41.985"	"18.62"	"0.476"	"4.166"	"15.735"	"218.036"	"296.285"	"322.71"	"226.189"	"36.695"	"0"	"0"
"1939"	"16.939"	"20.622"	"10.315"	"5.437"	"0.551"	"168.495"	"380.994"	"325.242"	"242.424"	"21.937"	"0"	"0"
"1940"	"1.025"	"36.941"	"68.306"	"5.963"	"7.613"	"58.284"	"239.292"	"413.765"	"152.291"	"5.235"	"0.331"	"4.566"
"1941"	"30.223"	"7.779"	"8.611"	"0.205"	"9.615"	"133.818"	"210.566"	"334.687"	"167.42"	"24.564"	"2.224"	"0"
"1942"	"63.708"	"59.509"	"13.999"	"5.8"	"0.622"	"100.139"	"304.701"	"400.127"	"275.451"	"2.652"	"0"	"4.752"
"1943"	"20.751"	"9.245"	"1.271"	"19.363"	"11.024"	"33.895"	"321.479"	"626.512"	"232.403"	"24.915"	"0.066"	"0"
"1944"	"27.03"	"55.4"	"69.435"	"4.816"	"3.631"	"53.542"	"376.886"	"541.828"	"90.056"	"45.564"	"0"	"1.029"
"1945"	"48.172"	"18.251"	"0.272"	"5.861"	"8.399"	"110.8"	"218.867"	"203.034"	"204.79"	"67.614"	"0"	"10.201"
"1946"	"0.2"	"33.531"	"11.687"	"8.274"	"8.932"	"177.306"	"370.144"	"457.076"	"221.843"	"45.405"	"40.464"	"2.922"
"1947"	"23.176"	"14.007"	"20.218"	"1.306"	"2.196"	"65.277"	"368.484"	"261.408"	"261.817"	"34.012"	"4.247"	"1.761"
"1948"	"17.529"	"15.051"	"5.36"	"0.676"	"7.709"	"217.624"	"390.21"	"382.2"	"254.446"	"35.449"	"57.8"	"0.696"
"1949"	"2.078"	"39.54"	"9.051"	"2.438"	"18.897"	"49.377"	"316.767"	"512.45"	"130.162"	"96.368"	"0.266"	"0"
"1950"	"16.482"	"16.37"	"59.72"	"0.227"	"0.79"	"116.877"	"322.094"	"448.645"	"99.582"	"6.23"	"0.564"	"10.593"
"1951"	"12.976"	"13.495"	"46.797"	"13.843"	"2.065"	"143.383"	"222.223"	"368.211"	"191.009"	"29.486"	"4.347"	"0"
"1952"	"0.895"	"20.541"	"39.287"	"1.744"	"5.294"	"195.467"	"155.391"	"285.798"	"177.198"	"18.081"	"0"	"1.428"
"1953"	"44.259"	"20.803"	"0.135"	"3.735"	"0.612"	"138.952"	"362.506"	"379.446"	"210.143"	"2.308"	"0"	"2.488"
"1954"	"16.959"	"20.87"	"4.746"	"0.275"	"2.792"	"96.165"	"199.553"	"296.156"	"226.697"	"14.943"	"0"	"0.332"
"1955"	"34.749"	"26.07"	"2.318"	"0.723"	"1.159"	"78.053"	"397.256"	"196.776"	"99.652"	"91.478"	"0.564"	"0.609"
"1956"	"33.195"	"23.668"	"11.493"	"0.691"	"22.088"	"229.013"	"257.723"	"387.106"	"375.517"	"75.594"	"61.5"	"6.109"
"1957"	"27.609"	"1.664"	"36.158"	"1.793"	"0.932"	"85.735"	"365.528"	"306.617"	"135.232"	"0.401"	"0"	"0.711"
"1958"	"33.634"	"10.779"	"41.51"	"5.851"	"0.007"	"61.718"	"344.713"	"274.48"	"186.246"	"75.238"	"0.795"	"1.029"
"1959"	"74.651"	"5.558"	"0"	"0.331"	"23.888"	"35.773"	"250.262"	"334.936"	"131.631"	"141.078"	"0"	"0"
"1960"	"10.039"	"0.198"	"24.619"	"3.732"	"0.83"	"67.112"	"396.586"	"480.259"	"115.203"	"40.92"	"0"	"0"
"1961"	"33.102"	"33.743"	"0.066"	"0.066"	"3.432"	"130.098"	"257.644"	"419.024"	"209.463"	"63.373"	"3.534"	"5.757"
"1962"	"21.487"	"13.586"	"8.028"	"9.096"	"2.328"	"70.543"	"293.789"	"287.944"	"309.012"	"8.813"	"0.364"	"3.737"
"1963"	"17.824"	"10.523"	"27.901"	"6.017"	"28.326"	"98.972"	"427.346"	"401.646"	"186.489"	"30.979"	"12.942"	"1.029"
"1964"	"0.233"	"9.803"	"6.53"	"7.701"	"8.561"	"112.833"	"331.885"	"394.995"	"220.382"	"28.057"	"23.987"	"0"
"1965"	"4.111"	"0.563"	"22.742"	"21.829"	"3.534"	"25.582"	"259.515"	"161.703"	"158.576"	"29.548"	"1.244"	"3.123"
"1966"	"29.267"	"10.27"	"0.232"	"0.099"	"0.795"	"256.531"	"97.658"	"151.366"	"38.358"	"1.1"	"54.037"	"13.297"
"1967"	"14.593"	"0.198"	"44.77"	"4.63"	"3.721"	"66.284"	"286.219"	"546.808"	"206.279"	"5.16"	"0"	"16.207"
"1968"	"34.165"	"8.909"	"3.604"	"0.575"	"0.344"	"81.371"	"206.214"	"239.216"	"57.809"	"20.868"	"0"	"4.075"
"1969"	"3.808"	"8.582"	"0.473"	"3.222"	"29.332"	"65.112"	"474.73"	"279.421"	"168.404"	"1.579"	"26.65"	"0"
"1970"	"29.795"	"51.635"	"7.586"	"0.137"	"27.479"	"156.626"	"314.483"	"254.352"	"503.373"	"36.033"	"0"	"0"
"1971"	"27.49"	"11.412"	"4.483"	"22.158"	"45.945"	"319.752"	"329.871"	"511.848"	"155.019"	"85.265"	"0"	"0"
"1972"	"21.672"	"66.911"	"1.315"	"10.932"	"0.486"	"17.332"	"183.607"	"351.421"	"120.159"	"121.159"	"38.915"	"0.73"
"1973"	"34.455"	"2.007"	"1.011"	"0.37"	"1.195"	"73.69"	"312.903"	"412.825"	"194.544"	"107.617"	"2.015"	"0"
"1974"	"4.057"	"3.457"	"0.271"	"0.206"	"5.68"	"54.636"	"461.252"	"229.147"	"91.255"	"41.901"	"4.477"	"0.347"
"1975"	"36.795"	"10.662"	"28.807"	"2.824"	"4.227"	"129.843"	"403.769"	"168.394"	"143.341"	"44.709"	"2.88"	"0"
"1976"	"26.016"	"8.134"	"0.438"	"11.586"	"4.341"	"38.721"	"274.352"	"172.091"	"425.041"	"0.402"	"2.42"	"0"
"1977"	"17.069"	"15.561"	"0.337"	"17.638"	"40.408"	"119.219"	"434.339"	"274.58"	"195.546"	"60.782"	"34.8"	"7.675"
"1978"	"26.444"	"82.688"	"31.31"	"16.94"	"1.246"	"243.444"	"177.283"	"298.11"	"354.641"	"31.195"	"0.338"	"12.679"
"1979"	"27.937"	"14.625"	"0.34"	"7.329"	"0.942"	"134.916"	"303.807"	"163.602"	"97.167"	"4.164"	"78.567"	"5.126"
"1980"	"16.126"	"7.754"	"10.92"	"0.004"	"5.238"	"212.064"	"419.777"	"455.558"	"126.374"	"12.679"	"0.002"	"7.038"
"1981"	"21.156"	"6.628"	"22.426"	"2.45"	"11.73"	"91.487"	"408.115"	"303.317"	"163.62"	"0.401"	"21.515"	"3.735"
"1982"	"62.164"	"17.62"	"53.444"	"6.508"	"27.471"	"97.553"	"208.137"	"370.554"	"378.172"	"5.286"	"47.944"	"3.79"
"1983"	"10.542"	"6.954"	"5.235"	"14.288"	"32.827"	"105.529"	"286.112"	"190.74"	"127.612"	"56.983"	"0.066"	"2.423"
"1984"	"47.194"	"38.798"	"0.746"	"11.762"	"1.742"	"207.558"	"229.962"	"236.742"	"218.28"	"30.662"	"0.007"	"0"
"1985"	"25.213"	"2.136"	"0.137"	"7.642"	"2.59"	"69.762"	"328.442"	"301.467"	"180.957"	"86.187"	"0"	"1.787"
"1986"	"22.076"	"42.33"	"1.614"	"3.457"	"33.863"	"86.265"	"278.529"	"374.622"	"170.131"	"5.042"	"5.738"	"12.588"
"1987"	"15.175"	"16.438"	"13.308"	"0.889"	"8.103"	"33.423"	"190.463"	"349.131"	"313.867"	"67.767"	"15.226"	"2.854"
"1988"	"13.095"	"14.236"	"31.153"	"2.445"	"14.679"	"176.074"	"243.556"	"230.767"	"112.143"	"21.606"	"0.298"	"8.507"
"1989"	"5.223"	"3.005"	"8.755"	"0.675"	"16.038"	"143.344"	"294.955"	"215.511"	"144.37"	"35.993"	"20.473"	"21.786"
"1990"	"0.2"	"38.933"	"10.299"	"6.41"	"23.673"	"238.948"	"429.224"	"286.828"	"215.764"	"26.265"	"0"	"1.162"
"1991"	"24.521"	"11.982"	"25.639"	"8.591"	"7.287"	"131.776"	"146.616"	"322.5"	"146.392"	"4.899"	"1.627"	"22.081"
"1992"	"34.547"	"7.527"	"0.271"	"3.863"	"7.73"	"25.685"	"115.876"	"129.298"	"132.792"	"63.632"	"15.032"	"0"
"1993"	"10.933"	"0.795"	"12.896"	"0.814"	"18.56"	"25.1"	"133.672"	"172.643"	"265.76"	"46.762"	"0.2"	"0"
"1994"	"77.537"	"21.699"	"33.325"	"8.607"	"2.355"	"244.644"	"302.153"	"326.811"	"97.632"	"53.827"	"0"	"0"
"1995"	"25.712"	"22.914"	"21.686"	"4.885"	"6.165"	"27.422"	"222.527"	"249.198"	"181.598"	"4.182"	"25.635"	"7.073"
"1996"	"42.401"	"20.065"	"0.978"	"1.04"	"2.023"	"212.16"	"242.069"	"335.399"	"119.977"	"101.993"	"0.265"	"0"
"1997"	"24.097"	"0.477"	"2.095"	"6.422"	"27.723"	"71.775"	"137.762"	"305.764"	"154.719"	"19.957"	"41.288"	"13.9"
"1998"	"9.964"	"9.595"	"12.754"	"6.533"	"36.779"	"47"	"229.045"	"305.965"	"157.713"	"66.344"	"24.541"	"0"
"1999"	"42.472"	"32.704"	"0"	"0"	"16.275"	"47.275"	"320.381"	"235.109"	"149.578"	"25.272"	"0"	"0.47"
"2000"	"11.473"	"18.052"	"0.343"	"4.81"	"6.998"	"108.714"	"148.068"	"129.29"	"253.147"	"0.401"	"0"	"0"
"2001"	"3.396"	"1.557"	"26.556"	"7.135"	"5.077"	"68.863"	"213.825"	"262.575"	"59.143"	"68.537"	"4.156"	"0.002"
"2002"	"32.901"	"17.083"	"5.276"	"2.46"	"2.652"	"29.096"	"122.836"	"287.093"	"168.269"	"82.264"	"23.463"	"1.109"
