
"Year"	"Jan"	"Feb"	"Mar"	"Apr"	"May"	"Jun"	"Jul"	"Aug"	"Sep"	"Oct"	"Nov"	"Dec"
"1901"	"22.143"	"23.543"	"27.98"	"31.838"	"33.89"	"32.194"	"27.775"	"26.203"	"27.618"	"26.735"	"22.699"	"20.491"
"1902"	"22.956"	"24.466"	"29.847"	"32.881"	"35.708"	"33.44"	"28.643"	"27.872"	"26.959"	"26.462"	"22.009"	"20.447"
"1903"	"22.211"	"23.205"	"28.387"	"32.575"	"32.819"	"32.842"	"27.587"	"26.869"	"26.858"	"25.024"	"20.922"	"19.514"
"1904"	"22.082"	"23.843"	"28.312"	"33.527"	"34.407"	"30.693"	"27.935"	"27.084"	"26.652"	"26.051"	"21.729"	"20.563"
"1905"	"21.522"	"22.161"	"28.133"	"30.588"	"34.831"	"33.591"	"28.079"	"27.111"	"26.442"	"25.875"	"22.996"	"20.033"
"1906"	"21.866"	"24.412"	"27.649"	"33.457"	"35.902"	"30.814"	"27.51"	"26.958"	"26.555"	"25.748"	"22.692"	"21.007"
"1907"	"21.651"	"24.057"	"27.74"	"29.703"	"33.585"	"31.66"	"28.279"	"25.538"	"27.53"	"26.994"	"23.573"	"19.859"
"1908"	"20.634"	"24.361"	"27.816"	"33.497"	"35.461"	"32.859"	"27.229"	"26.114"	"26.93"	"25.857"	"21.735"	"18.842"
"1909"	"22.794"	"24.524"	"29.251"	"29.881"	"34.249"	"30.402"	"26.91"	"27.286"	"26.652"	"26.047"	"22.712"	"21.303"
"1910"	"21.754"	"23.538"	"28.621"	"33.31"	"34.882"	"30.37"	"27.964"	"26.94"	"26.555"	"25.526"	"20.783"	"19.711"
"1911"	"22.326"	"23.104"	"27.882"	"32.805"	"35.946"	"30.644"	"28.511"	"26.289"	"27.201"	"26.639"	"23.517"	"20.335"
"1912"	"22.081"	"24.879"	"29.034"	"32.126"	"34.996"	"34.653"	"28.104"	"26.612"	"27.255"	"26.345"	"22.275"	"19.598"
"1913"	"20.88"	"24.939"	"28.234"	"33.846"	"33.908"	"30.418"	"27.702"	"26.904"	"27.702"	"26.589"	"22.783"	"21.08"
"1914"	"21.569"	"25.157"	"28.37"	"30.812"	"34.209"	"30.706"	"27.519"	"26.773"	"26.795"	"26.221"	"23.298"	"20.746"
"1915"	"21.379"	"23.777"	"27.158"	"31.781"	"35.024"	"33.87"	"28.524"	"26.916"	"27.226"	"26.779"	"24.239"	"19.658"
"1916"	"21.567"	"24.35"	"28.906"	"33.076"	"34.437"	"29.07"	"28.056"	"26.98"	"26.998"	"26.253"	"22.803"	"19.085"
"1917"	"21.037"	"22.734"	"26.606"	"30.37"	"32.575"	"29.486"	"27.43"	"27.103"	"26.381"	"25.921"	"21.815"	"20.384"
"1918"	"20.138"	"24.074"	"28.107"	"32.007"	"32.907"	"29.431"	"28.987"	"26.848"	"27.805"	"26.1"	"23.42"	"20.707"
"1919"	"22.768"	"24.196"	"28.492"	"31.747"	"33.675"	"29.989"	"27.827"	"26.641"	"27.45"	"25.526"	"23.29"	"19.945"
"1920"	"21.681"	"23.987"	"28.594"	"31.647"	"33.208"	"32.672"	"27.696"	"27.743"	"28.001"	"27.325"	"23.133"	"20.742"
"1921"	"22.416"	"24.15"	"30.238"	"33.518"	"37.112"	"31.04"	"28.093"	"27.052"	"26.729"	"25.813"	"20.984"	"20.543"
"1922"	"21.392"	"24.342"	"29.38"	"33.285"	"35.244"	"31.23"	"27.564"	"27.255"	"26.556"	"25.686"	"22.54"	"19.449"
"1923"	"21.455"	"23.752"	"27.7"	"32.707"	"34.869"	"35.003"	"27.369"	"26.389"	"26.834"	"24.813"	"22.485"	"20.865"
"1924"	"22.306"	"25.543"	"29.563"	"33.744"	"35.237"	"33.718"	"28.136"	"27.32"	"26.814"	"25.329"	"21.439"	"20.165"
"1925"	"20.778"	"23.539"	"28.397"	"33.625"	"33.075"	"30.51"	"27.011"	"26.759"	"27.566"	"26.208"	"22.996"	"19.583"
"1926"	"21.977"	"24.74"	"28.324"	"30.35"	"32.712"	"34.816"	"28.472"	"26.81"	"27.151"	"25.831"	"21.538"	"20.265"
"1927"	"23.478"	"24.758"	"28.461"	"33.432"	"35.07"	"31.71"	"27.043"	"27.023"	"27.607"	"26"	"21.145"	"20.895"
"1928"	"22.638"	"24.257"	"28.615"	"32.236"	"35.965"	"31.634"	"27.53"	"27.78"	"27.443"	"26.286"	"22.917"	"20.839"
"1929"	"22.704"	"23.017"	"28.785"	"31.422"	"35.749"	"31.162"	"27.517"	"27.028"	"26.968"	"26.061"	"22.434"	"21.236"
"1930"	"22.295"	"23.051"	"28.972"	"31.543"	"34.707"	"32.114"	"27.856"	"27.061"	"27.365"	"26.632"	"21.948"	"21.352"
"1931"	"21.913"	"25.98"	"28.548"	"33.366"	"35.656"	"32.702"	"27.511"	"26.681"	"27.199"	"25.561"	"22.068"	"20.12"
"1932"	"21.636"	"22.868"	"27.766"	"32.091"	"34.152"	"32.579"	"27.099"	"27.406"	"27.128"	"26.989"	"23.288"	"20.564"
"1933"	"22.306"	"25.644"	"28.35"	"31.182"	"31.179"	"29.516"	"27.448"	"26.567"	"26.683"	"25.471"	"22.488"	"20.448"
"1934"	"20.536"	"24.043"	"28.365"	"32.824"	"35.349"	"31.867"	"27.47"	"26.502"	"26.419"	"25.381"	"21.276"	"20.22"
"1935"	"21.706"	"24.437"	"28.351"	"30.557"	"35.95"	"32.523"	"26.915"	"26.92"	"26.576"	"26.446"	"22.53"	"21.642"
"1936"	"23.646"	"23.836"	"28.494"	"31.958"	"34.896"	"29.332"	"28.078"	"26.794"	"27.171"	"25.833"	"23.386"	"20.834"
"1937"	"20.748"	"24.548"	"27.425"	"31.507"	"34.139"	"32.405"	"27.225"	"27.051"	"27.211"	"25.556"	"23.013"	"20.4"
"1938"	"23.917"	"23.654"	"29.851"	"32.425"	"34.863"	"28.21"	"26.807"	"26.933"	"27.003"	"25.292"	"21.807"	"19.924"
"1939"	"22.203"	"24.828"	"27.385"	"32.233"	"35.818"	"31.628"	"27.241"	"26.967"	"26.949"	"26.491"	"21.749"	"20.041"
"1940"	"20.7"	"24.55"	"27.987"	"32.04"	"34.497"	"31.337"	"26.612"	"26.588"	"27.302"	"26.236"	"23.207"	"21.043"
"1941"	"22.72"	"24.181"	"29.646"	"33.855"	"35.9"	"32.272"	"28.512"	"27.415"	"27.827"	"26.951"	"22.803"	"22.06"
"1942"	"22.214"	"24.134"	"29.084"	"32.806"	"35.975"	"32.947"	"26.759"	"26.653"	"26.692"	"25.894"	"22.502"	"20.728"
"1943"	"23.066"	"22.617"	"28.769"	"31.992"	"34.079"	"30.329"	"27.18"	"26.252"	"26.331"	"25.181"	"22.325"	"18.731"
"1944"	"21.82"	"23.365"	"26.478"	"31.153"	"35.721"	"32.235"	"27.035"	"26.968"	"27.056"	"25.638"	"22.143"	"21.674"
"1945"	"21.361"	"23.791"	"28.869"	"31.022"	"35.354"	"32.105"	"27.136"	"26.869"	"26.582"	"25.579"	"21.319"	"19.302"
"1946"	"20.838"	"23.959"	"28.961"	"31.837"	"34.716"	"29.54"	"27.53"	"26.623"	"26.565"	"27.043"	"23.386"	"22.126"
"1947"	"22.425"	"23.959"	"28.657"	"32.79"	"35.448"	"32.891"	"27.137"	"27.122"	"26.599"	"25.166"	"22.665"	"21.027"
"1948"	"22.226"	"24.468"	"27.938"	"32.842"	"36.498"	"32.174"	"27.792"	"26.909"	"26.508"	"27.026"	"24.07"	"19.053"
"1949"	"21.609"	"23.543"	"29.039"	"32.784"	"34.346"	"30.22"	"27.4"	"27.201"	"26.681"	"26.244"	"21.34"	"20.522"
"1950"	"21.787"	"23.434"	"27.27"	"32.544"	"35.21"	"31.63"	"27.197"	"27.49"	"26.833"	"25.592"	"21.769"	"20.232"
"1951"	"21.118"	"24.463"	"28.82"	"31.847"	"34.63"	"32.055"	"28.333"	"26.825"	"27.701"	"27.536"	"23.371"	"20.419"
"1952"	"22.2"	"25.29"	"28.223"	"33.631"	"36.032"	"32.957"	"28.453"	"26.838"	"27.487"	"26.544"	"21.808"	"22.179"
"1953"	"22.135"	"26.085"	"31.115"	"33.155"	"36.788"	"33.911"	"27.936"	"26.564"	"27.379"	"26.116"	"22.192"	"20.674"
"1954"	"21.278"	"25.776"	"29.037"	"33.499"	"36.704"	"32.416"	"27.383"	"27.287"	"26.2"	"24.779"	"21.633"	"21.309"
"1955"	"22.124"	"25.459"	"29.762"	"31.535"	"34.48"	"31.486"	"27.477"	"26.455"	"26.813"	"25.52"	"20.989"	"20.033"
"1956"	"22.039"	"23.796"	"29.887"	"33.627"	"34.695"	"29.897"	"26.556"	"26.719"	"26.505"	"25.625"	"22.373"	"21.056"
"1957"	"22.715"	"23.641"	"26.664"	"31.343"	"34.067"	"32.548"	"27.386"	"26.686"	"27.44"	"26.711"	"23.784"	"22.335"
"1958"	"22.579"	"25.148"	"28.935"	"33.137"	"35.565"	"34.429"	"27.217"	"27.248"	"26.845"	"26.069"	"23.908"	"20.803"
"1959"	"22.459"	"25.057"	"29.26"	"32.629"	"35.454"	"31.172"	"26.943"	"26.422"	"26.872"	"26.65"	"23.011"	"21.073"
"1960"	"21.764"	"24.601"	"27.665"	"32.04"	"34.9"	"31.463"	"27.867"	"26.936"	"27.658"	"25.77"	"22.38"	"22.108"
"1961"	"22.938"	"23.639"	"30.215"	"33.21"	"34.464"	"30.717"	"27.1"	"26.849"	"26.134"	"25.449"	"22.328"	"20.196"
"1962"	"20.53"	"24.11"	"28.302"	"31.831"	"33.812"	"32.029"	"27.665"	"27.017"	"26.745"	"25.579"	"22.574"	"20.559"
"1963"	"20.539"	"24.076"	"28.09"	"30.644"	"34.182"	"30.415"	"27.747"	"26.705"	"27.336"	"26.339"	"23.714"	"21.029"
"1964"	"22.627"	"25.309"	"29.748"	"33.833"	"35.484"	"31.985"	"27.668"	"26.36"	"27.11"	"26.625"	"22.049"	"20.275"
"1965"	"21.839"	"24.29"	"28.357"	"31.753"	"35.931"	"31.832"	"27.597"	"27.428"	"26.947"	"26.844"	"23.72"	"22"
"1966"	"22.085"	"25.761"	"29.527"	"33.346"	"34.784"	"32.698"	"29.496"	"27.489"	"27.327"	"26.871"	"24.865"	"20.741"
"1967"	"22.288"	"25.223"	"27.937"	"32.245"	"35.206"	"32.441"	"27.95"	"26.825"	"26.968"	"26.084"	"23.26"	"22.579"
"1968"	"20.967"	"24.248"	"27.232"	"30.905"	"34.413"	"32.322"	"27.976"	"26.633"	"27.564"	"25.635"	"22.846"	"21.407"
"1969"	"22.188"	"26.249"	"31.058"	"34.12"	"34.596"	"32.926"	"27.687"	"27.06"	"26.627"	"26.159"	"24.424"	"20.781"
"1970"	"22.485"	"26.154"	"29.388"	"33.209"	"35.565"	"29.296"	"27.862"	"26.601"	"27.044"	"26.476"	"21.774"	"19.475"
"1971"	"21.977"	"24.761"	"27.48"	"32.697"	"33.438"	"29.039"	"27.851"	"27.417"	"27.44"	"26.146"	"21.553"	"19.489"
"1972"	"21.264"	"24.048"	"29.87"	"32.808"	"35.327"	"33.797"	"28.349"	"26.928"	"27.591"	"26.363"	"23.015"	"22.346"
"1973"	"23.392"	"25.966"	"30.156"	"35.343"	"37.156"	"32.386"	"27.354"	"26.719"	"27.083"	"25.738"	"21.998"	"21.132"
"1974"	"21.112"	"25.037"	"29.906"	"33.659"	"34.026"	"31.388"	"28.726"	"26.891"	"28.178"	"26.146"	"21.804"	"19.834"
"1975"	"20.511"	"24.397"	"28.534"	"33.208"	"36.176"	"31.349"	"27.496"	"27.21"	"27.11"	"27.001"	"21.186"	"19.178"
"1976"	"20.632"	"24.931"	"28.87"	"32.173"	"34.455"	"31.413"	"27.543"	"27.06"	"27.171"	"27.051"	"26"	"22.791"
"1977"	"21.737"	"26.007"	"30.552"	"32.61"	"33.094"	"31.776"	"28.166"	"26.592"	"27.315"	"26.771"	"25.152"	"20.879"
"1978"	"21.476"	"24.267"	"28.026"	"32.09"	"36.075"	"30.285"	"26.612"	"25.859"	"27.624"	"26.916"	"25.373"	"20.764"
"1979"	"23.371"	"23.849"	"28.428"	"32.311"	"32.471"	"32.732"	"27.982"	"26.933"	"27.757"	"27.762"	"25.705"	"21.602"
"1980"	"23.658"	"26.367"	"29.77"	"33.452"	"36.257"	"29.358"	"27.61"	"26.276"	"27.517"	"27.081"	"24.679"	"21.203"
"1981"	"20.91"	"25.689"	"28.053"	"32.548"	"33.57"	"31.953"	"26.658"	"26.416"	"27.224"	"26.75"	"22.443"	"20.952"
"1982"	"23.694"	"25.708"	"28.769"	"32.23"	"33.643"	"32.377"	"29.089"	"26.982"	"27.771"	"26.55"	"24.058"	"22.346"
"1983"	"22.385"	"25.093"	"29.627"	"32.524"	"34.904"	"33.651"	"28.707"	"27.726"	"27.358"	"25.723"	"21.827"	"20.099"
"1984"	"22.899"	"24.021"	"29.131"	"32.715"	"36.593"	"31.575"	"27.912"	"26.835"	"27.505"	"26.729"	"22.098"	"22.355"
"1985"	"23.972"	"25.183"	"30.77"	"33.334"	"35.709"	"30.557"	"27.689"	"27.008"	"28.042"	"25.483"	"22.805"	"22.147"
"1986"	"21.534"	"24.912"	"29.226"	"33.237"	"35.42"	"31.589"	"28.308"	"27.194"	"28.458"	"27.122"	"23.576"	"22.108"
"1987"	"22.248"	"24.514"	"28.473"	"33.133"	"33.428"	"33.393"	"28.649"	"27.798"	"29.023"	"26.886"	"23.989"	"21.079"
"1988"	"23.169"	"26.214"	"29.83"	"32.671"	"36.956"	"32.422"	"27.312"	"27.571"	"27.8"	"25.839"	"22.729"	"21.136"
"1989"	"22.117"	"24.654"	"27.829"	"32.613"	"36.045"	"30.681"	"27.887"	"26.538"	"27.758"	"26.424"	"23.671"	"20.803"
"1990"	"23.123"	"24.788"	"28.121"	"33.096"	"31.099"	"28.641"	"27.223"	"27.078"	"27.629"	"25.815"	"24.382"	"21.906"
"1991"	"21.994"	"26.194"	"29.692"	"32.212"	"36.055"	"30.586"	"27.747"	"26.782"	"28.399"	"26.51"	"23.057"	"21.053"
"1992"	"21.767"	"24.419"	"30.204"	"33.028"	"35.571"	"33.106"	"29.635"	"26.551"	"27.781"	"26.477"	"23.457"	"20.08"
"1993"	"22.643"	"24.495"	"28.537"	"32.815"	"36.034"	"32.67"	"28.303"	"27.271"	"27.431"	"26.674"	"22.73"	"19.458"
"1994"	"22.648"	"24.469"	"29.781"	"31.716"	"36.1"	"30.122"	"26.541"	"26.266"	"27.222"	"26.585"	"22.94"	"20.448"
"1995"	"19.712"	"24.36"	"28.33"	"31.856"	"33.03"	"33.669"	"27.981"	"28.052"	"28.03"	"26.535"	"23.559"	"22.588"
"1996"	"23.999"	"25.78"	"29.896"	"31.96"	"36.325"	"33.34"	"28.438"	"27.188"	"27.986"	"26.002"	"23.616"	"20.634"
"1997"	"20.963"	"24.098"	"29.34"	"30.448"	"34.448"	"32.051"	"28.24"	"27.661"	"27.722"	"26.55"	"25.365"	"21.894"
"1998"	"23.132"	"24.93"	"28.016"	"32.636"	"35.508"	"33.11"	"28.861"	"27.887"	"27.855"	"27.328"	"23.822"	"20.201"
"1999"	"20.839"	"25.867"	"29.701"	"34.125"	"34.274"	"30.61"	"27.76"	"26.92"	"26.805"	"26.726"	"23.69"	"20.81"
"2000"	"22.914"	"24.617"	"28.458"	"34.078"	"33.862"	"29.422"	"27.24"	"27.463"	"27.368"	"27.596"	"24.453"	"21.282"
"2001"	"22.673"	"26.464"	"29.641"	"31.808"	"35.664"	"29.854"	"27.737"	"26.928"	"28.65"	"26.789"	"24.909"	"21.823"
"2002"	"22.218"	"25.82"	"29.852"	"33.8"	"36.037"	"31.153"	"28.867"	"26.412"	"27.694"	"27.145"	"23.812"	"23.031"
