
"Year"	"Jan"	"Feb"	"Mar"	"Apr"	"May"	"Jun"	"Jul"	"Aug"	"Sep"	"Oct"	"Nov"	"Dec"
"1901"	"14.721"	"17.731"	"24.105"	"29.556"	"33.808"	"35.24"	"30.161"	"26.652"	"27.105"	"26.632"	"20.969"	"17.427"
"1902"	"17.747"	"19.848"	"26.975"	"30.655"	"34.11"	"33.852"	"28.463"	"27.775"	"26.753"	"25.319"	"19.588"	"16.044"
"1903"	"16.918"	"18.083"	"23.679"	"29.038"	"32.984"	"34.775"	"30.179"	"27.139"	"27.013"	"24.42"	"19.387"	"16.094"
"1904"	"16.873"	"18.729"	"23.866"	"30.373"	"33.093"	"32.679"	"26.824"	"26.062"	"26.488"	"25.426"	"19.852"	"17.213"
"1905"	"15.466"	"14.804"	"22.116"	"27.274"	"34.04"	"35.07"	"28.733"	"27.195"	"27.342"	"25.433"	"21.512"	"16.942"
"1906"	"15.862"	"17.721"	"23.265"	"29.934"	"35.242"	"32.556"	"27.949"	"27.144"	"26.333"	"25.211"	"21.177"	"17.555"
"1907"	"17.758"	"17.888"	"22.722"	"27.7"	"32.307"	"33.476"	"31.078"	"26.324"	"27.899"	"26.799"	"21.497"	"15.897"
"1908"	"15.598"	"19.233"	"23.892"	"31.242"	"34.158"	"34.375"	"27.622"	"26.411"	"27.458"	"25.43"	"20.387"	"16.209"
"1909"	"17.758"	"17.928"	"25.265"	"27.84"	"33.37"	"30.226"	"27.004"	"26.655"	"26.448"	"25.247"	"21.264"	"16.634"
"1910"	"15.987"	"19.151"	"24.726"	"29.458"	"33.641"	"31.466"	"28.418"	"26.739"	"27.023"	"24.311"	"19.083"	"16.638"
"1911"	"18.542"	"18.883"	"22.631"	"29.472"	"34.905"	"31.401"	"29.349"	"26.871"	"26.053"	"25.521"	"19.561"	"16.448"
"1912"	"17.094"	"20.135"	"23.856"	"29.568"	"34.041"	"34.472"	"28.753"	"26.789"	"26.427"	"25.308"	"19.649"	"16.14"
"1913"	"16.51"	"19.019"	"22.545"	"30.866"	"32.013"	"29.986"	"28.365"	"27.261"	"27.927"	"27.09"	"20.673"	"16.931"
"1914"	"18.463"	"19.704"	"23.741"	"29.42"	"33.304"	"32.435"	"27.671"	"26.74"	"27.284"	"25.416"	"21.648"	"16.866"
"1915"	"16.968"	"17.443"	"23.543"	"29.091"	"34.999"	"33.889"	"29.281"	"26.816"	"27.443"	"26.349"	"20.925"	"17.161"
"1916"	"16.695"	"18.368"	"26.306"	"30.768"	"34.008"	"29.676"	"28.491"	"26.481"	"26.957"	"25.061"	"18.849"	"15.53"
"1917"	"16.616"	"18.448"	"23.408"	"27.297"	"30.13"	"30.98"	"27.522"	"26.658"	"26.542"	"24.985"	"18.467"	"16.951"
"1918"	"15.128"	"19.426"	"24.703"	"28.547"	"34.667"	"31.031"	"30.304"	"27.303"	"27.715"	"26.392"	"21.192"	"16.183"
"1919"	"16.782"	"17.684"	"24.726"	"29.103"	"33.054"	"33.187"	"27.005"	"26.274"	"26.857"	"24.819"	"20.481"	"16.515"
"1920"	"16.499"	"18.732"	"24.789"	"29.682"	"31.107"	"32.349"	"27.236"	"26.868"	"28.145"	"27.173"	"21.875"	"17.772"
"1921"	"17.718"	"19.319"	"26.811"	"31.834"	"35.61"	"32.598"	"30.127"	"26.106"	"26.384"	"25.121"	"19.983"	"18.66"
"1922"	"16.221"	"20.451"	"25.51"	"30.334"	"34.477"	"31.866"	"27.563"	"26.126"	"26.488"	"25.006"	"20.251"	"16.328"
"1923"	"16.418"	"18.601"	"24.998"	"30.388"	"33.402"	"35.36"	"28.471"	"26.073"	"27.166"	"24.641"	"20.621"	"17.428"
"1924"	"16.089"	"19.123"	"26.213"	"30.839"	"32.588"	"34.734"	"27.633"	"26.633"	"26.657"	"25.055"	"19.814"	"16.66"
"1925"	"14.895"	"17.644"	"24.643"	"30.704"	"32.041"	"30.512"	"26.3"	"27.305"	"26.977"	"25.914"	"19.589"	"15.94"
"1926"	"16.571"	"20.137"	"23.249"	"26.361"	"31.838"	"34.843"	"29.121"	"26.877"	"26.373"	"23.969"	"18.331"	"15.508"
"1927"	"14.675"	"17.338"	"22.441"	"28.903"	"33.077"	"33.159"	"27.892"	"26.559"	"27.427"	"25.135"	"18.871"	"17.357"
"1928"	"16.15"	"19.05"	"24.538"	"29.172"	"34.319"	"32.256"	"27.699"	"27.597"	"27.878"	"25.979"	"21.531"	"16.479"
"1929"	"16.166"	"17.413"	"25.59"	"29.883"	"34.514"	"32.438"	"27.731"	"25.774"	"27.971"	"24.953"	"20.855"	"16.044"
"1930"	"16.27"	"18.463"	"25.342"	"29.026"	"33.388"	"32.689"	"27.081"	"26.426"	"27.058"	"26.299"	"19.895"	"17.033"
"1931"	"18.289"	"18.239"	"24.131"	"31.371"	"34.144"	"34.349"	"29.073"	"27.321"	"26.722"	"24.402"	"19.932"	"17.188"
"1932"	"18.809"	"17.948"	"24.441"	"29.316"	"33.319"	"33.885"	"28.871"	"26.58"	"26.941"	"25.617"	"19.947"	"17.09"
"1933"	"15.282"	"19.809"	"24.948"	"27.81"	"30.606"	"31.455"	"28.134"	"26.794"	"26.441"	"24.877"	"20.058"	"16.814"
"1934"	"15.748"	"19.568"	"23.62"	"29.729"	"33.453"	"32.13"	"27.634"	"26.536"	"26.483"	"24.134"	"19.864"	"17.238"
"1935"	"14.969"	"19.011"	"24.376"	"27.07"	"34.102"	"33.649"	"27.747"	"26.188"	"26.565"	"24.691"	"20.871"	"16.866"
"1936"	"15.101"	"18.748"	"24.349"	"28.932"	"34.467"	"30.791"	"27.542"	"26.462"	"26.483"	"25.02"	"20.535"	"16.74"
"1937"	"15.299"	"19.127"	"22.926"	"28.201"	"33.236"	"32.609"	"28.074"	"26.33"	"26.723"	"24.237"	"21.242"	"16.094"
"1938"	"16.773"	"17.165"	"25.963"	"30.534"	"34.411"	"29.321"	"27.573"	"26.855"	"27.681"	"25.694"	"19.777"	"16.724"
"1939"	"17.696"	"19.462"	"22.93"	"28.875"	"34.348"	"31.544"	"27.547"	"26.832"	"26.274"	"25.95"	"20.256"	"16.512"
"1940"	"16.3"	"18.373"	"22.789"	"28.677"	"33.866"	"33.099"	"28.553"	"26.542"	"26.79"	"25.341"	"21.188"	"16.526"
"1941"	"16.165"	"19.147"	"26.302"	"31.578"	"34.348"	"32.082"	"29.14"	"27.18"	"27.665"	"27.178"	"21.079"	"18.184"
"1942"	"15.251"	"19.375"	"25.369"	"30.698"	"34.854"	"34.188"	"27.293"	"26.563"	"26.457"	"25.497"	"21.301"	"16.678"
"1943"	"17.978"	"18.365"	"25.54"	"28.576"	"34.613"	"32.589"	"28.094"	"25.689"	"27.182"	"24.983"	"22.585"	"17.454"
"1944"	"16.145"	"18.367"	"22.937"	"28.485"	"34.803"	"32.054"	"27.677"	"26.784"	"27.113"	"24.421"	"21.181"	"18.615"
"1945"	"14.688"	"18.335"	"25.243"	"28.235"	"33.385"	"33.401"	"28.493"	"27.543"	"26.685"	"24.42"	"19.88"	"15.629"
"1946"	"17.397"	"20.882"	"24.564"	"30.867"	"33.569"	"31.336"	"27.589"	"26.557"	"27.349"	"25.789"	"19.774"	"18.01"
"1947"	"15.258"	"19.237"	"25.564"	"30.66"	"34.515"	"33.637"	"27.809"	"27.193"	"26.739"	"24.49"	"21.362"	"17.612"
"1948"	"16.56"	"18.355"	"24.036"	"31.241"	"35.224"	"33.305"	"28.196"	"26.696"	"26.584"	"25.9"	"19.751"	"16.735"
"1949"	"18.117"	"19.567"	"25.342"	"30.922"	"34.167"	"33.3"	"28.414"	"26.875"	"27.184"	"25.486"	"19.288"	"16.3"
"1950"	"17.429"	"18.015"	"23.44"	"28.856"	"34.105"	"33.089"	"27.89"	"26.563"	"27.032"	"24.974"	"19.756"	"16.495"
"1951"	"15.497"	"18.645"	"24.447"	"28.349"	"33.523"	"33.145"	"29.498"	"26.74"	"26.979"	"27.748"	"22.167"	"16.826"
"1952"	"18.077"	"21.228"	"24.377"	"30.976"	"35.042"	"31.862"	"27.783"	"25.973"	"27.527"	"26.129"	"20.688"	"17.851"
"1953"	"15.713"	"21.196"	"28.079"	"30.703"	"34.535"	"33.856"	"27.762"	"26.373"	"26.871"	"25.136"	"20.358"	"18.823"
"1954"	"15.435"	"20.471"	"24.722"	"30.851"	"35.204"	"33.224"	"28.936"	"26.717"	"26.296"	"23.793"	"20.649"	"17.353"
"1955"	"16.681"	"19.662"	"26.693"	"28.605"	"33.702"	"32.584"	"27.661"	"26.633"	"26.665"	"23.918"	"19.68"	"17.418"
"1956"	"16.897"	"19.116"	"25.515"	"30.65"	"34.636"	"30.367"	"27.138"	"26.104"	"26.333"	"24.658"	"19.066"	"17.728"
"1957"	"16.576"	"18.012"	"22.897"	"29.171"	"33.009"	"32.901"	"28.063"	"27.268"	"26.165"	"25.572"	"22.036"	"18.314"
"1958"	"18.564"	"19.822"	"25.636"	"31.597"	"34.604"	"34.351"	"27.899"	"27.043"	"26.532"	"24.638"	"21.052"	"18.233"
"1959"	"16.897"	"18.648"	"25.98"	"30.442"	"33.476"	"33.17"	"27.919"	"26.569"	"26.754"	"25.639"	"21.051"	"18.021"
"1960"	"15.988"	"21.576"	"24.604"	"29.886"	"34.23"	"34.294"	"28.136"	"26.115"	"27.19"	"24.872"	"19.988"	"18.303"
"1961"	"16.525"	"17.297"	"25.7"	"29.738"	"33.808"	"32.023"	"27.535"	"26.327"	"26.109"	"24.138"	"19.651"	"15.44"
"1962"	"15.141"	"18.957"	"23.987"	"29.627"	"33.476"	"33.966"	"28.813"	"26.199"	"25.816"	"23.589"	"20.753"	"17.944"
"1963"	"15.4"	"20.158"	"23.646"	"27.898"	"31.829"	"30.72"	"27.282"	"26.037"	"25.991"	"25.555"	"22.862"	"17.47"
"1964"	"15.883"	"19.346"	"26.654"	"31.156"	"32.682"	"32.874"	"27.846"	"26.903"	"26.459"	"25.901"	"20.357"	"17.945"
"1965"	"17.848"	"19.716"	"23.941"	"28.475"	"33.128"	"34.114"	"28.909"	"27.659"	"26.584"	"26.109"	"21.882"	"17.4"
"1966"	"17.22"	"21.729"	"24.861"	"29.944"	"33.497"	"31.629"	"29.936"	"26.547"	"28.063"	"27.122"	"22.477"	"16.81"
"1967"	"16.19"	"21.247"	"23.068"	"28.796"	"34.064"	"32.915"	"27.91"	"25.864"	"25.86"	"26.309"	"21.581"	"17.888"
"1968"	"15.956"	"18.23"	"25.339"	"28.76"	"32.469"	"31.28"	"27.683"	"26.514"	"27.939"	"25.362"	"21.779"	"17.925"
"1969"	"16.692"	"20.419"	"26.834"	"29.624"	"32.595"	"32.552"	"27.626"	"25.838"	"26.303"	"27.777"	"22.731"	"17.731"
"1970"	"17.212"	"18.756"	"24.854"	"31.899"	"34.332"	"31.165"	"28.684"	"26.652"	"26.102"	"25.603"	"20.331"	"17.535"
"1971"	"16.271"	"19.439"	"22.726"	"29.686"	"31.699"	"29.034"	"26.077"	"25.632"	"26.759"	"25.057"	"19.977"	"16.92"
"1972"	"16.706"	"17.473"	"25.677"	"29.588"	"34.077"	"34.446"	"29.451"	"25.885"	"26.468"	"24.853"	"21.522"	"18.03"
"1973"	"17.371"	"20.031"	"24.85"	"31.458"	"35.082"	"33.591"	"27.487"	"26.973"	"26.59"	"25.017"	"20.444"	"16.725"
"1974"	"16.082"	"18.407"	"25.998"	"31.521"	"34.066"	"32.492"	"27.435"	"25.877"	"27.811"	"26.675"	"20.504"	"16.556"
"1975"	"15.589"	"19.217"	"24.46"	"30.851"	"35.323"	"32.024"	"27.077"	"26.674"	"26.327"	"25.897"	"19.586"	"16.868"
"1976"	"16.941"	"19.639"	"24.495"	"29.324"	"32.681"	"30.741"	"28.003"	"26.146"	"26.313"	"25.929"	"23.265"	"17.935"
"1977"	"16.476"	"19.916"	"26.817"	"29.22"	"31.466"	"32.07"	"27.257"	"25.846"	"26.117"	"25.667"	"23.111"	"18.007"
"1978"	"15.932"	"18.278"	"22.638"	"28.472"	"35.441"	"31.252"	"26.45"	"25.31"	"26.15"	"25.569"	"22.757"	"17"
"1979"	"17.425"	"17.991"	"23.063"	"29.226"	"31.309"	"32.04"	"27.861"	"27.204"	"28.159"	"27.26"	"24.924"	"18.165"
"1980"	"17.377"	"20.702"	"24.972"	"31.281"	"34.357"	"29.853"	"26.707"	"25.431"	"27.085"	"26.768"	"22.064"	"17.962"
"1981"	"16.772"	"20.507"	"24.231"	"29.343"	"32.793"	"32.896"	"26.165"	"26.527"	"27.126"	"25.89"	"20.746"	"17.177"
"1982"	"18.103"	"18.521"	"22.641"	"28.977"	"31.909"	"32.98"	"30.168"	"26.02"	"27.044"	"26.719"	"21.877"	"18.595"
"1983"	"16.035"	"18.486"	"24.658"	"28.175"	"32.418"	"33.321"	"28.593"	"27.231"	"27.178"	"24.955"	"19.69"	"17.069"
"1984"	"16.463"	"17.33"	"25.491"	"30.682"	"35.359"	"32.672"	"28.562"	"25.807"	"26.373"	"26.033"	"20.747"	"18.536"
"1985"	"16.838"	"19.887"	"27.065"	"31.178"	"34.625"	"33.064"	"27.507"	"26.251"	"26.76"	"24.635"	"21.274"	"18.555"
"1986"	"16.933"	"18"	"24.343"	"30.177"	"32.44"	"32.568"	"26.455"	"26.944"	"25.853"	"25.585"	"21.827"	"16.844"
"1987"	"16.624"	"19.984"	"25.636"	"30.82"	"32.123"	"34.609"	"29.389"	"28.544"	"27.697"	"25.986"	"21.746"	"17.101"
"1988"	"17.453"	"20.489"	"25.19"	"31.204"	"35.402"	"32.747"	"27.879"	"27.383"	"28.418"	"25.594"	"21.155"	"17.969"
"1989"	"15.54"	"19.256"	"24.11"	"29.505"	"34.124"	"30.673"	"28.445"	"26.465"	"27.108"	"26.067"	"21.753"	"17.752"
"1990"	"18.803"	"19.665"	"23.579"	"30.223"	"32.136"	"30.748"	"26.678"	"27.36"	"26.333"	"25.909"	"21.865"	"18.08"
"1991"	"15.972"	"20.852"	"25.252"	"29.34"	"35.549"	"32.344"	"30.133"	"26.024"	"27.915"	"25.432"	"20.718"	"17.586"
"1992"	"17.282"	"18.101"	"25.418"	"30.359"	"32.657"	"35.131"	"29.259"	"26.961"	"26.695"	"25.661"	"21.805"	"17.669"
"1993"	"17.044"	"20.182"	"23.025"	"29.145"	"34.44"	"33.182"	"29.558"	"27.538"	"25.997"	"26.358"	"22.11"	"17.258"
"1994"	"18.647"	"18.958"	"25.581"	"29.25"	"35.135"	"32.379"	"27.403"	"26.375"	"26.822"	"25.329"	"21.632"	"17.763"
"1995"	"15.729"	"19.348"	"23.448"	"29.802"	"33.955"	"34.699"	"29.536"	"26.649"	"27.733"	"26.854"	"21.264"	"18.469"
"1996"	"17.165"	"19.12"	"25.731"	"29.367"	"33.885"	"33.352"	"28.937"	"26.084"	"27.574"	"25.596"	"21.116"	"16.09"
"1997"	"16.251"	"18.753"	"25.189"	"28.274"	"32.132"	"32.172"	"29.08"	"26.827"	"26.817"	"24.863"	"21.231"	"16.342"
"1998"	"15.699"	"20.182"	"22.942"	"29.948"	"34.736"	"33.163"	"28.19"	"27.418"	"27.813"	"26.952"	"22.5"	"18.203"
"1999"	"16.521"	"19.985"	"25.259"	"31.34"	"33.636"	"31.54"	"28.284"	"26.465"	"26.284"	"25.984"	"23.083"	"17.877"
"2000"	"17.475"	"18.919"	"24.363"	"31.603"	"32.725"	"30.688"	"27.69"	"27.446"	"26.561"	"27.525"	"23.736"	"18.401"
"2001"	"16.425"	"20.58"	"25.014"	"29.151"	"33.161"	"30.037"	"27.052"	"27.439"	"28.032"	"26.997"	"22.648"	"18.773"
"2002"	"17.177"	"18.77"	"25.779"	"31.085"	"35.01"	"32.59"	"30.595"	"26.769"	"26.783"	"26.681"	"22.136"	"19.213"
