
"Year"	"Jan"	"Feb"	"Mar"	"Apr"	"May"	"Jun"	"Jul"	"Aug"	"Sep"	"Oct"	"Nov"	"Dec"
"1901"	"18.581"	"20.19"	"25.759"	"30.176"	"33.381"	"32.297"	"27.107"	"24.708"	"25.932"	"25.694"	"21.036"	"18.741"
"1902"	"20.672"	"22.207"	"28.251"	"31.521"	"34.316"	"32.793"	"27.109"	"26.548"	"25.585"	"24.875"	"20.263"	"18.036"
"1903"	"19.772"	"20.196"	"25.515"	"30.396"	"31.638"	"32.596"	"27.268"	"25.734"	"25.482"	"23.498"	"19.282"	"17.719"
"1904"	"19.806"	"21.269"	"25.656"	"31.721"	"33.368"	"30.15"	"25.923"	"25.269"	"25.141"	"24.833"	"20.164"	"18.914"
"1905"	"18.659"	"18.353"	"24.937"	"28.415"	"34.332"	"33.123"	"26.65"	"26.068"	"25.207"	"24.532"	"21.589"	"18.16"
"1906"	"18.631"	"20.866"	"25.25"	"31.427"	"34.843"	"30.09"	"26.009"	"25.854"	"24.817"	"24.088"	"21.37"	"19.153"
"1907"	"19.667"	"20.674"	"25.079"	"27.979"	"32.128"	"31.266"	"27.732"	"24.384"	"26.355"	"26.09"	"22.029"	"17.632"
"1908"	"18.213"	"21.657"	"25.303"	"31.801"	"33.959"	"32.089"	"25.565"	"24.704"	"25.975"	"24.754"	"20.547"	"17.222"
"1909"	"20.239"	"21.548"	"27.284"	"28.309"	"33.089"	"29.411"	"25.504"	"25.78"	"25.109"	"24.552"	"21.312"	"18.843"
"1910"	"19.183"	"21.062"	"26.4"	"30.961"	"33.518"	"29.09"	"26.382"	"25.422"	"25.318"	"23.741"	"19.235"	"18.637"
"1911"	"20.444"	"20.654"	"24.749"	"30.681"	"34.788"	"29.143"	"27.282"	"25.203"	"25.176"	"24.995"	"21.423"	"18.607"
"1912"	"19.795"	"22.314"	"26.272"	"30.577"	"33.851"	"33.578"	"27.063"	"25.337"	"25.625"	"24.874"	"20.396"	"17.755"
"1913"	"18.888"	"21.941"	"25.178"	"32.234"	"32.368"	"28.831"	"26.332"	"25.299"	"26.376"	"25.861"	"21.358"	"18.813"
"1914"	"20.197"	"22.203"	"25.526"	"29.422"	"33.114"	"29.784"	"26.12"	"25.622"	"25.832"	"25.168"	"22.296"	"18.706"
"1915"	"19.202"	"20.482"	"25.137"	"29.903"	"34.112"	"33.235"	"27.454"	"25.337"	"26.159"	"25.451"	"22.289"	"18.301"
"1916"	"19.096"	"20.988"	"27.372"	"31.689"	"33.657"	"27.759"	"26.878"	"25.486"	"25.679"	"24.528"	"20.539"	"17.356"
"1917"	"19.17"	"20.205"	"24.683"	"28.564"	"30.76"	"28.846"	"25.817"	"25.643"	"25.117"	"24.368"	"19.767"	"18.944"
"1918"	"17.552"	"21.946"	"26.235"	"29.989"	"33.154"	"28.627"	"27.599"	"25.418"	"26.464"	"25.259"	"21.896"	"18.366"
"1919"	"19.804"	"20.798"	"26.272"	"29.837"	"32.505"	"29.687"	"25.715"	"24.852"	"25.759"	"24.053"	"21.781"	"18.261"
"1920"	"19.34"	"21.188"	"26.403"	"30.328"	"31.201"	"31.137"	"25.765"	"25.78"	"26.701"	"26.388"	"21.874"	"19.522"
"1921"	"20.225"	"21.597"	"28.322"	"32.365"	"35.247"	"29.952"	"27.427"	"25.363"	"24.999"	"24.676"	"20.094"	"19.689"
"1922"	"18.742"	"22.557"	"27.205"	"31.454"	"34.074"	"29.901"	"26.007"	"25.34"	"25.18"	"24.394"	"20.606"	"17.588"
"1923"	"19.2"	"20.942"	"26.154"	"30.928"	"33.118"	"33.935"	"26.332"	"24.62"	"25.59"	"23.464"	"20.998"	"19.332"
"1924"	"19.684"	"22.556"	"27.845"	"32"	"33.318"	"32.714"	"26.431"	"25.656"	"25.365"	"23.781"	"19.718"	"18.626"
"1925"	"17.779"	"20.57"	"26.414"	"32.108"	"31.791"	"28.879"	"24.891"	"25.599"	"26.08"	"25.335"	"21.018"	"17.728"
"1926"	"19.388"	"22.419"	"25.435"	"27.726"	"31.454"	"33.678"	"27.033"	"25.248"	"25.503"	"23.656"	"19.181"	"17.612"
"1927"	"19.408"	"20.664"	"24.774"	"30.65"	"33.411"	"30.967"	"25.785"	"25.545"	"26.15"	"24.333"	"18.916"	"18.903"
"1928"	"19.541"	"21.257"	"26.193"	"30.345"	"34.331"	"30.6"	"25.818"	"26.199"	"26.141"	"24.817"	"21.558"	"18.217"
"1929"	"19.258"	"19.968"	"27.012"	"30.011"	"34.209"	"30.067"	"25.742"	"25.081"	"25.748"	"24.463"	"21.181"	"18.358"
"1930"	"19.396"	"20.261"	"26.834"	"29.8"	"33.156"	"30.825"	"25.733"	"25.294"	"25.863"	"25.669"	"20.315"	"19.476"
"1931"	"20.533"	"22.384"	"26.145"	"32.141"	"34.387"	"32.389"	"26.719"	"25.379"	"25.548"	"23.594"	"20.539"	"18.356"
"1932"	"20.502"	"20.027"	"25.745"	"30.273"	"33.323"	"31.791"	"25.894"	"25.733"	"25.698"	"25.446"	"21.308"	"19.032"
"1933"	"19.506"	"22.629"	"26.493"	"29.498"	"30.009"	"29.12"	"26.688"	"25.411"	"25.044"	"24.119"	"20.867"	"18.706"
"1934"	"17.974"	"21.663"	"25.853"	"31.008"	"33.577"	"30.677"	"25.878"	"25.096"	"24.698"	"23.523"	"19.771"	"18.649"
"1935"	"18.263"	"21.275"	"25.934"	"28.274"	"34.129"	"31.327"	"25.458"	"25.042"	"25.118"	"24.7"	"21.37"	"19.477"
"1936"	"19.43"	"20.966"	"26.227"	"29.939"	"34.145"	"28.56"	"26.431"	"25.312"	"25.286"	"24.122"	"21.575"	"18.571"
"1937"	"18.142"	"21.553"	"24.794"	"29.134"	"32.713"	"31.033"	"25.724"	"25.295"	"25.517"	"23.88"	"21.695"	"18.212"
"1938"	"20.815"	"19.993"	"27.745"	"30.92"	"33.973"	"26.791"	"25.385"	"25.611"	"26.208"	"24.163"	"20.506"	"18.567"
"1939"	"20.402"	"22.38"	"24.736"	"30.352"	"34.026"	"30.047"	"25.651"	"25.595"	"25.232"	"25.206"	"20.706"	"18.318"
"1940"	"18.96"	"21.722"	"25.101"	"30.256"	"33.65"	"30.541"	"25.664"	"25.132"	"25.706"	"24.848"	"21.415"	"18.733"
"1941"	"19.464"	"21.174"	"27.436"	"32.048"	"34.546"	"31.499"	"26.644"	"25.697"	"26.48"	"26.078"	"21.651"	"20.259"
"1942"	"18.819"	"21.185"	"26.934"	"31.518"	"34.612"	"32.391"	"25.016"	"25.142"	"25.115"	"24.837"	"21.09"	"18.244"
"1943"	"20.183"	"20.091"	"26.82"	"30.189"	"33.897"	"29.742"	"25.747"	"24.43"	"25.25"	"23.591"	"22.1"	"17.485"
"1944"	"18.814"	"20.366"	"24.464"	"29.646"	"34.575"	"30.813"	"25.514"	"25.246"	"25.658"	"23.882"	"20.869"	"20.414"
"1945"	"18.071"	"20.766"	"26.65"	"29.179"	"33.707"	"31.527"	"25.804"	"25.783"	"25.237"	"24.099"	"19.928"	"17.543"
"1946"	"19.472"	"22.363"	"26.509"	"31.247"	"33.567"	"28.7"	"25.832"	"24.984"	"25.175"	"25.274"	"20.716"	"19.94"
"1947"	"18.541"	"21.092"	"26.259"	"30.758"	"34.2"	"31.79"	"25.816"	"25.935"	"25.144"	"23.632"	"21.515"	"19.489"
"1948"	"19.167"	"20.926"	"25.891"	"31.773"	"35.411"	"30.85"	"26.255"	"25.351"	"25.003"	"25.604"	"21.325"	"17.671"
"1949"	"19.946"	"21.128"	"27.072"	"31.653"	"33.795"	"29.823"	"26.187"	"25.888"	"25.273"	"24.58"	"19.769"	"18.858"
"1950"	"19.848"	"20.418"	"25.13"	"30.61"	"34.068"	"31.397"	"25.97"	"25.751"	"25.648"	"24.3"	"20.028"	"18.538"
"1951"	"18.208"	"21.613"	"26.578"	"29.646"	"33.698"	"31.459"	"27.592"	"25.282"	"26.123"	"26.507"	"22.112"	"18.379"
"1952"	"20.108"	"22.99"	"25.92"	"32.053"	"35.146"	"31.41"	"26.585"	"24.878"	"26.282"	"25.442"	"20.764"	"20.395"
"1953"	"18.946"	"23.953"	"29.362"	"31.66"	"34.594"	"32.822"	"26.406"	"25.319"	"26.119"	"24.54"	"20.85"	"19.706"
"1954"	"18.381"	"23.035"	"26.888"	"31.794"	"35.362"	"31.587"	"26.405"	"25.643"	"24.475"	"23.124"	"20.732"	"19.245"
"1955"	"19.663"	"22.848"	"28.145"	"29.364"	"33.545"	"30.462"	"26.184"	"25.255"	"25.289"	"23.398"	"19.512"	"18.567"
"1956"	"19.667"	"21.537"	"27.633"	"31.808"	"33.741"	"28.416"	"25.136"	"25.021"	"25.05"	"24.123"	"19.931"	"19.236"
"1957"	"19.769"	"20.373"	"24.128"	"29.689"	"32.464"	"31.497"	"26.091"	"25.676"	"25.532"	"24.997"	"22.744"	"20.695"
"1958"	"20.607"	"22.168"	"26.787"	"31.987"	"34.487"	"33.07"	"25.939"	"26.01"	"25.137"	"24.099"	"22.085"	"19.228"
"1959"	"19.804"	"21.622"	"27.424"	"31.05"	"33.814"	"30.669"	"25.58"	"24.934"	"25.144"	"25.01"	"21.495"	"19.488"
"1960"	"18.332"	"22.811"	"25.398"	"30.627"	"34.034"	"31.149"	"26.377"	"24.516"	"26.1"	"24.111"	"20.566"	"20.426"
"1961"	"19.909"	"19.934"	"27.702"	"31.042"	"33.458"	"29.773"	"25.418"	"25.23"	"24.238"	"23.387"	"20.703"	"18.036"
"1962"	"17.783"	"21.16"	"25.584"	"30.124"	"32.798"	"31.089"	"26.39"	"25.299"	"24.858"	"23.263"	"21.276"	"19.182"
"1963"	"18.132"	"22.049"	"25.117"	"28.29"	"32.098"	"28.92"	"25.648"	"24.804"	"25.335"	"24.905"	"22.713"	"19.166"
"1964"	"19.284"	"22.187"	"27.798"	"32.414"	"33.462"	"30.805"	"26.444"	"25.087"	"25.758"	"25.439"	"20.734"	"19.078"
"1965"	"19.699"	"21.638"	"25.763"	"29.845"	"34.261"	"31.048"	"26.566"	"26.037"	"25.264"	"25.392"	"21.873"	"19.441"
"1966"	"19.154"	"23.125"	"26.278"	"30.798"	"32.646"	"30.873"	"28.22"	"25.539"	"26.501"	"26.248"	"23.48"	"18.837"
"1967"	"19.552"	"23.19"	"25.113"	"29.856"	"33.969"	"30.979"	"26.545"	"25.097"	"25.189"	"25.681"	"22.323"	"20.178"
"1968"	"18.39"	"20.929"	"25.982"	"28.988"	"32.332"	"30.478"	"26.389"	"24.789"	"26.521"	"24.557"	"21.735"	"19.352"
"1969"	"19.47"	"23.257"	"28.454"	"31.145"	"33.118"	"30.845"	"26.089"	"24.702"	"25.023"	"26.067"	"23.259"	"19.458"
"1970"	"19.907"	"22.764"	"26.85"	"32.418"	"34.619"	"28.539"	"26.638"	"25.115"	"25.248"	"24.828"	"20.18"	"18.302"
"1971"	"19.243"	"21.951"	"25.423"	"31.081"	"31.743"	"27.632"	"25.492"	"25.447"	"25.605"	"24.508"	"20.427"	"17.767"
"1972"	"19.026"	"20.77"	"27.502"	"30.301"	"33.791"	"32.183"	"26.971"	"24.813"	"25.474"	"24.885"	"21.331"	"20.228"
"1973"	"20.334"	"22.917"	"27.606"	"33.437"	"35.481"	"31.305"	"25.571"	"25.444"	"25.199"	"24.194"	"20.219"	"18.944"
"1974"	"18.352"	"21.743"	"27.723"	"31.786"	"32.682"	"30.63"	"26.928"	"24.969"	"27.069"	"24.826"	"20.101"	"18.277"
"1975"	"17.651"	"21.529"	"25.938"	"31.533"	"34.51"	"30.393"	"25.635"	"25.581"	"25.506"	"25.234"	"19.45"	"17.818"
"1976"	"18.553"	"22.289"	"26.563"	"30.063"	"33.355"	"29.481"	"26.448"	"25.338"	"25.456"	"25.616"	"24.401"	"20.593"
"1977"	"19.577"	"22.839"	"28.657"	"30.794"	"32.14"	"30.646"	"26.598"	"25.295"	"25.479"	"25.203"	"23.174"	"19.166"
"1978"	"18.553"	"21.037"	"25.055"	"30.164"	"35.178"	"29.869"	"25.443"	"24.561"	"26.127"	"25.449"	"23.672"	"18.07"
"1979"	"20.209"	"20.223"	"25.292"	"30.69"	"31.167"	"31.634"	"26.66"	"25.085"	"27.071"	"26.566"	"24.342"	"19.702"
"1980"	"20.664"	"23.169"	"27.439"	"32.3"	"34.53"	"28.865"	"26.124"	"24.906"	"26.655"	"25.992"	"22.969"	"19.005"
"1981"	"18.452"	"22.957"	"25.706"	"30.903"	"33.26"	"31.794"	"25.463"	"25.372"	"26.344"	"25.399"	"20.816"	"18.455"
"1982"	"20.784"	"21.514"	"25.106"	"29.824"	"31.749"	"31.17"	"27.284"	"25.191"	"26.356"	"25.582"	"22.191"	"20.797"
"1983"	"19.402"	"21.447"	"26.403"	"29.82"	"33.279"	"32.176"	"26.965"	"26.182"	"25.916"	"24.079"	"19.973"	"18.246"
"1984"	"19.447"	"20.174"	"26.702"	"30.823"	"34.88"	"30.358"	"26.688"	"24.448"	"25.418"	"25.389"	"20.97"	"20.08"
"1985"	"20.747"	"21.948"	"28.536"	"31.065"	"34.198"	"29.932"	"26.165"	"25.047"	"26.158"	"23.791"	"21.232"	"20.277"
"1986"	"19.379"	"21.86"	"26.464"	"31.066"	"33.326"	"30.3"	"25.783"	"25.25"	"26.96"	"25.395"	"22.597"	"19.516"
"1987"	"19.267"	"22.07"	"26.078"	"31.242"	"31.98"	"32.072"	"27.15"	"26.501"	"27.2"	"25.585"	"22.731"	"18.934"
"1988"	"21.054"	"23.635"	"27.153"	"31.147"	"35.421"	"31.035"	"26.044"	"26.157"	"26.88"	"24.596"	"21.238"	"19.125"
"1989"	"18.99"	"22.135"	"25.581"	"30.298"	"34.298"	"29.483"	"26.494"	"25.32"	"26.445"	"25.463"	"22.685"	"18.841"
"1990"	"21.363"	"22.148"	"25.341"	"31.284"	"30.7"	"27.804"	"25.072"	"25.901"	"25.677"	"24.937"	"22.586"	"19.828"
"1991"	"18.933"	"23.517"	"27.338"	"30.01"	"34.75"	"30.051"	"26.644"	"24.852"	"26.798"	"25.765"	"21.676"	"19.34"
"1992"	"19.895"	"21.616"	"28.019"	"31.391"	"33.47"	"31.936"	"28.163"	"25.269"	"25.885"	"25.276"	"21.705"	"19.321"
"1993"	"20.502"	"22.037"	"24.957"	"30.785"	"34.714"	"31.299"	"26.745"	"25.453"	"25.45"	"25.203"	"21.352"	"18.248"
"1994"	"20.553"	"21.152"	"27.414"	"29.177"	"34.37"	"28.893"	"24.699"	"24.623"	"25.555"	"25.031"	"21.617"	"18.895"
"1995"	"17.239"	"21.62"	"25.086"	"29.534"	"32.243"	"32.922"	"26.715"	"26.014"	"26.434"	"25.795"	"21.994"	"20.822"
"1996"	"20.823"	"23.075"	"27.825"	"30.314"	"34.287"	"32.54"	"27.003"	"25.338"	"26.446"	"24.599"	"21.967"	"18.795"
"1997"	"18.234"	"21.017"	"27.02"	"28.48"	"32.248"	"29.822"	"26.252"	"25.839"	"25.99"	"24.614"	"23.023"	"18.278"
"1998"	"19.307"	"21.547"	"24.598"	"30.456"	"34.254"	"31.783"	"26.972"	"26.489"	"26.602"	"26.117"	"21.93"	"18.943"
"1999"	"18.604"	"22.559"	"27.061"	"32.257"	"33.219"	"29.355"	"26.325"	"25.138"	"25.025"	"24.994"	"22.414"	"18.844"
"2000"	"20.276"	"21.019"	"25.811"	"32.453"	"32.22"	"28.579"	"25.619"	"26.311"	"26.045"	"26.711"	"23.479"	"20.002"
"2001"	"19.865"	"23.646"	"27.187"	"29.783"	"33.772"	"28.232"	"25.595"	"25.745"	"27.299"	"25.871"	"23.204"	"20.86"
"2002"	"19.423"	"23.037"	"27.422"	"31.976"	"34.813"	"30.208"	"27.771"	"24.893"	"25.955"	"26.051"	"22.537"	"21.71"
