
"Year"	"Jan"	"Feb"	"Mar"	"Apr"	"May"	"Jun"	"Jul"	"Aug"	"Sep"	"Oct"	"Nov"	"Dec"
"1901"	"25.842"	"16.493"	"47.884"	"306.453"	"287.452"	"618.531"	"462.459"	"404.881"	"323.716"	"295.548"	"207.506"	"3.812"
"1902"	"3.728"	"14.243"	"40.437"	"275.481"	"265.04"	"777.785"	"709.891"	"542.362"	"341.406"	"80.025"	"20.705"	"3.403"
"1903"	"6.203"	"23.638"	"77.673"	"200.897"	"242.684"	"783.739"	"480.189"	"665.033"	"181.574"	"131.452"	"141.333"	"3.564"
"1904"	"9.374"	"80.477"	"68.977"	"546.399"	"359.491"	"439.473"	"469.899"	"487.648"	"216.457"	"116.585"	"79.068"	"3.091"
"1905"	"9.612"	"18.33"	"418.413"	"151.198"	"390.018"	"603.735"	"553.53"	"794.504"	"372.954"	"412.763"	"40.395"	"16.571"
"1906"	"9.96"	"92.259"	"63.688"	"294.274"	"205.167"	"455.929"	"796.258"	"718.45"	"298.45"	"162.406"	"61.827"	"0.001"
"1907"	"19.227"	"83.567"	"134.385"	"219.188"	"140.484"	"627.957"	"651.111"	"395.542"	"259.945"	"91.31"	"15.228"	"8.656"
"1908"	"10.07"	"21.525"	"17.586"	"216.666"	"322.604"	"618.246"	"594.662"	"286.053"	"395.903"	"130.002"	"16.759"	"4.001"
"1909"	"13.115"	"17.156"	"5.729"	"186.73"	"443.129"	"687.42"	"404.752"	"506.629"	"169.617"	"172.002"	"47.531"	"6.179"
"1910"	"7.722"	"39.451"	"167.416"	"214.393"	"345.396"	"800.097"	"784.196"	"551.811"	"227.801"	"201.126"	"60.703"	"3.913"
"1911"	"26.956"	"24.778"	"72.27"	"277.83"	"607.757"	"908.127"	"541.513"	"488.454"	"438.447"	"470.763"	"14.079"	"1.85"
"1912"	"5.666"	"70.384"	"81.31"	"195.503"	"188.28"	"590.651"	"467.247"	"455.751"	"298.884"	"359.75"	"153.862"	"20.29"
"1913"	"5.16"	"74.193"	"79.846"	"316.583"	"330.314"	"572.156"	"424.984"	"409.579"	"276.54"	"317.18"	"26.119"	"16.737"
"1914"	"2.373"	"60.505"	"59.187"	"116.229"	"378.435"	"697.342"	"436.621"	"671.327"	"172.12"	"75.268"	"18.387"	"12.612"
"1915"	"6.511"	"53.506"	"76.66"	"160.312"	"895.685"	"470.093"	"713.597"	"574.289"	"211.389"	"174.91"	"32.564"	"6.045"
"1916"	"9.386"	"17.978"	"99.397"	"266.306"	"596.447"	"561.149"	"466.939"	"536.198"	"310.516"	"474.899"	"173.569"	"4.346"
"1917"	"1.638"	"86.178"	"28.809"	"120.677"	"348.665"	"658.039"	"488.581"	"423.188"	"241.405"	"281.139"	"204.79"	"6.331"
"1918"	"1.671"	"8.53"	"109.207"	"106.635"	"423.317"	"923.722"	"692.211"	"603.304"	"359.789"	"107.666"	"5.727"	"1.59"
"1919"	"10.401"	"4.748"	"7.129"	"94.703"	"295.08"	"616.852"	"571.852"	"296.003"	"394.72"	"415.998"	"85.559"	"2.032"
"1920"	"0.743"	"34.599"	"175.2"	"129.056"	"415.903"	"486.164"	"324.345"	"617.817"	"429.699"	"123.25"	"7.764"	"1.568"
"1921"	"21.052"	"8.416"	"80.445"	"202.868"	"671.307"	"684.69"	"718.705"	"501.662"	"332.744"	"126.495"	"12.469"	"0.145"
"1922"	"6.616"	"1.757"	"72.05"	"317.362"	"187.403"	"776.361"	"483.996"	"407.977"	"207.824"	"407.831"	"20.314"	"11.156"
"1923"	"3.315"	"83.661"	"9.754"	"262.921"	"399.968"	"876.439"	"433.337"	"293.363"	"237.795"	"127.211"	"11.332"	"1.282"
"1924"	"5.807"	"12.34"	"19.305"	"274.444"	"190.22"	"727.005"	"745.889"	"552.394"	"388.022"	"163.37"	"229.249"	"0.243"
"1925"	"20.352"	"29.017"	"60.407"	"272.539"	"530.857"	"383.271"	"504.6"	"403.298"	"322.718"	"117.554"	"12.907"	"4.011"
"1926"	"17.371"	"19.541"	"102.871"	"101.881"	"125.14"	"818.483"	"603.134"	"353.391"	"251.604"	"330.69"	"19.721"	"21.243"
"1927"	"26.361"	"49.325"	"65.782"	"287.672"	"304.502"	"715.264"	"516.109"	"336.542"	"638.638"	"370.322"	"34.003"	"0.003"
"1928"	"3.95"	"29.208"	"63.741"	"81.187"	"358.457"	"630.368"	"667.392"	"361.099"	"336.715"	"382.896"	"18.537"	"0.001"
"1929"	"13.219"	"2.289"	"38.348"	"341.128"	"762.983"	"714.428"	"491.145"	"360.195"	"332.986"	"111.406"	"25.905"	"8.406"
"1930"	"14.524"	"28.38"	"64.562"	"165.078"	"295.666"	"876.19"	"274.056"	"570.897"	"308.068"	"209.36"	"225.261"	"2.115"
"1931"	"1.57"	"24.971"	"33.867"	"361.598"	"328.644"	"841.021"	"753.13"	"243.253"	"234.359"	"81.637"	"15.225"	"7.625"
"1932"	"5.118"	"30.256"	"31.047"	"115.128"	"746.439"	"665.304"	"561.714"	"710.804"	"284.194"	"96.819"	"181.112"	"3.447"
"1933"	"1.934"	"26.402"	"21.454"	"177.877"	"373.239"	"558.559"	"522.193"	"506.646"	"214.191"	"78.318"	"5.632"	"0.26"
"1934"	"17.212"	"64.477"	"16.057"	"302.626"	"293.494"	"1086.278"	"734.398"	"407.428"	"292.191"	"454.005"	"40.8"	"4.817"
"1935"	"1.218"	"53.994"	"40.117"	"81.324"	"364.777"	"825.406"	"385.077"	"819.816"	"367.474"	"77.043"	"13.763"	"5.687"
"1936"	"11.647"	"48.403"	"40.503"	"150.572"	"456.658"	"543.75"	"606.344"	"343.031"	"353.642"	"310.885"	"5.15"	"15.926"
"1937"	"0.025"	"28.839"	"26.056"	"61.107"	"466.856"	"565.898"	"661.003"	"511.463"	"213.677"	"91.405"	"5.134"	"7.969"
"1938"	"27.467"	"11.502"	"91.093"	"184.817"	"484.587"	"943.235"	"672.811"	"653.513"	"587.94"	"163.077"	"84.495"	"0.821"
"1939"	"0.967"	"33.569"	"18.276"	"179.475"	"367.432"	"806.407"	"653.678"	"358.317"	"415.604"	"208.364"	"20.787"	"3.163"
"1940"	"0.321"	"80.045"	"271.74"	"35.005"	"477.922"	"593.045"	"524.008"	"386.205"	"512.8"	"146.838"	"8.528"	"8.198"
"1941"	"1.634"	"46.35"	"90.027"	"165.011"	"477.197"	"700.844"	"466.924"	"388.39"	"444.232"	"220.744"	"8.292"	"3.019"
"1942"	"17.307"	"21.078"	"174.861"	"172.432"	"510.131"	"1050.346"	"322.115"	"465.742"	"422.963"	"31.535"	"26.339"	"0.296"
"1943"	"12.731"	"62.945"	"114.486"	"147.174"	"456.304"	"630.738"	"484.032"	"477.592"	"451.751"	"52.972"	"21.06"	"1.435"
"1944"	"34.145"	"12.655"	"49.39"	"79.885"	"777.163"	"587.96"	"404.284"	"373.209"	"409.912"	"182.076"	"20.22"	"11.537"
"1945"	"26.788"	"35.129"	"118.03"	"120.545"	"307.505"	"693.672"	"600.844"	"592.787"	"236.558"	"209.051"	"0.501"	"4.15"
"1946"	"2.808"	"44.984"	"98.046"	"164.102"	"334.602"	"608.808"	"598.923"	"432.585"	"311.619"	"515.532"	"10.639"	"0.01"
"1947"	"7.938"	"14.191"	"57.704"	"363.555"	"429.375"	"728.481"	"672.055"	"551.107"	"722.414"	"505.838"	"10.518"	"48.761"
"1948"	"6.444"	"95.678"	"66.605"	"389.561"	"613.004"	"493.67"	"562.623"	"462.555"	"293.553"	"203.1"	"33.153"	"3.787"
"1949"	"47.66"	"25.008"	"152.448"	"324.946"	"277.306"	"747.725"	"579.975"	"431.378"	"563.12"	"194.312"	"38.991"	"7.213"
"1950"	"4.394"	"68.943"	"67.616"	"125.607"	"206.11"	"625.653"	"500.346"	"507.953"	"332.93"	"285.262"	"95.877"	"4.582"
"1951"	"0.836"	"0.984"	"86.627"	"300.102"	"348.044"	"946.186"	"1044.379"	"637.337"	"460.988"	"443.503"	"66.651"	"14.603"
"1952"	"14.517"	"4.572"	"70.101"	"572.031"	"299.021"	"1157.714"	"881.754"	"520.198"	"646.736"	"471.623"	"127.931"	"0.497"
"1953"	"6.715"	"4.683"	"100.724"	"62.009"	"469.38"	"881.901"	"884.003"	"454.58"	"599.036"	"208.256"	"9.447"	"1.8"
"1954"	"10.46"	"71.173"	"134.09"	"167.135"	"371.894"	"1307.123"	"598.669"	"491.745"	"341.766"	"303.718"	"1.387"	"4.572"
"1955"	"2.031"	"3.92"	"211.165"	"109.802"	"311.812"	"472.757"	"946.064"	"459.624"	"306.137"	"123.844"	"160.077"	"3.672"
"1956"	"17.896"	"4.481"	"173.446"	"158.269"	"504.813"	"1054.025"	"587.784"	"466.361"	"458.837"	"186.786"	"41.913"	"1.182"
"1957"	"34.039"	"86.868"	"22.459"	"119.874"	"380.746"	"628.066"	"606.236"	"795.287"	"437.498"	"79.32"	"6.569"	"4.656"
"1958"	"6.309"	"88.466"	"82.583"	"196.665"	"469.967"	"404.301"	"462.128"	"873.765"	"297.048"	"278.62"	"5.233"	"2.755"
"1959"	"32.092"	"108.731"	"325.294"	"172.901"	"504.23"	"910.021"	"610.293"	"636.394"	"295.201"	"376.39"	"4.848"	"2.525"
"1960"	"0.337"	"5.048"	"69.721"	"56.728"	"311.505"	"542.444"	"868.454"	"393.325"	"488.168"	"180.803"	"66.944"	"1.767"
"1961"	"4.659"	"27.194"	"93.349"	"171.768"	"202.191"	"830.025"	"558.807"	"661.305"	"187.087"	"202.749"	"14.182"	"4.644"
"1962"	"15.561"	"41.508"	"9.788"	"212.867"	"249.996"	"759.385"	"553.166"	"391.713"	"163.998"	"266.746"	"4.142"	"1.444"
"1963"	"0.419"	"10.586"	"99.931"	"218.089"	"329.489"	"691.902"	"561.455"	"448.052"	"240.388"	"211.181"	"10.869"	"1.754"
"1964"	"29.833"	"47.92"	"103.851"	"317.076"	"353.725"	"754.165"	"1083.669"	"504.124"	"494.461"	"499.253"	"28.095"	"5.071"
"1965"	"1.156"	"21.02"	"46.597"	"52.844"	"132.466"	"996.195"	"750.593"	"829.642"	"312.116"	"139.08"	"107.232"	"56.041"
"1966"	"19.827"	"2.067"	"67.168"	"85.477"	"186.269"	"1044.111"	"540.685"	"498.482"	"543.044"	"328.966"	"33.535"	"75.801"
"1967"	"43.723"	"3.28"	"162.405"	"225.132"	"198.353"	"404.213"	"505.284"	"392.019"	"485.246"	"195.889"	"4.338"	"1.042"
"1968"	"19.527"	"17.927"	"102.282"	"215.504"	"412.046"	"580.707"	"807.117"	"598.15"	"251.437"	"84.761"	"21.317"	"0.404"
"1969"	"4.442"	"0.402"	"121.915"	"306.604"	"338.333"	"1060.317"	"742.08"	"640.96"	"369.95"	"79.557"	"31.563"	"0.711"
"1970"	"31.82"	"20.307"	"142.316"	"209.912"	"387.707"	"293.641"	"749.119"	"329.036"	"119.058"	"319.953"	"96.578"	"4.718"
"1971"	"11.25"	"18.258"	"9.559"	"86.837"	"141.365"	"329.12"	"510.025"	"404.981"	"258.049"	"225.596"	"67.921"	"6.036"
"1972"	"2.968"	"26.281"	"54.355"	"217.151"	"274.637"	"569.687"	"403.708"	"440.755"	"114.688"	"74.772"	"11.682"	"2.127"
"1973"	"16.097"	"45.484"	"101.002"	"154.052"	"499.124"	"816.405"	"514.195"	"250.483"	"251.508"	"223.432"	"210.95"	"3.515"
"1974"	"5.338"	"1.856"	"199.996"	"356.035"	"322.771"	"751.238"	"1079.21"	"472.124"	"526.987"	"190.301"	"77.035"	"0.925"
"1975"	"2.202"	"65.516"	"28.732"	"145.106"	"303.338"	"396.23"	"730.403"	"281.008"	"349.992"	"205.619"	"152.795"	"1.728"
"1976"	"3.996"	"30.922"	"117.066"	"140.144"	"260.429"	"792.988"	"773.196"	"480.045"	"82.441"	"113.602"	"35.787"	"0.994"
"1977"	"5.824"	"113.911"	"35.733"	"539.502"	"378.397"	"672.332"	"639.337"	"285.019"	"242.84"	"154.021"	"39.803"	"19.781"
"1978"	"0.198"	"1.467"	"20.167"	"122.688"	"514.572"	"687.293"	"442.477"	"287.425"	"347.466"	"96.974"	"4.542"	"0.848"
"1979"	"9.914"	"12.875"	"90.961"	"47.863"	"172.762"	"357.116"	"337.232"	"551.999"	"434.617"	"219.244"	"33.033"	"41.183"
"1980"	"2.193"	"43.511"	"133.617"	"157.36"	"434.761"	"407.289"	"625.133"	"507.749"	"331.819"	"250.345"	"0.501"	"5.28"
"1981"	"24.435"	"24.707"	"210.253"	"542.208"	"522.537"	"615.421"	"697.627"	"361.14"	"206.542"	"19.202"	"19.631"	"74.826"
"1982"	"0.035"	"35.738"	"24.813"	"378.824"	"239.792"	"853.867"	"364.089"	"592.954"	"309.416"	"39.809"	"65.101"	"4.094"
"1983"	"20.401"	"49.471"	"219.495"	"196.561"	"280.882"	"457.775"	"589.774"	"663.75"	"464.72"	"258.633"	"37.615"	"56.546"
"1984"	"20.268"	"8.855"	"6.537"	"193.744"	"713.884"	"781.992"	"593.243"	"519.906"	"353.233"	"238.734"	"0.501"	"11.539"
"1985"	"4.983"	"17.645"	"168.093"	"264.104"	"174.371"	"624.23"	"398.523"	"411.293"	"357.505"	"62.914"	"7.145"	"2.594"
"1986"	"7.959"	"4.129"	"22.333"	"347.202"	"82.326"	"298.911"	"633.353"	"322.014"	"401.859"	"288.446"	"140.727"	"2.89"
"1987"	"2.706"	"12.225"	"108.048"	"312.155"	"141.449"	"326.767"	"663.568"	"427.572"	"480.826"	"148.418"	"63.079"	"38.003"
"1988"	"1.152"	"31.856"	"77.919"	"64.563"	"615.77"	"590.558"	"641.168"	"557.122"	"337.605"	"267.651"	"71.129"	"1.37"
"1989"	"1.034"	"31.519"	"64.114"	"123.99"	"298.294"	"547.763"	"590.923"	"187.545"	"319.873"	"318.978"	"7.274"	"5.506"
"1990"	"2.396"	"68.384"	"183.678"	"347.523"	"293.316"	"536.364"	"650.829"	"172.148"	"431.371"	"160.055"	"45.737"	"23.648"
"1991"	"16.775"	"39.102"	"121.214"	"116.839"	"559.167"	"447.221"	"429.835"	"472.538"	"283.365"	"546.148"	"15.016"	"40.353"
"1992"	"8.669"	"54.99"	"57.61"	"122.495"	"342.41"	"430.098"	"806.889"	"587.801"	"330.897"	"188.519"	"22.068"	"23.119"
"1993"	"44.262"	"69.735"	"119.562"	"119.126"	"374.069"	"800.137"	"708.652"	"501.554"	"394.933"	"83.229"	"11.22"	"0.001"
"1994"	"15.378"	"49.996"	"260.251"	"194.925"	"228.746"	"677.539"	"438.942"	"529.942"	"210.852"	"47.573"	"26.073"	"9.701"
"1995"	"18.672"	"32.26"	"27.164"	"113.229"	"372.991"	"639.659"	"662.978"	"547.509"	"337.671"	"83.707"	"118.176"	"1.166"
"1996"	"0.68"	"31.08"	"144.811"	"237.144"	"425.599"	"446.699"	"531.116"	"532.401"	"310.629"	"176.33"	"12.861"	"2.929"
"1997"	"7.307"	"10.397"	"131.239"	"133.671"	"201.636"	"420.41"	"857.312"	"389.309"	"502.774"	"63.809"	"19.494"	"39.515"
"1998"	"13.126"	"21.495"	"163.241"	"255.077"	"439.82"	"425.692"	"729.181"	"623.683"	"188.515"	"98.545"	"104.455"	"0.001"
"1999"	"7.602"	"5.432"	"34.287"	"75.504"	"464.219"	"376.227"	"607.375"	"413.254"	"168.67"	"240.271"	"21.506"	"5.451"
"2000"	"17.233"	"42.056"	"92.3"	"384.852"	"513.963"	"266.953"	"358.359"	"629.666"	"284.919"	"135.916"	"7.235"	"6.277"
"2001"	"3.509"	"18.178"	"121.808"	"205.656"	"415.374"	"552.376"	"491.093"	"658.176"	"301.16"	"249.819"	"42.301"	"2.207"
"2002"	"29.32"	"6.855"	"87.478"	"343.69"	"358.425"	"863.516"	"709.56"	"390.101"	"268.885"	"118.89"	"45.441"	"4.079"
