
"Year"	"Jan"	"Feb"	"Mar"	"Apr"	"May"	"Jun"	"Jul"	"Aug"	"Sep"	"Oct"	"Nov"	"Dec"
"1901"	"16.58"	"20.409"	"25.228"	"30.325"	"29.959"	"30.653"	"29.424"	"28.937"	"28.702"	"27.644"	"22.868"	"18.578"
"1902"	"18.402"	"20.423"	"26.828"	"28.326"	"29.85"	"30.064"	"29.014"	"29.226"	"28.713"	"26.534"	"22.379"	"18.081"
"1903"	"17.31"	"19.422"	"25.127"	"29.925"	"30.879"	"29.353"	"29.934"	"28.724"	"28.913"	"27.235"	"22.383"	"18.082"
"1904"	"17.404"	"20.02"	"25.928"	"30.145"	"28.87"	"29.156"	"28.514"	"28.826"	"28.913"	"26.736"	"22.278"	"18.89"
"1905"	"16.891"	"17.009"	"23.617"	"26.915"	"28.462"	"31.061"	"28.925"	"28.424"	"28.414"	"27.036"	"23.07"	"18.682"
"1906"	"17.002"	"19.31"	"23.53"	"30.136"	"30.369"	"30.064"	"29.425"	"28.436"	"29.313"	"26.834"	"22.982"	"18.991"
"1907"	"18.503"	"19.51"	"23.316"	"27.328"	"29.559"	"29.763"	"29.025"	"29.037"	"28.713"	"27.036"	"22.78"	"18.193"
"1908"	"16.682"	"19.82"	"25.64"	"31.835"	"30.468"	"29.953"	"29.213"	"28.74"	"28.913"	"27.333"	"22.38"	"17.882"
"1909"	"18.301"	"20.009"	"26.84"	"28.018"	"30.368"	"28.854"	"29.225"	"28.227"	"29.204"	"27.235"	"23.766"	"19.081"
"1910"	"17.292"	"19.91"	"25.337"	"29.634"	"29.769"	"29.155"	"28.523"	"28.625"	"29.015"	"26.922"	"22.469"	"18.082"
"1911"	"19.09"	"19.421"	"24.518"	"29.426"	"30.178"	"29.144"	"29.533"	"28.635"	"28.413"	"26.545"	"22.479"	"17.383"
"1912"	"17.904"	"20.919"	"24.838"	"27.537"	"29.36"	"30.052"	"28.724"	"28.636"	"28.913"	"26.834"	"22.269"	"18.27"
"1913"	"17.392"	"20.01"	"23.639"	"30.545"	"28.858"	"28.045"	"29.225"	"28.526"	"28.913"	"26.437"	"21.868"	"17.981"
"1914"	"17.603"	"20.308"	"24.929"	"27.138"	"29.349"	"29.344"	"29.016"	"28.525"	"28.611"	"25.834"	"22.679"	"19.081"
"1915"	"18.492"	"20.11"	"24.53"	"29.126"	"29.669"	"29.154"	"29.733"	"29.323"	"28.737"	"28.724"	"24.768"	"18.97"
"1916"	"17.592"	"20.508"	"26.84"	"29.437"	"32.075"	"29.234"	"28.922"	"28.937"	"28.913"	"27.221"	"22.983"	"17.981"
"1917"	"17.092"	"20.008"	"24.429"	"28.815"	"28.83"	"29.244"	"29.125"	"28.937"	"28.513"	"26.735"	"22.782"	"18.382"
"1918"	"16.692"	"19.919"	"25.839"	"28.515"	"29.753"	"28.344"	"29.743"	"28.225"	"28.924"	"27.045"	"22.779"	"18.28"
"1919"	"18.59"	"19.399"	"26.517"	"28.826"	"30.069"	"29.744"	"29.224"	"29.325"	"28.512"	"26.922"	"23.28"	"18.771"
"1920"	"18.291"	"19.82"	"24.628"	"29.256"	"29.857"	"30.761"	"29.625"	"28.826"	"28.612"	"27.523"	"23.28"	"19.273"
"1921"	"18.39"	"19.921"	"26.44"	"29.945"	"31.577"	"29.96"	"29.423"	"28.828"	"28.913"	"26.034"	"22.371"	"19.255"
"1922"	"18.192"	"20.81"	"26.629"	"31.116"	"31.468"	"28.745"	"29.125"	"28.626"	"28.414"	"26.324"	"22.881"	"18.782"
"1923"	"18.191"	"19.92"	"25.73"	"30.038"	"30.378"	"30.473"	"29.224"	"28.829"	"29.012"	"26.634"	"22.982"	"19.38"
"1924"	"18.189"	"20.408"	"27.429"	"30.726"	"30.566"	"31.271"	"29.125"	"28.826"	"28.213"	"27.524"	"22.681"	"18.882"
"1925"	"16.491"	"18.997"	"25.24"	"28.627"	"29.267"	"29.841"	"28.826"	"29.125"	"28.522"	"26.234"	"22.679"	"17.99"
"1926"	"17.69"	"20.708"	"24.428"	"28.314"	"29.958"	"31.78"	"29.035"	"28.847"	"28.913"	"26.935"	"21.98"	"19.38"
"1927"	"17.79"	"19.72"	"23.54"	"29.735"	"29.17"	"30.261"	"29.323"	"28.825"	"28.733"	"27.332"	"23.078"	"19.29"
"1928"	"17.888"	"20.799"	"26.537"	"29.626"	"29.98"	"29.244"	"29.027"	"29.036"	"29.513"	"27.244"	"22.589"	"18.892"
"1929"	"17.502"	"19.31"	"25.73"	"29.037"	"30.777"	"30.76"	"28.924"	"28.625"	"28.913"	"26.334"	"22.48"	"18.182"
"1930"	"16.591"	"19.711"	"25.627"	"29.036"	"30.258"	"29.66"	"29.125"	"28.826"	"28.913"	"27.033"	"22.38"	"18.18"
"1931"	"18.979"	"20.199"	"25.308"	"30.546"	"29.669"	"31.183"	"28.936"	"29.704"	"29.101"	"27.623"	"22.48"	"19.369"
"1932"	"18.778"	"19.007"	"26.338"	"29.826"	"31.954"	"30.261"	"29.713"	"29.324"	"29.514"	"27.733"	"23.348"	"19.557"
"1933"	"16.492"	"20.71"	"26.019"	"27.916"	"30.156"	"29.542"	"29.027"	"28.327"	"28.913"	"27.036"	"22.579"	"18.792"
"1934"	"17.293"	"19.811"	"25.329"	"29.727"	"30.068"	"29.162"	"29.224"	"28.828"	"29.214"	"26.345"	"22.18"	"18.891"
"1935"	"17.682"	"20.898"	"26.34"	"29.717"	"31.39"	"30.005"	"29.935"	"28.225"	"29.004"	"27.024"	"23.358"	"18.681"
"1936"	"16.692"	"20.307"	"26.139"	"29.925"	"29.75"	"29.923"	"29.414"	"29.525"	"28.692"	"26.624"	"23.77"	"19.668"
"1937"	"16.782"	"20.499"	"24.721"	"30.684"	"30.228"	"30.922"	"30.114"	"28.937"	"29.403"	"26.135"	"22.77"	"18.671"
"1938"	"18.801"	"19.399"	"27.227"	"31.236"	"29.33"	"29.923"	"29.313"	"29.127"	"29.811"	"27.534"	"22.389"	"19.058"
"1939"	"18.589"	"20.72"	"24.918"	"31.716"	"30.68"	"30.063"	"29.714"	"29.205"	"29.213"	"26.846"	"23.648"	"19.669"
"1940"	"18.167"	"20.219"	"23.739"	"29.738"	"31.268"	"30.473"	"29.613"	"29.325"	"29.113"	"27.633"	"23.898"	"19.191"
"1941"	"18.188"	"20.808"	"27.028"	"30.736"	"29.57"	"30.054"	"29.524"	"29.415"	"29.702"	"26.535"	"22.69"	"20.179"
"1942"	"18.39"	"20.411"	"26.338"	"28.847"	"30.612"	"31.184"	"30.203"	"28.994"	"28.513"	"27.024"	"24.079"	"18.102"
"1943"	"19.179"	"19.209"	"25.65"	"27.248"	"29.891"	"29.543"	"29.313"	"28.526"	"29.313"	"27.244"	"23.68"	"20.089"
"1944"	"17.711"	"19.831"	"25.041"	"27.827"	"31.511"	"30.684"	"29.604"	"29.028"	"28.737"	"26.935"	"22.89"	"19.612"
"1945"	"17.692"	"18.819"	"26.149"	"29.106"	"29.481"	"30.276"	"29.925"	"29.036"	"29.413"	"26.713"	"22.868"	"18.369"
"1946"	"18.989"	"21.719"	"25.613"	"26.895"	"29.46"	"30.132"	"29.514"	"29.614"	"29.403"	"26.735"	"23.88"	"19.891"
"1947"	"18.79"	"20.921"	"26.238"	"30.837"	"30.869"	"31.064"	"29.714"	"29.335"	"28.913"	"26.946"	"23.179"	"19.903"
"1948"	"19.41"	"20.72"	"26.108"	"28.858"	"29.583"	"30.352"	"29.094"	"29.205"	"29.404"	"26.845"	"23.103"	"18.748"
"1949"	"18.691"	"20.221"	"26.128"	"26.761"	"28.329"	"29.551"	"29.224"	"29.036"	"29.013"	"28.312"	"22.77"	"17.891"
"1950"	"18.4"	"20.01"	"25.029"	"29.914"	"31.246"	"30.142"	"29.813"	"28.525"	"29.691"	"27.223"	"22.481"	"19.169"
"1951"	"17.99"	"21.01"	"26.53"	"29.826"	"30.958"	"29.875"	"29.224"	"29.836"	"29.825"	"28.045"	"23.589"	"19.677"
"1952"	"18.888"	"21.296"	"24.001"	"28.553"	"29.369"	"30.253"	"29.002"	"29.204"	"28.6"	"27.725"	"23.268"	"18.789"
"1953"	"17.289"	"21.507"	"26.67"	"29.636"	"30.368"	"29.453"	"28.702"	"29.405"	"28.705"	"27.034"	"23.069"	"20.679"
"1954"	"17.179"	"21.92"	"25.93"	"32.413"	"31.235"	"28.733"	"28.601"	"29.005"	"29.682"	"26.014"	"22.159"	"18.869"
"1955"	"18.19"	"20.019"	"26.349"	"28.648"	"30.602"	"29.661"	"28.311"	"28.035"	"29.413"	"28.014"	"23.98"	"18.577"
"1956"	"17.902"	"20.398"	"26.473"	"29.739"	"30.473"	"29.401"	"29.391"	"28.715"	"28.891"	"26.725"	"22.859"	"19.099"
"1957"	"17.888"	"18.91"	"25.039"	"30.114"	"32.972"	"29.785"	"29.514"	"28.903"	"29.091"	"25.943"	"22.579"	"19.967"
"1958"	"19.877"	"20.72"	"26.127"	"31.236"	"32.211"	"31.692"	"30.424"	"28.726"	"29.802"	"28.156"	"24.07"	"20.288"
"1959"	"18.401"	"19.82"	"25.064"	"30.238"	"30.601"	"29.941"	"29.725"	"29.538"	"29.114"	"26.379"	"22.882"	"19.67"
"1960"	"17.79"	"22.61"	"24.541"	"31.603"	"32.226"	"30.253"	"29.027"	"29.804"	"28.413"	"27.735"	"23.06"	"20.271"
"1961"	"19.403"	"19.113"	"26.839"	"30.66"	"31.503"	"29.956"	"29.992"	"29.727"	"29.603"	"27.413"	"22.579"	"17.368"
"1962"	"17.468"	"21.595"	"26.018"	"30.938"	"30.082"	"30.055"	"29.736"	"28.425"	"29.492"	"26.724"	"22.982"	"19.557"
"1963"	"18.149"	"21.797"	"25.228"	"28.727"	"29.237"	"30.352"	"29.424"	"29.314"	"29.601"	"26.958"	"23.023"	"20.068"
"1964"	"17.413"	"20.697"	"27.018"	"29.85"	"29.359"	"30.673"	"28.713"	"29.324"	"29.302"	"27.726"	"23.881"	"19.402"
"1965"	"19"	"20.819"	"24.729"	"29.614"	"31.168"	"30.206"	"28.924"	"28.058"	"28.733"	"27.244"	"22.897"	"19.536"
"1966"	"18.864"	"22.507"	"26.65"	"31.423"	"31.391"	"30.395"	"29.534"	"28.761"	"28.911"	"25.965"	"23.223"	"19.669"
"1967"	"18.601"	"21.329"	"24.329"	"27.241"	"29.88"	"30.184"	"29.534"	"29.125"	"28.759"	"26.443"	"22.01"	"19.422"
"1968"	"17.6"	"18.843"	"25.741"	"29.437"	"31.189"	"29.32"	"29.115"	"29.225"	"29.522"	"26.422"	"23.266"	"18.971"
"1969"	"17.589"	"21.03"	"26.96"	"29.935"	"30.007"	"30.253"	"29.313"	"28.227"	"28.503"	"26.834"	"23.714"	"19.559"
"1970"	"17.833"	"20.764"	"25.315"	"30.524"	"31.559"	"29.631"	"29.136"	"29.027"	"28.705"	"27.036"	"22.646"	"18.748"
"1971"	"17.312"	"19.9"	"24.908"	"27.099"	"28.14"	"28.757"	"28.202"	"27.615"	"28.125"	"26.936"	"22.181"	"19.36"
"1972"	"18.561"	"18.693"	"25.999"	"29.704"	"32.236"	"29.862"	"29.415"	"28.635"	"27.661"	"26.715"	"22.335"	"19.049"
"1973"	"18.282"	"21.265"	"24.487"	"30.273"	"29.162"	"29.012"	"29.323"	"28.937"	"28.425"	"27.223"	"23.167"	"19.279"
"1974"	"17.05"	"20.403"	"24.354"	"29.438"	"29.26"	"29.663"	"28.524"	"28.626"	"28.423"	"28.315"	"23.236"	"17.638"
"1975"	"17.99"	"20.699"	"25.627"	"30.314"	"30.259"	"30.033"	"27.893"	"28.935"	"28.414"	"28.314"	"23.202"	"18.59"
"1976"	"17.977"	"21.499"	"26.238"	"29.605"	"29.15"	"29.794"	"29.234"	"28.446"	"28.489"	"27.255"	"24.893"	"19.191"
"1977"	"18.172"	"20.891"	"27.329"	"29.038"	"27.719"	"28.843"	"29.115"	"29.424"	"29.024"	"26.425"	"23.992"	"18.206"
"1978"	"16.489"	"19.908"	"24.228"	"28.326"	"28.784"	"29.046"	"29.013"	"29.225"	"28.713"	"27.504"	"24.269"	"19.867"
"1979"	"18.88"	"19.997"	"25.608"	"29.927"	"32.014"	"31.04"	"29.234"	"29.746"	"28.889"	"27.725"	"25.569"	"19.667"
"1980"	"18.19"	"20.7"	"25.818"	"31.135"	"28.691"	"30.131"	"29.424"	"29.116"	"29.104"	"26.934"	"23.868"	"20.759"
"1981"	"17.367"	"20.989"	"24.82"	"27.297"	"28.41"	"30.231"	"29.016"	"29.414"	"28.623"	"27.613"	"23.08"	"19.078"
"1982"	"19.011"	"20.019"	"23.542"	"28.827"	"31.278"	"29.753"	"30.365"	"28.847"	"29.521"	"27.032"	"23.379"	"19.671"
"1983"	"17.378"	"19.43"	"25.639"	"28.126"	"28.981"	"31.271"	"29.723"	"29.335"	"29.235"	"27.224"	"23.357"	"18.877"
"1984"	"17.613"	"19.991"	"26.331"	"30.225"	"30.913"	"29.113"	"28.934"	"28.935"	"28.322"	"28.135"	"22.277"	"19.863"
"1985"	"18.577"	"20.212"	"27.3"	"30.325"	"29.517"	"30.274"	"28.424"	"29.314"	"28.414"	"27.022"	"23.187"	"20.5"
"1986"	"18.781"	"21"	"25.598"	"28.548"	"28.526"	"30.763"	"28.924"	"28.705"	"28.234"	"26.334"	"23.971"	"19.555"
"1987"	"18.188"	"21.787"	"25.719"	"29.016"	"30.126"	"30.862"	"28.937"	"28.315"	"28.925"	"27.429"	"23.572"	"20.799"
"1988"	"19.613"	"21.713"	"25.631"	"29.761"	"30.369"	"29.332"	"29.245"	"29.435"	"29.922"	"28.363"	"23.9"	"21.198"
"1989"	"17.836"	"21.459"	"25.851"	"30.456"	"30.538"	"29.411"	"29.048"	"29.313"	"29.225"	"28.056"	"23.41"	"18.911"
"1990"	"19.696"	"20.808"	"24.039"	"28.448"	"29.629"	"30.244"	"29.225"	"29.545"	"29.512"	"26.537"	"24.957"	"20.102"
"1991"	"17.178"	"22.131"	"26.04"	"29.25"	"30.167"	"29.521"	"29.824"	"29.603"	"28.436"	"27.578"	"24.031"	"18.989"
"1992"	"17.751"	"19.1"	"27.023"	"30.414"	"29.059"	"30.85"	"28.533"	"29.313"	"29.213"	"27.057"	"23.879"	"18.89"
"1993"	"17.805"	"22.121"	"24.14"	"28.127"	"28.382"	"29.954"	"29.923"	"29.006"	"28.913"	"28.024"	"24.557"	"20.769"
"1994"	"19"	"19.819"	"25.941"	"28.738"	"30.659"	"29.953"	"30.302"	"29.514"	"29.204"	"27.233"	"23.787"	"19.69"
"1995"	"16.987"	"20.86"	"25.63"	"29.535"	"31.55"	"30.255"	"28.815"	"28.716"	"29.013"	"27.825"	"24.193"	"19.98"
"1996"	"17.902"	"20.518"	"26.149"	"29.127"	"30.46"	"29.442"	"29.125"	"28.605"	"29.511"	"27.224"	"23.791"	"19.991"
"1997"	"17.979"	"18.804"	"26.22"	"28.73"	"29.949"	"30.253"	"29.413"	"29.716"	"28.413"	"26.923"	"23.769"	"19.669"
"1998"	"17.692"	"21.3"	"24.33"	"29.38"	"30.753"	"31.262"	"29.414"	"29.325"	"29.701"	"29.245"	"24.768"	"20.78"
"1999"	"19.281"	"22.589"	"26.819"	"32.207"	"30.57"	"30.334"	"29.125"	"28.937"	"29.014"	"28.024"	"24.48"	"20.98"
"2000"	"18.195"	"20.9"	"24.543"	"29.131"	"30.347"	"30.147"	"29.326"	"29.036"	"28.601"	"27.536"	"24.5"	"19.691"
"2001"	"18.502"	"21.187"	"26.03"	"30.225"	"30.96"	"30.045"	"29.716"	"29.625"	"29.513"	"28.244"	"25.089"	"20.502"
"2002"	"18.48"	"21.91"	"26.53"	"29.426"	"30.77"	"30.364"	"30.323"	"29.026"	"29.013"	"27.534"	"24.069"	"20.391"
