
"Year"	"Jan"	"Feb"	"Mar"	"Apr"	"May"	"Jun"	"Jul"	"Aug"	"Sep"	"Oct"	"Nov"	"Dec"
"1901"	"14.617"	"17.491"	"21.249"	"24.397"	"25.06"	"27.011"	"27.152"	"27.023"	"26.524"	"24.86"	"20.233"	"16.136"
"1902"	"15.752"	"17.393"	"22.368"	"22.344"	"25.33"	"26.211"	"27.081"	"27.434"	"26.252"	"23.508"	"19.634"	"15.577"
"1903"	"13.877"	"16.504"	"20.503"	"23.798"	"24.601"	"25.605"	"27.363"	"26.556"	"26.564"	"25.349"	"20.693"	"16.136"
"1904"	"14.883"	"17.064"	"21.781"	"22.698"	"23.955"	"26.605"	"26.752"	"27.209"	"26.453"	"24.213"	"19.652"	"15.565"
"1905"	"14.166"	"14.633"	"19.59"	"21.409"	"24.337"	"26.388"	"27.064"	"26.388"	"26.518"	"24.467"	"20.821"	"16.37"
"1906"	"14.487"	"16.493"	"19.96"	"23.523"	"24.857"	"26.376"	"27.552"	"26.334"	"27.336"	"24.231"	"20.681"	"16.512"
"1907"	"15.895"	"16.661"	"19.432"	"21.957"	"24.42"	"25.624"	"26.47"	"27.487"	"26.012"	"24.391"	"20.575"	"15.937"
"1908"	"14.806"	"16.992"	"21.357"	"25.086"	"24.501"	"26.492"	"27.139"	"27.093"	"26.412"	"24.39"	"20.035"	"15.779"
"1909"	"14.853"	"16.745"	"22.809"	"23.014"	"24.31"	"25.898"	"27.353"	"26.804"	"27.423"	"25.231"	"21.645"	"16.865"
"1910"	"15.251"	"17.28"	"20.651"	"22.694"	"24.214"	"25.829"	"25.922"	"26.887"	"26.924"	"24.319"	"20.604"	"16.163"
"1911"	"16.15"	"16.551"	"20.579"	"23.065"	"23.844"	"26.239"	"26.481"	"26.716"	"26.194"	"23.716"	"19.629"	"15.336"
"1912"	"15.535"	"17.464"	"19.935"	"21.109"	"24.631"	"26.052"	"26.453"	"26.716"	"26.381"	"24.078"	"20.358"	"16.365"
"1913"	"15.326"	"17.396"	"19.66"	"23.224"	"23.538"	"25.783"	"26.883"	"27.045"	"26.323"	"24.219"	"19.505"	"15.693"
"1914"	"15.023"	"17.052"	"20.92"	"21.45"	"24.847"	"26.81"	"27.381"	"26.604"	"25.995"	"23.031"	"20.105"	"16.792"
"1915"	"16.435"	"17.275"	"20.674"	"23.11"	"24.073"	"25.7"	"26.527"	"26.993"	"26.183"	"26.401"	"22.334"	"16.936"
"1916"	"15.294"	"17.234"	"22.25"	"22.826"	"24.678"	"26.869"	"26.129"	"26.986"	"26.606"	"24.202"	"21.116"	"15.876"
"1917"	"14.653"	"16.909"	"20.233"	"22.891"	"25.364"	"26.139"	"26.781"	"27.279"	"26.435"	"24.326"	"21.116"	"16.434"
"1918"	"14.565"	"16.733"	"21.092"	"22.909"	"25.958"	"25.515"	"26.223"	"26.47"	"26.435"	"24.284"	"20.204"	"15.719"
"1919"	"15.883"	"16.833"	"22.632"	"22.968"	"24.572"	"26.869"	"26.956"	"27.957"	"25.783"	"24.366"	"21.414"	"16.906"
"1920"	"16.106"	"16.574"	"20.41"	"22.339"	"23.974"	"25.91"	"27.681"	"26.786"	"26.235"	"24.888"	"20.946"	"18.063"
"1921"	"15.75"	"17.007"	"21.719"	"22.868"	"24.649"	"25.182"	"26.735"	"27.335"	"26.581"	"23.348"	"20.417"	"16.763"
"1922"	"15.753"	"17.933"	"22.48"	"25.508"	"25.389"	"25.97"	"26.842"	"27.092"	"26.594"	"24.361"	"21.017"	"16.476"
"1923"	"15.807"	"16.832"	"22"	"23.809"	"24.02"	"25.794"	"26.853"	"27.659"	"26.312"	"24.148"	"21.116"	"16.877"
"1924"	"15.471"	"17.092"	"23.134"	"24.431"	"24.091"	"26.252"	"26.812"	"26.805"	"25.866"	"25.532"	"20.658"	"16.862"
"1925"	"13.834"	"16.073"	"21.319"	"23.066"	"23.237"	"26.492"	"26.781"	"27.027"	"25.501"	"23.46"	"20.134"	"15.022"
"1926"	"15.023"	"17.134"	"20.051"	"22.668"	"24.501"	"25.682"	"26.553"	"27.129"	"26.704"	"24.761"	"19.715"	"16.965"
"1927"	"14.951"	"15.952"	"19.221"	"22.864"	"24.015"	"25.771"	"27.05"	"26.828"	"25.565"	"24.373"	"20.129"	"16.324"
"1928"	"15.12"	"18.046"	"21.721"	"24.037"	"24.131"	"26.281"	"27.194"	"26.71"	"27.029"	"23.808"	"19.534"	"16.237"
"1929"	"14.495"	"16.433"	"21.684"	"22.838"	"23.879"	"25.783"	"26.805"	"27.039"	"26.453"	"24.062"	"20.104"	"16.14"
"1930"	"13.834"	"16.823"	"20.662"	"22.856"	"24.853"	"24.965"	"27.405"	"26.998"	"26.525"	"23.578"	"20.036"	"16.013"
"1931"	"16.024"	"17.699"	"21.261"	"23.299"	"23.973"	"26.011"	"26.61"	"27.716"	"25.378"	"24.915"	"19.828"	"16.407"
"1932"	"14.777"	"15.045"	"21.374"	"23.78"	"23.459"	"25.854"	"26.98"	"27.074"	"26.64"	"24.72"	"21.523"	"16.665"
"1933"	"14.436"	"17.393"	"22.35"	"22.638"	"24.032"	"26.411"	"27.152"	"26.986"	"26.646"	"24.86"	"20.163"	"16.323"
"1934"	"15.164"	"17.292"	"21.402"	"23.727"	"23.663"	"25.11"	"26.886"	"27.068"	"27.288"	"23.79"	"19.815"	"15.835"
"1935"	"14.393"	"17.12"	"21.708"	"23.768"	"24.433"	"25.3"	"27.352"	"26.417"	"26.311"	"24.56"	"21.114"	"15.894"
"1936"	"13.912"	"16.046"	"21.69"	"23.769"	"25.024"	"26.193"	"26.98"	"27.287"	"26.563"	"23.591"	"21.491"	"16.605"
"1937"	"13.636"	"16.903"	"20.674"	"24.613"	"24.542"	"26.792"	"27.751"	"26.899"	"26.623"	"24.531"	"19.773"	"16.995"
"1938"	"15.941"	"16.475"	"22.029"	"25.046"	"25.113"	"26.499"	"26.681"	"27.104"	"26.554"	"25.061"	"19.018"	"16.507"
"1939"	"15.594"	"17.411"	"21.708"	"25.615"	"24.813"	"26.181"	"26.681"	"27.458"	"26.252"	"24.032"	"20.675"	"16.565"
"1940"	"14.852"	"16.892"	"18.932"	"23.911"	"24.474"	"26.281"	"26.921"	"27.486"	"26.282"	"24.618"	"20.592"	"17.018"
"1941"	"14.665"	"17.164"	"22.28"	"23.911"	"24.384"	"26.323"	"27.439"	"27.487"	"26.64"	"24.173"	"19.546"	"17.353"
"1942"	"15.594"	"18.033"	"21.332"	"23.132"	"24.519"	"26.299"	"27.793"	"27.086"	"26.323"	"25.219"	"21.362"	"16.193"
"1943"	"16.052"	"16.767"	"20.202"	"21.451"	"24.193"	"26.352"	"26.836"	"26.857"	"26.412"	"24.15"	"21.763"	"17.411"
"1944"	"14.993"	"16.82"	"22.106"	"23.653"	"25.466"	"26.967"	"27.594"	"27.904"	"26.428"	"25.306"	"20.907"	"17.809"
"1945"	"15.781"	"15.962"	"22.308"	"25.328"	"24.718"	"26.822"	"27.57"	"26.985"	"27.299"	"24.624"	"20.633"	"16.412"
"1946"	"15.876"	"18.312"	"21.696"	"22.902"	"24.53"	"26.123"	"26.711"	"27.627"	"26.423"	"23.686"	"21.203"	"16.935"
"1947"	"15.136"	"17.663"	"21.143"	"23.5"	"24.631"	"26.222"	"26.61"	"27.086"	"26.564"	"23.748"	"20.387"	"17.207"
"1948"	"15.595"	"16.851"	"20.861"	"23.419"	"23.751"	"25.795"	"26.681"	"26.968"	"26.851"	"23.503"	"20.814"	"15.995"
"1949"	"15.594"	"17.131"	"21.367"	"21.32"	"24.459"	"25.94"	"26.828"	"26.774"	"26.365"	"25.103"	"20.521"	"15.045"
"1950"	"15.412"	"17.021"	"21.15"	"23.985"	"25.179"	"25.565"	"27.168"	"26.328"	"26.783"	"24.432"	"20.574"	"16.911"
"1951"	"15.265"	"17.652"	"22.438"	"23.219"	"24.631"	"25.782"	"26.282"	"27.558"	"26.623"	"24.948"	"20.745"	"17.238"
"1952"	"15.906"	"18.575"	"20.327"	"24.765"	"23.737"	"27.062"	"27.064"	"27.086"	"26.411"	"25.32"	"21.413"	"17.345"
"1953"	"14.776"	"17.675"	"21.696"	"23.885"	"24.958"	"26.062"	"26.411"	"27.756"	"26.124"	"24.236"	"20.346"	"17.705"
"1954"	"14.406"	"18.292"	"22.268"	"23.845"	"24.947"	"25.381"	"26.258"	"26.576"	"27.041"	"23.878"	"20.263"	"17.054"
"1955"	"15.371"	"17.634"	"21.997"	"23.496"	"25.548"	"25.67"	"26.452"	"26.556"	"26.646"	"25.449"	"21.386"	"15.658"
"1956"	"16.168"	"18.519"	"22.661"	"25.341"	"25.679"	"25.834"	"27.005"	"27.249"	"27.236"	"24.978"	"21.379"	"17.339"
"1957"	"16.022"	"16.422"	"21.535"	"24.861"	"24.39"	"26.146"	"27.363"	"27.741"	"27.223"	"24.049"	"21.132"	"17.106"
"1958"	"16.798"	"17.196"	"23.009"	"24.45"	"24.582"	"27.428"	"28.033"	"27.033"	"27.177"	"25.278"	"21.373"	"17.71"
"1959"	"15.435"	"16.351"	"21.438"	"24.867"	"25.136"	"26.896"	"27.946"	"28.327"	"26.494"	"23.873"	"20.633"	"16.889"
"1960"	"15.714"	"19.682"	"21.531"	"26.447"	"26.142"	"26.822"	"26.805"	"27.84"	"26.494"	"25.313"	"20.904"	"18.55"
"1961"	"16.995"	"16.879"	"21.468"	"24.796"	"25.12"	"26.788"	"27.833"	"27.798"	"27.165"	"25.179"	"20.239"	"15.856"
"1962"	"14.999"	"18.087"	"22.064"	"25.763"	"24.414"	"26.426"	"28.139"	"26.831"	"27.225"	"24.163"	"20.072"	"16.636"
"1963"	"15.123"	"18.281"	"21.851"	"23.742"	"24.372"	"26.31"	"27.311"	"27.105"	"27.066"	"24.168"	"19.766"	"17.095"
"1964"	"14.794"	"17.596"	"22.192"	"23.331"	"24.819"	"25.776"	"26.399"	"27.039"	"26.53"	"24.949"	"21.322"	"16.912"
"1965"	"15.947"	"17.458"	"20.556"	"23.544"	"24.789"	"26.052"	"26.781"	"25.987"	"26.183"	"24.261"	"19.406"	"17.255"
"1966"	"16.141"	"19.228"	"22.719"	"24.73"	"26.106"	"25.311"	"26.993"	"26.663"	"26.182"	"23.401"	"21.644"	"16.865"
"1967"	"16.293"	"18.42"	"20.708"	"23.049"	"24.541"	"25.682"	"26.711"	"27.304"	"26.053"	"23.731"	"19.015"	"16.804"
"1968"	"15.624"	"16.392"	"21.867"	"23.313"	"24.535"	"25.573"	"26.364"	"27.357"	"26.516"	"23.527"	"20.545"	"16.685"
"1969"	"15.442"	"18.082"	"22.94"	"24.843"	"25.976"	"26.211"	"27.023"	"26.457"	"26.476"	"24.231"	"20.446"	"17.124"
"1970"	"14.841"	"17.311"	"21.577"	"24.272"	"25.34"	"26.938"	"26.65"	"26.902"	"26.518"	"24.248"	"20.715"	"17.013"
"1971"	"15.547"	"17.1"	"20.756"	"23.131"	"24.787"	"26.492"	"26.752"	"26.428"	"26.524"	"24.497"	"19.55"	"16.479"
"1972"	"16.38"	"16.714"	"21.887"	"22.314"	"24.372"	"25.946"	"26.924"	"26.881"	"26.253"	"24.491"	"20.504"	"16.953"
"1973"	"16.252"	"18.468"	"21.749"	"24.779"	"25.37"	"26.034"	"26.728"	"27.329"	"26.018"	"24.738"	"20.693"	"16.553"
"1974"	"14.893"	"16.956"	"21.32"	"23.42"	"24.836"	"25.963"	"26.281"	"26.939"	"25.777"	"25.63"	"22.045"	"15.864"
"1975"	"15.422"	"17.792"	"22.455"	"24.667"	"24.66"	"26.716"	"26.163"	"27.146"	"26.194"	"25.278"	"20.532"	"15.765"
"1976"	"15.582"	"18.239"	"23.047"	"24.612"	"24.746"	"25.552"	"26.752"	"26.567"	"26.594"	"23.961"	"21.521"	"16.909"
"1977"	"15.04"	"18.067"	"22.778"	"21.749"	"23.53"	"25.11"	"27.191"	"26.241"	"27.312"	"23.002"	"20.293"	"16.952"
"1978"	"14.48"	"17.252"	"21.565"	"23.855"	"24.911"	"26.073"	"26.435"	"27.482"	"26.282"	"25.233"	"20.234"	"16.556"
"1979"	"15.654"	"17.322"	"21.678"	"25.454"	"25.677"	"27.405"	"26.335"	"27.487"	"25.748"	"23.79"	"21.763"	"16.865"
"1980"	"15.152"	"17.134"	"21.022"	"24.444"	"24.083"	"26.834"	"27.265"	"27.062"	"27.112"	"23.932"	"20.993"	"17.394"
"1981"	"15.794"	"18.131"	"21.536"	"22.825"	"25.041"	"27.193"	"26.693"	"27.469"	"26.722"	"25.161"	"21.434"	"16.936"
"1982"	"16.811"	"17.31"	"21.161"	"22.685"	"25.59"	"26.094"	"26.865"	"27.411"	"26.312"	"24.437"	"20.292"	"16.493"
"1983"	"14.294"	"16.004"	"20.721"	"22.586"	"23.902"	"26.669"	"27.141"	"26.899"	"25.895"	"24.886"	"21.057"	"15.794"
"1984"	"14.235"	"17.118"	"22.362"	"24.601"	"24.147"	"26.934"	"26.209"	"27.24"	"25.364"	"24.93"	"20.094"	"16.792"
"1985"	"15.664"	"17.307"	"22.324"	"24.042"	"24.97"	"26.352"	"25.893"	"27.54"	"26.452"	"24.901"	"20.234"	"17.781"
"1986"	"16.193"	"18.063"	"22.257"	"23.113"	"24.87"	"27.163"	"26.692"	"27.405"	"25.854"	"23.202"	"20.592"	"17.065"
"1987"	"16.411"	"18.911"	"21.179"	"23.672"	"25.496"	"26.994"	"26.435"	"26.669"	"26.411"	"24.589"	"21.663"	"17.856"
"1988"	"16.428"	"19.169"	"21.672"	"24.086"	"24.66"	"26.587"	"27.068"	"26.685"	"26.551"	"24.903"	"21.248"	"18.536"
"1989"	"15.309"	"16.909"	"21.778"	"23.594"	"25.713"	"26.352"	"26.382"	"27.027"	"26.323"	"25.06"	"20.134"	"16.125"
"1990"	"17.278"	"17.681"	"19.89"	"21.596"	"25.545"	"26.668"	"26.921"	"27.44"	"26.518"	"24.061"	"21.975"	"17.705"
"1991"	"15.547"	"18.763"	"22.65"	"23.456"	"23.399"	"26.323"	"27.282"	"27.347"	"26.571"	"24.791"	"20.175"	"16.264"
"1992"	"15.553"	"16.21"	"21.726"	"24.72"	"24.271"	"26.611"	"26.303"	"27.269"	"26.623"	"24.16"	"20.616"	"15.823"
"1993"	"15.412"	"18.333"	"20.621"	"23.06"	"24.301"	"25.693"	"27.05"	"26.998"	"26.364"	"25.02"	"21.487"	"18.266"
"1994"	"16.792"	"17.462"	"21.568"	"24.402"	"26.471"	"27.104"	"27.652"	"27.78"	"27.594"	"23.938"	"20.646"	"16.725"
"1995"	"15.383"	"17.992"	"23.531"	"24.744"	"26.494"	"26.822"	"26.862"	"27.175"	"26.524"	"25.361"	"21.934"	"17.782"
"1996"	"16.211"	"19.08"	"22.755"	"26.379"	"25.318"	"26.932"	"27.081"	"27.121"	"27.177"	"24.83"	"21.633"	"17.964"
"1997"	"15.694"	"16.809"	"22.474"	"23.254"	"25.689"	"26.852"	"27.722"	"27.853"	"26.225"	"24.057"	"20.604"	"17.267"
"1998"	"15.524"	"19.227"	"20.979"	"24.871"	"27.002"	"26.958"	"27.018"	"27.529"	"26.961"	"26.042"	"22.516"	"18.238"
"1999"	"16.583"	"20.994"	"23.315"	"27.076"	"26.099"	"27.881"	"27.235"	"27.045"	"27.177"	"25.251"	"22.234"	"18.356"
"2000"	"15.941"	"18.681"	"21.05"	"21.918"	"25.39"	"27.324"	"27.804"	"27.064"	"26.465"	"25.331"	"21.051"	"16.965"
"2001"	"15.986"	"18.892"	"22.343"	"24.026"	"26.195"	"27.634"	"27.97"	"28.057"	"27.237"	"24.949"	"21.804"	"17.247"
"2002"	"16.223"	"19.403"	"22.468"	"23.768"	"25.268"	"26.763"	"27.71"	"27.47"	"26.824"	"24.89"	"21.615"	"17.265"
