
"Year"	"Jan"	"Feb"	"Mar"	"Apr"	"May"	"Jun"	"Jul"	"Aug"	"Sep"	"Oct"	"Nov"	"Dec"
"1901"	"20.176"	"21.84"	"26.501"	"30.443"	"32.633"	"31.068"	"26.471"	"25.19"	"26.318"	"25.735"	"21.389"	"18.787"
"1902"	"20.948"	"22.79"	"28.113"	"30.982"	"33.47"	"31.551"	"26.549"	"26.337"	"26.022"	"25.378"	"21.201"	"18.81"
"1903"	"20.571"	"21.404"	"26.801"	"31.008"	"31.789"	"30.423"	"26.36"	"25.95"	"25.834"	"24.283"	"20.072"	"18.012"
"1904"	"20.223"	"22.091"	"26.862"	"31.782"	"32.456"	"28.898"	"26.187"	"25.635"	"25.646"	"25.048"	"20.9"	"19.306"
"1905"	"19.798"	"20.518"	"26.4"	"29.085"	"32.584"	"32.029"	"26.2"	"26.112"	"25.35"	"24.789"	"21.589"	"18.512"
"1906"	"20.123"	"22.668"	"25.886"	"31.694"	"33.955"	"29.332"	"25.972"	"25.751"	"25.786"	"24.886"	"21.547"	"19.612"
"1907"	"20.013"	"22.416"	"26.099"	"28.261"	"31.702"	"29.722"	"26.662"	"24.549"	"26.297"	"25.735"	"22.221"	"18.211"
"1908"	"18.539"	"22.592"	"26.302"	"31.755"	"33.284"	"30.674"	"25.637"	"24.804"	"25.949"	"24.888"	"20.687"	"17.51"
"1909"	"20.962"	"22.63"	"27.513"	"28.175"	"32.294"	"28.586"	"25.398"	"25.9"	"25.55"	"24.125"	"20.662"	"19.386"
"1910"	"19.586"	"21.6"	"27.027"	"31.485"	"32.9"	"28.984"	"26.376"	"25.754"	"25.885"	"24.826"	"19.621"	"17.333"
"1911"	"20.287"	"21.468"	"26.267"	"30.7"	"33.471"	"28.326"	"26.761"	"25.005"	"25.873"	"24.965"	"21.851"	"18.134"
"1912"	"19.65"	"22.987"	"27.579"	"30.061"	"33.059"	"32.315"	"26.089"	"25.503"	"25.961"	"25.175"	"20.95"	"17.735"
"1913"	"18.751"	"23.015"	"26.493"	"31.778"	"32.17"	"28.402"	"26.125"	"25.404"	"26.123"	"24.925"	"20.726"	"19.002"
"1914"	"19.212"	"23.442"	"26.963"	"28.46"	"31.653"	"29.051"	"25.927"	"25.777"	"25.735"	"24.765"	"21.661"	"18.974"
"1915"	"19.56"	"22.141"	"25.9"	"30.21"	"33.284"	"31.578"	"26.999"	"26.113"	"26.175"	"25.875"	"23.187"	"18.611"
"1916"	"19.088"	"22.502"	"27.05"	"31.363"	"32.482"	"27.385"	"26.675"	"25.815"	"26.072"	"25.586"	"22.038"	"17.613"
"1917"	"19.189"	"21.303"	"25.539"	"29.121"	"30.067"	"27.385"	"25.597"	"25.803"	"25.352"	"24.75"	"20.828"	"18.285"
"1918"	"18.697"	"21.869"	"26.451"	"29.749"	"30.885"	"26.823"	"26.86"	"25.205"	"26.179"	"24.56"	"22.466"	"19.348"
"1919"	"21.285"	"22.491"	"26.7"	"29.811"	"31.322"	"27.902"	"26.136"	"25.217"	"26.074"	"24.684"	"21.924"	"18.374"
"1920"	"19.802"	"22.429"	"27.14"	"30.07"	"31.199"	"30.658"	"25.837"	"25.865"	"26.564"	"25.761"	"21.313"	"18.314"
"1921"	"20.488"	"22.118"	"28.279"	"31.272"	"35.67"	"29.712"	"26.638"	"25.662"	"25.475"	"24.525"	"19.299"	"18.798"
"1922"	"19.739"	"22.355"	"27.715"	"31.4"	"33.522"	"29.201"	"25.526"	"25.842"	"25.501"	"24.413"	"21.464"	"17.436"
"1923"	"19.448"	"22.042"	"26.014"	"30.45"	"33.199"	"33.024"	"25.837"	"25.113"	"26.085"	"24.026"	"21.049"	"18.826"
"1924"	"20.106"	"23.319"	"27.879"	"31.548"	"32.888"	"32.001"	"26.363"	"26.115"	"25.734"	"24.447"	"20.601"	"18.286"
"1925"	"18.94"	"21.533"	"26.479"	"31.237"	"30.768"	"28.338"	"24.938"	"25.505"	"26.376"	"25.175"	"21.911"	"18.284"
"1926"	"20.549"	"23.13"	"26.837"	"28.776"	"30.921"	"32.925"	"26.599"	"25.417"	"25.973"	"24.471"	"20.127"	"18.612"
"1927"	"21.718"	"23.317"	"26.853"	"31.523"	"32.928"	"30.097"	"25.61"	"25.366"	"26.175"	"24.535"	"20.275"	"18.896"
"1928"	"20.226"	"22.231"	"26.888"	"30.325"	"33.354"	"29.568"	"25.837"	"26.366"	"26.137"	"25.586"	"20.9"	"19.077"
"1929"	"20.529"	"20.901"	"26.737"	"29.072"	"33.324"	"29.099"	"25.439"	"25.205"	"26.144"	"24.263"	"20.202"	"19.212"
"1930"	"19.65"	"21.031"	"26.976"	"29.757"	"32.403"	"29.899"	"25.823"	"25.419"	"25.896"	"25.299"	"20.313"	"18.854"
"1931"	"19.687"	"23.508"	"26.713"	"31.038"	"33.352"	"31.575"	"26.138"	"25.672"	"26.388"	"25.025"	"20.851"	"18.336"
"1932"	"19.586"	"21.005"	"26.702"	"30.358"	"32.401"	"30.999"	"25.596"	"26.103"	"25.935"	"25.873"	"22.027"	"18.621"
"1933"	"20.092"	"23.732"	"26.888"	"29.675"	"30.233"	"27.462"	"26.238"	"25.715"	"25.647"	"24.787"	"21.188"	"19.075"
"1934"	"19.124"	"22.019"	"26.888"	"30.8"	"33.67"	"29.836"	"25.937"	"25.529"	"25.487"	"24.087"	"20.161"	"18.534"
"1935"	"19.738"	"22.739"	"26.828"	"29.033"	"34.098"	"31.487"	"25.314"	"25.556"	"25.672"	"25.175"	"20.899"	"19.761"
"1936"	"21.817"	"21.943"	"27.286"	"30.297"	"32.65"	"26.999"	"26.24"	"25.306"	"26.013"	"24.726"	"22.627"	"19.373"
"1937"	"18.84"	"22.927"	"26.176"	"29.676"	"32.719"	"30.549"	"25.611"	"25.714"	"25.875"	"24.684"	"21.24"	"18.513"
"1938"	"22.14"	"21.906"	"28.328"	"30.6"	"32.69"	"26.749"	"25.787"	"25.956"	"26.036"	"24.546"	"20.301"	"18.262"
"1939"	"20.49"	"23.191"	"26.138"	"30.598"	"34.171"	"30.227"	"25.439"	"25.673"	"25.734"	"25.573"	"20.511"	"18.322"
"1940"	"18.34"	"22.479"	"26.077"	"29.987"	"32.141"	"29.26"	"25.1"	"25.503"	"26.414"	"25.414"	"22.159"	"19.511"
"1941"	"21.037"	"22.805"	"27.999"	"32.2"	"33.471"	"29.168"	"26.437"	"26.217"	"26.636"	"25.012"	"20.154"	"19.723"
"1942"	"19.888"	"22.382"	"27.425"	"30.549"	"33.81"	"31.427"	"25.111"	"25.674"	"26.304"	"24.285"	"20.873"	"19.324"
"1943"	"21.511"	"20.829"	"26.978"	"29.634"	"32.113"	"28.6"	"25.749"	"25.027"	"25.858"	"24.709"	"20.962"	"17.206"
"1944"	"19.939"	"21.712"	"25.003"	"28.848"	"33.258"	"30.438"	"25.297"	"25.306"	"25.836"	"24.512"	"20.473"	"19.436"
"1945"	"19.199"	"21.619"	"26.978"	"29.123"	"33.148"	"30.19"	"25.609"	"25.877"	"25.298"	"23.826"	"19.702"	"17.111"
"1946"	"18.176"	"21.703"	"27.465"	"29.099"	"32.523"	"27.963"	"25.776"	"25.319"	"25.935"	"25.701"	"22.976"	"21.235"
"1947"	"21.24"	"21.792"	"27.491"	"31.858"	"33.951"	"30.787"	"25.4"	"26.115"	"25.985"	"24.472"	"21.061"	"19.363"
"1948"	"20.712"	"23.191"	"26.217"	"31.288"	"34.27"	"30.888"	"26.488"	"25.715"	"25.824"	"25.662"	"23.199"	"17.846"
"1949"	"19.761"	"21.792"	"27.53"	"30.919"	"32.549"	"29.021"	"25.837"	"25.943"	"25.984"	"25.203"	"21.016"	"17.425"
"1950"	"19.863"	"22.054"	"25.94"	"30.904"	"33.66"	"29.626"	"25.3"	"26.044"	"26.2"	"24.474"	"20.389"	"18.437"
"1951"	"19.14"	"22.855"	"27.127"	"29.936"	"32.31"	"29.875"	"26.64"	"25.38"	"26.813"	"26.537"	"21.949"	"19.364"
"1952"	"20.613"	"23.689"	"26.627"	"31.351"	"33.599"	"31.264"	"26.612"	"25.687"	"25.937"	"25.463"	"20.752"	"20.613"
"1953"	"19.948"	"23.603"	"29.099"	"30.921"	"34.868"	"32.025"	"26.264"	"25.317"	"26.713"	"25.267"	"20.85"	"18.887"
"1954"	"19.199"	"23.74"	"27.178"	"31.66"	"33.96"	"30.512"	"26.222"	"26.116"	"25.387"	"24.011"	"19.802"	"19.573"
"1955"	"20.061"	"23.63"	"28.052"	"29.85"	"32.444"	"30.32"	"25.936"	"25.825"	"25.773"	"24.784"	"19.923"	"18.195"
"1956"	"20.373"	"21.641"	"28.249"	"31.947"	"32.782"	"27.875"	"25.336"	"25.515"	"25.672"	"24.475"	"21.366"	"19.733"
"1957"	"21.062"	"22.081"	"25.549"	"29.811"	"32.412"	"30.362"	"25.5"	"25.802"	"26.475"	"25.727"	"21.8"	"20.227"
"1958"	"20.624"	"23.292"	"27.363"	"31.322"	"33.113"	"32.498"	"25.657"	"26.257"	"25.885"	"25.047"	"22.537"	"19.347"
"1959"	"20.363"	"22.866"	"27.391"	"30.996"	"33.402"	"29.61"	"25.648"	"25.178"	"25.576"	"25.376"	"21"	"18.964"
"1960"	"19.749"	"22.654"	"26.098"	"30.649"	"32.886"	"29.897"	"25.937"	"25.315"	"26.475"	"24.549"	"20.889"	"20.363"
"1961"	"20.749"	"21.542"	"28.429"	"31.185"	"32.793"	"28.837"	"25.34"	"25.687"	"24.961"	"24.586"	"20.403"	"17.999"
"1962"	"18.049"	"21.781"	"26.626"	"29.848"	"32.073"	"28.999"	"25.758"	"25.635"	"25.984"	"24.662"	"21.109"	"19.246"
"1963"	"18.49"	"22.453"	"26.638"	"28.919"	"32.198"	"29.148"	"25.937"	"25.675"	"26.06"	"25.376"	"22.173"	"19.162"
"1964"	"20.977"	"23.257"	"27.927"	"31.576"	"33.624"	"29.838"	"25.902"	"24.978"	"26.175"	"25.352"	"21.102"	"19.074"
"1965"	"20.073"	"22.531"	"26.627"	"30.035"	"33.325"	"30.449"	"26"	"26.355"	"25.926"	"25.613"	"21.951"	"20.099"
"1966"	"19.899"	"23.652"	"27.628"	"31.422"	"33.957"	"30.289"	"27.491"	"26.115"	"26.322"	"25.538"	"23.54"	"19.075"
"1967"	"20.375"	"23.453"	"25.989"	"30.336"	"33.709"	"30.871"	"26.71"	"25.319"	"25.971"	"24.647"	"21.526"	"21.112"
"1968"	"19.411"	"22.48"	"25.601"	"28.732"	"32.414"	"30.463"	"26.338"	"25.354"	"26.298"	"24.561"	"21.601"	"19.411"
"1969"	"20.061"	"24.391"	"29.077"	"32.127"	"32.163"	"30.39"	"25.698"	"25.554"	"25.672"	"25.147"	"22.8"	"18.753"
"1970"	"20.225"	"24.155"	"27.268"	"30.551"	"33.588"	"27.658"	"25.823"	"25.516"	"25.901"	"25.078"	"20.138"	"17.625"
"1971"	"19.865"	"22.867"	"25.739"	"29.478"	"30.281"	"26.51"	"25.343"	"25.529"	"26.515"	"24.778"	"19.85"	"17.649"
"1972"	"19.2"	"21.989"	"28.15"	"30.43"	"33.688"	"32.509"	"26.733"	"25.392"	"25.935"	"24.478"	"21.425"	"20.514"
"1973"	"21.474"	"23.808"	"27.782"	"33.148"	"35.304"	"30.971"	"25.217"	"25.419"	"25.984"	"24.789"	"20.563"	"18.866"
"1974"	"19.078"	"23.207"	"28.114"	"32.33"	"32.197"	"30.144"	"26.798"	"26.021"	"26.939"	"25.38"	"21.227"	"18.541"
"1975"	"18.513"	"22.899"	"27.121"	"32.436"	"34.632"	"29.653"	"25.578"	"25.915"	"25.761"	"25.761"	"19.637"	"17.747"
"1976"	"18.405"	"23.101"	"27.388"	"30.235"	"32.71"	"30.127"	"25.599"	"25.661"	"25.801"	"25.937"	"24.726"	"21.274"
"1977"	"20.523"	"23.829"	"28.599"	"30.303"	"30.806"	"30.645"	"26.163"	"25.488"	"25.877"	"25.072"	"23.491"	"18.568"
"1978"	"19.229"	"21.709"	"26.103"	"30.401"	"34.274"	"29.667"	"25.707"	"24.624"	"26.374"	"25.513"	"23.704"	"19.252"
"1979"	"21.117"	"21.833"	"26.916"	"30.545"	"32.142"	"30.894"	"26.451"	"25.877"	"25.651"	"26.229"	"24.462"	"20.238"
"1980"	"21.649"	"23.869"	"27.987"	"31.258"	"33.84"	"27.795"	"25.538"	"25.685"	"25.56"	"25.179"	"23.026"	"19.959"
"1981"	"19.049"	"23.582"	"25.816"	"30.324"	"31.469"	"30.038"	"25.929"	"25.499"	"26.132"	"25.414"	"21.199"	"19.287"
"1982"	"21.538"	"23.347"	"26.89"	"30.698"	"31.911"	"30.896"	"27.851"	"25.019"	"26.736"	"25.689"	"22.49"	"20.639"
"1983"	"20.611"	"23.14"	"27.864"	"30.761"	"32.634"	"32.348"	"27.138"	"26.115"	"26.473"	"24.934"	"20.14"	"18.723"
"1984"	"20.8"	"22.094"	"27.117"	"30.253"	"34.498"	"28.679"	"25.877"	"25.505"	"25.975"	"25.834"	"20.605"	"20.302"
"1985"	"21.637"	"22.72"	"28.668"	"31.625"	"33.596"	"29.495"	"25.673"	"25.662"	"26.3"	"24.62"	"21.065"	"20.562"
"1986"	"19.657"	"22.927"	"27"	"31.111"	"32.994"	"29.728"	"26.09"	"25.118"	"26.973"	"25.047"	"22.508"	"20.647"
"1987"	"20.204"	"22.341"	"26.467"	"31.373"	"31.801"	"31.848"	"26.325"	"26.663"	"27.228"	"25.71"	"22.583"	"19.497"
"1988"	"21.409"	"23.803"	"27.64"	"30.586"	"34.589"	"30.05"	"26.058"	"26.267"	"26.834"	"24.938"	"21.577"	"20.285"
"1989"	"20.041"	"23.206"	"26.24"	"31.664"	"34.295"	"28.934"	"26.701"	"25.926"	"26.578"	"25.749"	"22.874"	"19.411"
"1990"	"21.838"	"23.551"	"26.314"	"30.973"	"28.964"	"27.072"	"25.217"	"26.34"	"26.291"	"24.659"	"23.088"	"20.346"
"1991"	"20.486"	"24.742"	"28.137"	"30.598"	"33.871"	"29.544"	"26.701"	"25.673"	"27.333"	"25.277"	"21.301"	"19.325"
"1992"	"19.672"	"22.588"	"28.338"	"31.157"	"32.926"	"30.476"	"27.225"	"25.674"	"26.179"	"25.586"	"22.91"	"18.848"
"1993"	"20.862"	"22.387"	"26.509"	"31.159"	"34.051"	"30.378"	"26.824"	"26.119"	"26.298"	"26.078"	"21.898"	"18.647"
"1994"	"21.423"	"22.767"	"28.75"	"30.285"	"33.488"	"29.059"	"25.399"	"25.08"	"26.026"	"25.662"	"22.059"	"19.185"
"1995"	"18.912"	"22.887"	"26.428"	"30.339"	"30.466"	"32.058"	"26.486"	"26.643"	"26.911"	"25.411"	"22.312"	"20.831"
"1996"	"22.038"	"22.818"	"28.188"	"30.308"	"34.093"	"31.054"	"26.776"	"25.74"	"26.988"	"25.199"	"22.189"	"19.04"
"1997"	"18.972"	"21.817"	"27.429"	"28.75"	"32.146"	"30.757"	"26.715"	"25.905"	"26.402"	"25.374"	"24.026"	"21.12"
"1998"	"21.216"	"22.993"	"26.388"	"30.475"	"33.122"	"31.249"	"26.915"	"26.614"	"26.871"	"26.587"	"22.798"	"18.507"
"1999"	"18.362"	"23.956"	"27.628"	"32.55"	"32.107"	"28.961"	"26.177"	"25.404"	"25.672"	"25.847"	"21.773"	"19.049"
"2000"	"21.428"	"22.679"	"26.54"	"32.086"	"32.37"	"28.097"	"26.146"	"26.105"	"26.174"	"26.447"	"22.774"	"19.124"
"2001"	"20.327"	"23.707"	"27.926"	"29.71"	"33.163"	"27.689"	"25.674"	"25.636"	"27.177"	"25.92"	"23.622"	"19.898"
"2002"	"20.104"	"23.593"	"27.827"	"31.387"	"34.162"	"29.41"	"27.235"	"25.191"	"26.348"	"25.903"	"22.098"	"21.11"
