
"Year"	"Jan"	"Feb"	"Mar"	"Apr"	"May"	"Jun"	"Jul"	"Aug"	"Sep"	"Oct"	"Nov"	"Dec"
"1901"	"2.793"	"0"	"3.813"	"1.864"	"13.871"	"43.611"	"199.859"	"161.658"	"29.789"	"17.707"	"0.199"	"0"
"1902"	"2.064"	"0"	"0"	"1.389"	"2.659"	"43.722"	"212.996"	"164"	"186.324"	"22.137"	"27.98"	"12.685"
"1903"	"0.171"	"0"	"0"	"0"	"11.325"	"97.365"	"409.411"	"152.828"	"263.097"	"5.287"	"0.199"	"0"
"1904"	"0"	"1.183"	"4.603"	"0.187"	"5.449"	"76.294"	"139.036"	"37.301"	"142.642"	"5.396"	"0.199"	"1.103"
"1905"	"0"	"0.117"	"0"	"0"	"5.473"	"47.619"	"392.254"	"79.955"	"97.089"	"0.249"	"0.214"	"0"
"1906"	"0"	"1.656"	"0.019"	"0"	"0.012"	"213.237"	"332.419"	"211.404"	"220.026"	"1.585"	"0.199"	"0.379"
"1907"	"0.805"	"0.909"	"0"	"3.701"	"0.022"	"64.343"	"313.918"	"187.872"	"24.045"	"0.234"	"6.481"	"0"
"1908"	"2.114"	"0.001"	"1.619"	"1.43"	"0"	"108.004"	"319.739"	"152.757"	"21.978"	"0.272"	"0.214"	"0"
"1909"	"0.153"	"0.003"	"0.832"	"9.578"	"4.945"	"85.155"	"197.529"	"155.242"	"152.735"	"0.835"	"0.199"	"24.771"
"1910"	"1.651"	"0"	"0"	"0.896"	"1.622"	"233.135"	"181.282"	"195.984"	"142.544"	"40.69"	"22.357"	"0"
"1911"	"2.652"	"0"	"4.937"	"0"	"0.003"	"108.969"	"70.277"	"75.143"	"126.894"	"2.467"	"31.899"	"0"
"1912"	"0"	"0.982"	"0"	"0.456"	"2.148"	"68.934"	"343.743"	"160.304"	"35.542"	"10.811"	"76.938"	"0"
"1913"	"0"	"0.324"	"0.841"	"0"	"22.95"	"192.787"	"346.494"	"177.13"	"77.294"	"0.829"	"0.4"	"3.068"
"1914"	"0"	"1.244"	"0.027"	"3.007"	"16.289"	"162.058"	"187.902"	"113.039"	"183.431"	"12.541"	"19.777"	"0.275"
"1915"	"1.366"	"2.61"	"17.566"	"9.012"	"1.707"	"83.174"	"151.707"	"110.602"	"132.825"	"65.815"	"2.2"	"6.284"
"1916"	"0"	"2.037"	"0"	"0.434"	"11.329"	"175.479"	"211.997"	"274.002"	"182.635"	"34.658"	"19.857"	"0"
"1917"	"0.929"	"2.99"	"0.254"	"4.822"	"28.973"	"147.851"	"167.973"	"180.769"	"311.496"	"76.974"	"0.413"	"0"
"1918"	"0"	"0"	"4.078"	"0"	"15.799"	"74.255"	"88.056"	"129.388"	"26.328"	"0.521"	"7.369"	"0.027"
"1919"	"4.589"	"0"	"0"	"1.171"	"19.213"	"212.587"	"256.825"	"319.563"	"72.888"	"44.776"	"19.687"	"0.508"
"1920"	"3.384"	"0.58"	"1.637"	"0.915"	"21.383"	"113.019"	"376.414"	"91.176"	"79.476"	"0.234"	"0.199"	"0"
"1921"	"1.898"	"0.158"	"0"	"0"	"0"	"143.126"	"248.598"	"128.857"	"305.924"	"10.441"	"0.199"	"0"
"1922"	"1.662"	"0.05"	"0"	"0.012"	"1.923"	"113.567"	"266.158"	"48.151"	"278.98"	"4.265"	"50.375"	"2.319"
"1923"	"0"	"0.983"	"5.356"	"0.108"	"1.844"	"2.294"	"345.372"	"140.04"	"149.159"	"0.249"	"1.348"	"0.696"
"1924"	"2.333"	"0"	"0.832"	"0.449"	"15.221"	"47.431"	"216.85"	"210.934"	"210.654"	"45.347"	"0.199"	"10.41"
"1925"	"0"	"0"	"0"	"0"	"15.636"	"174.967"	"110.736"	"72.372"	"48.091"	"0.256"	"44.944"	"1.965"
"1926"	"4.204"	"0.027"	"1.649"	"2.54"	"2.847"	"13.906"	"229.61"	"252.105"	"104.13"	"0.325"	"1.653"	"0.558"
"1927"	"0"	"0.433"	"0.169"	"0.019"	"4.207"	"100.517"	"239.542"	"138.035"	"88.746"	"16.288"	"98.404"	"9.943"
"1928"	"0.155"	"2.414"	"4.891"	"0"	"2.409"	"90.429"	"301.117"	"243.744"	"84.915"	"36.537"	"14.188"	"27.671"
"1929"	"1.052"	"2.668"	"0"	"6.299"	"0"	"126.949"	"235.244"	"114.589"	"74.865"	"4.079"	"0.199"	"1.422"
"1930"	"1.577"	"0"	"0"	"0.442"	"4.502"	"133.714"	"347.632"	"130.406"	"350.344"	"18.305"	"0.875"	"0"
"1931"	"0.316"	"0"	"0"	"0.008"	"0.02"	"28.489"	"256.706"	"268.973"	"115.026"	"116.947"	"19.315"	"7.964"
"1932"	"0"	"0.314"	"8.032"	"0.219"	"0"	"56.246"	"432.783"	"78.056"	"279.514"	"18.464"	"0.206"	"0"
"1933"	"0.005"	"1.036"	"0.016"	"2.295"	"17.974"	"199.291"	"275.482"	"293.522"	"253.091"	"15.252"	"4.272"	"4.928"
"1934"	"0.986"	"0"	"0.12"	"0"	"0"	"227.43"	"218.461"	"361.706"	"306.451"	"1.251"	"35.523"	"0.512"
"1935"	"1.109"	"0.002"	"0"	"9.061"	"5.333"	"120.116"	"301.078"	"84.45"	"202.939"	"43.224"	"2.155"	"0.003"
"1936"	"0.005"	"0.361"	"14.094"	"2.686"	"18.608"	"205.815"	"62.65"	"67.854"	"236.091"	"0.234"	"110.763"	"0"
"1937"	"0"	"0.488"	"2.223"	"0.463"	"0"	"189.878"	"304.082"	"59.662"	"240.527"	"8.945"	"0.199"	"5.279"
"1938"	"0.181"	"0"	"4.283"	"0.017"	"28.997"	"328.239"	"339.715"	"148.749"	"62.7"	"86.838"	"0.212"	"0"
"1939"	"0.006"	"0.618"	"7.895"	"0.436"	"0"	"29.9"	"245.062"	"255.774"	"127.746"	"1.708"	"5.111"	"0.386"
"1940"	"1.764"	"0.811"	"5.884"	"2.99"	"10.433"	"184.36"	"276.615"	"198.292"	"106.38"	"73.118"	"45.289"	"0.719"
"1941"	"3.234"	"2.454"	"0.346"	"1.511"	"0.053"	"21.431"	"278.586"	"262.966"	"119.04"	"0.314"	"0.199"	"0"
"1942"	"3.703"	"0.813"	"0"	"0.022"	"2.312"	"71.228"	"443.094"	"239.276"	"114.269"	"0.234"	"0.199"	"3.521"
"1943"	"2.001"	"0"	"0"	"2.432"	"17.597"	"126.298"	"243.182"	"69.865"	"211.324"	"57.801"	"0.199"	"0"
"1944"	"1.005"	"0"	"6.951"	"1.297"	"0.043"	"86.612"	"381.999"	"465.227"	"158.97"	"68.007"	"0.218"	"0"
"1945"	"3.569"	"0"	"0"	"0"	"1.986"	"82.249"	"310.328"	"150.478"	"340.214"	"3.597"	"0.281"	"0"
"1946"	"0"	"0.597"	"0"	"0.499"	"4.579"	"305.145"	"322.629"	"226.912"	"109.625"	"0.824"	"100.58"	"10.789"
"1947"	"0.112"	"0.252"	"0.312"	"7.435"	"1.164"	"22.098"	"223.308"	"266.791"	"278.295"	"28.803"	"0.199"	"5.309"
"1948"	"3.912"	"1.341"	"2.451"	"1.507"	"1.263"	"193.314"	"214.437"	"151.91"	"151.619"	"11.037"	"60.105"	"1.636"
"1949"	"0"	"0"	"0"	"0.44"	"5.137"	"115.498"	"204.525"	"119.772"	"287.555"	"55.102"	"5.981"	"0"
"1950"	"0"	"0"	"4.096"	"0.005"	"4.24"	"29.757"	"364.288"	"50.558"	"302.438"	"1.822"	"0.227"	"1.436"
"1951"	"0.008"	"0.006"	"0.125"	"1.375"	"4.325"	"90.11"	"261.101"	"118.375"	"37.388"	"11.268"	"1.004"	"0"
"1952"	"0"	"0.042"	"0"	"1.841"	"0.319"	"167.102"	"229.89"	"84.844"	"41.296"	"0.348"	"0.199"	"0.055"
"1953"	"6.623"	"0"	"0"	"0.492"	"0.006"	"68.353"	"231.771"	"208.42"	"102.136"	"8.743"	"0.199"	"0"
"1954"	"2.764"	"0.307"	"1.773"	"0.008"	"0.005"	"53.046"	"264.594"	"141.075"	"501.668"	"32.123"	"0.199"	"0.377"
"1955"	"4.203"	"0.001"	"0.012"	"0.01"	"0.503"	"161.375"	"71.744"	"311.36"	"281.073"	"81.419"	"0.199"	"0"
"1956"	"1.965"	"0"	"0"	"0.348"	"11.301"	"118.965"	"240.169"	"148.242"	"170.453"	"49.522"	"15.657"	"1.303"
"1957"	"0.006"	"0"	"3.023"	"1.14"	"4.697"	"106.545"	"183.739"	"205.213"	"57.024"	"16.738"	"9.004"	"0.097"
"1958"	"3.194"	"0"	"2.479"	"2.335"	"1.965"	"100.772"	"240.98"	"275.365"	"286.348"	"35.771"	"53.241"	"0"
"1959"	"4.899"	"0"	"0"	"3.664"	"2.017"	"107.389"	"537.816"	"232.638"	"352.956"	"106.164"	"16.816"	"0"
"1960"	"7.033"	"0"	"7.344"	"0.518"	"11.233"	"148.223"	"154.27"	"231.684"	"93.298"	"15.071"	"0.199"	"0.397"
"1961"	"0.747"	"1.288"	"0.013"	"0.463"	"14.519"	"79.389"	"204.968"	"155.339"	"487.627"	"44.491"	"25.845"	"1.708"
"1962"	"2.042"	"0"	"8.272"	"4.282"	"2.38"	"12.797"	"304.284"	"129.002"	"344.477"	"0.236"	"21.742"	"22.931"
"1963"	"3.701"	"3.196"	"2.504"	"0.005"	"3.55"	"63.994"	"292.654"	"241.652"	"128.833"	"52.096"	"25.332"	"1.119"
"1964"	"0"	"0"	"10.623"	"0"	"3.489"	"213.209"	"253.21"	"169.431"	"232.817"	"7.158"	"0.691"	"0"
"1965"	"3.513"	"0"	"1.431"	"0.418"	"0.492"	"25.883"	"183.54"	"141.113"	"73.171"	"3.728"	"2.157"	"7.819"
"1966"	"2.701"	"0"	"0.393"	"0"	"3.549"	"69.188"	"215.09"	"99.044"	"146.303"	"4.042"	"30.972"	"0.762"
"1967"	"0"	"0"	"19.324"	"3.212"	"0.495"	"193.839"	"208.702"	"189.433"	"108.02"	"1.856"	"0.199"	"22.852"
"1968"	"0.015"	"0.523"	"18.628"	"0.043"	"0"	"37.532"	"299.524"	"205.669"	"94.72"	"28.255"	"0.199"	"0"
"1969"	"1.913"	"0"	"0"	"0"	"0.006"	"86.731"	"263.043"	"183.711"	"232.927"	"0.234"	"59.368"	"0"
"1970"	"0.634"	"1.306"	"0.645"	"0.873"	"13.138"	"262.219"	"120.62"	"191.542"	"256.823"	"0.902"	"0.199"	"0"
"1971"	"0"	"0.013"	"0"	"0"	"22.202"	"102.74"	"291.259"	"165.397"	"155.491"	"14.934"	"0.199"	"0"
"1972"	"0"	"0.157"	"0"	"0.639"	"4.85"	"56.45"	"116.645"	"229.726"	"41.509"	"0.472"	"4.523"	"0.006"
"1973"	"0.568"	"1.231"	"0"	"0"	"4.09"	"50.476"	"526.378"	"321.721"	"390.535"	"35.158"	"0.199"	"3.816"
"1974"	"0"	"0.201"	"0"	"1.14"	"28.797"	"38.504"	"142.415"	"270.19"	"95.693"	"66.933"	"0.199"	"0.993"
"1975"	"0.019"	"0.096"	"0.133"	"0"	"5.157"	"142.335"	"244.829"	"276.324"	"169.994"	"76.871"	"0.199"	"0"
"1976"	"1.738"	"0.128"	"0.983"	"0.227"	"0.062"	"212.918"	"186.231"	"265.433"	"127.012"	"0.234"	"93.337"	"1.068"
"1977"	"0"	"1.518"	"3.077"	"2.999"	"7.868"	"128.55"	"237.594"	"195.529"	"202.244"	"3.135"	"52.587"	"1.475"
"1978"	"0.494"	"1.961"	"0.689"	"8.848"	"0.213"	"118.067"	"216.186"	"317.197"	"43.346"	"13.891"	"24.483"	"24.886"
"1979"	"4.92"	"1.77"	"1.396"	"0"	"0.115"	"138.81"	"137.085"	"284.719"	"24.311"	"15.472"	"73.89"	"3.281"
"1980"	"0.023"	"0.001"	"0"	"0"	"0"	"342.955"	"224.975"	"239.19"	"34.073"	"0.234"	"0.724"	"16.737"
"1981"	"1.213"	"0.003"	"3.251"	"0.434"	"7.378"	"99.275"	"231.609"	"324.333"	"136.654"	"25.423"	"43.207"	"0.194"
"1982"	"5.334"	"2.057"	"0.331"	"2.253"	"15.299"	"61.289"	"209.962"	"115.623"	"106.06"	"25.924"	"70.385"	"0"
"1983"	"0"	"0"	"0"	"2.251"	"2.415"	"119.048"	"295.296"	"238.688"	"185.903"	"60.311"	"0.199"	"0.038"
"1984"	"0.298"	"0.919"	"0"	"0"	"0"	"46.089"	"177.136"	"386.905"	"57.295"	"55.926"	"0.254"	"2.489"
"1985"	"0.042"	"0"	"0.117"	"10.136"	"1.905"	"31.764"	"172.176"	"185.928"	"82.12"	"123.476"	"4.935"	"0"
"1986"	"0.17"	"1.28"	"0.024"	"0.003"	"2.55"	"110.069"	"281.016"	"249.448"	"64.232"	"10.607"	"0.199"	"1.746"
"1987"	"1.995"	"1.384"	"4.631"	"0"	"13.347"	"109.795"	"139.352"	"260.588"	"11.523"	"34.945"	"14.583"	"16.902"
"1988"	"0.106"	"0"	"0.014"	"7.018"	"0.716"	"112.304"	"279.914"	"212.331"	"179.712"	"54.575"	"1.583"	"0"
"1989"	"0.169"	"0"	"16.725"	"0.203"	"6.419"	"183.63"	"78.227"	"163.298"	"160.968"	"0.462"	"0.199"	"1.005"
"1990"	"0.164"	"2.123"	"0"	"0"	"36.492"	"91.17"	"227.58"	"359.91"	"177.49"	"8.334"	"5.593"	"14.125"
"1991"	"0"	"0.005"	"1.025"	"0.276"	"1.171"	"180.347"	"311.198"	"95.144"	"22.871"	"1.419"	"5.219"	"0.243"
"1992"	"0.018"	"0.083"	"0"	"0"	"14.862"	"87.9"	"123.761"	"156.879"	"269.145"	"29.592"	"0.598"	"0"
"1993"	"0"	"0.005"	"2.92"	"0"	"3.962"	"129.231"	"335.482"	"154.402"	"171.325"	"10.718"	"3.641"	"1.052"
"1994"	"8.521"	"0.005"	"4.651"	"1.694"	"3.297"	"239.213"	"210.95"	"278.525"	"236.872"	"2.132"	"1.222"	"0"
"1995"	"2.688"	"0"	"9.18"	"2.023"	"12.019"	"55.256"	"387.086"	"131.633"	"144.725"	"36.566"	"0.561"	"0.542"
"1996"	"3.227"	"0.233"	"2.932"	"2.187"	"7.761"	"74.203"	"503.248"	"173.891"	"150.257"	"42.883"	"1.725"	"0"
"1997"	"2.532"	"0"	"0"	"7.629"	"2.066"	"167.152"	"331.905"	"253.342"	"44.221"	"22.377"	"25.917"	"12.438"
"1998"	"1.679"	"0.179"	"4.656"	"0.667"	"8.061"	"67.906"	"205.598"	"161.912"	"239.606"	"25.291"	"7.475"	"0"
"1999"	"0.101"	"3.045"	"0"	"0"	"1.364"	"206.39"	"136.286"	"81.574"	"258.594"	"70.314"	"0.199"	"1.441"
"2000"	"0"	"0.259"	"0"	"0"	"22.959"	"97.616"	"250.045"	"115.717"	"19.332"	"11.498"	"0.876"	"0.107"
"2001"	"0.348"	"0"	"3.306"	"0.105"	"14.518"	"256.824"	"137.311"	"82.041"	"13.777"	"38.83"	"1.118"	"0"
"2002"	"0.013"	"3.712"	"7.824"	"11.443"	"1.353"	"198.612"	"28.747"	"198.91"	"104.163"	"0.424"	"2.657"	"0.372"
