
"Year"	"Jan"	"Feb"	"Mar"	"Apr"	"May"	"Jun"	"Jul"	"Aug"	"Sep"	"Oct"	"Nov"	"Dec"
"1901"	"15.923"	"17.788"	"20.908"	"23.997"	"25.448"	"27.568"	"27.515"	"27.689"	"26.975"	"25.133"	"20.453"	"16.701"
"1902"	"16.188"	"17.587"	"21.643"	"21.898"	"26.129"	"26.603"	"27.715"	"27.429"	"26.574"	"23.418"	"19.453"	"15.761"
"1903"	"14.883"	"17.443"	"20.568"	"23.481"	"25.405"	"27.119"	"28.26"	"27.089"	"27.29"	"25.468"	"20.588"	"16.651"
"1904"	"15.222"	"17.748"	"20.806"	"22.321"	"25.214"	"27.83"	"27.76"	"27.654"	"26.975"	"24.734"	"19.438"	"15.662"
"1905"	"14.827"	"15.403"	"19.287"	"21.502"	"25.93"	"28.125"	"27.977"	"26.568"	"27.631"	"24.573"	"20.212"	"16.161"
"1906"	"15.744"	"16.982"	"19.873"	"22.086"	"25.77"	"27.729"	"28.36"	"26.389"	"27.87"	"24.634"	"20.553"	"16.396"
"1907"	"16.363"	"17.248"	"19.308"	"21.612"	"24.694"	"26.154"	"26.616"	"27.889"	"26.075"	"25.029"	"20.913"	"16.617"
"1908"	"15.778"	"17.882"	"21.648"	"24.377"	"24.813"	"27.269"	"27.055"	"27.489"	"26.653"	"24.533"	"20.032"	"15.936"
"1909"	"15.262"	"17.642"	"22.407"	"22.418"	"23.983"	"26.224"	"27.694"	"26.929"	"27.969"	"25.979"	"22.069"	"17.257"
"1910"	"15.787"	"17.662"	"20.553"	"22.748"	"25.45"	"25.908"	"26.215"	"27.094"	"27.375"	"24.538"	"20.887"	"16.677"
"1911"	"16.803"	"17.003"	"20.107"	"22.782"	"24.509"	"26.674"	"26.72"	"26.989"	"26.869"	"24.495"	"20.213"	"15.757"
"1912"	"15.882"	"17.682"	"20.093"	"21.228"	"25.109"	"26.669"	"26.7"	"26.929"	"26.775"	"24.168"	"20.652"	"16.656"
"1913"	"15.863"	"17.707"	"19.848"	"21.646"	"23.253"	"26.369"	"27.375"	"27.295"	"26.674"	"24.634"	"19.552"	"15.861"
"1914"	"15.683"	"17.222"	"20.773"	"21.723"	"24.844"	"27.374"	"27.81"	"26.229"	"26.574"	"23.155"	"20.347"	"17.146"
"1915"	"16.983"	"18.242"	"20.968"	"23.203"	"24.509"	"25.808"	"26.475"	"26.533"	"26.414"	"26.494"	"22.432"	"17.517"
"1916"	"16.017"	"17.783"	"21.707"	"22.463"	"24.649"	"27.308"	"26.1"	"27.39"	"27.475"	"24.634"	"21.653"	"16.472"
"1917"	"15.067"	"17.102"	"20.368"	"21.562"	"25.484"	"26.503"	"27.115"	"27.654"	"26.975"	"25.349"	"21.613"	"16.877"
"1918"	"15.382"	"17.543"	"20.807"	"22.862"	"26.624"	"25.413"	"26.91"	"27.089"	"27.074"	"25.194"	"20.553"	"16.417"
"1919"	"16.368"	"17.642"	"22.648"	"22.862"	"25.304"	"26.908"	"27.416"	"28.905"	"25.909"	"24.173"	"21.773"	"17.373"
"1920"	"17.243"	"17.243"	"19.787"	"22.013"	"24.294"	"26.449"	"28.015"	"26.989"	"26.97"	"25.189"	"21.152"	"18.312"
"1921"	"16.923"	"17.622"	"21.266"	"22.563"	"24.889"	"25.649"	"27.095"	"27.194"	"26.613"	"23.538"	"20.868"	"16.997"
"1922"	"16.437"	"18.478"	"21.647"	"23.582"	"25.548"	"26.269"	"26.999"	"26.974"	"27.335"	"24.634"	"21.347"	"16.956"
"1923"	"16.707"	"17.447"	"22.367"	"23.557"	"24.028"	"26.714"	"27.095"	"28.455"	"26.454"	"24.339"	"21.568"	"17.517"
"1924"	"15.863"	"17.682"	"22.987"	"23.45"	"24.123"	"27.224"	"26.8"	"26.774"	"26.374"	"26.129"	"21.113"	"17.532"
"1925"	"14.648"	"16.863"	"20.807"	"22.958"	"23.925"	"27.269"	"27.406"	"26.974"	"25.41"	"24.154"	"20.352"	"15.446"
"1926"	"15.728"	"17.748"	"19.728"	"22.246"	"25.104"	"26.369"	"26.795"	"27.785"	"27.655"	"25.234"	"20.312"	"17.236"
"1927"	"15.663"	"16.228"	"19.087"	"21.686"	"24.609"	"26.248"	"27.615"	"27.39"	"25.878"	"24.988"	"20.652"	"16.541"
"1928"	"15.663"	"18.582"	"21.752"	"24.358"	"24.809"	"26.769"	"27.81"	"27.29"	"26.914"	"23.573"	"19.453"	"16.577"
"1929"	"15.186"	"17.102"	"21.528"	"22.663"	"23.728"	"25.987"	"27.416"	"27.75"	"26.775"	"24.213"	"20.252"	"15.871"
"1930"	"14.562"	"17.162"	"20.508"	"22.547"	"25.754"	"25.714"	"28.576"	"27.785"	"26.854"	"23.323"	"19.837"	"16.136"
"1931"	"16.273"	"17.307"	"21.323"	"23.042"	"24.504"	"26.309"	"26.914"	"27.989"	"26.235"	"25.794"	"20.574"	"16.852"
"1932"	"15.948"	"16.188"	"21.568"	"24.023"	"23.934"	"26.568"	"27.515"	"27.124"	"26.658"	"24.903"	"21.292"	"17.156"
"1933"	"15.527"	"17.783"	"22.203"	"22.608"	"24.294"	"26.953"	"27.515"	"27.39"	"27.535"	"25.328"	"19.912"	"16.757"
"1934"	"15.982"	"17.803"	"21.648"	"23.243"	"24.089"	"25.208"	"27.631"	"27.724"	"27.068"	"24.424"	"20.247"	"16.243"
"1935"	"15.112"	"17.227"	"21.773"	"23.102"	"24.964"	"25.354"	"27.815"	"26.809"	"26.399"	"25.199"	"21.738"	"15.921"
"1936"	"14.532"	"16.677"	"21.868"	"23.222"	"25.833"	"27.01"	"27.615"	"27.444"	"27.34"	"24.134"	"21.378"	"17.087"
"1937"	"14.537"	"17.743"	"21.072"	"24.067"	"25.574"	"27.659"	"27.941"	"27.654"	"26.979"	"25.219"	"20.003"	"17.362"
"1938"	"16.027"	"17.543"	"20.897"	"24.037"	"26.19"	"26.833"	"26.914"	"27.34"	"26.874"	"25.354"	"19.418"	"16.777"
"1939"	"16.482"	"17.803"	"21.668"	"22.921"	"25.309"	"26.568"	"27.256"	"28.25"	"26.775"	"24.454"	"20.852"	"16.877"
"1940"	"15.603"	"17.647"	"19.088"	"23.933"	"25.008"	"27.109"	"27.535"	"28.154"	"26.595"	"25.053"	"20.432"	"17.797"
"1941"	"15.257"	"17.757"	"21.953"	"23.938"	"25.169"	"27.489"	"28.155"	"27.689"	"26.613"	"24.824"	"19.993"	"17.552"
"1942"	"16.278"	"18.863"	"21.368"	"23.824"	"24.594"	"26.629"	"28.555"	"28.05"	"26.975"	"25.633"	"21.187"	"16.282"
"1943"	"16.267"	"17.128"	"20.347"	"22.039"	"24.414"	"27.109"	"27.89"	"27.114"	"26.899"	"24.238"	"21.833"	"17.242"
"1944"	"15.482"	"17.132"	"21.662"	"22.892"	"25.028"	"27.033"	"28.295"	"28.028"	"25.894"	"25.093"	"20.433"	"17.936"
"1945"	"16.238"	"16.282"	"21.542"	"24.452"	"24.744"	"27.624"	"27.45"	"27.114"	"27.435"	"24.223"	"20.453"	"16.186"
"1946"	"16.843"	"19.883"	"21.468"	"24.039"	"25.574"	"26.894"	"27.12"	"28.355"	"27.1"	"24.694"	"21.672"	"17.378"
"1947"	"15.977"	"18.422"	"21.973"	"22.727"	"25.133"	"27.311"	"27.416"	"27.71"	"27.274"	"24.059"	"20.973"	"17.782"
"1948"	"16.383"	"16.982"	"20.508"	"23.844"	"23.668"	"26.655"	"27.136"	"27.62"	"27.56"	"24.199"	"21.409"	"16.077"
"1949"	"16.312"	"17.848"	"20.708"	"21.603"	"24.934"	"26.324"	"26.954"	"26.949"	"26.975"	"25.434"	"20.357"	"15.863"
"1950"	"15.992"	"17.386"	"20.828"	"23.203"	"25.048"	"26.314"	"27.42"	"26.889"	"26.874"	"24.734"	"20.968"	"17.418"
"1951"	"16.218"	"17.886"	"21.647"	"21.857"	"24.844"	"26.248"	"26.565"	"28.089"	"27.179"	"25.363"	"21.213"	"17.556"
"1952"	"16.757"	"19.618"	"20.943"	"24.497"	"25.16"	"27.989"	"27.956"	"27.613"	"26.414"	"25.288"	"21.733"	"18.092"
"1953"	"15.943"	"18.688"	"21.888"	"23.562"	"25.285"	"27.475"	"27.01"	"28.275"	"26.84"	"24.334"	"20.652"	"18.132"
"1954"	"15.443"	"19.108"	"21.833"	"23.022"	"24.813"	"26.195"	"26.24"	"26.494"	"27.034"	"23.985"	"20.287"	"16.871"
"1955"	"16.444"	"18.103"	"21.046"	"23.163"	"25.579"	"26.154"	"26.919"	"26.873"	"27.94"	"25.164"	"21.881"	"16.652"
"1956"	"15.836"	"18.957"	"21.027"	"24.452"	"25.408"	"26.69"	"27.985"	"27.759"	"27.744"	"24.972"	"20.913"	"17.357"
"1957"	"16.466"	"16.703"	"21.311"	"23.306"	"24.689"	"27.634"	"28.215"	"28.369"	"27.53"	"24.068"	"21.448"	"17.257"
"1958"	"16.913"	"17.066"	"22.516"	"24.779"	"24.458"	"29.245"	"29.01"	"26.844"	"27.974"	"25.098"	"21.489"	"17.606"
"1959"	"16.468"	"16.682"	"20.908"	"24.417"	"24.963"	"27.348"	"29.071"	"28.889"	"27.079"	"24.504"	"20.653"	"17.847"
"1960"	"16.007"	"19.926"	"21.752"	"24.931"	"27.138"	"27.903"	"27.956"	"28.904"	"27.139"	"25.979"	"20.968"	"18.646"
"1961"	"17.492"	"17.132"	"20.327"	"24.342"	"25.543"	"28.33"	"28.815"	"28.62"	"27.75"	"25.093"	"19.761"	"15.193"
"1962"	"14.901"	"17.244"	"20.007"	"23.528"	"24.626"	"26.743"	"28.234"	"26.828"	"27.223"	"24.533"	"20.473"	"17.177"
"1963"	"15.517"	"18.431"	"21.562"	"23.077"	"25.048"	"26.849"	"27.555"	"27.094"	"27.769"	"23.873"	"19.417"	"17.111"
"1964"	"15.247"	"17.357"	"20.015"	"22.298"	"24.678"	"25.309"	"26.23"	"27.099"	"26.235"	"25.204"	"20.973"	"16.106"
"1965"	"15.533"	"17.037"	"19.472"	"23.067"	"25.275"	"27.199"	"27.115"	"26.594"	"26.28"	"24.689"	"19.022"	"17.292"
"1966"	"16.588"	"19.067"	"22.603"	"23.516"	"26.069"	"25.579"	"27.706"	"26.619"	"26.55"	"23.808"	"22.164"	"17.166"
"1967"	"16.767"	"18.457"	"20.207"	"23.509"	"25.37"	"26.434"	"27.481"	"28.341"	"26.515"	"24.104"	"19.567"	"17.492"
"1968"	"16.167"	"16.857"	"20.962"	"22.742"	"24.385"	"27.199"	"27.461"	"27.943"	"27.595"	"23.736"	"20.548"	"16.537"
"1969"	"15.376"	"18.237"	"21.987"	"24.072"	"26.204"	"27.234"	"27.78"	"27.01"	"27.314"	"24.705"	"20.582"	"17.212"
"1970"	"15.137"	"17.312"	"21.027"	"23.528"	"24.609"	"27.228"	"27.35"	"27.755"	"26.139"	"24.334"	"20.887"	"16.566"
"1971"	"15.638"	"17.021"	"21.733"	"23.923"	"25.594"	"27.269"	"27.477"	"26.975"	"26.994"	"24.284"	"19.578"	"16.22"
"1972"	"16.563"	"17.782"	"20.818"	"21.487"	"25.139"	"27.33"	"27.661"	"28.149"	"26.475"	"25.033"	"20.527"	"16.956"
"1973"	"16.858"	"18.242"	"22.069"	"25.003"	"26.214"	"26.934"	"28.537"	"27.989"	"27.406"	"24.468"	"20.427"	"16.322"
"1974"	"15.688"	"18.443"	"21.062"	"21.908"	"25.591"	"27.199"	"26.35"	"27.734"	"26.615"	"26.08"	"22.087"	"16.132"
"1975"	"15.937"	"18.438"	"21.542"	"24.738"	"24.909"	"28.424"	"27.075"	"27.489"	"26.935"	"25.404"	"20.723"	"15.987"
"1976"	"16.048"	"18.242"	"20.937"	"23.597"	"25.214"	"26.169"	"27.406"	"27.351"	"27.165"	"24.139"	"21.433"	"16.767"
"1977"	"15.252"	"18.028"	"22.307"	"22.029"	"24.209"	"25.468"	"27.881"	"26.98"	"27.289"	"23.533"	"20.137"	"17.106"
"1978"	"15.078"	"17.523"	"20.721"	"23.193"	"25.929"	"27.53"	"27.331"	"28.67"	"26.754"	"25.468"	"19.988"	"16.781"
"1979"	"16.287"	"17.877"	"21.266"	"24.938"	"26.095"	"28.639"	"27.305"	"28.134"	"26.515"	"24.018"	"21.808"	"17.156"
"1980"	"15.578"	"17.748"	"20.807"	"23.507"	"25.465"	"28.109"	"27.961"	"27.659"	"27.309"	"24.329"	"20.736"	"17.711"
"1981"	"16.452"	"18.843"	"20.658"	"22.743"	"25.804"	"28.059"	"27.58"	"28.01"	"27.37"	"25.28"	"21.332"	"17.157"
"1982"	"17.333"	"17.606"	"21.107"	"22.108"	"26.074"	"26.889"	"27.441"	"28.405"	"26.8"	"24.613"	"20.252"	"16.777"
"1983"	"14.681"	"16.597"	"20.277"	"21.943"	"24.791"	"27.078"	"27.215"	"27.954"	"26.464"	"25.878"	"21.327"	"15.992"
"1984"	"15.183"	"18.142"	"22.377"	"23.602"	"24.534"	"28.014"	"26.715"	"28.025"	"25.939"	"25.389"	"19.552"	"17.012"
"1985"	"16.183"	"17.612"	"21.517"	"23.222"	"25.77"	"26.733"	"26.631"	"28.35"	"26.78"	"25.583"	"20.373"	"17.882"
"1986"	"16.613"	"18.427"	"21.39"	"22.418"	"26.09"	"28.134"	"27.546"	"27.675"	"26.354"	"23.533"	"20.478"	"17.226"
"1987"	"16.657"	"19.348"	"20.482"	"23.012"	"25.278"	"27.924"	"27.02"	"27.259"	"26.695"	"24.744"	"21.478"	"17.555"
"1988"	"16.352"	"19.147"	"21.042"	"23.163"	"24.894"	"28.56"	"27.416"	"27.175"	"26.874"	"25.338"	"21.501"	"18.827"
"1989"	"15.913"	"17.421"	"21.898"	"22.817"	"26.658"	"27.335"	"26.93"	"27.929"	"26.904"	"25.538"	"20.352"	"16.376"
"1990"	"17.729"	"17.817"	"19.924"	"21.198"	"25.993"	"27.274"	"27.655"	"28.309"	"26.219"	"24.634"	"22.268"	"18.456"
"1991"	"16.171"	"19.327"	"22.192"	"22.957"	"24.18"	"27.044"	"27.715"	"27.644"	"26.608"	"25.333"	"20.453"	"16.441"
"1992"	"16.012"	"16.196"	"20.542"	"23.182"	"24.804"	"27.048"	"27.556"	"28.209"	"27.441"	"24.719"	"20.967"	"16.061"
"1993"	"15.722"	"18.982"	"20.429"	"24.118"	"24.834"	"26.714"	"27.691"	"27.499"	"27.074"	"25.343"	"21.927"	"18.72"
"1994"	"17.392"	"18.277"	"20.451"	"23.582"	"27.089"	"28.324"	"28.075"	"29.025"	"28.244"	"23.919"	"20.577"	"16.771"
"1995"	"15.858"	"18.356"	"21.781"	"24.017"	"25.762"	"27.855"	"27.71"	"28.434"	"26.879"	"25.633"	"22.122"	"17.346"
"1996"	"16.522"	"19.253"	"21.602"	"24.725"	"25.273"	"28.388"	"27.61"	"28.005"	"28.154"	"25.333"	"21.752"	"18.181"
"1997"	"15.996"	"16.642"	"20.692"	"22.918"	"25.644"	"27.523"	"28.115"	"28.95"	"26.494"	"24.819"	"21.438"	"16.921"
"1998"	"16.303"	"18.826"	"20.642"	"24.567"	"27.909"	"26.833"	"28.255"	"27.79"	"28.2"	"26.859"	"22.748"	"18.37"
"1999"	"17.097"	"21.762"	"23.533"	"25.241"	"26.829"	"28.649"	"28.335"	"27.71"	"27.969"	"25.194"	"22.252"	"18.006"
"2000"	"15.972"	"18.396"	"20.588"	"22.814"	"25.609"	"28.169"	"28.747"	"27.83"	"26.775"	"25.689"	"21.112"	"17.357"
"2001"	"17.468"	"19.482"	"22.378"	"23.542"	"25.748"	"28.719"	"27.694"	"28.809"	"27.56"	"25.017"	"21.953"	"17.757"
"2002"	"16.728"	"20.102"	"21.962"	"23.758"	"24.884"	"28.45"	"27.995"	"28.234"	"27.274"	"24.734"	"21.752"	"17.757"
