
"Year"	"Jan"	"Feb"	"Mar"	"Apr"	"May"	"Jun"	"Jul"	"Aug"	"Sep"	"Oct"	"Nov"	"Dec"
"1901"	"19.837"	"32.53"	"22.742"	"56.924"	"14.902"	"132.882"	"196.99"	"303.336"	"155.051"	"11.089"	"8.54"	"0"
"1902"	"6.631"	"0.185"	"0.075"	"2.731"	"6.148"	"83.152"	"285.164"	"302.837"	"168.985"	"17.149"	"3.498"	"22.134"
"1903"	"2.794"	"3.995"	"0.566"	"1.681"	"47.858"	"176.241"	"627.628"	"329.25"	"166.701"	"86.605"	"1.359"	"4.267"
"1904"	"0.713"	"2.218"	"24.446"	"0.138"	"32.171"	"218.608"	"194.437"	"407.028"	"178.602"	"42.413"	"0.062"	"4.272"
"1905"	"4.747"	"7.964"	"12.646"	"49.706"	"18.952"	"152.566"	"276.505"	"405.855"	"480.981"	"2.476"	"0"	"0.167"
"1906"	"6.129"	"15.221"	"13.35"	"0.138"	"12.521"	"395.349"	"408.676"	"387.346"	"141.325"	"20.212"	"1.285"	"3.766"
"1907"	"0.984"	"22.305"	"9.264"	"79.645"	"6.48"	"302.617"	"204.977"	"364.761"	"115.913"	"3.041"	"5.077"	"7.241"
"1908"	"11.607"	"4.245"	"9.426"	"2.854"	"7.464"	"303.466"	"321.391"	"389.75"	"228.775"	"19.27"	"0"	"1.869"
"1909"	"1.193"	"8.266"	"0.786"	"57.141"	"36.658"	"190.925"	"495.811"	"234.188"	"125.77"	"3.845"	"0"	"12.789"
"1910"	"1.342"	"0.333"	"1.866"	"7.794"	"7.826"	"250.424"	"373.584"	"301.754"	"295.575"	"116.151"	"19.075"	"0"
"1911"	"5.83"	"0.406"	"12.659"	"1.003"	"7.969"	"302.244"	"212.82"	"353.658"	"261.403"	"81.531"	"13.609"	"0.228"
"1912"	"4.399"	"29.219"	"0.29"	"16.325"	"9.723"	"42.404"	"421.454"	"361.692"	"225.787"	"13.774"	"11.268"	"1.463"
"1913"	"0"	"22.393"	"11.17"	"5.941"	"25.705"	"205.164"	"302.45"	"353.635"	"177.107"	"33.021"	"0.383"	"5.685"
"1914"	"0.484"	"5.873"	"19.643"	"51.499"	"13.893"	"246.224"	"384.919"	"272.291"	"267.988"	"15.372"	"0.038"	"11.437"
"1915"	"36.728"	"19.707"	"26.812"	"20.969"	"15.911"	"168.154"	"305.269"	"332.761"	"222.498"	"94.04"	"5.785"	"0.745"
"1916"	"0"	"6.72"	"0.021"	"7.009"	"19.021"	"175.959"	"254.32"	"363.077"	"244.236"	"101.223"	"6.053"	"0"
"1917"	"0.356"	"30.984"	"4.916"	"9.842"	"47.804"	"230.208"	"339.538"	"231.663"	"375.644"	"161.032"	"0.381"	"0.076"
"1918"	"23.346"	"2.378"	"5.44"	"7.529"	"45.984"	"337.486"	"208.069"	"374.626"	"113.036"	"6.305"	"3.631"	"11.655"
"1919"	"48.648"	"39.199"	"22.782"	"4.065"	"19.39"	"267.214"	"341.104"	"452.926"	"178.218"	"104.209"	"18.696"	"6.984"
"1920"	"12.668"	"1.349"	"16.268"	"10.135"	"7.614"	"103.419"	"343.976"	"286.672"	"102.754"	"13.077"	"0"	"0"
"1921"	"16.211"	"1.172"	"0"	"5.537"	"0.095"	"229.262"	"336.944"	"275.43"	"282.486"	"16.055"	"0.002"	"0"
"1922"	"10.52"	"0.026"	"0"	"3.283"	"6.82"	"245.518"	"360.2"	"254.287"	"263.991"	"35.185"	"21.079"	"0.076"
"1923"	"0.209"	"11.784"	"17.967"	"20.048"	"2.98"	"67.588"	"346.992"	"293.038"	"222.757"	"26.055"	"2.749"	"0"
"1924"	"39.704"	"3.886"	"8.646"	"11.215"	"6.89"	"65.024"	"284.034"	"300.237"	"248.999"	"56.357"	"10.529"	"4.477"
"1925"	"0"	"0.242"	"1.049"	"6.414"	"56.953"	"206.041"	"401.436"	"579.09"	"139.872"	"18.702"	"10.081"	"0.01"
"1926"	"24.092"	"1.017"	"39.137"	"39.907"	"45.477"	"125.356"	"361.321"	"597.576"	"338.892"	"94.728"	"1.065"	"1.96"
"1927"	"6.793"	"7.093"	"28.808"	"1.462"	"7.409"	"264.903"	"508.799"	"420.896"	"71.585"	"95.267"	"15.48"	"3.156"
"1928"	"2.951"	"11.255"	"7.448"	"3.99"	"9.972"	"141.617"	"598.587"	"214.561"	"251.35"	"109.787"	"0"	"5.528"
"1929"	"7.432"	"22.989"	"0.715"	"16.624"	"3.062"	"195.645"	"653.076"	"483.523"	"248.528"	"50.316"	"0"	"17.525"
"1930"	"0.356"	"0.059"	"16.306"	"28.752"	"10.573"	"204.344"	"298.192"	"208.429"	"202.776"	"61.225"	"15.426"	"2.459"
"1931"	"1.347"	"8.413"	"12.964"	"15.361"	"11.502"	"58.051"	"398.241"	"413.586"	"218.232"	"156.684"	"15.485"	"1.522"
"1932"	"0"	"14.894"	"6.13"	"7.808"	"12.979"	"135.569"	"506.688"	"292.659"	"247.153"	"14.96"	"12.77"	"0.201"
"1933"	"0.714"	"3.616"	"14.956"	"49.476"	"45.786"	"216.536"	"381.38"	"362.486"	"214.677"	"77.967"	"5.15"	"8.117"
"1934"	"3.746"	"0.242"	"1.869"	"11.464"	"0.441"	"242.175"	"429.201"	"519.884"	"269.77"	"65.9"	"15.915"	"2.052"
"1935"	"2.486"	"2.174"	"0.651"	"23.741"	"3.437"	"140.094"	"425.919"	"247.879"	"217.028"	"7.054"	"0"	"0.064"
"1936"	"1.196"	"36.258"	"17.81"	"6.927"	"25.9"	"310.115"	"445.22"	"342.597"	"234.688"	"86.463"	"10.07"	"2.163"
"1937"	"0"	"33.116"	"27.355"	"66.005"	"4.659"	"189.454"	"475.952"	"190.719"	"182.439"	"80.706"	"0"	"0.031"
"1938"	"6.889"	"11.357"	"10.654"	"19.223"	"19.15"	"274.625"	"302.097"	"314.319"	"195.563"	"158.38"	"4.51"	"0"
"1939"	"5.079"	"4.716"	"32.854"	"25.398"	"0.609"	"112.861"	"343.292"	"344.036"	"143.231"	"80.469"	"3.152"	"0"
"1940"	"0.075"	"12.119"	"16.852"	"21.173"	"15.78"	"185.423"	"469.072"	"375.115"	"65.251"	"71.909"	"7.814"	"5.181"
"1941"	"10.395"	"7.304"	"17.372"	"5.535"	"13.588"	"232.824"	"203.378"	"241.626"	"104.821"	"17.279"	"3.305"	"0"
"1942"	"5.962"	"33.766"	"2.875"	"31.724"	"8.552"	"117.348"	"502.471"	"329.618"	"175.687"	"20.273"	"0.598"	"1.147"
"1943"	"45.141"	"0.482"	"0.134"	"14.6"	"30.883"	"129.345"	"336.296"	"304.399"	"241.497"	"105.732"	"1.609"	"0"
"1944"	"14.104"	"32.269"	"58.225"	"14.373"	"10.792"	"122.698"	"550.124"	"372.407"	"232.731"	"99.013"	"1.605"	"0"
"1945"	"31.232"	"1.278"	"0"	"31.837"	"9.729"	"187.62"	"477.292"	"247.884"	"322.104"	"56.517"	"5.363"	"2.987"
"1946"	"0"	"8.362"	"3.543"	"33.419"	"19.011"	"216.584"	"449.846"	"310.309"	"172.173"	"43.602"	"8.552"	"0.828"
"1947"	"34.557"	"7.836"	"25.81"	"11.281"	"2.767"	"116.381"	"547.824"	"359.632"	"322.662"	"34.011"	"4.292"	"6.34"
"1948"	"14.29"	"5.915"	"16.883"	"13.824"	"6.8"	"211.408"	"257.673"	"293.686"	"283.318"	"35.404"	"35.402"	"0.201"
"1949"	"0.012"	"5.437"	"1.541"	"9.968"	"36.402"	"220.531"	"266.468"	"378.551"	"263.593"	"194.741"	"0"	"0.009"
"1950"	"1.571"	"22.424"	"17.738"	"5.904"	"5.932"	"107.93"	"412.534"	"202.386"	"114.361"	"6.832"	"11.33"	"2.545"
"1951"	"3.861"	"1.367"	"35.175"	"13.549"	"24.836"	"137.038"	"460.284"	"280.976"	"146.123"	"71.711"	"0.474"	"0"
"1952"	"0.028"	"8.056"	"8.929"	"14.639"	"12.573"	"101.929"	"344.914"	"254.219"	"246.04"	"30.083"	"0"	"10.22"
"1953"	"16.129"	"0.124"	"0"	"24.666"	"3.383"	"124.621"	"306.575"	"421.25"	"214.04"	"48.883"	"0.98"	"0"
"1954"	"1.232"	"0.891"	"9.055"	"12.811"	"7.853"	"123.087"	"415.463"	"354.826"	"343.576"	"32.167"	"0"	"0.076"
"1955"	"11.714"	"1.139"	"22.085"	"17.117"	"4.694"	"132.523"	"359.649"	"500.274"	"302.347"	"151.99"	"0.793"	"0"
"1956"	"2.466"	"2.362"	"0.662"	"1.057"	"44.515"	"221.73"	"529.452"	"341.112"	"198.388"	"35.842"	"19.77"	"3.99"
"1957"	"2.558"	"1.079"	"27.627"	"51.919"	"9.709"	"188.014"	"455.341"	"340.744"	"106.566"	"44.356"	"0"	"2.061"
"1958"	"3.928"	"6.221"	"11.142"	"21.185"	"11.126"	"69.334"	"398.263"	"311.932"	"263.275"	"100.092"	"12.01"	"0"
"1959"	"14.051"	"5.035"	"0.029"	"21.625"	"41.941"	"232.129"	"324.313"	"333.059"	"260.581"	"66.759"	"0.002"	"2.227"
"1960"	"12.9"	"0"	"12.432"	"23.826"	"28.162"	"213.036"	"395.967"	"284"	"139.259"	"97.169"	"0.073"	"0"
"1961"	"7.699"	"22.761"	"20.391"	"11.638"	"22.911"	"120.298"	"403.679"	"348.914"	"326.668"	"109.338"	"7.451"	"9.908"
"1962"	"6.244"	"20.03"	"12.074"	"27.674"	"15.903"	"126.465"	"313.886"	"344.235"	"230.172"	"7.447"	"5.834"	"39.593"
"1963"	"1.514"	"5.479"	"10.332"	"31.684"	"16.892"	"119.069"	"295.097"	"344.381"	"274.926"	"98.819"	"0.133"	"0"
"1964"	"0"	"25.064"	"6.428"	"20.97"	"4.574"	"126.734"	"288.611"	"433.892"	"173.933"	"56.594"	"1.892"	"0"
"1965"	"8.132"	"0.888"	"20.454"	"13.658"	"11.468"	"163.759"	"326.64"	"191.944"	"191.337"	"3.783"	"0"	"0.511"
"1966"	"39.777"	"0.107"	"7.363"	"13.549"	"31.096"	"184.572"	"299.795"	"257.042"	"161.436"	"14.679"	"9.861"	"7.912"
"1967"	"0.725"	"0"	"45.064"	"13.811"	"10.524"	"216.062"	"328.856"	"387.797"	"164.972"	"10.258"	"0"	"58.648"
"1968"	"18.654"	"10.509"	"23.08"	"39.912"	"6.578"	"154.854"	"337.555"	"228.039"	"344.156"	"56.518"	"3.071"	"1.797"
"1969"	"0.895"	"0.2"	"5.68"	"5.363"	"14.566"	"103.476"	"585.524"	"312.601"	"263.731"	"18.148"	"5.374"	"35.025"
"1970"	"11.49"	"8.86"	"27.77"	"14.184"	"22.243"	"228.2"	"355.129"	"540.076"	"205.743"	"7.398"	"0"	"0"
"1971"	"7.444"	"7.912"	"6.206"	"22.521"	"23.81"	"281.93"	"221.246"	"346.524"	"159.888"	"99.718"	"0"	"0"
"1972"	"1.853"	"13.291"	"0.047"	"9.103"	"4.143"	"118.126"	"343.255"	"329.731"	"196.582"	"33.223"	"14.013"	"0.843"
"1973"	"0.798"	"5.925"	"3.46"	"7.148"	"1.514"	"143.292"	"319.998"	"297.788"	"162.078"	"84.348"	"0.095"	"0.266"
"1974"	"0"	"0.821"	"2.907"	"4.197"	"12.907"	"238.961"	"298.327"	"239.013"	"109.086"	"136.404"	"4.43"	"0"
"1975"	"4.734"	"13.093"	"12.369"	"7.375"	"9.609"	"321.447"	"287.844"	"327.277"	"293.211"	"109.725"	"0.59"	"0"
"1976"	"3.217"	"0.316"	"8.102"	"46.877"	"26.195"	"88.078"	"365.724"	"378.883"	"244.041"	"0.49"	"15.906"	"1.661"
"1977"	"2.031"	"0.941"	"3.986"	"22.962"	"25.968"	"231.821"	"345.838"	"349.023"	"177.967"	"30.203"	"33.869"	"20.25"
"1978"	"19.901"	"20.175"	"22.455"	"44.108"	"12.658"	"227.312"	"293.403"	"370.013"	"148.275"	"24.251"	"8.673"	"13.201"
"1979"	"16.639"	"14.074"	"0"	"4.332"	"8.509"	"198.522"	"338.977"	"388.394"	"201.759"	"49.659"	"7.976"	"4.385"
"1980"	"0.4"	"1.746"	"3.198"	"7.008"	"4.975"	"274.509"	"336.798"	"293.797"	"142.279"	"11.883"	"0"	"6.004"
"1981"	"17.895"	"0.43"	"27.717"	"21.619"	"17.867"	"132.852"	"339.607"	"270.365"	"285.732"	"15.599"	"1.402"	"7.953"
"1982"	"14.968"	"5.83"	"15.032"	"12.732"	"12.502"	"164.62"	"347.584"	"362.539"	"216.01"	"21.742"	"9.205"	"1.007"
"1983"	"1.117"	"10.073"	"6.166"	"5.569"	"15.564"	"164.421"	"323.863"	"325.861"	"223.186"	"51.579"	"0.547"	"4.307"
"1984"	"18.544"	"14.884"	"1.642"	"6.971"	"10.337"	"218.924"	"371.082"	"269.981"	"97.284"	"21.749"	"0"	"0"
"1985"	"24.708"	"1.533"	"1.186"	"9.559"	"10.613"	"213.95"	"379.694"	"363.527"	"144.131"	"180.13"	"0"	"1.028"
"1986"	"26.326"	"21.446"	"1.193"	"7.457"	"12.866"	"199.958"	"283.188"	"378.05"	"115.905"	"11.746"	"10.886"	"17.037"
"1987"	"5.717"	"3.724"	"14.082"	"2.723"	"16.71"	"117.751"	"269.296"	"380.062"	"124.705"	"45.4"	"18.223"	"2.482"
"1988"	"1.163"	"3.326"	"9.57"	"33.03"	"11.858"	"183.232"	"323.968"	"284.57"	"210.776"	"30.62"	"6.265"	"0.577"
"1989"	"0.062"	"0"	"39.208"	"1.435"	"13.7"	"185.361"	"266.12"	"315.022"	"150.644"	"15.281"	"1.16"	"14.133"
"1990"	"2.232"	"25.904"	"25.778"	"2.453"	"55.54"	"288.663"	"377.387"	"454.47"	"138.753"	"98.573"	"2.674"	"7.805"
"1991"	"15.564"	"2.324"	"10.613"	"16.978"	"5.09"	"204.701"	"404.273"	"355.484"	"129.677"	"16.477"	"3.59"	"6.418"
"1992"	"6.438"	"2.679"	"0"	"8.861"	"8.79"	"115.174"	"296.55"	"360.46"	"200.457"	"36.629"	"4.937"	"0"
"1993"	"0.792"	"6.51"	"36.601"	"4.675"	"23.366"	"162.813"	"381.637"	"227.951"	"279.624"	"75.158"	"0"	"0.486"
"1994"	"16.73"	"18.494"	"22.157"	"13.117"	"14.862"	"184.02"	"586.21"	"385.382"	"225.399"	"101.625"	"1.656"	"0"
"1995"	"17.214"	"1.146"	"56.644"	"11.908"	"14.533"	"169.4"	"412.837"	"274.628"	"243.982"	"49.55"	"2.808"	"0"
"1996"	"9.211"	"4.767"	"5.492"	"48.856"	"1"	"89.022"	"300.013"	"281.844"	"130.811"	"55.448"	"7.914"	"0"
"1997"	"17.087"	"0"	"19.241"	"14.906"	"9.583"	"64.027"	"241.732"	"254.468"	"193.212"	"47.991"	"26.958"	"36.411"
"1998"	"7.159"	"21.74"	"17.253"	"14.145"	"21.648"	"100.039"	"236.95"	"258.438"	"179.43"	"79.826"	"32.949"	"0"
"1999"	"4.702"	"7.279"	"0"	"0.139"	"26.733"	"144.679"	"242.051"	"490.173"	"206.084"	"73.802"	"0.007"	"0"
"2000"	"0.866"	"22.87"	"0"	"6.126"	"25.003"	"228.082"	"322.753"	"219.265"	"113.863"	"31.648"	"0"	"0.001"
"2001"	"1.741"	"0"	"16.199"	"27.336"	"26.44"	"224.407"	"320.942"	"381.206"	"97.066"	"98.285"	"6.279"	"0"
"2002"	"40.689"	"5.934"	"3.196"	"12.506"	"22.93"	"233.257"	"177.92"	"385.33"	"115.488"	"36.846"	"1.573"	"0"
