
"Year"	"Jan"	"Feb"	"Mar"	"Apr"	"May"	"Jun"	"Jul"	"Aug"	"Sep"	"Oct"	"Nov"	"Dec"
"1901"	"25.08"	"6.005"	"27.931"	"173.32"	"131.363"	"422.164"	"334.693"	"331.538"	"263.782"	"115.18"	"72.035"	"12.456"
"1902"	"6.125"	"5.546"	"91.83"	"270.652"	"235.274"	"410.149"	"456.632"	"360.564"	"334.491"	"47.958"	"4"	"1.288"
"1903"	"14.791"	"27.415"	"74.079"	"107.37"	"227.041"	"503.213"	"263.436"	"479.364"	"268.972"	"124.589"	"18.518"	"1.588"
"1904"	"7.156"	"32.829"	"40.358"	"255.551"	"293.835"	"373.342"	"402.065"	"401.065"	"166.818"	"75.462"	"19.946"	"2.263"
"1905"	"16.836"	"9.694"	"66.9"	"160.302"	"245.625"	"237.367"	"297.999"	"543.992"	"198.751"	"48.124"	"15.894"	"20.34"
"1906"	"11.059"	"34.805"	"51.665"	"216.419"	"180.277"	"338.267"	"376.969"	"299.651"	"228.195"	"122.194"	"13.7"	"1.115"
"1907"	"24.032"	"31.957"	"103.875"	"236.227"	"208.91"	"455.066"	"472.01"	"250.67"	"293.805"	"16.399"	"0.984"	"8.836"
"1908"	"9.443"	"14.041"	"19.942"	"205.599"	"334.248"	"453.607"	"421.41"	"260.748"	"241.2"	"49.469"	"7.355"	"1.448"
"1909"	"17.86"	"4.705"	"4.001"	"164.167"	"320.587"	"579.54"	"370.907"	"311.557"	"143.129"	"104.281"	"4.141"	"3.38"
"1910"	"8.216"	"18.589"	"81.04"	"157.337"	"186.54"	"471.094"	"455.773"	"262.625"	"89.057"	"164.858"	"13.108"	"10.271"
"1911"	"34.443"	"9.922"	"31.505"	"157.304"	"328.025"	"399.584"	"415.13"	"391.668"	"326.233"	"188.157"	"23.598"	"2.804"
"1912"	"4.911"	"46.498"	"52.538"	"237.936"	"214.872"	"462.899"	"514.759"	"450.546"	"201.232"	"78.942"	"21.013"	"5.32"
"1913"	"5.488"	"47.505"	"50.133"	"206.229"	"393.135"	"372.561"	"318.321"	"298.175"	"217.458"	"242.986"	"3.449"	"64.452"
"1914"	"2.654"	"34.552"	"29.02"	"208.016"	"195.739"	"317.545"	"452.699"	"428.497"	"215.659"	"40.919"	"14.546"	"3.135"
"1915"	"2.946"	"38.572"	"74.468"	"153.971"	"446.862"	"537.226"	"570.399"	"374.161"	"191.075"	"52.726"	"7.243"	"4.25"
"1916"	"9.22"	"11.821"	"52.789"	"154.277"	"267.796"	"343.089"	"348.287"	"349.764"	"154.919"	"148.521"	"14.266"	"3.162"
"1917"	"5.091"	"48.451"	"25.561"	"185.441"	"148.512"	"459.942"	"713.244"	"387.356"	"306.262"	"135.901"	"25.216"	"0.752"
"1918"	"3.214"	"18.07"	"51.905"	"88.117"	"197.614"	"564.735"	"541.422"	"452.671"	"257.745"	"71.93"	"3.615"	"1.271"
"1919"	"10.664"	"12.177"	"7.573"	"138"	"229.948"	"423.67"	"497.236"	"221.326"	"311.885"	"148.986"	"14.993"	"0.877"
"1920"	"13.529"	"23.436"	"97.077"	"133.895"	"203.209"	"400.013"	"341.993"	"299.319"	"244.401"	"62.165"	"2.131"	"6.071"
"1921"	"32.321"	"20.187"	"77.075"	"320.055"	"330.602"	"408.168"	"485.462"	"438.894"	"209.238"	"127.722"	"9.55"	"8.638"
"1922"	"13.996"	"5.629"	"16.121"	"74.88"	"213.693"	"339.32"	"442.306"	"447.107"	"200.941"	"73.234"	"5.812"	"5.168"
"1923"	"1.044"	"40.103"	"6.212"	"155.477"	"305.878"	"519.601"	"404.047"	"336.707"	"243.808"	"41.737"	"9.419"	"12.804"
"1924"	"7.406"	"18.063"	"12.839"	"130.339"	"317.194"	"384.452"	"547.636"	"383.009"	"304.402"	"78.311"	"44.574"	"1.448"
"1925"	"7.056"	"10.124"	"35.024"	"137.722"	"401.203"	"336.057"	"500.832"	"248.815"	"278.488"	"58.949"	"1.965"	"1.271"
"1926"	"12.176"	"6.242"	"94.771"	"125.23"	"229.762"	"278.145"	"453.329"	"221.191"	"104.369"	"162.495"	"15.029"	"10.653"
"1927"	"29.939"	"56.589"	"67.799"	"168.389"	"194.179"	"385.681"	"433.892"	"416.646"	"397.141"	"139.51"	"12.094"	"0.989"
"1928"	"10.989"	"11.488"	"31.753"	"121.985"	"392.507"	"362.216"	"300.206"	"424.055"	"171.806"	"175.836"	"20.395"	"3.162"
"1929"	"14.738"	"4.241"	"52.467"	"149.849"	"502.308"	"442.277"	"311.657"	"411.783"	"157.927"	"91.328"	"18.854"	"4.355"
"1930"	"8.81"	"25.396"	"63.599"	"197.291"	"148.014"	"451.292"	"297.831"	"490.687"	"369.231"	"180.845"	"51.349"	"3.309"
"1931"	"3.709"	"22.218"	"44.744"	"222.783"	"293.926"	"436.636"	"646.355"	"389.315"	"229.922"	"110.395"	"8.483"	"29.601"
"1932"	"10.76"	"23.921"	"38.104"	"131.312"	"329.518"	"440.424"	"364.399"	"263.948"	"234.423"	"112.737"	"43.284"	"30.994"
"1933"	"14.949"	"23.239"	"12.039"	"177.871"	"250.87"	"356.923"	"409.089"	"357.817"	"114.599"	"167.474"	"3.379"	"2.461"
"1934"	"14.91"	"49.461"	"8.855"	"185.348"	"413.879"	"618.027"	"455.65"	"258.428"	"200.751"	"165.253"	"27.248"	"3.205"
"1935"	"4.253"	"33.023"	"39.584"	"60.221"	"193.529"	"535.824"	"408.432"	"353.728"	"254.243"	"5.918"	"7.924"	"4.209"
"1936"	"12.222"	"49.554"	"30.323"	"128.676"	"311.13"	"462.958"	"453.19"	"336.982"	"273.058"	"95.623"	"16.36"	"19.93"
"1937"	"6.025"	"36.094"	"20.827"	"100.652"	"286.76"	"267.034"	"348.362"	"555.106"	"280.545"	"80.205"	"6.553"	"1.849"
"1938"	"16.911"	"35.94"	"71.624"	"161.792"	"183.751"	"362.165"	"601.979"	"406.692"	"253.423"	"136.428"	"36.732"	"3.089"
"1939"	"2.903"	"15.148"	"10.339"	"88.484"	"237.618"	"416.756"	"406.309"	"162.454"	"328.869"	"125.082"	"0.26"	"1.116"
"1940"	"1.501"	"38.847"	"112.821"	"71.646"	"294.339"	"506.227"	"332.56"	"260.544"	"313.188"	"66.273"	"11.465"	"28.629"
"1941"	"7.853"	"15.253"	"39.162"	"153.259"	"415.434"	"488.6"	"234.837"	"284.317"	"270.088"	"79.936"	"11.307"	"9.396"
"1942"	"2.015"	"18.108"	"99.826"	"178.448"	"312.337"	"401.177"	"309.181"	"405.558"	"419.443"	"9.792"	"2.915"	"0.025"
"1943"	"25.648"	"13.304"	"103.533"	"200.603"	"339.011"	"352.742"	"394.21"	"330.697"	"329.316"	"70.323"	"5.562"	"5.002"
"1944"	"24.673"	"10.014"	"29.569"	"65.646"	"290.155"	"321.008"	"294.013"	"248.072"	"238.146"	"65.9"	"6.153"	"13.7"
"1945"	"36.921"	"17.407"	"41.09"	"111.724"	"333.779"	"486.18"	"484.46"	"291.24"	"219.822"	"164.201"	"0.984"	"8.15"
"1946"	"0"	"13.994"	"67.117"	"87.632"	"239.934"	"434.734"	"372.129"	"238.808"	"234.296"	"276.866"	"10.444"	"0.24"
"1947"	"3.465"	"4.544"	"44.313"	"162.962"	"279.704"	"345.976"	"610.155"	"342.563"	"331.558"	"163.298"	"3.575"	"8.831"
"1948"	"5.431"	"10.565"	"62.903"	"173.168"	"660.219"	"320.648"	"499.09"	"316.23"	"176.081"	"170.932"	"26.706"	"3.157"
"1949"	"16.397"	"6.684"	"35.541"	"250.339"	"333.317"	"366.501"	"329.548"	"435.063"	"482.4"	"124.316"	"7.972"	"7.097"
"1950"	"4.85"	"19.703"	"39.887"	"69.602"	"188.773"	"465.672"	"413.52"	"368.603"	"143.6"	"166.753"	"23.33"	"4.12"
"1951"	"5.047"	"12.067"	"43.001"	"155.87"	"203.014"	"542.428"	"447.371"	"276.671"	"174.485"	"175.662"	"38.673"	"15.611"
"1952"	"6.036"	"15.251"	"76.76"	"107.222"	"353.918"	"327.083"	"386.077"	"467.815"	"387.8"	"166.478"	"28.473"	"1.071"
"1953"	"20.989"	"16.283"	"111.583"	"116.283"	"279.1"	"421.426"	"402.601"	"197.378"	"290.611"	"71.946"	"1.07"	"16.037"
"1954"	"23.779"	"23.551"	"14.238"	"162.967"	"282.992"	"358.447"	"421.286"	"491.972"	"236.194"	"81.166"	"0.207"	"24.177"
"1955"	"4.415"	"11.86"	"79.185"	"153.789"	"211.777"	"445.818"	"642.741"	"315.424"	"160.449"	"84.931"	"11.21"	"23.114"
"1956"	"19.637"	"5.573"	"102.761"	"177.182"	"351.906"	"600.343"	"302.328"	"384.662"	"206.696"	"90.864"	"26.725"	"8.864"
"1957"	"22.451"	"24.978"	"13.407"	"153.132"	"310.425"	"387.742"	"596.293"	"368.9"	"233.239"	"78.552"	"11.367"	"28.046"
"1958"	"19.021"	"31.593"	"7.51"	"90.383"	"446.76"	"238.069"	"467.893"	"456.164"	"212.09"	"135.316"	"0.241"	"5.439"
"1959"	"31.373"	"17.022"	"70.488"	"111.951"	"397.202"	"447.581"	"341.395"	"184.931"	"248.425"	"203.594"	"7.284"	"6.186"
"1960"	"2.756"	"20.862"	"17.482"	"39.448"	"251.811"	"322.324"	"513.355"	"240.767"	"277.727"	"27.444"	"5.896"	"7.081"
"1961"	"5.964"	"6.889"	"78.753"	"116.088"	"292.64"	"326.225"	"414.442"	"402.633"	"331.748"	"84.552"	"13.81"	"3.063"
"1962"	"23.265"	"23.731"	"28.973"	"139.718"	"176.112"	"586.048"	"291.731"	"372.393"	"172.786"	"79.919"	"4.366"	"5.208"
"1963"	"5.643"	"13.47"	"40.931"	"118.2"	"300.794"	"333.122"	"482.127"	"397.333"	"139.644"	"96.815"	"17.56"	"7.288"
"1964"	"6.646"	"18.664"	"75.939"	"165.235"	"188.474"	"428.32"	"470.548"	"276.718"	"183.29"	"121.111"	"4.071"	"10.405"
"1965"	"1.538"	"28.912"	"40.506"	"172.68"	"305.905"	"389.95"	"487.463"	"383.091"	"229.178"	"38.72"	"73.429"	"3.235"
"1966"	"16.3"	"7.379"	"16.129"	"94.487"	"274.7"	"622.66"	"352.087"	"502.424"	"240.438"	"70.734"	"25.187"	"5.519"
"1967"	"7.157"	"10.98"	"92.596"	"153.474"	"222.946"	"293.654"	"282.058"	"252.154"	"299.153"	"23.049"	"19.068"	"1.626"
"1968"	"14.257"	"52.394"	"31.097"	"148.415"	"429.767"	"387.13"	"417.968"	"339.525"	"213.247"	"67.049"	"0.318"	"0.025"
"1969"	"22.67"	"0.593"	"106.377"	"79.012"	"140.258"	"409.766"	"436.368"	"393.058"	"232.032"	"80.983"	"10.79"	"1.117"
"1970"	"20.489"	"23.811"	"37.702"	"113.472"	"303.253"	"448.628"	"526.893"	"404.769"	"222.084"	"216.128"	"12.666"	"0.025"
"1971"	"8.857"	"9.74"	"73.484"	"146.363"	"154.003"	"433.291"	"452.5"	"382.505"	"163.471"	"184.128"	"64.701"	"7.152"
"1972"	"13.546"	"16.355"	"45.812"	"184.797"	"275.013"	"313.433"	"436.57"	"294.203"	"154.448"	"27.561"	"7.213"	"2.778"
"1973"	"8.398"	"28.775"	"18.394"	"211.489"	"310.355"	"524.069"	"332.98"	"276.516"	"324.319"	"71.516"	"28.174"	"59.075"
"1974"	"23.501"	"3.658"	"21.732"	"148.062"	"204.022"	"441.141"	"659.078"	"352.504"	"238.488"	"73.36"	"6.054"	"0.893"
"1975"	"6.255"	"51.499"	"22.068"	"93.53"	"255.637"	"333.254"	"470.49"	"337.828"	"258.035"	"119.123"	"3.18"	"4.927"
"1976"	"23.141"	"27.46"	"52.657"	"131.44"	"166.593"	"570.021"	"403.71"	"301.252"	"120.966"	"50.876"	"8.646"	"2.068"
"1977"	"9.212"	"10.863"	"51.822"	"370.243"	"336.189"	"470.452"	"591.582"	"408.101"	"206.617"	"186.914"	"25.853"	"24.553"
"1978"	"1.64"	"10.668"	"26.505"	"130.767"	"255.779"	"438.255"	"435.987"	"301.079"	"249.401"	"108.069"	"37.17"	"0.025"
"1979"	"3.188"	"8.557"	"31.894"	"52.038"	"178.368"	"319.713"	"475.228"	"232.661"	"238.051"	"212.03"	"9.855"	"51.527"
"1980"	"24.805"	"11.704"	"60.254"	"169.371"	"299.215"	"382.474"	"486.956"	"483.184"	"185.236"	"94.097"	"1.013"	"0.025"
"1981"	"30.055"	"16.375"	"47.978"	"119.439"	"301.108"	"287.168"	"523.569"	"356.966"	"178.165"	"27.534"	"0.558"	"49.328"
"1982"	"0.37"	"16.545"	"30.631"	"269.48"	"158.179"	"343.735"	"274.961"	"352.004"	"171.019"	"42.749"	"51.587"	"14.158"
"1983"	"19.852"	"28.933"	"44.316"	"163.804"	"300.228"	"285.276"	"392.919"	"293.51"	"358.418"	"150.378"	"1.525"	"19.754"
"1984"	"13.026"	"3.008"	"20.514"	"183.352"	"297.569"	"375.112"	"514.002"	"219.591"	"354.7"	"72.297"	"9.471"	"19.235"
"1985"	"2.399"	"20.27"	"52.565"	"185.512"	"197.242"	"361.077"	"655.059"	"204.741"	"258.941"	"26.98"	"4.548"	"20.374"
"1986"	"3.103"	"6.618"	"15.318"	"252.364"	"78.396"	"242.95"	"487.124"	"298.232"	"272.574"	"243.486"	"16.576"	"1.496"
"1987"	"7.32"	"26.355"	"80.609"	"202.406"	"181.7"	"199.727"	"560.965"	"352.663"	"359.946"	"87.261"	"4.734"	"5.201"
"1988"	"8.277"	"20.013"	"53.195"	"182.576"	"466.589"	"265.41"	"491.268"	"506.756"	"248.042"	"136.158"	"73.021"	"15.663"
"1989"	"2.675"	"42.357"	"14.56"	"128.95"	"197.453"	"341.081"	"504.879"	"290.859"	"361.787"	"145.575"	"6.897"	"7.404"
"1990"	"3.487"	"19.165"	"64.69"	"232.392"	"160.112"	"466.493"	"636.885"	"197.228"	"339.502"	"168.57"	"0.549"	"3.346"
"1991"	"16.443"	"4.754"	"44.304"	"125.259"	"404.343"	"463.792"	"411.967"	"485.078"	"309.557"	"275.81"	"3.965"	"14.478"
"1992"	"14.456"	"36.424"	"44.249"	"261.436"	"230.097"	"379.315"	"426.131"	"372.221"	"234.49"	"116.65"	"4.015"	"11.038"
"1993"	"33.717"	"51.698"	"71.499"	"102.321"	"335.61"	"470.491"	"306.561"	"478.693"	"325.889"	"57.645"	"3.828"	"0.22"
"1994"	"18.545"	"23.843"	"73.524"	"215.022"	"207.672"	"335.675"	"318.274"	"338.991"	"137.634"	"172.81"	"11.257"	"0.065"
"1995"	"21.667"	"17.784"	"35.532"	"136.251"	"303.626"	"574.909"	"549.495"	"364.291"	"403.181"	"34.456"	"46.227"	"8.886"
"1996"	"11.622"	"22.244"	"62.026"	"81.526"	"548.406"	"269.198"	"418.352"	"303.612"	"166.175"	"164.37"	"0.2"	"0.025"
"1997"	"13.184"	"33.336"	"57.665"	"140.805"	"208.153"	"366.975"	"316.185"	"230.986"	"299.321"	"21.25"	"12.032"	"33.275"
"1998"	"5.089"	"21.151"	"87.111"	"149.953"	"243.775"	"501.15"	"426.754"	"380.429"	"212.225"	"166.667"	"7.524"	"0.025"
"1999"	"0.429"	"12.73"	"16.714"	"98.813"	"360.373"	"383.967"	"424.64"	"421.916"	"232.951"	"140.623"	"17.244"	"0.828"
"2000"	"16.311"	"10.868"	"63.394"	"115.968"	"403.326"	"379.746"	"333.57"	"484.788"	"257.777"	"44.152"	"4.109"	"0.896"
"2001"	"1.1"	"14.289"	"17.394"	"176.114"	"316.071"	"399.178"	"425.804"	"261.92"	"257.436"	"190.336"	"9.42"	"1.574"
"2002"	"15.302"	"18.372"	"52.984"	"262.793"	"333.844"	"417.017"	"438.966"	"290.49"	"264.302"	"42.351"	"31.095"	"0.025"
