
"Year"	"Jan"	"Feb"	"Mar"	"Apr"	"May"	"Jun"	"Jul"	"Aug"	"Sep"	"Oct"	"Nov"	"Dec"
"1901"	"13.337"	"4.716"	"8.183"	"0.937"	"18.289"	"13.983"	"122.834"	"90.32"	"0.856"	"0"	"0"	"0.373"
"1902"	"0"	"0"	"2.957"	"3.233"	"9.442"	"51.349"	"86.335"	"72.253"	"41.822"	"1.463"	"0"	"0"
"1903"	"3.61"	"0.143"	"2.866"	"0"	"8.359"	"5.55"	"94.074"	"74.794"	"42.815"	"1.789"	"0"	"3.177"
"1904"	"8.309"	"0"	"33.003"	"1.986"	"11.635"	"23.946"	"48.091"	"69.502"	"64.329"	"0.544"	"11.332"	"8.558"
"1905"	"21.33"	"9.9"	"3.768"	"1.443"	"0.725"	"10.948"	"56.588"	"1.225"	"93.389"	"1.141"	"0"	"3.47"
"1906"	"0"	"53.844"	"15.969"	"0.682"	"1.762"	"43.103"	"68.285"	"74.304"	"126.657"	"0"	"0"	"8.641"
"1907"	"6.603"	"23.771"	"7.179"	"25.165"	"2.65"	"17.196"	"56.072"	"110.541"	"0.462"	"0.504"	"0"	"0"
"1908"	"17.651"	"4.192"	"0"	"10.651"	"4.738"	"18.156"	"178.871"	"314.787"	"30.195"	"0.165"	"0"	"1.413"
"1909"	"4.686"	"9.902"	"0"	"30.651"	"14.286"	"89.902"	"179.998"	"102.33"	"106.608"	"0.022"	"0"	"22.991"
"1910"	"10.411"	"3.919"	"0.867"	"7.154"	"0.905"	"40.781"	"77.04"	"139.751"	"40.811"	"1.686"	"0"	"0.768"
"1911"	"22.894"	"0.614"	"35.823"	"3.109"	"4.326"	"42.843"	"19.022"	"39.514"	"53.012"	"4.715"	"24.1"	"0"
"1912"	"18.434"	"6.631"	"2.394"	"17.895"	"6.15"	"18.212"	"62.002"	"124.644"	"48.004"	"1.44"	"1.798"	"0.98"
"1913"	"0.595"	"19.798"	"8.721"	"2.474"	"35.334"	"57.755"	"76.843"	"75.566"	"10.861"	"0.334"	"2.203"	"5.562"
"1914"	"9.43"	"7.755"	"1.452"	"13.803"	"17.545"	"28.005"	"177.144"	"45.944"	"108.403"	"7.912"	"8.91"	"3.269"
"1915"	"11.465"	"40.943"	"30.863"	"13.599"	"0.263"	"18.3"	"32.789"	"27.981"	"44.476"	"8.824"	"0"	"0.796"
"1916"	"0.415"	"13.445"	"1.058"	"7.866"	"12.525"	"29.583"	"178.285"	"148.447"	"50.432"	"7.411"	"0.143"	"0"
"1917"	"5.13"	"3.246"	"4.197"	"23.131"	"29.681"	"49.338"	"93.629"	"157.105"	"152.857"	"10.446"	"0"	"2.915"
"1918"	"2.455"	"0.442"	"10.926"	"10.216"	"1.219"	"22.336"	"9.119"	"84.675"	"6.58"	"0"	"0.979"	"3.731"
"1919"	"29.088"	"5.775"	"3.469"	"9.338"	"9.541"	"0.311"	"98.342"	"148.578"	"58.677"	"0"	"2.329"	"6.658"
"1920"	"6.35"	"5.546"	"9.396"	"9.795"	"12.887"	"52.078"	"116.831"	"71.783"	"2.37"	"0"	"0"	"0"
"1921"	"7.117"	"0"	"0"	"2.025"	"1.136"	"17.446"	"143.144"	"148.706"	"60.165"	"2.771"	"0"	"2.955"
"1922"	"6.727"	"1.627"	"0.789"	"3.862"	"2.075"	"28.612"	"71.913"	"55.197"	"126.159"	"1.627"	"0"	"13.822"
"1923"	"9.885"	"25.589"	"1.638"	"7.936"	"17.52"	"8.22"	"110.648"	"148.596"	"6.839"	"2.234"	"0"	"23.32"
"1924"	"25.495"	"15.019"	"2.299"	"1.161"	"17.302"	"10.117"	"89.639"	"91.799"	"90.143"	"4.218"	"1.009"	"20.798"
"1925"	"3.108"	"0.342"	"0.757"	"0.271"	"16.505"	"82.311"	"118.954"	"55.78"	"3.293"	"0.667"	"19.971"	"0"
"1926"	"4.425"	"0.143"	"26.874"	"8.232"	"12.119"	"0.996"	"122.664"	"176.369"	"23.08"	"0"	"1.405"	"6.563"
"1927"	"0"	"14.356"	"9.206"	"3.034"	"15.139"	"12.085"	"109.393"	"85.004"	"6.181"	"4.501"	"0"	"18.405"
"1928"	"6.412"	"16.506"	"5.736"	"10.397"	"5.308"	"22.592"	"60.376"	"89.426"	"47.22"	"1.845"	"10.123"	"6.306"
"1929"	"1.902"	"0.614"	"0"	"9.632"	"5.715"	"45.488"	"96.3"	"116.789"	"5.771"	"0.314"	"0"	"22.877"
"1930"	"13.945"	"9.802"	"0"	"11.108"	"10.794"	"38.965"	"170.536"	"26.029"	"14.092"	"1.792"	"1.914"	"0.373"
"1931"	"6.805"	"10.864"	"6.705"	"3.483"	"10.197"	"3.235"	"157.429"	"133.642"	"40.573"	"9.979"	"0"	"0"
"1932"	"4.544"	"0.544"	"9.364"	"5.257"	"5.585"	"6.89"	"91.411"	"55.936"	"57.585"	"0"	"0"	"7.165"
"1933"	"0.495"	"8.978"	"5.07"	"4.457"	"20.676"	"72.024"	"74.415"	"232.555"	"81.543"	"2.781"	"3.413"	"0"
"1934"	"8.762"	"0.614"	"25.1"	"0.249"	"3.391"	"33.205"	"117.777"	"116.717"	"4.072"	"0"	"0"	"10.939"
"1935"	"20.515"	"24.968"	"6.859"	"25.416"	"1.862"	"16.578"	"83.854"	"78.634"	"65.41"	"0.859"	"6.456"	"1.848"
"1936"	"0.93"	"12.776"	"8.355"	"2.884"	"0.605"	"134.324"	"72.226"	"78.264"	"48.805"	"3.041"	"7.84"	"16.014"
"1937"	"0"	"51.362"	"0.99"	"14.411"	"2.425"	"12.675"	"165.686"	"5.093"	"43.673"	"0.555"	"0"	"6.616"
"1938"	"19.232"	"4.857"	"5.193"	"3.269"	"0.442"	"58.517"	"42.718"	"35.887"	"6.578"	"2.142"	"0"	"1.826"
"1939"	"1.142"	"24.807"	"9.455"	"0.614"	"2.233"	"48.889"	"37.651"	"45.95"	"33.884"	"0.484"	"0"	"0"
"1940"	"20.634"	"20.187"	"2.499"	"0.764"	"1.07"	"32.99"	"68.64"	"112.689"	"9.846"	"0.057"	"0"	"0.124"
"1941"	"21.693"	"2.63"	"2.848"	"0.342"	"15.637"	"46.86"	"32.202"	"43.905"	"41.166"	"0"	"0"	"4.046"
"1942"	"6.921"	"12.051"	"3.983"	"10.635"	"16.607"	"31.944"	"201.586"	"107.231"	"85.067"	"0.484"	"0"	"9.121"
"1943"	"6.936"	"0"	"0.214"	"12.667"	"5.133"	"36.429"	"108.856"	"25.728"	"28.319"	"0"	"0"	"0"
"1944"	"15.089"	"27.488"	"30.562"	"28.986"	"0.628"	"30.266"	"147.785"	"113.024"	"46.575"	"5.803"	"0"	"2.724"
"1945"	"22.602"	"0"	"1.614"	"21.795"	"15.396"	"34.884"	"95.248"	"117.489"	"97.513"	"0.861"	"0"	"0.143"
"1946"	"0"	"4.517"	"1.927"	"1.025"	"10.937"	"58.125"	"93.094"	"120.824"	"10.817"	"4.377"	"0.393"	"3.138"
"1947"	"4.27"	"5.321"	"3.93"	"0.28"	"2.044"	"0.815"	"24.648"	"92.521"	"81.726"	"8.181"	"0"	"3.662"
"1948"	"16.621"	"20.051"	"15.991"	"3.928"	"2.536"	"17.961"	"124.414"	"122.295"	"48.687"	"1.102"	"2.606"	"6.526"
"1949"	"6.601"	"15.316"	"5.227"	"0.371"	"3.702"	"4.998"	"267.827"	"46.187"	"47.32"	"0.022"	"0"	"0"
"1950"	"16"	"6.029"	"16.624"	"0.583"	"5.565"	"5.417"	"259.907"	"138.784"	"112.067"	"0"	"0"	"0"
"1951"	"9.006"	"0.554"	"21.629"	"15.363"	"8.172"	"9.186"	"77.955"	"71.769"	"17.152"	"0.677"	"16.562"	"0"
"1952"	"3.211"	"7.084"	"19.613"	"2.287"	"12.985"	"27.626"	"60.021"	"114.689"	"0.605"	"0.405"	"0.342"	"1.028"
"1953"	"26.029"	"0.442"	"0"	"3.222"	"3.096"	"14.417"	"98.394"	"153.799"	"47.591"	"0.124"	"1.456"	"1.331"
"1954"	"8.885"	"35.194"	"3.591"	"0.271"	"2.985"	"21.634"	"123.006"	"15.008"	"132.369"	"7.541"	"0"	"0"
"1955"	"10.374"	"0.849"	"9.083"	"10.248"	"10.006"	"28.37"	"48.18"	"144.247"	"108.846"	"12.545"	"0"	"1.14"
"1956"	"14.136"	"0.704"	"15.923"	"2.168"	"0.2"	"44.957"	"142.144"	"128.87"	"3.754"	"17.569"	"0.584"	"2.771"
"1957"	"31.986"	"0.354"	"18.481"	"8.722"	"10.745"	"21.122"	"107.328"	"115.211"	"38.938"	"4.014"	"9.808"	"4.227"
"1958"	"15.777"	"0.704"	"6.232"	"1.114"	"3.352"	"13.229"	"150.792"	"65.935"	"149.94"	"1.786"	"6.674"	"13.139"
"1959"	"15.267"	"4.19"	"4.056"	"0.438"	"12.409"	"13.26"	"136.857"	"164.536"	"81.672"	"2.372"	"13.179"	"0"
"1960"	"7.181"	"0"	"12.872"	"5.522"	"0.2"	"27.145"	"89.197"	"111.507"	"17.996"	"7.92"	"0"	"5.225"
"1961"	"18.59"	"20.99"	"1.1"	"6.033"	"15.386"	"35.385"	"123.02"	"179.265"	"74.158"	"10.583"	"4.602"	"3.805"
"1962"	"12.291"	"9.837"	"10.966"	"0"	"6.504"	"7.089"	"116.422"	"72.635"	"94.713"	"0"	"5.121"	"7.577"
"1963"	"0"	"5.481"	"2.742"	"2.721"	"15.793"	"28.179"	"46.13"	"98.02"	"58.03"	"0.102"	"0.584"	"8.848"
"1964"	"4.516"	"0.96"	"2.444"	"5.001"	"15.614"	"24.3"	"233.431"	"184.995"	"48.047"	"0"	"1.133"	"4.994"
"1965"	"4.812"	"6.919"	"3.356"	"15.636"	"9.584"	"3.492"	"118.764"	"67.504"	"32.777"	"1.267"	"4.514"	"0"
"1966"	"1.722"	"28.195"	"2.449"	"2.461"	"41.178"	"63.954"	"69.492"	"104.463"	"71.523"	"8.139"	"2.769"	"0"
"1967"	"0"	"3.98"	"38.25"	"2.698"	"1.762"	"8.973"	"80.799"	"233.209"	"48.292"	"5.686"	"11.894"	"25.86"
"1968"	"7.719"	"10.211"	"5.037"	"0.722"	"7.192"	"8.627"	"104.857"	"108.051"	"0.462"	"2.869"	"0"	"2.027"
"1969"	"0.738"	"4.69"	"10.211"	"9.006"	"18.58"	"16.349"	"132.498"	"53.553"	"48.967"	"1.396"	"0"	"0"
"1970"	"17.371"	"33.117"	"23.613"	"3.029"	"21.438"	"41.741"	"26.829"	"109.989"	"64.72"	"0.587"	"0"	"0"
"1971"	"3.996"	"6.377"	"0.919"	"13.366"	"40.591"	"50.857"	"84.171"	"189.05"	"33.336"	"2.313"	"0"	"0"
"1972"	"7.69"	"5.819"	"1.522"	"8.542"	"0.2"	"27.968"	"99.54"	"141.701"	"34.892"	"4.977"	"5.475"	"3.216"
"1973"	"8.462"	"5.01"	"1.867"	"0.359"	"13.485"	"7.345"	"95.986"	"163.77"	"31.565"	"3.632"	"0"	"6.367"
"1974"	"0.836"	"1.328"	"1.691"	"4.681"	"13.581"	"18.762"	"207.692"	"40.002"	"4.277"	"1.729"	"0"	"6.657"
"1975"	"9.104"	"6.56"	"9.169"	"1.176"	"0.641"	"61.84"	"177.974"	"123.674"	"110.491"	"5.075"	"0"	"1.299"
"1976"	"6.438"	"10.782"	"7.202"	"8.097"	"30.335"	"37.731"	"157.365"	"263.479"	"83.385"	"3.841"	"0"	"0.274"
"1977"	"15.475"	"0.263"	"0.342"	"23.561"	"28.156"	"74.039"	"212.222"	"68.904"	"87.397"	"8.045"	"2.547"	"4.168"
"1978"	"1.257"	"11.242"	"19.264"	"10.085"	"0.2"	"53.884"	"206.757"	"179.614"	"81.174"	"0.057"	"1.527"	"0.473"
"1979"	"9.445"	"30.81"	"16.579"	"3.664"	"20.141"	"32.055"	"72.475"	"43.198"	"38.936"	"3.783"	"3.313"	"3.773"
"1980"	"3.99"	"3.455"	"15.588"	"2.049"	"5.829"	"50.59"	"229.302"	"107.134"	"33.896"	"2.679"	"9.789"	"6.75"
"1981"	"23.292"	"9.115"	"18.732"	"0"	"7.41"	"47.519"	"213.678"	"53.988"	"17.342"	"1.868"	"34.681"	"3.582"
"1982"	"13.549"	"7.566"	"44.275"	"32.662"	"54.419"	"31.251"	"173.174"	"160.121"	"0.462"	"4.889"	"10.739"	"8.918"
"1983"	"20.36"	"12.015"	"13.134"	"26.205"	"67.815"	"30.77"	"148.559"	"175.985"	"46.239"	"7.933"	"0"	"1.726"
"1984"	"0.165"	"11.366"	"1.927"	"15.879"	"1.287"	"12.417"	"158.917"	"155.138"	"58.423"	"0"	"0"	"4.238"
"1985"	"0.838"	"0.271"	"1.1"	"14.478"	"13.13"	"32.145"	"188.437"	"129.268"	"38.657"	"9.806"	"0.718"	"10.615"
"1986"	"7.454"	"24.558"	"6.578"	"4.952"	"20.908"	"52.764"	"113.473"	"112.171"	"34.778"	"1.141"	"0"	"7.351"
"1987"	"14.684"	"15.866"	"13.716"	"3.294"	"29.57"	"25.105"	"42.517"	"54.965"	"5.055"	"5.35"	"0"	"1.916"
"1988"	"1.071"	"7.85"	"32.743"	"3.816"	"1.659"	"34.149"	"128.818"	"149.726"	"74.811"	"9.509"	"0"	"5.337"
"1989"	"33.305"	"2.066"	"15.861"	"0.682"	"3.825"	"13.128"	"102.717"	"96.194"	"37.257"	"0.353"	"6.467"	"1.11"
"1990"	"0.665"	"27.904"	"11.703"	"5.431"	"31.069"	"19.488"	"93.721"	"143.142"	"101.992"	"0.805"	"5.096"	"13.652"
"1991"	"0"	"19.195"	"3.208"	"12.559"	"26.53"	"47.665"	"36.766"	"113.167"	"34.4"	"0.985"	"5.978"	"12.437"
"1992"	"10.498"	"19.019"	"2.49"	"5.662"	"21.251"	"8.697"	"50.838"	"125.209"	"60.002"	"5.109"	"16.366"	"0.525"
"1993"	"4.905"	"5.846"	"6.931"	"8.949"	"11.899"	"40.012"	"167.823"	"50.62"	"63.653"	"1.19"	"0"	"0"
"1994"	"16.754"	"3.68"	"7.517"	"5.724"	"36.987"	"28.472"	"169.963"	"99.988"	"43.188"	"0.555"	"0"	"2.158"
"1995"	"24.394"	"33.219"	"14.501"	"3.946"	"0.2"	"31.674"	"108.044"	"208.965"	"62.755"	"2.136"	"2.466"	"0.504"
"1996"	"7.757"	"11.296"	"7.519"	"1.763"	"7.767"	"130.81"	"84.754"	"165.811"	"32.66"	"2.615"	"0"	"0"
"1997"	"8.336"	"3.718"	"7.693"	"22.996"	"32.282"	"84.189"	"111.858"	"178.628"	"28.748"	"15.101"	"14.252"	"5.134"
"1998"	"0"	"13.966"	"12.279"	"15.274"	"6.502"	"38.962"	"142.789"	"75.096"	"64.421"	"10.271"	"8.586"	"2.771"
"1999"	"19.934"	"1.991"	"2.028"	"0"	"20.484"	"34.626"	"65.397"	"57.421"	"32.19"	"2.315"	"0"	"0"
"2000"	"11.193"	"19.348"	"7.188"	"0.362"	"8.469"	"42.791"	"188.134"	"59.917"	"11.74"	"0"	"4.096"	"8.145"
"2001"	"3.905"	"4.892"	"6.072"	"15.009"	"37.453"	"59.455"	"126.931"	"67.767"	"28.353"	"1.317"	"0"	"0"
"2002"	"4.181"	"5.637"	"2.453"	"2.675"	"10.364"	"24.842"	"25.076"	"59.222"	"60.8"	"0.022"	"3.851"	"11.609"
