
"Year"	"Jan"	"Feb"	"Mar"	"Apr"	"May"	"Jun"	"Jul"	"Aug"	"Sep"	"Oct"	"Nov"	"Dec"
"1901"	"0.501"	"1.085"	"10.306"	"79.474"	"122.771"	"346.145"	"212.988"	"196.995"	"149.845"	"130.452"	"22.209"	"9.309"
"1902"	"0.119"	"0"	"1.934"	"28.753"	"119.047"	"278.145"	"319.869"	"55.246"	"77.689"	"192.642"	"66.277"	"21.837"
"1903"	"0"	"0"	"0"	"6.799"	"90.099"	"241.061"	"404.139"	"202.657"	"131.196"	"150.653"	"36.089"	"19.289"
"1904"	"1.185"	"0"	"10.9"	"23.016"	"156.182"	"387.315"	"277.898"	"140.924"	"50.55"	"117.239"	"1.624"	"0"
"1905"	"0"	"1.977"	"3.692"	"20.211"	"71.094"	"230.562"	"155.879"	"149.498"	"34.284"	"157.425"	"14.678"	"0"
"1906"	"12.76"	"0"	"0"	"8.467"	"39.613"	"302.389"	"319.158"	"470.091"	"141.307"	"183.343"	"9.413"	"45.352"
"1907"	"1.104"	"0"	"2.672"	"90.44"	"0.979"	"221.543"	"264.301"	"461.455"	"321.13"	"26.174"	"20.409"	"8.625"
"1908"	"0.001"	"0.547"	"11.675"	"30.945"	"119.25"	"145.479"	"381.478"	"207.591"	"105.716"	"43.385"	"3.929"	"0"
"1909"	"4.71"	"0"	"9.889"	"11.737"	"98.978"	"214.405"	"364.833"	"312.871"	"117.211"	"73.193"	"16.338"	"0.897"
"1910"	"0"	"0"	"16.061"	"8.021"	"80.222"	"251.398"	"284.252"	"369.349"	"108"	"157.677"	"53.093"	"0"
"1911"	"0"	"0"	"0.576"	"52.436"	"60.212"	"147.389"	"494.187"	"342.681"	"171.436"	"191.408"	"18.46"	"0.405"
"1912"	"0"	"0.436"	"4.974"	"11.928"	"80.126"	"173.846"	"305.43"	"183.561"	"68.693"	"198.302"	"24.463"	"6.353"
"1913"	"0"	"0"	"0"	"28.935"	"73.348"	"286.629"	"250.698"	"163.159"	"123.56"	"120.958"	"14.437"	"0.457"
"1914"	"0"	"0.165"	"0.736"	"23.772"	"83.637"	"108.673"	"669.541"	"433.116"	"160.8"	"81.496"	"49.102"	"5.693"
"1915"	"12.597"	"0.857"	"9.213"	"36.177"	"114.499"	"374.485"	"313.979"	"125.429"	"182.665"	"62.974"	"59.032"	"3.335"
"1916"	"0"	"0"	"0.133"	"37.874"	"111.392"	"194.675"	"336.554"	"201.984"	"103.507"	"176.375"	"218.229"	"0"
"1917"	"0"	"5.059"	"25.127"	"5.023"	"23.652"	"288.549"	"143.588"	"256.705"	"192.088"	"193.986"	"149.764"	"0"
"1918"	"3.699"	"0"	"2.798"	"25.348"	"215.464"	"126.028"	"51.468"	"143.636"	"167.538"	"42.683"	"132.294"	"3.309"
"1919"	"2.465"	"0.031"	"0"	"6.947"	"118.191"	"514.241"	"199.291"	"152.459"	"190.202"	"189.957"	"88.882"	"5.37"
"1920"	"6.34"	"0"	"0.162"	"92.56"	"88.496"	"213.403"	"284.798"	"130.048"	"165.413"	"121.169"	"2.066"	"0"
"1921"	"2.915"	"0"	"2.836"	"36.206"	"11.283"	"196.93"	"327.592"	"170.986"	"50.603"	"183.091"	"105.019"	"0"
"1922"	"3.552"	"0.204"	"0"	"74.516"	"80.408"	"155.758"	"377.862"	"145.443"	"37.805"	"124.973"	"101.02"	"0.256"
"1923"	"0.002"	"1.744"	"33.223"	"32.638"	"163.783"	"62.914"	"570.073"	"247.2"	"109.925"	"9.623"	"0.471"	"3.585"
"1924"	"0.343"	"0"	"0.147"	"45.161"	"29.318"	"214.399"	"506.521"	"267.13"	"199.312"	"45.954"	"9.864"	"2.913"
"1925"	"0"	"0"	"0.001"	"64.698"	"136.669"	"282.243"	"266.869"	"154.512"	"156.665"	"147.32"	"56.86"	"30.539"
"1926"	"10.163"	"0.371"	"0"	"10.52"	"89.341"	"183.353"	"319.526"	"294.58"	"157.938"	"71.797"	"0.641"	"0"
"1927"	"0"	"0"	"2.548"	"31.239"	"112.749"	"276.777"	"422.964"	"117.119"	"186.452"	"16.376"	"78.387"	"0"
"1928"	"0"	"7.705"	"7.098"	"42.114"	"89.622"	"258.718"	"389.537"	"313.234"	"62.554"	"184.243"	"0.78"	"10.051"
"1929"	"3.288"	"0.516"	"0.961"	"89.205"	"91.708"	"254.136"	"269.132"	"98.978"	"207.918"	"121.316"	"66.694"	"0.991"
"1930"	"1.423"	"0"	"2.662"	"10.745"	"127.369"	"320.048"	"211.321"	"122.569"	"143.453"	"212.87"	"11.388"	"23.86"
"1931"	"0"	"0"	"6.357"	"44.359"	"58.711"	"249.327"	"260.81"	"275.128"	"162.762"	"70.847"	"146.092"	"30.542"
"1932"	"0"	"0"	"0.451"	"74.834"	"77.985"	"93.984"	"478.771"	"435.619"	"96.991"	"285.011"	"186.867"	"0.714"
"1933"	"0"	"1.479"	"20.82"	"56.336"	"162.409"	"216.176"	"311.489"	"434.837"	"183.837"	"222.72"	"56.375"	"15.862"
"1934"	"2.267"	"0"	"0"	"39.604"	"37.47"	"299.616"	"426.624"	"225.314"	"53.217"	"132.314"	"65.953"	"0"
"1935"	"1.924"	"0"	"0.407"	"27.741"	"67.499"	"249.083"	"243.496"	"444.439"	"57.606"	"178.158"	"25.455"	"0.498"
"1936"	"0.449"	"5.255"	"4.311"	"16.197"	"85.971"	"288.37"	"107.468"	"111.808"	"177.737"	"42.786"	"69.067"	"0.215"
"1937"	"0"	"0.698"	"7.341"	"106.155"	"26.642"	"87.878"	"261.28"	"61.793"	"96.579"	"183.353"	"0.471"	"7.661"
"1938"	"0"	"0"	"10.835"	"44.167"	"28.779"	"172.838"	"225.954"	"248.367"	"202.104"	"51.938"	"8.044"	"0.333"
"1939"	"0"	"0"	"5.945"	"31.074"	"3.885"	"239.633"	"282.137"	"374.286"	"98.281"	"117.103"	"42.572"	"0"
"1940"	"0"	"0"	"0"	"32.824"	"126.251"	"178.385"	"242.76"	"248.203"	"52.279"	"143.164"	"28.867"	"3.259"
"1941"	"7.316"	"1.912"	"1.907"	"42.957"	"59.772"	"128.739"	"279.872"	"145.945"	"110.506"	"122.517"	"1.64"	"20.919"
"1942"	"0"	"7.225"	"0"	"34.515"	"87.236"	"295.659"	"314.933"	"155.332"	"38.491"	"55.836"	"14.289"	"26.124"
"1943"	"0.533"	"0"	"2.738"	"41.83"	"216.78"	"154.33"	"347.38"	"77.795"	"74.614"	"156.477"	"53.774"	"0"
"1944"	"0"	"1.525"	"32.424"	"16.684"	"80.846"	"210.541"	"582.396"	"149.505"	"68.85"	"223.633"	"76.919"	"0"
"1945"	"0.119"	"0"	"0"	"17.506"	"36.569"	"190.28"	"387.81"	"203.062"	"87.593"	"60.45"	"11.861"	"0"
"1946"	"0"	"1.741"	"2.382"	"94.694"	"97.767"	"225.15"	"514.967"	"343.828"	"246.566"	"130.73"	"144.208"	"3.303"
"1947"	"14.466"	"0.084"	"8.683"	"18.815"	"65.362"	"302.593"	"276.646"	"505.613"	"143.149"	"101.468"	"21.481"	"34.036"
"1948"	"1.904"	"0"	"2.479"	"68.611"	"98.289"	"221.131"	"249.974"	"326.451"	"124.159"	"116.772"	"144.323"	"0.255"
"1949"	"0"	"0"	"5.153"	"53.869"	"138.229"	"119.283"	"201.434"	"176.261"	"114.103"	"140.318"	"32.88"	"0"
"1950"	"0"	"1.947"	"0.41"	"16.031"	"141.808"	"169.621"	"432.562"	"381.091"	"147.422"	"143.777"	"43.853"	"0"
"1951"	"0"	"0"	"2.425"	"42.217"	"160.805"	"546.107"	"275.225"	"128.327"	"179.18"	"118.084"	"10.057"	"0"
"1952"	"0"	"1.963"	"0"	"49.726"	"122.035"	"280.167"	"401.083"	"169.633"	"59.909"	"179.933"	"0.471"	"14.771"
"1953"	"0"	"0"	"6.152"	"40.035"	"32.432"	"439.268"	"466.731"	"298.588"	"110.069"	"245.002"	"0.471"	"0"
"1954"	"0"	"0"	"5.466"	"66.306"	"85.946"	"136.301"	"447.465"	"313.736"	"68.237"	"180.411"	"7.599"	"7.964"
"1955"	"0"	"0"	"4.537"	"40.25"	"221.912"	"251.558"	"102.778"	"198.307"	"316.783"	"133.958"	"27.321"	"0.085"
"1956"	"0"	"0.941"	"0.53"	"75.197"	"57.476"	"272.101"	"490.96"	"327.244"	"147.278"	"263.031"	"151.817"	"0.598"
"1957"	"0"	"0"	"2.417"	"47.768"	"163.008"	"351.211"	"307.852"	"423.375"	"52.286"	"227.685"	"55.655"	"0"
"1958"	"0"	"0"	"6.347"	"20.146"	"251.431"	"211.393"	"504.692"	"200.058"	"97.329"	"151.417"	"37.588"	"0.255"
"1959"	"0"	"0"	"0.381"	"40.264"	"31.063"	"625.91"	"628.402"	"129.182"	"175.55"	"27.521"	"41.061"	"0.676"
"1960"	"0"	"0"	"11.13"	"35.64"	"192.899"	"185.671"	"244.769"	"166.258"	"146.098"	"52.065"	"42.797"	"0"
"1961"	"0"	"0"	"1.117"	"41.226"	"286.96"	"134.184"	"790.896"	"182.275"	"67.763"	"175.85"	"7.515"	"0"
"1962"	"0.002"	"3.517"	"2.323"	"48.163"	"112.208"	"101.778"	"394.257"	"186.77"	"105.04"	"194.717"	"32.46"	"60.231"
"1963"	"0.195"	"1.859"	"14.499"	"79.916"	"117.36"	"129.531"	"224.241"	"330.399"	"57.137"	"212.105"	"1.919"	"0"
"1964"	"0"	"0"	"3.212"	"17.034"	"32.528"	"294.622"	"402.546"	"372.427"	"233.045"	"108.57"	"26.549"	"6.716"
"1965"	"2.045"	"0.289"	"0.059"	"35.098"	"112.096"	"221.107"	"427.08"	"165.367"	"197.742"	"4.811"	"34.085"	"40.906"
"1966"	"6.509"	"0.092"	"0.88"	"7.453"	"160.331"	"177.909"	"487.299"	"44.332"	"224.309"	"164.06"	"213.841"	"33.404"
"1967"	"3.687"	"0"	"1.093"	"67.494"	"74.286"	"272.297"	"506.628"	"173.807"	"92.035"	"143.649"	"2.825"	"8.025"
"1968"	"0"	"6.603"	"1.606"	"56.636"	"69.244"	"406.202"	"267.676"	"88.323"	"145.553"	"180.043"	"39.345"	"1.951"
"1969"	"0"	"0"	"19.083"	"19.236"	"82.623"	"111.256"	"300.748"	"491.776"	"61.445"	"136.157"	"43.456"	"2.025"
"1970"	"0.051"	"0"	"0.373"	"73.253"	"109.357"	"170.877"	"254.531"	"222.721"	"106.509"	"163.848"	"0.471"	"0"
"1971"	"0"	"0"	"0"	"59.814"	"76.887"	"281.22"	"136.191"	"227.023"	"152.833"	"97.211"	"0.471"	"0"
"1972"	"0"	"0.02"	"0.736"	"26.399"	"78.146"	"216.924"	"290.939"	"81.415"	"208.454"	"48.773"	"21.36"	"3.492"
"1973"	"0"	"0"	"0"	"42.552"	"46.574"	"471.05"	"275.738"	"279.89"	"98.565"	"150.804"	"26.387"	"1.326"
"1974"	"0"	"0"	"28.248"	"37.098"	"161.823"	"131.968"	"283.414"	"176.859"	"348.12"	"127.327"	"1.843"	"0"
"1975"	"0.291"	"0.102"	"0.326"	"19.296"	"113.317"	"243.767"	"362.976"	"122.278"	"164.11"	"142.77"	"41.532"	"0.386"
"1976"	"0"	"0"	"0.378"	"62.036"	"3.976"	"231.527"	"253.082"	"171.44"	"71.017"	"35.648"	"88.709"	"0"
"1977"	"0"	"0.146"	"11.898"	"70.74"	"123.428"	"336.005"	"335.159"	"228.232"	"67.835"	"176.805"	"121.41"	"0"
"1978"	"0"	"7.582"	"0"	"49.006"	"112.474"	"224.48"	"237.015"	"290.43"	"162.552"	"84.629"	"93.032"	"16.312"
"1979"	"0"	"3.758"	"2.039"	"12.831"	"117.964"	"293.407"	"185.119"	"199.189"	"240.42"	"56.002"	"158.291"	"0"
"1980"	"0"	"0"	"1.841"	"67.139"	"32.858"	"294.817"	"270.796"	"228.2"	"131.92"	"38.808"	"40.185"	"6.918"
"1981"	"1.318"	"0"	"9.28"	"35.209"	"78.47"	"162.336"	"188.974"	"174.888"	"240.022"	"69.817"	"21.863"	"1.407"
"1982"	"0"	"0"	"0"	"49.767"	"122.834"	"263.681"	"288.865"	"142.351"	"147.21"	"115.276"	"86.394"	"0"
"1983"	"0"	"0"	"0"	"0.4"	"58.66"	"442.575"	"265.22"	"301.586"	"219.044"	"109.181"	"21.031"	"20.832"
"1984"	"0"	"2.041"	"11.83"	"36.522"	"17.78"	"187.568"	"440.963"	"112.664"	"126.832"	"127.939"	"7.218"	"67.316"
"1985"	"0.26"	"0"	"3.99"	"16.653"	"61.734"	"198.574"	"194.523"	"154.6"	"68.05"	"96.731"	"9.324"	"2.789"
"1986"	"2.084"	"1.377"	"0"	"36.099"	"14.67"	"271.134"	"178.999"	"207.303"	"87.505"	"42.857"	"81.786"	"13.972"
"1987"	"0.239"	"0.299"	"7.228"	"15.134"	"89.879"	"167.177"	"174.914"	"122.34"	"163.091"	"109.775"	"34.822"	"44.541"
"1988"	"0"	"1.962"	"0"	"68.909"	"28.522"	"250.061"	"411.94"	"254.431"	"277.924"	"36.427"	"3.348"	"17.014"
"1989"	"0"	"0"	"12.08"	"62.378"	"38.837"	"247.504"	"396.258"	"77.736"	"157.738"	"49.885"	"4.772"	"2.697"
"1990"	"0.103"	"0"	"2.326"	"30.332"	"129.235"	"187.815"	"176.665"	"171.698"	"54.406"	"108.619"	"46.182"	"0.501"
"1991"	"0.001"	"0"	"0"	"90.008"	"86.796"	"292.684"	"317.621"	"194.07"	"174.1"	"116.636"	"23.99"	"0"
"1992"	"0"	"0"	"0"	"22.827"	"76.353"	"370.61"	"236.937"	"208.63"	"245.407"	"142.416"	"134.119"	"0"
"1993"	"0"	"0"	"13.934"	"30.868"	"60.835"	"256.393"	"349.841"	"184.736"	"71.28"	"175.476"	"11.791"	"34.364"
"1994"	"0.623"	"0.343"	"4.567"	"65.768"	"32.646"	"310.687"	"447.9"	"195.025"	"74.083"	"235.796"	"18.103"	"0.776"
"1995"	"3.811"	"0"	"4.495"	"23.747"	"77.85"	"162.203"	"253.49"	"159.646"	"154.382"	"222.366"	"20.626"	"0"
"1996"	"0"	"0.299"	"0"	"48.82"	"31.418"	"330.314"	"215.11"	"197.915"	"177.954"	"177.825"	"28.392"	"1.206"
"1997"	"2.784"	"0"	"8.575"	"50.979"	"25.064"	"310.306"	"242.64"	"294.123"	"49.903"	"142.354"	"73.431"	"56.681"
"1998"	"0"	"0"	"0"	"14.329"	"54.824"	"293.793"	"318.47"	"254.583"	"133.723"	"124.682"	"47.133"	"5.485"
"1999"	"0"	"0.429"	"0"	"13.219"	"107.424"	"255.484"	"322.778"	"100.24"	"56.632"	"245.718"	"9.564"	"0.102"
"2000"	"0"	"1.363"	"0"	"45.234"	"84.819"	"242.16"	"270.034"	"248.927"	"219.906"	"117.298"	"11.935"	"1.448"
"2001"	"0.527"	"0"	"4.881"	"34.401"	"22.555"	"190.141"	"155.896"	"147.881"	"108.97"	"121.899"	"46.638"	"2.339"
"2002"	"0.527"	"0.624"	"1.273"	"23.526"	"69.511"	"333.606"	"82.321"	"198.454"	"25.476"	"185.001"	"4.556"	"0.27"
