
"Year"	"Jan"	"Feb"	"Mar"	"Apr"	"May"	"Jun"	"Jul"	"Aug"	"Sep"	"Oct"	"Nov"	"Dec"
"1901"	"33.025"	"44.381"	"4.769"	"6.3"	"62.5"	"66.493"	"121.451"	"111.607"	"241.548"	"102.106"	"214.996"	"0.345"
"1902"	"11.662"	"0.166"	"4.156"	"19.049"	"51.634"	"130.788"	"197.3"	"262.459"	"185.774"	"69.363"	"3.378"	"21.088"
"1903"	"4.466"	"20.825"	"2.404"	"4.71"	"17.298"	"137.902"	"379.408"	"143.377"	"214.964"	"142.215"	"40.195"	"5.218"
"1904"	"0.192"	"2.266"	"10.339"	"1.021"	"106.939"	"155.808"	"187.335"	"302.063"	"184.183"	"141.319"	"0.55"	"7.287"
"1905"	"4.089"	"27.53"	"31.922"	"116.35"	"116.778"	"57.614"	"229.27"	"225.848"	"377.26"	"51.194"	"1.233"	"0.029"
"1906"	"13.575"	"53.66"	"12.79"	"0.266"	"10.442"	"204"	"222.151"	"167.187"	"153.913"	"125.076"	"33.435"	"1.565"
"1907"	"0.04"	"8.329"	"28.22"	"121.537"	"39.252"	"161.159"	"99.59"	"197.806"	"65.8"	"36.785"	"9.035"	"12.484"
"1908"	"25.425"	"0.412"	"0.637"	"10.56"	"51.3"	"222.87"	"171.438"	"254.087"	"223.742"	"39.326"	"1.802"	"0.026"
"1909"	"0.046"	"32.063"	"0.138"	"74.049"	"14.131"	"133.772"	"162.233"	"184.704"	"163.236"	"26.619"	"0.539"	"11.076"
"1910"	"9.96"	"0.192"	"3.666"	"11.017"	"16.015"	"171.531"	"308.587"	"384.569"	"139.176"	"195.783"	"23.093"	"0.018"
"1911"	"0.007"	"1.274"	"12.233"	"5.426"	"24.107"	"202.763"	"85.828"	"171.114"	"335.433"	"49.4"	"9.73"	"0.1"
"1912"	"0.049"	"24.376"	"16.513"	"16.135"	"24.433"	"93.946"	"176.143"	"232.41"	"203.398"	"105.722"	"155.835"	"0.005"
"1913"	"0.057"	"47.507"	"5.98"	"4.756"	"30.223"	"137.066"	"262.705"	"120.812"	"108.223"	"208.073"	"37.497"	"3.382"
"1914"	"0"	"25.555"	"4.811"	"80.759"	"52.692"	"221.298"	"176.346"	"124.039"	"359.122"	"14.934"	"2.715"	"4.469"
"1915"	"18.557"	"24.873"	"37.08"	"46.985"	"28.635"	"166.105"	"151.716"	"357.001"	"246.556"	"207.91"	"129.05"	"0.05"
"1916"	"0.035"	"13.368"	"0.138"	"5.016"	"13.996"	"262.614"	"174.53"	"196.109"	"133.769"	"286.529"	"139.444"	"0.016"
"1917"	"0"	"67.296"	"11.902"	"14.7"	"60.84"	"218.378"	"118.224"	"328.806"	"143.122"	"345.835"	"34.406"	"5.426"
"1918"	"3.256"	"0.141"	"10.78"	"13.147"	"63.781"	"204.339"	"155.453"	"213.027"	"204.935"	"20.432"	"22.966"	"0.807"
"1919"	"55.095"	"36.736"	"3.132"	"13.044"	"30.331"	"190.054"	"293.81"	"311.552"	"90.337"	"151.781"	"143.828"	"0.292"
"1920"	"2.689"	"14.431"	"35.451"	"0.462"	"29.602"	"109.187"	"167.134"	"232.599"	"146.103"	"152.151"	"7.82"	"0.011"
"1921"	"50.294"	"0.43"	"2.018"	"29.717"	"5.762"	"146.146"	"203.273"	"175.479"	"245.32"	"142.084"	"0.675"	"0.029"
"1922"	"9.777"	"3.442"	"0.138"	"4.155"	"14.401"	"177.487"	"125.354"	"238.479"	"251.289"	"63.489"	"65.389"	"0.021"
"1923"	"0.166"	"86.321"	"4.773"	"20.529"	"11.032"	"67.971"	"145.798"	"157.579"	"229.134"	"176.321"	"113.502"	"4.153"
"1924"	"33.277"	"4.153"	"0.14"	"3.778"	"30.228"	"44.226"	"113.454"	"199.384"	"293.665"	"128.115"	"133.615"	"0.016"
"1925"	"1.887"	"0.177"	"3.296"	"63.8"	"126.621"	"294.841"	"247.008"	"222.574"	"99.856"	"377.965"	"6.083"	"12.861"
"1926"	"17.316"	"2.797"	"48.798"	"40.925"	"30.684"	"102.654"	"191.497"	"218.978"	"287.586"	"101.05"	"0.488"	"0.089"
"1927"	"6.407"	"22.556"	"97.249"	"6.282"	"20.258"	"192.332"	"239.961"	"295.912"	"200.031"	"46.841"	"38.419"	"0.024"
"1928"	"0.053"	"3.481"	"0.429"	"67.992"	"73.258"	"160.433"	"220.376"	"237.439"	"240.679"	"372.069"	"8.422"	"0.011"
"1929"	"0.549"	"33.357"	"7.221"	"34.616"	"44.639"	"166.419"	"103.315"	"336.152"	"99.632"	"306.088"	"7.113"	"6.521"
"1930"	"0.057"	"17.903"	"1.344"	"35.808"	"111.669"	"172.823"	"346.24"	"200.585"	"199.066"	"109.838"	"130.422"	"0.059"
"1931"	"2.135"	"2.752"	"7.249"	"9.711"	"26.574"	"84.873"	"126.099"	"232.17"	"231.225"	"332.848"	"98.838"	"3.069"
"1932"	"0.008"	"22.089"	"1.892"	"78.491"	"51.136"	"41.778"	"154.771"	"204.533"	"180.849"	"78.316"	"204.441"	"0.423"
"1933"	"16.742"	"1.839"	"1.83"	"24.787"	"42.853"	"207.55"	"265.399"	"184.259"	"229.181"	"197.177"	"15.633"	"5.132"
"1934"	"0.007"	"4.609"	"2.7"	"5.951"	"7.294"	"167.132"	"221.51"	"261.865"	"147.602"	"100.819"	"17.823"	"1.981"
"1935"	"6.764"	"3.743"	"2.914"	"31.657"	"7.559"	"115.419"	"139.896"	"131.72"	"135.69"	"101.889"	"2.112"	"0.011"
"1936"	"5.814"	"64.235"	"2.797"	"11.931"	"112.725"	"290.898"	"308.204"	"240.304"	"155.581"	"177.199"	"35.659"	"0.566"
"1937"	"0.046"	"71.573"	"4.193"	"63.584"	"32.538"	"140.554"	"183.545"	"175.912"	"128.113"	"187.118"	"0.522"	"0.087"
"1938"	"4.506"	"21.671"	"1.412"	"0.601"	"138.434"	"167.967"	"93.125"	"162.43"	"401.652"	"151.467"	"42.943"	"0.013"
"1939"	"7.342"	"1.424"	"25.094"	"5.398"	"17.343"	"91.197"	"175.18"	"229.367"	"279.094"	"206.691"	"19.558"	"2.391"
"1940"	"0"	"23.124"	"93.036"	"23.888"	"97.027"	"204.293"	"201.247"	"283.521"	"219.748"	"112.465"	"10.411"	"5.689"
"1941"	"16.704"	"17.602"	"1.23"	"2.446"	"52.424"	"216.49"	"119.691"	"178.552"	"204.843"	"302.137"	"69.059"	"0.029"
"1942"	"0.582"	"14.804"	"3.679"	"53.192"	"10.41"	"85.718"	"194.574"	"243.487"	"226.763"	"131.684"	"86.385"	"1.505"
"1943"	"29.405"	"4.818"	"3.094"	"97.176"	"6.749"	"141.815"	"230.615"	"239.171"	"116.847"	"237.909"	"38.653"	"0.016"
"1944"	"25.601"	"65.076"	"83.232"	"65.771"	"26.454"	"132.452"	"187.476"	"181.137"	"167.662"	"158.924"	"8.134"	"0.026"
"1945"	"5.607"	"0.187"	"1.493"	"120.289"	"26.207"	"58.892"	"257.359"	"111.284"	"237.643"	"273.124"	"11.078"	"12.575"
"1946"	"0.051"	"8.05"	"2.385"	"29.788"	"41.965"	"190.815"	"275.678"	"276.98"	"138.647"	"178.197"	"127.056"	"0.029"
"1947"	"35.385"	"29.898"	"5.471"	"12.26"	"11.204"	"195.703"	"285.648"	"200.827"	"249.119"	"90.192"	"20.558"	"11.872"
"1948"	"12.989"	"55.086"	"14.557"	"91.286"	"22.624"	"100.723"	"158.244"	"211.937"	"217.387"	"71.508"	"133.94"	"2.306"
"1949"	"6.96"	"3.544"	"4.645"	"31.852"	"53.931"	"98.445"	"135.504"	"197.135"	"320.581"	"231.348"	"1.235"	"0.005"
"1950"	"0.007"	"13.151"	"26.771"	"37.651"	"21.867"	"131.476"	"164.835"	"93.543"	"42.739"	"133.174"	"129.249"	"0.023"
"1951"	"0.062"	"0.141"	"14.964"	"57.145"	"24.868"	"138.577"	"320.394"	"271.896"	"245.993"	"57.036"	"105.1"	"0.024"
"1952"	"0.562"	"1.541"	"15.996"	"84.78"	"25.178"	"149.129"	"215.224"	"170.097"	"183.617"	"258.345"	"0.536"	"1.774"
"1953"	"26.043"	"0.471"	"0.138"	"1.007"	"23.541"	"149.086"	"67.212"	"325.268"	"255.951"	"118.011"	"129.407"	"0.008"
"1954"	"0.108"	"14.074"	"0.181"	"0.986"	"35.812"	"194.371"	"37.189"	"67.735"	"279.465"	"191.283"	"0.582"	"11.009"
"1955"	"0.174"	"0.338"	"22.527"	"37.459"	"80.649"	"128.805"	"91.238"	"255.102"	"383.296"	"365.526"	"109.395"	"0.342"
"1956"	"0.606"	"24.728"	"5.26"	"34.269"	"58.806"	"276.853"	"503.526"	"410.846"	"270.391"	"241.3"	"40.448"	"0.013"
"1957"	"6.637"	"9.88"	"15.576"	"9.766"	"8.184"	"120.557"	"203.086"	"305.39"	"128.862"	"113.05"	"8.053"	"0.005"
"1958"	"16.505"	"28.079"	"2.568"	"99.203"	"9.289"	"104.96"	"368.464"	"177.18"	"211.087"	"222.666"	"182.053"	"0.029"
"1959"	"12.856"	"18.265"	"1.074"	"9.661"	"50.779"	"169.728"	"237.671"	"81.638"	"135.449"	"270.365"	"0.501"	"2.742"
"1960"	"0.051"	"0.19"	"8.083"	"1.44"	"30.373"	"139.373"	"349.291"	"209.98"	"124.722"	"109.308"	"1.17"	"4.411"
"1961"	"27.767"	"57.684"	"0.539"	"5.579"	"46.07"	"143.827"	"114.452"	"271.041"	"274.359"	"174.287"	"11.981"	"0.288"
"1962"	"4.106"	"8.158"	"0.548"	"8.619"	"19.291"	"100.104"	"340.68"	"117.916"	"281.703"	"430.266"	"6.62"	"1.561"
"1963"	"0.053"	"0.175"	"4.555"	"124.047"	"63.226"	"122.068"	"144.615"	"146.006"	"182.227"	"361.838"	"11.35"	"0.032"
"1964"	"0.997"	"19.341"	"5.035"	"34.353"	"47.874"	"82.829"	"197.154"	"315.151"	"252.847"	"101.711"	"13.877"	"1.063"
"1965"	"5.947"	"9.141"	"25.441"	"26.399"	"8.931"	"59.473"	"405.592"	"230.13"	"199.752"	"103.5"	"1.634"	"4.879"
"1966"	"66.77"	"10.372"	"0.644"	"0.972"	"14.586"	"149.051"	"109.179"	"157.118"	"197.878"	"129.303"	"171.297"	"1.829"
"1967"	"33.88"	"0.163"	"89.683"	"8.818"	"3.136"	"187.818"	"204.469"	"166.325"	"230.65"	"53.163"	"0.453"	"15.221"
"1968"	"17.198"	"24.207"	"3.465"	"2.183"	"10.965"	"216.011"	"289.712"	"125.757"	"218.451"	"223.325"	"82.722"	"0.03"
"1969"	"0.049"	"0.177"	"24.316"	"14.557"	"51.496"	"74.963"	"285.164"	"124.942"	"180.31"	"67.217"	"113.492"	"2.84"
"1970"	"1.45"	"28.09"	"58.938"	"7.405"	"77.343"	"269.502"	"150.838"	"235.002"	"39.658"	"116.736"	"17.238"	"0.018"
"1971"	"12.923"	"68.724"	"2.509"	"76.733"	"47.013"	"270.242"	"131.075"	"231.127"	"179.854"	"142.548"	"0.458"	"0.011"
"1972"	"0.009"	"17.809"	"0.161"	"20.116"	"3.693"	"59.836"	"128.379"	"200.324"	"248.454"	"155.348"	"35.211"	"0.026"
"1973"	"0"	"0.19"	"8.135"	"11.457"	"48.324"	"68.399"	"176.596"	"257.4"	"102.508"	"191.238"	"29.642"	"18.279"
"1974"	"0.035"	"1.124"	"65.703"	"3.342"	"20.5"	"116.616"	"142.082"	"189.606"	"161.571"	"260.934"	"27.983"	"0.005"
"1975"	"0.382"	"2.688"	"2.472"	"1.234"	"33.316"	"267.879"	"234.564"	"221.194"	"209.476"	"303.428"	"61.463"	"0.018"
"1976"	"0.009"	"2.999"	"2.31"	"88.624"	"41.105"	"72.509"	"322.548"	"276.733"	"181.05"	"88.029"	"126.475"	"0.65"
"1977"	"0.871"	"0.175"	"0.138"	"41.787"	"73.369"	"154.279"	"215.545"	"224.097"	"231.799"	"120.457"	"98.296"	"0.766"
"1978"	"14.769"	"24.084"	"11.076"	"23.439"	"47.138"	"148.717"	"303.067"	"280.739"	"169.169"	"113.424"	"31.948"	"22.067"
"1979"	"4.667"	"33.991"	"1.998"	"22.682"	"35.409"	"122.479"	"149.211"	"105.927"	"175.288"	"52.377"	"43.265"	"6.671"
"1980"	"33.348"	"20.094"	"15.02"	"6.121"	"28.275"	"245.663"	"242.524"	"246.323"	"214.022"	"137.824"	"17.958"	"8.641"
"1981"	"11.258"	"8.211"	"49.145"	"20.282"	"31.868"	"104.914"	"166.626"	"264.137"	"343.876"	"33.461"	"2.76"	"1.641"
"1982"	"0.298"	"4.125"	"9.076"	"50.218"	"13.599"	"90.039"	"264.148"	"191.256"	"164.098"	"193.071"	"27.975"	"0.039"
"1983"	"0.831"	"53.17"	"12.848"	"5.305"	"35.722"	"160.458"	"162.219"	"248.974"	"120.961"	"187.994"	"7.777"	"3.607"
"1984"	"11.626"	"25.712"	"0.717"	"12.366"	"57.708"	"256.548"	"199.59"	"232.794"	"100.761"	"56.023"	"6.551"	"1.559"
"1985"	"27.14"	"1.257"	"1.321"	"8.138"	"16.293"	"204.248"	"232.369"	"187.863"	"152.7"	"274.381"	"16.199"	"0.507"
"1986"	"24.77"	"21.798"	"2.625"	"23.331"	"31.549"	"135.433"	"188.029"	"331.051"	"294.917"	"104.666"	"173.82"	"5.877"
"1987"	"5.637"	"0.199"	"40.569"	"23.631"	"44.519"	"57.183"	"154.707"	"234.137"	"79.883"	"138.671"	"139.492"	"2.959"
"1988"	"0"	"13.281"	"2.597"	"24.509"	"59.458"	"49.757"	"295.801"	"215.778"	"295.727"	"119.717"	"7.489"	"0.302"
"1989"	"0.049"	"0.138"	"33.103"	"2.784"	"97.849"	"178.371"	"323.615"	"201.47"	"145.896"	"124.084"	"0.563"	"0.032"
"1990"	"0.548"	"65.922"	"64.325"	"20.012"	"91.653"	"150.644"	"274.539"	"310.426"	"152.458"	"247.725"	"55.802"	"7.037"
"1991"	"15.615"	"2.275"	"12.142"	"7.194"	"20.725"	"188.203"	"214.922"	"183.911"	"208.955"	"184.192"	"42.778"	"9.073"
"1992"	"9.48"	"4.555"	"0.138"	"3.294"	"129.205"	"135.916"	"272.6"	"215.852"	"202.662"	"107.475"	"92.515"	"0.005"
"1993"	"3.027"	"0.201"	"17.32"	"33.662"	"40.421"	"224.123"	"190.345"	"192.416"	"192.243"	"297.365"	"18.07"	"0.005"
"1994"	"1.075"	"13.273"	"30.462"	"22.797"	"28.375"	"111.326"	"300.231"	"212.721"	"203.024"	"250.65"	"36.174"	"0.005"
"1995"	"18.413"	"5.964"	"24.961"	"14.563"	"46.674"	"95.886"	"243.801"	"141.035"	"177.24"	"364.159"	"68.291"	"0.005"
"1996"	"4.165"	"3.992"	"5.057"	"32.654"	"25.986"	"200.33"	"119.092"	"235.502"	"100.755"	"205.512"	"23.815"	"3.329"
"1997"	"18.617"	"5.646"	"54.893"	"42.895"	"8.324"	"120.34"	"269.039"	"190.637"	"242.879"	"67.671"	"68.976"	"13.31"
"1998"	"24.414"	"71.329"	"5.949"	"22.678"	"33.847"	"165.15"	"239.433"	"166.498"	"272.836"	"310.744"	"131.929"	"0.005"
"1999"	"0.313"	"0.138"	"0.138"	"0.263"	"96.325"	"170.21"	"115.707"	"321.657"	"132.317"	"155.78"	"26.758"	"0.5"
"2000"	"0.246"	"56.627"	"0.138"	"21.844"	"48.858"	"278.626"	"145.325"	"232.054"	"93.534"	"93.967"	"16.134"	"0.285"
"2001"	"0.146"	"1.257"	"13.953"	"19.661"	"56.657"	"270.41"	"149.118"	"256.513"	"157.372"	"176.692"	"80.577"	"1.051"
"2002"	"37.823"	"4.233"	"2.608"	"56.603"	"60.248"	"151.996"	"164.866"	"272.031"	"133.395"	"49.424"	"43.622"	"0.005"
