
"Year"	"Jan"	"Feb"	"Mar"	"Apr"	"May"	"Jun"	"Jul"	"Aug"	"Sep"	"Oct"	"Nov"	"Dec"
"1901"	"49.451"	"17.248"	"15.815"	"2.481"	"40.062"	"36.412"	"350.03"	"478.17"	"122.664"	"2.384"	"0"	"10.904"
"1902"	"0.332"	"4.763"	"7.134"	"22.465"	"21.353"	"69.296"	"346.333"	"258.498"	"135.662"	"18.977"	"0.383"	"0.039"
"1903"	"27.882"	"6.258"	"23.73"	"5.11"	"15.012"	"39.708"	"212.338"	"258.555"	"81.008"	"58.918"	"0"	"2.369"
"1904"	"15.856"	"2.115"	"30.858"	"3.823"	"28.323"	"118.511"	"238.468"	"423.207"	"192.304"	"8.293"	"13.804"	"11.701"
"1905"	"91.148"	"51.012"	"13.081"	"9.631"	"21.246"	"34.458"	"185.001"	"222.456"	"143.198"	"2.176"	"0.015"	"11.658"
"1906"	"18.756"	"77.971"	"13.697"	"4.951"	"12.368"	"130.4"	"176.624"	"388.423"	"216.962"	"6.448"	"0"	"2.526"
"1907"	"15.842"	"40.845"	"51.709"	"32.454"	"18.185"	"74.135"	"307.314"	"202.111"	"10.506"	"1.275"	"0"	"0.023"
"1908"	"38.304"	"25.362"	"2.513"	"6.112"	"21.674"	"67.698"	"223.299"	"379.746"	"97.581"	"1.022"	"0.661"	"2.022"
"1909"	"36.938"	"14.771"	"1.026"	"38.085"	"9.524"	"287.06"	"482.38"	"307.598"	"114.536"	"4.735"	"0.389"	"37.545"
"1910"	"19.205"	"16.941"	"2.531"	"7.56"	"31.875"	"207.705"	"378.109"	"317.388"	"178.457"	"15.155"	"1.262"	"3.476"
"1911"	"67.204"	"1.664"	"66.652"	"12.18"	"3.133"	"121.87"	"84.777"	"294.751"	"214.676"	"10.205"	"27.907"	"0.34"
"1912"	"32.76"	"15.929"	"12.751"	"21.709"	"29.126"	"85.129"	"238.15"	"307.832"	"221.302"	"1.849"	"20.22"	"6.501"
"1913"	"6.452"	"39.317"	"28.4"	"8.225"	"52.782"	"253.023"	"187.138"	"210.903"	"27.562"	"3.762"	"6.213"	"21.251"
"1914"	"4.807"	"45.658"	"38.551"	"21.881"	"23.829"	"119.703"	"412.372"	"254.689"	"431.937"	"23.219"	"8.487"	"2.415"
"1915"	"10.079"	"61.633"	"30.939"	"14.797"	"19.277"	"101.351"	"199.618"	"576.564"	"114.847"	"15.587"	"0.015"	"5.91"
"1916"	"0.689"	"12.35"	"0.782"	"8.589"	"37.767"	"240.21"	"462.122"	"248.19"	"202.306"	"35.096"	"0"	"0.031"
"1917"	"9.691"	"27.86"	"28.622"	"31.817"	"69.51"	"224.887"	"297.252"	"317.767"	"295.034"	"63.952"	"0.015"	"9.502"
"1918"	"5.096"	"0.424"	"16.788"	"30.343"	"10.295"	"138.134"	"93.826"	"180.546"	"28.881"	"3.5"	"17.647"	"4.575"
"1919"	"77.877"	"13.36"	"14.602"	"29.429"	"27.932"	"94.25"	"287.617"	"250.377"	"146.369"	"17.288"	"2.024"	"4.579"
"1920"	"8.973"	"15.356"	"26.873"	"3.817"	"40.708"	"243.751"	"280.793"	"162.085"	"48.56"	"3.771"	"0"	"1.094"
"1921"	"44.52"	"3.356"	"3.038"	"2.536"	"6.122"	"59.425"	"276.753"	"425.348"	"161.788"	"54.355"	"0"	"3.262"
"1922"	"36.327"	"20.507"	"1.491"	"5.881"	"6.234"	"68.225"	"371.368"	"474.769"	"257.226"	"21.832"	"3.733"	"43.808"
"1923"	"16.371"	"57.677"	"1.56"	"4.105"	"21.973"	"36.061"	"254.501"	"272.677"	"199"	"61.79"	"14.912"	"20.531"
"1924"	"23.506"	"32.192"	"8.446"	"5.152"	"26.504"	"35.84"	"270.543"	"277.457"	"406.557"	"75.877"	"1.937"	"27.639"
"1925"	"23.042"	"1.604"	"5.002"	"9.716"	"31.341"	"286.414"	"391.59"	"397.432"	"69.882"	"5.862"	"12.353"	"0.023"
"1926"	"11.583"	"8.324"	"48.422"	"26.388"	"26.434"	"23.172"	"342.431"	"380.572"	"70.291"	"7.11"	"8.831"	"4.811"
"1927"	"2.251"	"37.552"	"8.381"	"9.041"	"55.302"	"52.794"	"158.584"	"516.022"	"84.858"	"103.546"	"0.715"	"7.668"
"1928"	"42.947"	"63.766"	"12.242"	"22.707"	"5.192"	"74.742"	"294.814"	"166.761"	"68.203"	"1.859"	"11.317"	"24.02"
"1929"	"60.304"	"2.582"	"8.538"	"15.75"	"12.09"	"164.786"	"192.898"	"393.078"	"48.271"	"39.06"	"0"	"47.355"
"1930"	"24.771"	"16.548"	"9.479"	"13.73"	"14.685"	"98.479"	"326.388"	"270.095"	"62.291"	"32.394"	"10.551"	"15.113"
"1931"	"9.127"	"42.61"	"16.019"	"3.688"	"22.986"	"31.59"	"328.718"	"246.688"	"331.137"	"97.812"	"1.262"	"0.031"
"1932"	"4.348"	"7.349"	"17.663"	"4.731"	"15.971"	"74.542"	"178.718"	"254.919"	"275.107"	"7.629"	"0.661"	"17.656"
"1933"	"21.215"	"36.329"	"8.351"	"18.898"	"44.909"	"156.965"	"351.053"	"355.521"	"192.266"	"105.367"	"1.123"	"0.51"
"1934"	"25.605"	"3.651"	"16.553"	"1.578"	"14.639"	"101.161"	"259.168"	"498.117"	"71.178"	"0.241"	"0"	"21.415"
"1935"	"55.867"	"23.101"	"9.482"	"21.813"	"5.056"	"15.863"	"285.731"	"191.708"	"124.783"	"0.752"	"10.158"	"15.87"
"1936"	"4.05"	"29.242"	"24.519"	"19.83"	"31.996"	"424.948"	"644.596"	"417.134"	"177.142"	"14.108"	"3.184"	"46.435"
"1937"	"3.602"	"70.662"	"1.654"	"29.111"	"26.372"	"112.388"	"367.631"	"186.323"	"177.109"	"19.696"	"0.715"	"18.393"
"1938"	"55.819"	"27.567"	"2.162"	"3.226"	"5.071"	"254.186"	"312.444"	"319.72"	"50.758"	"13.971"	"1.288"	"0.329"
"1939"	"15.121"	"29.468"	"16.828"	"15.111"	"8.718"	"147.056"	"210.916"	"172.188"	"75.658"	"26.306"	"0.015"	"0.031"
"1940"	"31.387"	"60.568"	"24.424"	"13.316"	"17.432"	"91.622"	"242.317"	"276.013"	"54.367"	"4.418"	"0.11"	"11.802"
"1941"	"28.011"	"14.482"	"5.211"	"1.65"	"35.557"	"91.446"	"107.407"	"210.4"	"159.086"	"7.089"	"1.409"	"14.816"
"1942"	"47.313"	"37.087"	"6.164"	"21.607"	"22.845"	"125.525"	"501.335"	"229.773"	"131.984"	"1.397"	"0.152"	"28.314"
"1943"	"26.478"	"4.89"	"11.24"	"30.834"	"5.748"	"158.767"	"149.109"	"439.686"	"71.455"	"0.218"	"0"	"0"
"1944"	"32.718"	"26.038"	"19.98"	"17.096"	"1.403"	"162.996"	"215.604"	"148.307"	"106.991"	"6.691"	"1.074"	"2.333"
"1945"	"29.049"	"0.506"	"11.886"	"25.864"	"10.259"	"59.922"	"403.292"	"210.987"	"338.426"	"60.041"	"0"	"0.543"
"1946"	"1.199"	"20.19"	"6.335"	"26.53"	"48.722"	"113.789"	"318.848"	"182.027"	"48.277"	"32.55"	"11.356"	"13.92"
"1947"	"19.888"	"27.359"	"28.86"	"1.864"	"12.794"	"49.446"	"241.675"	"358.493"	"199.726"	"9.439"	"1.257"	"6.182"
"1948"	"4.734"	"32.063"	"44.446"	"4.402"	"13.469"	"51.048"	"251.367"	"528.205"	"108.601"	"25.767"	"0.504"	"5.453"
"1949"	"3.481"	"42.55"	"9.616"	"20.084"	"23.503"	"62.037"	"480.508"	"257.417"	"210.718"	"33.256"	"0.676"	"1.975"
"1950"	"45.076"	"20.921"	"30.857"	"2.054"	"21.97"	"186.295"	"386.86"	"303.878"	"197.762"	"0.879"	"0.803"	"1.478"
"1951"	"22.729"	"20.967"	"22.316"	"13.655"	"23.746"	"84.444"	"141.258"	"262.876"	"153.709"	"17.537"	"21.485"	"0.33"
"1952"	"16.123"	"22.248"	"28.21"	"10.662"	"39.306"	"126.233"	"179.045"	"338.143"	"31.35"	"1.375"	"9.386"	"1.527"
"1953"	"52.986"	"3.658"	"5.486"	"11.477"	"6.185"	"88.555"	"469.427"	"290.324"	"94.393"	"3.419"	"0.643"	"2.979"
"1954"	"39.724"	"70.03"	"9.369"	"0.985"	"5.495"	"57.451"	"369.413"	"250.121"	"194.672"	"46.791"	"0"	"1.746"
"1955"	"34.864"	"3.115"	"18.305"	"20.896"	"13.87"	"98.01"	"305.569"	"307.459"	"208.048"	"93.844"	"0"	"1.463"
"1956"	"17.595"	"9.628"	"20.229"	"3.82"	"58.402"	"117.782"	"288.991"	"222.368"	"70.685"	"91.757"	"0.027"	"8.077"
"1957"	"68.816"	"2.004"	"25.79"	"20.812"	"17.448"	"80.446"	"234.935"	"277.006"	"239.053"	"19.841"	"5.537"	"36.797"
"1958"	"17.638"	"9.579"	"13.876"	"11.829"	"5.254"	"94.466"	"262.079"	"404.511"	"215.897"	"96.645"	"2.54"	"25.139"
"1959"	"26.996"	"17.383"	"15.302"	"11.118"	"44.084"	"38.965"	"429.144"	"238.114"	"103.055"	"46.764"	"15.718"	"0.212"
"1960"	"28.642"	"0.678"	"23.23"	"11.703"	"9.295"	"72.696"	"276.272"	"280.483"	"139.389"	"85.509"	"0.015"	"3.516"
"1961"	"65.474"	"47.034"	"2.741"	"12.368"	"19.312"	"95.379"	"361.795"	"376.063"	"142.668"	"80.104"	"0.343"	"21.078"
"1962"	"43.951"	"21.84"	"25.104"	"6.985"	"21.235"	"114.64"	"264.638"	"276.568"	"272.495"	"1.065"	"6.565"	"12.192"
"1963"	"11.021"	"13.161"	"45.556"	"16.441"	"34.973"	"103.244"	"202.147"	"315.337"	"248.808"	"11.817"	"10.94"	"12.458"
"1964"	"14.001"	"5.437"	"16.234"	"6.608"	"41.378"	"56.722"	"482.014"	"170.672"	"194.316"	"0.218"	"0.387"	"13.418"
"1965"	"11.184"	"36.397"	"20.808"	"23.04"	"16.146"	"25.597"	"228.382"	"253.312"	"41.731"	"20.185"	"1.883"	"0"
"1966"	"7.433"	"33.74"	"8.905"	"4.768"	"31.332"	"128.728"	"322.637"	"432.223"	"150.246"	"27.603"	"8.52"	"3.725"
"1967"	"1.119"	"10.075"	"53.852"	"4.841"	"3.36"	"67.676"	"260.97"	"510.364"	"83.133"	"6.553"	"2.865"	"31.919"
"1968"	"57.515"	"29.128"	"12.608"	"9.658"	"4.442"	"128.896"	"227.618"	"216.601"	"69.916"	"17.554"	"0"	"4.873"
"1969"	"24.096"	"10.07"	"17.696"	"27.763"	"28.321"	"58.612"	"294.044"	"328.12"	"385.479"	"4.715"	"1.155"	"0"
"1970"	"33.36"	"11.869"	"9.221"	"0.724"	"50.402"	"126.141"	"171.075"	"302.666"	"76.768"	"33.862"	"0"	"0.015"
"1971"	"18.379"	"19.854"	"14.398"	"16.525"	"64.011"	"167.018"	"374.799"	"387.42"	"210.722"	"92.629"	"10.316"	"0.289"
"1972"	"9.936"	"28.44"	"7.744"	"17.551"	"4.09"	"62.721"	"341.316"	"248.85"	"292.965"	"33.012"	"5.139"	"3.369"
"1973"	"26.252"	"17.99"	"20.317"	"0.247"	"24.854"	"203.743"	"168.685"	"368.372"	"115.729"	"65.281"	"0"	"3.587"
"1974"	"13.915"	"12.747"	"5.327"	"2.087"	"20.667"	"79.932"	"254.639"	"169.995"	"33.841"	"8.979"	"0"	"20.908"
"1975"	"56.095"	"24.223"	"22.8"	"1.298"	"6.02"	"125.94"	"380.572"	"295.883"	"262.58"	"15.725"	"0"	"0"
"1976"	"4.63"	"46.18"	"11.512"	"19.931"	"18.865"	"132.018"	"232.587"	"612.684"	"94.877"	"12.212"	"0"	"0.716"
"1977"	"30.029"	"3.059"	"1.732"	"29.156"	"65.307"	"155.032"	"317.59"	"196.419"	"116.483"	"21.9"	"0.074"	"14.937"
"1978"	"5.914"	"11.415"	"47.503"	"9.433"	"4.03"	"126.093"	"242.84"	"410.748"	"208.885"	"7.041"	"4.98"	"6.359"
"1979"	"20.868"	"37.335"	"28.249"	"10.383"	"42.792"	"65.162"	"203.996"	"172.108"	"49.096"	"5.173"	"14.497"	"6.133"
"1980"	"9.028"	"18.504"	"34.637"	"5.247"	"8.792"	"189.424"	"622.225"	"427.776"	"267.382"	"29.736"	"2.339"	"6.265"
"1981"	"49.433"	"14.956"	"48.156"	"3.811"	"32.877"	"88.297"	"491.777"	"131.96"	"68.769"	"4.783"	"25.125"	"2.276"
"1982"	"28.718"	"7.994"	"74.829"	"25.692"	"47.07"	"36.258"	"178.153"	"434.488"	"53.59"	"11.781"	"4.902"	"15.408"
"1983"	"59.798"	"13.957"	"25.211"	"55.664"	"56.14"	"153.646"	"264.14"	"201.037"	"314.822"	"37.749"	"0"	"8.154"
"1984"	"9.098"	"76.474"	"6.473"	"20.601"	"0.935"	"136.791"	"281.502"	"226.406"	"88.93"	"1.63"	"0"	"10.107"
"1985"	"21.439"	"1.566"	"2.812"	"19.266"	"33.557"	"132.371"	"344.631"	"318.038"	"162.626"	"76.173"	"0.254"	"35.605"
"1986"	"4.869"	"29.427"	"13.453"	"21.866"	"56.205"	"81.157"	"412.003"	"221.125"	"170.063"	"20.578"	"6.996"	"47.565"
"1987"	"21.22"	"27.621"	"8.648"	"8.799"	"54.536"	"16.489"	"59.742"	"214.982"	"57.575"	"2.821"	"0"	"8.671"
"1988"	"7.096"	"26.927"	"22.208"	"19.944"	"16.331"	"103.168"	"455.713"	"384.261"	"132.107"	"1.232"	"0.575"	"18.195"
"1989"	"55.209"	"10.455"	"19.005"	"1.332"	"19.373"	"124.673"	"277.72"	"243.871"	"108.554"	"5.467"	"4.37"	"6.957"
"1990"	"1.217"	"54.534"	"35.542"	"9.265"	"51.155"	"84.008"	"390.682"	"348.614"	"154.041"	"14.762"	"10.094"	"40.928"
"1991"	"2.78"	"24.817"	"19.484"	"26.492"	"47.667"	"66.246"	"60.196"	"337.879"	"76.009"	"0.287"	"7.146"	"8.702"
"1992"	"29.113"	"45.744"	"13.68"	"8.153"	"28.469"	"79.498"	"201.89"	"284.333"	"88.462"	"14.777"	"25.275"	"0.014"
"1993"	"18.085"	"15.84"	"17.217"	"7.782"	"32.56"	"250.953"	"301.153"	"116.19"	"249.836"	"0.218"	"0"	"0"
"1994"	"7.069"	"3.176"	"22.201"	"10.419"	"42.023"	"66.607"	"324.76"	"329.349"	"85.21"	"1.356"	"0"	"1.849"
"1995"	"37.054"	"48.385"	"56.064"	"12.131"	"3.305"	"87.371"	"242.194"	"444.133"	"233.123"	"1.654"	"13.818"	"0.438"
"1996"	"45.679"	"35.798"	"13.948"	"10.636"	"40.592"	"189.901"	"231.533"	"345.793"	"294.908"	"27.463"	"0"	"0.579"
"1997"	"19.405"	"7.046"	"14.401"	"7.466"	"36.154"	"195.39"	"137.889"	"228.983"	"66.868"	"35.621"	"12.404"	"8.418"
"1998"	"9.248"	"27.43"	"39.878"	"28.422"	"16.137"	"17.176"	"307.562"	"393.501"	"92.302"	"42.434"	"4.899"	"0.574"
"1999"	"11.725"	"7.511"	"1.527"	"1.963"	"23.558"	"121.616"	"114.694"	"124.599"	"156.43"	"24.521"	"0.323"	"7.577"
"2000"	"13.334"	"46.902"	"10.382"	"4.326"	"34.855"	"185.572"	"209.25"	"262.215"	"79.758"	"0.218"	"0.444"	"1.385"
"2001"	"8.61"	"10.554"	"5.284"	"23.504"	"60.834"	"89.955"	"216.946"	"81.612"	"49.369"	"2.337"	"0.292"	"2.972"
"2002"	"26.824"	"41.741"	"40.468"	"11.068"	"6.262"	"48.714"	"127.302"	"183.1"	"263.744"	"3.462"	"0.414"	"1.39"
