
"Year"	"Jan"	"Feb"	"Mar"	"Apr"	"May"	"Jun"	"Jul"	"Aug"	"Sep"	"Oct"	"Nov"	"Dec"
"1901"	"24.028"	"11.013"	"7.352"	"0.011"	"10.1"	"26.387"	"155.742"	"225.998"	"3.932"	"0.581"	"0"	"3.25"
"1902"	"0.177"	"0.019"	"1.261"	"3.89"	"6.145"	"101.315"	"259.579"	"153.277"	"80.63"	"0.86"	"0"	"0"
"1903"	"2.29"	"0.658"	"3.939"	"0.023"	"4.063"	"2.394"	"130.298"	"120.015"	"52.321"	"14.108"	"0"	"0.015"
"1904"	"3.783"	"0.055"	"16.427"	"0.015"	"17.862"	"42.813"	"201.301"	"231.294"	"177.093"	"0.121"	"23.112"	"15.103"
"1905"	"24.973"	"14.701"	"5.61"	"1.259"	"1.102"	"18.287"	"125.596"	"4.134"	"71.416"	"0.011"	"0"	"0.519"
"1906"	"0.253"	"35.405"	"15.312"	"0.019"	"1.046"	"115.127"	"163.951"	"89.573"	"236.15"	"0.027"	"0"	"7.776"
"1907"	"11.848"	"38.546"	"6.638"	"34.69"	"4.414"	"5.018"	"37.302"	"211.962"	"1.096"	"0"	"0"	"0"
"1908"	"26.891"	"8.198"	"0.008"	"2.796"	"8.776"	"9.772"	"370.495"	"509.209"	"17.693"	"1.18"	"0.047"	"0.469"
"1909"	"10.805"	"11.363"	"0"	"27.275"	"28.69"	"137.147"	"289.309"	"91.16"	"132.027"	"0.815"	"0"	"22.034"
"1910"	"14.178"	"8.275"	"0.939"	"2.262"	"0.667"	"20.945"	"168.669"	"154.527"	"172.57"	"9.526"	"0.019"	"0.015"
"1911"	"36.222"	"0"	"14.09"	"0.053"	"0.212"	"58.603"	"34.721"	"40.354"	"258.606"	"16.088"	"55.723"	"2.723"
"1912"	"29.956"	"13.536"	"4.517"	"17.75"	"8.037"	"23.815"	"172.666"	"228.737"	"229.591"	"0.195"	"1.999"	"1.342"
"1913"	"1.139"	"36.855"	"5.087"	"1.934"	"19.54"	"103.736"	"89.378"	"62.3"	"17.22"	"0.015"	"0.095"	"6.633"
"1914"	"0.015"	"4.633"	"0.321"	"16.165"	"17.856"	"31.554"	"292.241"	"89.413"	"277.043"	"10.48"	"12.312"	"0.015"
"1915"	"19.464"	"26.808"	"42.404"	"21.83"	"1.506"	"28.701"	"88.23"	"98.337"	"103.209"	"4.245"	"0"	"0.235"
"1916"	"0"	"25.843"	"0"	"2.807"	"1.208"	"46.984"	"165.82"	"326.968"	"122.486"	"9.154"	"0"	"0"
"1917"	"5.88"	"8.878"	"8.588"	"15.025"	"19.015"	"78.049"	"284.759"	"153.239"	"209.048"	"31.354"	"0"	"3.311"
"1918"	"9.448"	"0"	"5.991"	"3.647"	"2.292"	"21.498"	"34.065"	"197.988"	"17.758"	"0.015"	"0.265"	"0.019"
"1919"	"38.831"	"1.068"	"3.357"	"4.095"	"4.484"	"4.347"	"136.538"	"251.772"	"26.482"	"0.068"	"3.264"	"8.279"
"1920"	"7.288"	"11.08"	"11.989"	"0.311"	"10.099"	"85.105"	"282.574"	"109.051"	"17.265"	"0.419"	"0"	"0"
"1921"	"25.244"	"0.015"	"0.011"	"2.491"	"0.204"	"18.823"	"67.785"	"286.042"	"198.758"	"8.406"	"0"	"0.011"
"1922"	"14.573"	"0.399"	"0.177"	"0.658"	"0.212"	"49.021"	"130.713"	"191.835"	"171.752"	"2.663"	"0.057"	"22.851"
"1923"	"3.969"	"41.26"	"0.343"	"0.023"	"5.118"	"1.137"	"205.388"	"318.047"	"69.264"	"5.403"	"0.223"	"7.491"
"1924"	"28.714"	"16.942"	"1.065"	"0.023"	"8.396"	"22.234"	"88.58"	"272.424"	"273.82"	"26.243"	"2.931"	"12.357"
"1925"	"3.932"	"0"	"0.019"	"0.042"	"20.122"	"90.527"	"315.863"	"111.931"	"5.263"	"0.807"	"41.981"	"0"
"1926"	"7.425"	"1.849"	"32.205"	"12.055"	"16.43"	"7.165"	"263.313"	"267.485"	"58.272"	"0.03"	"3.714"	"0.227"
"1927"	"0.008"	"20.443"	"11.172"	"3.379"	"13.87"	"14.477"	"187.801"	"218.999"	"20.867"	"23.494"	"6.731"	"15.768"
"1928"	"14.811"	"36.553"	"5.63"	"10.128"	"4.427"	"36.216"	"85.905"	"21.239"	"33.607"	"19.477"	"22.852"	"18.026"
"1929"	"2.753"	"0.188"	"0.03"	"14.92"	"0.265"	"21.505"	"101.772"	"87.509"	"4.907"	"1.589"	"0"	"18.075"
"1930"	"29.777"	"18.231"	"0.034"	"0.288"	"6.545"	"77.692"	"343.443"	"77.671"	"37.609"	"14.513"	"0.89"	"0.894"
"1931"	"2.361"	"14.884"	"3.583"	"4.199"	"4.107"	"5.68"	"219.926"	"122.526"	"147.798"	"37.533"	"0.019"	"0"
"1932"	"0.019"	"0.849"	"11.409"	"6.564"	"3.226"	"9.944"	"83.938"	"131.145"	"254.618"	"0.03"	"0.008"	"0.098"
"1933"	"0.89"	"11.404"	"2.793"	"2.836"	"35.525"	"201.945"	"123.736"	"471.754"	"275.453"	"20.551"	"0.015"	"0.008"
"1934"	"20.127"	"0.011"	"29.461"	"0.008"	"1.93"	"59.313"	"266.792"	"237.242"	"15.248"	"0"	"0"	"15.285"
"1935"	"23.286"	"24.139"	"3.007"	"10.88"	"0.319"	"45.862"	"199.083"	"121.333"	"179.622"	"3.62"	"5.542"	"5.856"
"1936"	"1.612"	"13.756"	"10.297"	"0.118"	"2.102"	"227.557"	"176.952"	"214.82"	"137.606"	"0.564"	"8.194"	"33.207"
"1937"	"0.011"	"54.726"	"0.385"	"13.142"	"4.994"	"35.48"	"162.873"	"35.855"	"136.117"	"0.095"	"1.392"	"9.518"
"1938"	"34.853"	"1.737"	"6.254"	"1.388"	"1.469"	"32.979"	"160.204"	"50.807"	"27.249"	"1.91"	"0.019"	"0"
"1939"	"3.872"	"22.124"	"4.766"	"0.08"	"0.341"	"80.976"	"123.01"	"98.293"	"87.878"	"0.102"	"0"	"0"
"1940"	"28.225"	"31.093"	"2.521"	"2.683"	"3.202"	"14.468"	"180.902"	"216.684"	"12.249"	"0.07"	"1.035"	"1.28"
"1941"	"35.912"	"3.803"	"2.01"	"0"	"14.53"	"49.911"	"40.097"	"114.708"	"39.78"	"0.069"	"0.019"	"5.084"
"1942"	"12.52"	"12.598"	"0.341"	"9.095"	"4.428"	"27.019"	"388.341"	"192.652"	"167.878"	"0"	"0"	"6.378"
"1943"	"10.862"	"0.019"	"0.484"	"18.073"	"8.141"	"41.846"	"147.206"	"143.364"	"121.367"	"0"	"0"	"0"
"1944"	"22.916"	"36.856"	"36.355"	"44.045"	"0.201"	"48.056"	"314.045"	"73.783"	"150.424"	"34.636"	"0.008"	"0.015"
"1945"	"17.344"	"0"	"0.038"	"5.201"	"12.486"	"24.119"	"141.875"	"334.987"	"159.729"	"4.711"	"0"	"0"
"1946"	"0"	"6.89"	"0.023"	"0.294"	"11.528"	"90.613"	"209.934"	"216.046"	"43.533"	"2.69"	"0.17"	"2.653"
"1947"	"7.217"	"6.374"	"6.467"	"0.688"	"3.292"	"8.365"	"136.538"	"94.729"	"276.497"	"25.909"	"0.019"	"5.037"
"1948"	"40.14"	"23.082"	"8.562"	"0.461"	"4.953"	"7.807"	"214.938"	"325.369"	"197.289"	"9.37"	"1.673"	"0.034"
"1949"	"1.417"	"15.796"	"2.887"	"0.288"	"6.438"	"3.529"	"427.988"	"159.914"	"139.381"	"1.191"	"0.008"	"0.011"
"1950"	"7.077"	"1.51"	"8.264"	"0.008"	"13.41"	"12.285"	"383.579"	"195.49"	"154.056"	"0"	"0.008"	"0.466"
"1951"	"13.978"	"0.684"	"27.222"	"15.923"	"2.336"	"19.142"	"117.519"	"119.112"	"117.158"	"4.332"	"29.666"	"0"
"1952"	"4.606"	"13.243"	"21.392"	"5.618"	"15.999"	"32.141"	"82.054"	"373.369"	"1.574"	"0"	"0.14"	"10.306"
"1953"	"48.01"	"0.008"	"0.011"	"2.583"	"1.627"	"26.582"	"221.265"	"235.609"	"51.767"	"0.999"	"0.008"	"0.011"
"1954"	"18.589"	"43.728"	"6.644"	"0"	"0.546"	"14.224"	"233.311"	"63.269"	"71.268"	"30.545"	"0.148"	"0.008"
"1955"	"25.063"	"0.62"	"4.372"	"13.231"	"4.039"	"58.61"	"150.28"	"262.642"	"200.74"	"56.769"	"0"	"0.117"
"1956"	"17.799"	"1.089"	"14.505"	"1.911"	"0.485"	"31.7"	"311.52"	"206.526"	"20.094"	"60.053"	"1.381"	"5.442"
"1957"	"32.316"	"0"	"23.816"	"4.171"	"7.542"	"32.638"	"285.559"	"108.979"	"188.667"	"22.034"	"15.724"	"9.158"
"1958"	"13.835"	"2.188"	"7.66"	"0.658"	"4.162"	"4.902"	"416.846"	"249.548"	"251.753"	"5.332"	"3.411"	"3.73"
"1959"	"24.633"	"0.695"	"1.299"	"0.061"	"26.106"	"21.502"	"147.893"	"208.8"	"86.378"	"0.197"	"6.327"	"0"
"1960"	"6.178"	"0"	"19.347"	"4.46"	"4.531"	"22.76"	"221.937"	"370.027"	"26.204"	"57.108"	"0"	"2.672"
"1961"	"13.818"	"32.389"	"0"	"2.912"	"14.711"	"56.167"	"178.959"	"562.702"	"60.476"	"48"	"2.762"	"3.952"
"1962"	"23.567"	"7.483"	"6.038"	"0.05"	"0.633"	"19.062"	"204.048"	"116.8"	"160.901"	"0"	"2.953"	"10.686"
"1963"	"3.864"	"6.98"	"2.924"	"3.825"	"10.413"	"73.47"	"70.846"	"275.478"	"260.058"	"0.131"	"4.076"	"15.144"
"1964"	"0.053"	"0.627"	"0.484"	"3.137"	"13.008"	"16.06"	"494.193"	"396.305"	"185.777"	"0.055"	"0"	"8.33"
"1965"	"4.754"	"7.34"	"0.953"	"11.638"	"3.995"	"3.057"	"199.67"	"166.157"	"157.24"	"5.576"	"0.027"	"0"
"1966"	"1.545"	"15.311"	"0.435"	"0.616"	"42.514"	"108.078"	"102.392"	"242.217"	"49.466"	"15.265"	"11.607"	"0.023"
"1967"	"0"	"1.154"	"26.203"	"0.627"	"0.562"	"21.064"	"216.673"	"522.928"	"117.371"	"12.954"	"12.831"	"38.728"
"1968"	"14.109"	"6.186"	"5.351"	"0.65"	"3.686"	"18.575"	"280.937"	"221.542"	"10.272"	"5.551"	"0"	"0.027"
"1969"	"1.889"	"9.01"	"6.987"	"0.707"	"22.487"	"35.938"	"240.015"	"151.052"	"155.07"	"0.015"	"1.199"	"0"
"1970"	"33.063"	"40.041"	"25.451"	"0"	"36.814"	"86.355"	"63.959"	"236.648"	"134.19"	"2.646"	"0"	"0"
"1971"	"11.519"	"9.946"	"0.372"	"9.167"	"31.362"	"74.913"	"205.364"	"320.036"	"128.644"	"10.266"	"0.809"	"0"
"1972"	"5.906"	"12.143"	"0.446"	"6.848"	"0.278"	"24.506"	"218.444"	"320.772"	"51.361"	"16.572"	"4.972"	"1.834"
"1973"	"18.346"	"8.401"	"0.394"	"0"	"8.688"	"11.775"	"155.113"	"333.478"	"78.149"	"29.521"	"0"	"3.457"
"1974"	"0.053"	"0.053"	"1.673"	"0.011"	"5.755"	"13.119"	"294.216"	"97.173"	"5.988"	"21.226"	"0"	"3.98"
"1975"	"12.46"	"3.46"	"4.729"	"0.354"	"0.396"	"73.095"	"371.643"	"256.686"	"242.634"	"32.387"	"0"	"0"
"1976"	"0.183"	"14.326"	"5.569"	"4.937"	"38.498"	"68.875"	"310.02"	"329.314"	"68.197"	"0.053"	"5.214"	"0.712"
"1977"	"23.827"	"0.792"	"0.008"	"31.583"	"20.3"	"59.196"	"410.751"	"105.166"	"150.406"	"21.229"	"0"	"6.764"
"1978"	"0.027"	"18.271"	"17.975"	"8.154"	"0.216"	"88.3"	"240.682"	"301.593"	"201.101"	"0.03"	"0.399"	"4.695"
"1979"	"11.058"	"41.247"	"9.86"	"3.441"	"14.607"	"58.189"	"123.227"	"53.251"	"33.431"	"1.78"	"3.081"	"5.506"
"1980"	"2.361"	"6.502"	"16.912"	"0.904"	"7.262"	"57.214"	"321.094"	"137.372"	"50.614"	"6.693"	"2.169"	"14.304"
"1981"	"18.129"	"9.171"	"13.155"	"0.008"	"11.247"	"164.937"	"198.044"	"78.302"	"67.336"	"0.035"	"40.985"	"8.111"
"1982"	"14.7"	"5.452"	"28.715"	"40.008"	"46.467"	"55.481"	"213.794"	"281.994"	"5.398"	"15.918"	"16.104"	"7.992"
"1983"	"30.599"	"13.986"	"4.502"	"42.047"	"47.08"	"51.156"	"200.56"	"247.032"	"130.533"	"19.518"	"0"	"4.306"
"1984"	"0.545"	"2.652"	"0.214"	"32.563"	"2.281"	"33.697"	"147.964"	"310.839"	"108.8"	"0.008"	"0"	"0.053"
"1985"	"1.49"	"0.008"	"1.355"	"15.365"	"3.048"	"41.963"	"446.258"	"267.687"	"75.753"	"49.179"	"0"	"21.349"
"1986"	"16.197"	"29.272"	"7.328"	"3.818"	"21.039"	"46.453"	"81.522"	"139.155"	"69.432"	"6.501"	"0.11"	"19.47"
"1987"	"20.264"	"13.116"	"9.098"	"2.545"	"45.269"	"11.545"	"50.101"	"145.247"	"23.822"	"1.146"	"0"	"5.889"
"1988"	"1.34"	"12.004"	"23.757"	"9.316"	"3.664"	"56.378"	"243.408"	"425.735"	"124.709"	"0.265"	"0.008"	"1.401"
"1989"	"43.692"	"2.364"	"20.641"	"0.177"	"1.648"	"12.457"	"73.337"	"144.268"	"104.403"	"2.919"	"10.741"	"4.456"
"1990"	"0"	"30.06"	"1.783"	"2.729"	"30.083"	"56.459"	"174.315"	"300.569"	"238.485"	"0.064"	"2.487"	"17.147"
"1991"	"0.365"	"32.702"	"2.525"	"2.651"	"31.016"	"29.514"	"73.898"	"336.064"	"92.363"	"0"	"19.053"	"23.136"
"1992"	"15.947"	"18.544"	"4.466"	"6.141"	"5.379"	"9.759"	"82.841"	"195.22"	"97.477"	"10.178"	"38.68"	"0"
"1993"	"9.559"	"5.28"	"6.894"	"5.445"	"11.809"	"113.598"	"317.188"	"157.895"	"211.872"	"0.759"	"0.023"	"0"
"1994"	"21.022"	"8.11"	"11.897"	"8.19"	"10.921"	"49.721"	"480.752"	"252.332"	"7.06"	"0"	"0"	"1.096"
"1995"	"43.193"	"17.891"	"15.525"	"4.379"	"0.212"	"23.084"	"67.895"	"496.784"	"158.111"	"0.625"	"1.567"	"0.416"
"1996"	"5.055"	"12.471"	"2.424"	"0.981"	"14.755"	"136.705"	"172.18"	"311.448"	"171.127"	"14.841"	"0"	"0"
"1997"	"5.203"	"1.15"	"5.071"	"29.772"	"37.108"	"110.843"	"56.633"	"183.331"	"93.706"	"34.785"	"26.222"	"11.699"
"1998"	"0.034"	"17.713"	"18.283"	"7.046"	"10.73"	"93.275"	"138.747"	"228.574"	"196.102"	"34.356"	"21.314"	"0.5"
"1999"	"32.628"	"3.676"	"0"	"0"	"8.722"	"76.67"	"124.666"	"111.873"	"99.723"	"22.031"	"0"	"0.48"
"2000"	"18.993"	"35.299"	"9.644"	"1.538"	"11.063"	"75.125"	"270.388"	"145.171"	"31.009"	"0"	"1.597"	"18.24"
"2001"	"8.953"	"10.552"	"3.012"	"27.949"	"51.379"	"92.905"	"123.56"	"266.526"	"41.944"	"5.943"	"0"	"0.011"
"2002"	"13.096"	"13.381"	"1.659"	"0.934"	"3.515"	"34.24"	"11.343"	"142.279"	"171.011"	"2.283"	"0.481"	"9.243"
