
"Year"	"Jan"	"Feb"	"Mar"	"Apr"	"May"	"Jun"	"Jul"	"Aug"	"Sep"	"Oct"	"Nov"	"Dec"
"1901"	"27.582"	"11.034"	"9.651"	"0.27"	"14.121"	"27.908"	"187.988"	"250.5"	"15.857"	"0.317"	"0"	"2.469"
"1902"	"0.032"	"0.412"	"2.304"	"6.105"	"9.456"	"106.853"	"247.359"	"166.842"	"79.059"	"2.595"	"0"	"0"
"1903"	"3.862"	"0.553"	"4.405"	"0.453"	"6.038"	"5.132"	"133.33"	"107.103"	"57.657"	"15.539"	"0"	"0.382"
"1904"	"4.183"	"0.17"	"22.751"	"0.379"	"22.01"	"40.351"	"160.988"	"218.067"	"201.943"	"0.631"	"26.901"	"14.793"
"1905"	"33.895"	"15.997"	"5.299"	"2.114"	"3.093"	"18.005"	"130.771"	"28.923"	"82.83"	"0.388"	"0"	"1.458"
"1906"	"1.691"	"42.106"	"15.61"	"0.43"	"1.679"	"107.041"	"166.295"	"122.863"	"238.43"	"0.61"	"0"	"6.888"
"1907"	"14.313"	"33.891"	"11.133"	"34.408"	"3.129"	"7.779"	"58.891"	"163.828"	"1.328"	"0.112"	"0"	"0"
"1908"	"29.39"	"12.056"	"0.173"	"3.415"	"8.87"	"9.968"	"313.374"	"517.393"	"21.015"	"0.148"	"0.143"	"0.358"
"1909"	"9.943"	"13.853"	"0"	"31.321"	"27.892"	"165.492"	"284.751"	"105.269"	"136.93"	"1.274"	"0"	"25.415"
"1910"	"16.535"	"10.369"	"1.447"	"2.274"	"3.783"	"31.447"	"185.712"	"160.041"	"175.424"	"8.643"	"0.334"	"0.363"
"1911"	"44.783"	"0.083"	"22.438"	"1.179"	"0.591"	"71.777"	"38.037"	"66.019"	"235.509"	"18.333"	"60.238"	"0.243"
"1912"	"32.853"	"16.83"	"3.544"	"22.009"	"12.032"	"30.484"	"163.596"	"236.188"	"229.488"	"0.214"	"5.703"	"1.252"
"1913"	"1.834"	"33.752"	"9.344"	"2.722"	"21.998"	"123.176"	"100.084"	"88.207"	"18.217"	"0.376"	"1.656"	"9.288"
"1914"	"0.614"	"8.504"	"3.184"	"17.177"	"20.212"	"25.854"	"282.226"	"94.785"	"307.59"	"12.237"	"16.345"	"0.502"
"1915"	"22.091"	"35.255"	"48.095"	"25.732"	"2.424"	"30.648"	"82.095"	"142.47"	"116.296"	"2.243"	"0"	"0.964"
"1916"	"0.026"	"28.307"	"0"	"3.506"	"4.069"	"54.649"	"177.919"	"302.992"	"133.186"	"11.929"	"0"	"0"
"1917"	"7.683"	"10.358"	"8.671"	"13.463"	"17.802"	"97.034"	"240.111"	"136.025"	"208.22"	"33.165"	"0"	"3.614"
"1918"	"6.481"	"0"	"8.185"	"7.122"	"3.473"	"30.687"	"32.071"	"198.355"	"10.446"	"0.345"	"4.733"	"0.459"
"1919"	"49.277"	"2.65"	"4.982"	"4.339"	"6.951"	"8.235"	"130.796"	"206.944"	"33.02"	"1.604"	"3.134"	"8.183"
"1920"	"7.81"	"7.892"	"16.189"	"0.542"	"13.553"	"93.117"	"264.927"	"122.869"	"7.757"	"0.811"	"0"	"0.039"
"1921"	"26.277"	"0.319"	"0.239"	"2.729"	"0.308"	"17.974"	"89.531"	"331.335"	"167.055"	"14.187"	"0"	"0.333"
"1922"	"17.113"	"2.172"	"0.006"	"0.572"	"0.426"	"46.379"	"135.551"	"214.116"	"174.41"	"4.656"	"1.001"	"19.972"
"1923"	"6.757"	"51.258"	"0.609"	"0.811"	"7.964"	"3.814"	"213.675"	"314.769"	"51.189"	"11.093"	"3.927"	"13.002"
"1924"	"33.674"	"19.19"	"2.125"	"0.453"	"13.195"	"25.605"	"92.922"	"270.243"	"271.095"	"34.322"	"3.504"	"8.657"
"1925"	"7.027"	"0.039"	"0.456"	"0.851"	"21.334"	"90.859"	"259.301"	"153.655"	"8.714"	"1.345"	"40.356"	"0"
"1926"	"7.445"	"0.913"	"37.549"	"13.458"	"12.196"	"3.735"	"270.563"	"271.954"	"41.839"	"0.689"	"6.458"	"0.881"
"1927"	"0.173"	"20.81"	"15.942"	"3.991"	"20.003"	"15.725"	"177.75"	"224.819"	"13.905"	"34.258"	"0.555"	"15.299"
"1928"	"20.827"	"41.081"	"8.781"	"13.509"	"4.922"	"41.922"	"81.061"	"27.551"	"29.128"	"11.312"	"25.772"	"13.323"
"1929"	"8.414"	"0.245"	"0.663"	"17.755"	"1.214"	"28.605"	"100.292"	"133.248"	"8.827"	"4.625"	"0"	"20.983"
"1930"	"36.122"	"20.989"	"0.743"	"1.646"	"8.237"	"69.887"	"311.33"	"73.793"	"37.326"	"14.813"	"3.622"	"2.644"
"1931"	"4.154"	"19.911"	"6.274"	"4.749"	"6.731"	"4.157"	"242.408"	"124.289"	"144.947"	"42.156"	"0.334"	"0"
"1932"	"0.754"	"1.713"	"12.281"	"6.935"	"5.015"	"11.578"	"87.978"	"108.275"	"263.472"	"0.715"	"0.134"	"2.456"
"1933"	"2.868"	"15.115"	"4.45"	"2.477"	"39.156"	"181.19"	"146.688"	"478.316"	"265.622"	"28.23"	"0.531"	"0.191"
"1934"	"23.668"	"0.239"	"36.466"	"0.147"	"3.763"	"51.095"	"291.447"	"271.775"	"10.835"	"0.026"	"0"	"8.696"
"1935"	"27.35"	"31.047"	"4.509"	"10.917"	"0.425"	"47.946"	"167.393"	"123.635"	"186.435"	"3.176"	"9.297"	"6.686"
"1936"	"2.102"	"18.035"	"9.535"	"1.91"	"3.624"	"235.208"	"214.129"	"206.992"	"151.304"	"2.204"	"3.406"	"40.405"
"1937"	"0.239"	"58.258"	"0.424"	"16.445"	"5.112"	"39.561"	"201.616"	"39.041"	"141.249"	"1.722"	"0.28"	"5.32"
"1938"	"46.556"	"4.745"	"8.76"	"1.642"	"1.401"	"54.154"	"132.308"	"69.61"	"33.252"	"3.126"	"0.334"	"0"
"1939"	"1.723"	"26.602"	"7.317"	"1.307"	"1.27"	"84.633"	"89.63"	"119.37"	"78.801"	"2.433"	"0"	"0"
"1940"	"33.728"	"37.396"	"3.042"	"1.427"	"2.079"	"17.078"	"199.214"	"210.639"	"12.81"	"0.383"	"0.071"	"1.733"
"1941"	"42.687"	"5.836"	"2.633"	"0"	"15.676"	"58.88"	"20.336"	"121.381"	"51.558"	"0.698"	"0.334"	"7.717"
"1942"	"14.322"	"15.022"	"1.174"	"11.325"	"6.323"	"34.123"	"377.403"	"170.22"	"129.069"	"0.112"	"0"	"9.935"
"1943"	"10.108"	"0.412"	"0.93"	"16.676"	"3.193"	"42.834"	"148.415"	"125.102"	"100.038"	"0.026"	"0"	"0"
"1944"	"24.912"	"41.611"	"39.038"	"43.039"	"0.2"	"61.616"	"332.038"	"53.717"	"154.401"	"38.06"	"0.134"	"0.445"
"1945"	"19.286"	"0"	"0.883"	"6.237"	"8.25"	"25.914"	"165.629"	"311.476"	"158.253"	"10.308"	"0"	"0"
"1946"	"0.026"	"9.33"	"0.581"	"2.457"	"13.194"	"101.35"	"205.756"	"192.074"	"49.376"	"5.931"	"2.991"	"3.223"
"1947"	"8.449"	"8.807"	"9.223"	"0.735"	"4.476"	"6.596"	"105.18"	"86.718"	"240.436"	"21.362"	"0.334"	"5.211"
"1948"	"37.945"	"27.017"	"15.488"	"0.591"	"4.986"	"12.542"	"186.164"	"362.968"	"179.713"	"9.48"	"0.537"	"0.977"
"1949"	"1.905"	"18.224"	"3.757"	"1.997"	"9.308"	"7.717"	"434.979"	"120.524"	"124.274"	"3.976"	"0.134"	"0.226"
"1950"	"13.217"	"3.889"	"12.833"	"0.134"	"11.289"	"26.902"	"409.016"	"184.41"	"154.971"	"0.026"	"0.134"	"0.203"
"1951"	"17.171"	"2.425"	"32.504"	"18.589"	"4.096"	"15.574"	"117.937"	"101.177"	"93.714"	"5.966"	"31.675"	"0"
"1952"	"7.149"	"12.74"	"30.291"	"4.671"	"21.921"	"35.892"	"69.031"	"305.629"	"4.125"	"0.083"	"2.458"	"1.392"
"1953"	"53.248"	"0.16"	"0.252"	"3.938"	"2.678"	"35.236"	"247.761"	"242.823"	"59.161"	"1.119"	"0.251"	"0.315"
"1954"	"23.128"	"46.191"	"7.2"	"0"	"1.097"	"20.279"	"235.146"	"50.65"	"71.102"	"29.662"	"0.033"	"0.16"
"1955"	"24.995"	"1.018"	"7.215"	"16.753"	"6.083"	"43.479"	"131.535"	"226.417"	"207.007"	"59.112"	"0"	"0.244"
"1956"	"23.45"	"1.484"	"13.748"	"2.285"	"5.946"	"31.573"	"269.638"	"206.427"	"23.644"	"59.757"	"1.665"	"1.789"
"1957"	"40.189"	"0.026"	"26.831"	"4.471"	"7.926"	"37.868"	"239.858"	"122.823"	"186.532"	"23.648"	"18.291"	"13.24"
"1958"	"18.081"	"1.737"	"11.301"	"1.778"	"5.485"	"13.677"	"380.516"	"243.978"	"237.281"	"10.948"	"4.098"	"5.877"
"1959"	"29.29"	"2.414"	"2.97"	"0.947"	"19.223"	"19.942"	"155.086"	"211.27"	"93.075"	"4.768"	"10.145"	"0"
"1960"	"10.515"	"0"	"17.194"	"6.151"	"1.13"	"28.505"	"208.88"	"320.469"	"29.061"	"60.071"	"0"	"0.717"
"1961"	"13.814"	"33.044"	"0.057"	"3.53"	"19.313"	"57.661"	"203.316"	"512.381"	"72.704"	"55.86"	"1.771"	"6.87"
"1962"	"25.81"	"11.306"	"7.015"	"0.694"	"3.127"	"27.769"	"196.181"	"111.924"	"166.335"	"0.039"	"5.427"	"13.988"
"1963"	"1.474"	"9.224"	"5.237"	"5.152"	"13.272"	"83.167"	"65.214"	"277.415"	"230.591"	"1.224"	"4.988"	"15.65"
"1964"	"1.455"	"1.191"	"1.941"	"4.261"	"15.189"	"22.808"	"490.017"	"372.693"	"157.011"	"0.038"	"0.115"	"9.856"
"1965"	"6.881"	"9.906"	"2.88"	"12.647"	"5.9"	"4.169"	"167.479"	"179.519"	"143.707"	"1.996"	"0.776"	"0"
"1966"	"2.593"	"20.8"	"1.055"	"0.987"	"42.109"	"114.376"	"114.842"	"231.095"	"69.495"	"19.074"	"4.163"	"0.466"
"1967"	"0.039"	"2.29"	"33.724"	"1.211"	"0.511"	"22.251"	"207.947"	"499.897"	"106.024"	"14.486"	"15.758"	"40.194"
"1968"	"14.083"	"9.221"	"6.379"	"1.603"	"5.065"	"26.857"	"267.359"	"223.85"	"10.6"	"3.062"	"0"	"0.666"
"1969"	"3.138"	"7.521"	"11.169"	"2.997"	"23.153"	"43.333"	"221.761"	"153.839"	"185.555"	"0.376"	"0.391"	"0"
"1970"	"36.266"	"38.497"	"34.909"	"0"	"40.378"	"88.871"	"63.113"	"204.708"	"118.724"	"6.185"	"0"	"0"
"1971"	"11.181"	"10.177"	"1.73"	"11.237"	"41.704"	"65.542"	"200.796"	"352.715"	"137.427"	"14.454"	"2.976"	"0"
"1972"	"7.411"	"11.17"	"1.262"	"9.3"	"0.375"	"26.763"	"260.776"	"310.651"	"62.059"	"20.585"	"6.584"	"0.692"
"1973"	"21.538"	"7.114"	"2.266"	"0"	"13.051"	"26.281"	"134.711"	"321.032"	"65.138"	"30.585"	"0"	"4.652"
"1974"	"1.228"	"1.246"	"2.744"	"0.213"	"5.284"	"19.994"	"326.731"	"104.523"	"7.083"	"13.332"	"0"	"7.051"
"1975"	"19.703"	"6.538"	"8.274"	"0.201"	"1.008"	"75.349"	"365.995"	"271.463"	"251.576"	"33.442"	"0"	"0"
"1976"	"0.66"	"20.499"	"8.313"	"7.095"	"48.188"	"58.534"	"322.308"	"373.565"	"66.521"	"1.467"	"0.339"	"0.932"
"1977"	"25.61"	"0.941"	"0.147"	"32.786"	"28.931"	"74.518"	"383.899"	"97.323"	"124.51"	"20.561"	"0"	"9.777"
"1978"	"0.661"	"19.179"	"17.065"	"9.308"	"0.519"	"82.889"	"237.305"	"338.613"	"201.36"	"0.715"	"1.326"	"2.379"
"1979"	"14.414"	"35.97"	"15.527"	"4.678"	"15.178"	"66.288"	"119.165"	"68.346"	"39.873"	"2.135"	"4.747"	"5.348"
"1980"	"3.955"	"7.702"	"18.594"	"1.3"	"8.156"	"67.556"	"374.888"	"146.118"	"83.488"	"8.152"	"2.588"	"5.668"
"1981"	"26.153"	"12.532"	"12.543"	"0.16"	"7.964"	"138.509"	"201.022"	"66.124"	"64.804"	"0.614"	"52.618"	"9.97"
"1982"	"15.647"	"6.18"	"38.746"	"45.603"	"53.831"	"61.417"	"220.358"	"266.89"	"7.659"	"18.197"	"7.771"	"7.408"
"1983"	"40.146"	"16.793"	"8.254"	"39.706"	"50.704"	"53.341"	"238.729"	"196.349"	"149.083"	"21.958"	"0"	"5.146"
"1984"	"1.528"	"10.351"	"0.689"	"24.435"	"2.059"	"34.172"	"162.28"	"300.049"	"101.318"	"0.173"	"0"	"1.359"
"1985"	"2.283"	"0.16"	"0.345"	"15.488"	"6.665"	"49.864"	"404.619"	"263.58"	"70.42"	"48.163"	"0.057"	"22.675"
"1986"	"17.902"	"31.897"	"8.115"	"6.473"	"21.669"	"39.867"	"101.692"	"158.672"	"79.504"	"3.127"	"1.936"	"22.639"
"1987"	"21.475"	"16.758"	"12.245"	"3.575"	"43.372"	"12.994"	"44.679"	"149.847"	"26.519"	"1.551"	"0"	"5.938"
"1988"	"0.906"	"16.475"	"29.511"	"6.644"	"5"	"53.181"	"258.605"	"439.145"	"138.736"	"1.08"	"0.134"	"3.707"
"1989"	"56.368"	"3.771"	"24.759"	"0.089"	"4.095"	"24.319"	"68.843"	"124.225"	"102.434"	"2.733"	"11.558"	"3.812"
"1990"	"0.083"	"33.542"	"5.488"	"3.867"	"33.444"	"52.683"	"172.879"	"295.465"	"213.9"	"1.548"	"5.756"	"22.228"
"1991"	"0.315"	"36.095"	"4.105"	"5.128"	"32.21"	"38.595"	"81.713"	"333.98"	"83.978"	"0.169"	"20.242"	"18.828"
"1992"	"18.133"	"22.95"	"1.508"	"6.674"	"4.198"	"13.446"	"93.432"	"202.237"	"91.216"	"5.082"	"43.501"	"0.057"
"1993"	"11.554"	"7.486"	"6.876"	"6.173"	"13.028"	"122.773"	"317.53"	"147.807"	"208.567"	"0.077"	"0.005"	"0"
"1994"	"21.493"	"4.194"	"14.134"	"8.318"	"15.813"	"47.002"	"425.901"	"246.876"	"14.983"	"0.112"	"0"	"1.581"
"1995"	"48.627"	"26.216"	"25.953"	"2.218"	"0.439"	"27.77"	"70.26"	"511.943"	"169.367"	"0.733"	"5.082"	"0.554"
"1996"	"8.906"	"17.852"	"4.05"	"1.602"	"15.07"	"140.197"	"171.996"	"308.59"	"155.255"	"14.379"	"0"	"0"
"1997"	"7.948"	"2.137"	"7.179"	"32.494"	"39.629"	"117.278"	"69.539"	"192.139"	"70.255"	"35.681"	"25.916"	"10.461"
"1998"	"0.769"	"20.988"	"20.844"	"6.651"	"10.389"	"84.984"	"151.952"	"239.391"	"209.466"	"35.138"	"26.111"	"0.487"
"1999"	"39.232"	"2.265"	"0.115"	"0"	"12.11"	"59.722"	"105.725"	"73.201"	"77.56"	"17.558"	"0"	"0.837"
"2000"	"22.509"	"45.627"	"13.321"	"1.129"	"13.918"	"95.941"	"266.828"	"155.483"	"29.709"	"0.026"	"1.969"	"22.068"
"2001"	"10"	"11.408"	"3.562"	"27.924"	"56.639"	"90.24"	"131.6"	"231.957"	"39.446"	"4.233"	"0"	"0.252"
"2002"	"15.2"	"15.678"	"4.95"	"1.695"	"2.195"	"35.031"	"22.067"	"136.832"	"177.116"	"1.044"	"0.181"	"9.172"
