
"Year"	"Jan"	"Feb"	"Mar"	"Apr"	"May"	"Jun"	"Jul"	"Aug"	"Sep"	"Oct"	"Nov"	"Dec"
"1901"	"0.661"	"3.286"	"5.565"	"88.684"	"106.973"	"659.172"	"418.806"	"349.106"	"126.829"	"104.296"	"21.552"	"7.606"
"1902"	"0.388"	"0"	"0.85"	"17.871"	"74.239"	"439.76"	"629.856"	"153.738"	"208.702"	"267.393"	"58.456"	"38.323"
"1903"	"0"	"0"	"0"	"2.945"	"200.292"	"525.717"	"737.44"	"487.95"	"189.34"	"143.865"	"52.953"	"16.403"
"1904"	"0.651"	"0"	"6.555"	"61.757"	"110.825"	"828.751"	"624.846"	"203.946"	"85.36"	"128.181"	"1.785"	"0.012"
"1905"	"0"	"0.026"	"2.739"	"4.593"	"79.89"	"535.434"	"253.278"	"262.358"	"71.685"	"172.677"	"14.25"	"0.012"
"1906"	"27.842"	"0"	"0"	"2.979"	"30.788"	"585.935"	"627.723"	"640.233"	"170.865"	"132.011"	"4.966"	"42.977"
"1907"	"1.947"	"0"	"8.075"	"168.042"	"5.447"	"469.759"	"584.358"	"469.121"	"264.845"	"20.991"	"46.294"	"11.385"
"1908"	"0"	"1.282"	"11.041"	"85.957"	"83.939"	"387.976"	"831.43"	"333.957"	"102.719"	"28.164"	"1.49"	"0.012"
"1909"	"6.614"	"0"	"6.373"	"4.265"	"182.78"	"426.237"	"575.832"	"440.92"	"168.603"	"59.198"	"32.222"	"4.691"
"1910"	"0"	"0"	"10.141"	"4.965"	"57.269"	"569.768"	"705.564"	"588.976"	"172.652"	"150.536"	"59.844"	"0.012"
"1911"	"0"	"0"	"2.429"	"22.322"	"79.572"	"261.299"	"606.501"	"375.914"	"140.547"	"140.863"	"47.74"	"3.742"
"1912"	"0"	"0.092"	"3.227"	"6.338"	"97.789"	"417.909"	"690.05"	"359.963"	"114.779"	"175.076"	"61.122"	"2.634"
"1913"	"0"	"0"	"0"	"9.401"	"74.183"	"407.996"	"641.917"	"214.109"	"128.493"	"172.737"	"5.195"	"0.012"
"1914"	"0"	"0.193"	"1.187"	"10.75"	"66.53"	"249.735"	"954.861"	"560.357"	"168.789"	"89.471"	"57.442"	"21.43"
"1915"	"19.785"	"0"	"12.453"	"47.468"	"96.535"	"667.47"	"424.795"	"193.863"	"239.936"	"81.98"	"59.99"	"4.796"
"1916"	"0"	"0"	"0.547"	"12.412"	"143.536"	"450.924"	"557.325"	"297.846"	"269.264"	"159.356"	"212.619"	"0.012"
"1917"	"0"	"5.125"	"19.094"	"0.509"	"45.381"	"454.975"	"412.737"	"487.207"	"335.929"	"247.033"	"96.447"	"0.012"
"1918"	"10.534"	"0"	"13.006"	"16.919"	"373.032"	"217.059"	"167.812"	"209.309"	"134.267"	"26.799"	"163.717"	"9.62"
"1919"	"3.059"	"0.03"	"0"	"9.737"	"111.24"	"730.761"	"533.775"	"259.803"	"249.326"	"157.178"	"108.185"	"5.584"
"1920"	"8.362"	"0"	"2.282"	"131.232"	"87.05"	"305.023"	"390.817"	"223.458"	"169.301"	"131.171"	"2.117"	"0.012"
"1921"	"3.902"	"0"	"9.616"	"58.653"	"18.319"	"312.966"	"473.689"	"275.484"	"92.785"	"196.715"	"107.119"	"0.012"
"1922"	"5.939"	"0.288"	"0"	"60.877"	"104.743"	"358.559"	"670.665"	"236.671"	"88.114"	"86.432"	"115.356"	"0.973"
"1923"	"0"	"1.282"	"27.866"	"15.002"	"121.507"	"248.156"	"1000.014"	"391.686"	"172.293"	"4.526"	"0.515"	"1.896"
"1924"	"0.941"	"0"	"0.485"	"54.023"	"68.093"	"480.235"	"731.114"	"280.157"	"192.805"	"38.492"	"17.179"	"9.073"
"1925"	"0"	"0"	"0.525"	"25.074"	"205.862"	"462.475"	"413.859"	"332.074"	"108.889"	"133.814"	"69.792"	"29.174"
"1926"	"15.799"	"0"	"0.078"	"8.831"	"81.563"	"550.423"	"543.649"	"476.527"	"148.313"	"81.74"	"1.591"	"0.012"
"1927"	"0"	"0"	"4.03"	"17.36"	"96.325"	"333.266"	"605.391"	"203.186"	"243.768"	"42.785"	"129.028"	"0.012"
"1928"	"0"	"4.716"	"3.497"	"21.828"	"91.63"	"747.317"	"583.289"	"555.991"	"51.937"	"330.499"	"2.84"	"6.259"
"1929"	"6.365"	"0.091"	"0"	"174.418"	"141.77"	"552.105"	"409.527"	"255.592"	"194.104"	"212.138"	"106.483"	"2.132"
"1930"	"3.355"	"0"	"12.039"	"8.374"	"113.858"	"506.145"	"273.443"	"245.133"	"175.633"	"240.532"	"4.863"	"33.636"
"1931"	"0"	"0"	"3.279"	"13.413"	"82.535"	"503.993"	"563.808"	"428.666"	"174.668"	"114.872"	"117.015"	"45.296"
"1932"	"0"	"0"	"0"	"24.605"	"107.624"	"286.467"	"740.493"	"675.042"	"162.472"	"268.374"	"143.426"	"6.275"
"1933"	"0"	"0.689"	"16.276"	"42.089"	"255.37"	"540.996"	"575.685"	"702.455"	"318.503"	"240.73"	"31.374"	"16.471"
"1934"	"5.868"	"0"	"0"	"23.278"	"86.778"	"624.368"	"491.7"	"315.498"	"97.056"	"139.466"	"42.466"	"0.012"
"1935"	"1.86"	"0"	"2.446"	"18.769"	"44.054"	"661.277"	"438.695"	"520.092"	"98.202"	"203.341"	"12.599"	"0.012"
"1936"	"1.202"	"3.251"	"8.678"	"125.17"	"98.315"	"577.889"	"315.392"	"177.579"	"181.719"	"96.008"	"155.689"	"1.539"
"1937"	"0"	"0.504"	"7.388"	"61.831"	"34.879"	"252.501"	"601.399"	"141.265"	"164.77"	"151.554"	"0.515"	"13.246"
"1938"	"0"	"0"	"13.414"	"27.344"	"74.738"	"327.628"	"388.441"	"576.398"	"256.088"	"95.937"	"21.762"	"0.012"
"1939"	"0"	"0"	"3.949"	"44.76"	"6.926"	"546.881"	"477.783"	"672.242"	"104.827"	"158.966"	"86.395"	"0.012"
"1940"	"0"	"0"	"0"	"24.164"	"88.749"	"389.88"	"656.499"	"598.122"	"106.897"	"213.387"	"44.921"	"3.622"
"1941"	"12.883"	"2.058"	"0"	"51.999"	"46.74"	"395.174"	"348.269"	"339.656"	"153.396"	"122.152"	"5.548"	"33.597"
"1942"	"0"	"3.453"	"0"	"56.331"	"107.977"	"688.956"	"680.194"	"309.157"	"81.503"	"56.381"	"6.49"	"14.492"
"1943"	"1.107"	"0"	"0.916"	"15.311"	"286.323"	"290.206"	"536.496"	"169.119"	"192.499"	"200.234"	"65.082"	"0.012"
"1944"	"0"	"4.401"	"17.568"	"16.676"	"80.808"	"447.248"	"803.64"	"199.77"	"49.766"	"287.153"	"73.466"	"0.012"
"1945"	"0.388"	"0"	"0"	"19.702"	"34.763"	"435.512"	"695.141"	"293.01"	"141.488"	"44.017"	"27.622"	"0.012"
"1946"	"0"	"0.916"	"4.669"	"116.204"	"97.216"	"479.945"	"619.05"	"468.65"	"201.657"	"140.204"	"129.228"	"15.291"
"1947"	"6.217"	"0.151"	"6.334"	"19.467"	"39.674"	"496.499"	"541.252"	"770.71"	"176.478"	"91.251"	"8.36"	"21.183"
"1948"	"5.052"	"0"	"3.267"	"34.563"	"139.133"	"473.118"	"673.949"	"638.451"	"150.783"	"81.282"	"186.895"	"0.012"
"1949"	"0"	"0"	"2.263"	"21.233"	"212.987"	"306.113"	"446.846"	"290.051"	"208.143"	"128.084"	"33.124"	"0.012"
"1950"	"0"	"2.058"	"0"	"5.371"	"173.737"	"378.896"	"737.394"	"464.762"	"278.121"	"86.023"	"61.426"	"0.012"
"1951"	"0"	"0"	"11.261"	"53.912"	"148.692"	"784.286"	"584.592"	"176.899"	"184.319"	"199.033"	"10.639"	"0.012"
"1952"	"0"	"1.367"	"0"	"46.702"	"122.286"	"406.507"	"521.181"	"306.33"	"67.91"	"209.071"	"0.515"	"11.386"
"1953"	"0.235"	"0"	"3.005"	"88.582"	"19.905"	"508.838"	"870.483"	"311.208"	"119.67"	"278.52"	"0.515"	"0.012"
"1954"	"0"	"0"	"3.518"	"138.303"	"118.03"	"165.402"	"712.632"	"425.259"	"118.853"	"241.104"	"3.274"	"19.801"
"1955"	"0"	"0"	"7.721"	"92.813"	"333.767"	"477.943"	"334.811"	"457.004"	"347.191"	"242.291"	"44.748"	"0.373"
"1956"	"0"	"1.718"	"0"	"96.264"	"210.44"	"516.398"	"708.545"	"343.725"	"128.373"	"236.156"	"179.671"	"0.012"
"1957"	"0"	"0"	"10.889"	"13.35"	"154.155"	"605.538"	"502.465"	"497.408"	"51.474"	"197.182"	"113.796"	"0.012"
"1958"	"0"	"0"	"10.973"	"21.576"	"230.9"	"517.694"	"632.723"	"466.521"	"185.204"	"133.415"	"45.385"	"0.917"
"1959"	"0"	"0"	"0"	"18.789"	"130.96"	"881.732"	"945.068"	"257.51"	"224.278"	"28.061"	"62.792"	"4.408"
"1960"	"0"	"0"	"11.02"	"68.801"	"276.696"	"367.269"	"505.725"	"249.055"	"175.364"	"67.758"	"31.399"	"0.012"
"1961"	"0"	"0"	"0.091"	"30.08"	"438.871"	"489.429"	"1024.929"	"308.037"	"201.441"	"237.669"	"2.831"	"0.012"
"1962"	"0"	"3.148"	"9.337"	"37.178"	"241.6"	"188.428"	"547.149"	"423.037"	"184.175"	"203.458"	"28.407"	"88.108"
"1963"	"0.367"	"0.328"	"44.119"	"120.733"	"87.747"	"342.244"	"413.299"	"505.688"	"87.557"	"197.768"	"4.969"	"0.681"
"1964"	"0"	"0"	"0.966"	"8.034"	"60.151"	"417.252"	"798.598"	"550.199"	"260.174"	"164.815"	"27.67"	"5.192"
"1965"	"5.423"	"0.361"	"0.392"	"13.053"	"70.472"	"392.34"	"529.224"	"324.968"	"151.249"	"2.435"	"28.189"	"77.035"
"1966"	"8.305"	"0.089"	"0.581"	"17.307"	"168.997"	"331.64"	"810.41"	"95.831"	"241.075"	"170.498"	"234.672"	"25.107"
"1967"	"5.241"	"0"	"2.446"	"25.033"	"68.453"	"356.291"	"767.803"	"258.653"	"119.484"	"144.833"	"2.007"	"8.6"
"1968"	"0"	"4.957"	"2.315"	"43.062"	"50.389"	"507.931"	"489.329"	"152.988"	"194.367"	"215.395"	"23.928"	"0.872"
"1969"	"0"	"0"	"9.029"	"82.739"	"85.1"	"223.963"	"510.658"	"577.568"	"183.137"	"131.293"	"40.155"	"1.88"
"1970"	"0.703"	"0"	"0"	"33.502"	"275.955"	"370.488"	"514.053"	"485.551"	"173.182"	"147.093"	"1.163"	"0.012"
"1971"	"0"	"0"	"0"	"35.433"	"110.27"	"511.58"	"362.076"	"399.233"	"157.9"	"50.686"	"1.258"	"1.081"
"1972"	"0"	"0.019"	"0.346"	"12.033"	"97.569"	"374.209"	"530.47"	"193.221"	"193.804"	"99.766"	"17.524"	"11.048"
"1973"	"0"	"0"	"0"	"22.78"	"77.123"	"743.089"	"655.54"	"625.619"	"97.841"	"177.894"	"21.052"	"5.694"
"1974"	"0"	"0"	"46.844"	"23.836"	"185.928"	"254.832"	"602.922"	"334.508"	"430.698"	"178.083"	"0.515"	"0.012"
"1975"	"2.908"	"0.099"	"1.17"	"16.434"	"101.703"	"519.053"	"667.296"	"317.815"	"239.357"	"133.932"	"92.049"	"1.593"
"1976"	"0"	"0"	"0.203"	"58.545"	"13.042"	"399.441"	"482.283"	"237.005"	"109.03"	"45.483"	"98.913"	"0.012"
"1977"	"0"	"0.15"	"4.895"	"31.549"	"157.164"	"440.424"	"508.815"	"395.224"	"167.327"	"214.233"	"186.066"	"0.012"
"1978"	"0"	"6.358"	"0"	"44.105"	"254.115"	"504.499"	"578.942"	"355.943"	"137.92"	"100.239"	"88.917"	"25.208"
"1979"	"0"	"1.206"	"2.782"	"24.441"	"69.824"	"568.021"	"338.001"	"417.588"	"202.128"	"89.807"	"129.412"	"0.012"
"1980"	"0"	"0"	"0.22"	"56.429"	"39.761"	"490.368"	"453.11"	"367.794"	"175.626"	"53.378"	"74.99"	"4.7"
"1981"	"0.117"	"0"	"8.496"	"23.602"	"79.493"	"302.94"	"358.479"	"442.333"	"198.652"	"107.673"	"35.212"	"0.386"
"1982"	"0"	"0"	"0"	"22.858"	"125.095"	"446.383"	"515.479"	"392.091"	"138.195"	"113.534"	"83.314"	"0.036"
"1983"	"0"	"0"	"0"	"0.401"	"67.353"	"647.56"	"450.27"	"631.552"	"312.827"	"95.979"	"33.282"	"36.28"
"1984"	"0.017"	"0.956"	"27.266"	"167.609"	"34.042"	"498.573"	"535.883"	"194.125"	"164.693"	"210.492"	"7.785"	"30.232"
"1985"	"0.567"	"0"	"4.89"	"17.534"	"90.576"	"364.934"	"313.672"	"291.515"	"97.314"	"110.567"	"24.566"	"0.91"
"1986"	"3.982"	"1.014"	"0"	"18.928"	"34.391"	"489.621"	"304.502"	"335.541"	"164.931"	"58.03"	"89.865"	"9.096"
"1987"	"0.112"	"0.172"	"8.555"	"20.27"	"115.881"	"315.875"	"262.244"	"227.193"	"204.529"	"119.315"	"31.178"	"56.194"
"1988"	"0"	"0.338"	"0.044"	"60.991"	"70.122"	"420.879"	"755.875"	"491.506"	"365.551"	"36.736"	"8.594"	"15.846"
"1989"	"0"	"0"	"13.461"	"57.817"	"65.52"	"453.825"	"633.255"	"146.266"	"195.755"	"68.95"	"4.985"	"1.859"
"1990"	"0.091"	"0"	"1.181"	"32.117"	"103.891"	"300.388"	"280.991"	"277.634"	"65.066"	"125.074"	"43.765"	"1.476"
"1991"	"0"	"0"	"0.025"	"83.148"	"135.024"	"577.578"	"537.163"	"327.587"	"205.644"	"128.028"	"19.752"	"0.012"
"1992"	"0"	"0"	"0"	"20.239"	"91.508"	"731.954"	"502.092"	"327.326"	"308.535"	"179.511"	"149.81"	"0.012"
"1993"	"0"	"0"	"22.185"	"29.699"	"89.962"	"511.851"	"583.409"	"323.419"	"101.553"	"189.335"	"17.416"	"44.55"
"1994"	"0.229"	"0.074"	"5.895"	"52.973"	"53.172"	"528.402"	"792.486"	"307.323"	"94.302"	"244.833"	"9.467"	"1.774"
"1995"	"6.114"	"0"	"3.955"	"26.444"	"87.406"	"284.971"	"413.334"	"330.961"	"198.553"	"205.961"	"13.177"	"0.012"
"1996"	"0"	"0.172"	"0.137"	"41.32"	"55.073"	"728.296"	"314.142"	"365.103"	"235.317"	"201.472"	"5.911"	"3.635"
"1997"	"4.254"	"0"	"13.449"	"38.941"	"36.567"	"601.328"	"352.985"	"540.768"	"84.639"	"188.171"	"88.539"	"56.107"
"1998"	"0"	"0.031"	"0.037"	"25.687"	"82.575"	"549.493"	"636.911"	"525.132"	"175.246"	"122.326"	"56.422"	"11.114"
"1999"	"0"	"0.646"	"0.087"	"20.837"	"129.274"	"491.749"	"564.215"	"177.919"	"71.314"	"286.319"	"19.188"	"0.268"
"2000"	"0"	"0.817"	"0"	"49.026"	"85.821"	"373.794"	"485.364"	"398.403"	"290.145"	"172.949"	"14.273"	"2.803"
"2001"	"0.229"	"0.019"	"1.767"	"46.42"	"41.564"	"234.053"	"351.397"	"226.674"	"152.158"	"131.946"	"55.229"	"3.463"
"2002"	"0.229"	"0.31"	"0.37"	"22.331"	"96.255"	"635.728"	"139.205"	"313.896"	"37.568"	"218.141"	"8.588"	"0.722"
