
"Year"	"Jan"	"Feb"	"Mar"	"Apr"	"May"	"Jun"	"Jul"	"Aug"	"Sep"	"Oct"	"Nov"	"Dec"
"1901"	"12.84"	"15.068"	"22.325"	"27.437"	"32.107"	"35.794"	"33.069"	"31.524"	"31.07"	"28.358"	"21.125"	"16.188"
"1902"	"15.354"	"17.841"	"24.519"	"29.006"	"32.795"	"33.654"	"32.437"	"32.54"	"29.982"	"26.843"	"20.506"	"14.629"
"1903"	"14.149"	"16.154"	"20.654"	"26.703"	"31.878"	"36.443"	"33.941"	"31.204"	"30.964"	"27.102"	"19.821"	"14.582"
"1904"	"13.366"	"16.769"	"21.227"	"28.929"	"32.591"	"34.895"	"31.935"	"30.75"	"29.965"	"26.812"	"19.946"	"15.802"
"1905"	"12.444"	"11.904"	"18.704"	"25.605"	"34.071"	"35.593"	"33.526"	"32.507"	"31.76"	"27.707"	"21.806"	"15.813"
"1906"	"12.974"	"14.693"	"20.283"	"27.445"	"34.881"	"34.039"	"33.228"	"30.64"	"29.587"	"27.62"	"21.613"	"16.593"
"1907"	"15.689"	"14.494"	"19.312"	"25.252"	"30.727"	"33.8"	"34.256"	"30.354"	"31.247"	"27.593"	"21.001"	"14.595"
"1908"	"14.161"	"16.865"	"22.012"	"28.62"	"32.887"	"35.502"	"31.234"	"28.887"	"29.842"	"26.583"	"19.713"	"15.084"
"1909"	"13.259"	"15.433"	"22.121"	"26.608"	"32.464"	"32.979"	"30.163"	"29.782"	"29.04"	"27.002"	"21.625"	"14.507"
"1910"	"13.473"	"16.512"	"22.022"	"26.746"	"33.299"	"33.796"	"31.18"	"29.999"	"30.071"	"25.916"	"19.518"	"15.026"
"1911"	"15.349"	"16.881"	"20.003"	"27.719"	"34.085"	"33.939"	"34.403"	"32.894"	"30.223"	"27.314"	"18.124"	"14.93"
"1912"	"14.734"	"17.813"	"21.614"	"28.023"	"33.223"	"35.991"	"32.351"	"30.099"	"29.056"	"26.913"	"19.515"	"15.083"
"1913"	"14.933"	"16.247"	"19.603"	"29.314"	"31.084"	"31.905"	"30.815"	"31.1"	"30.81"	"27.736"	"20.231"	"14.963"
"1914"	"16.034"	"15.778"	"21.418"	"27.761"	"33.093"	"33.479"	"31.055"	"30.845"	"29.898"	"25.228"	"20.818"	"14.596"
"1915"	"14.019"	"14.796"	"22.198"	"28.287"	"35.46"	"34.876"	"34.432"	"32.165"	"31.464"	"27.836"	"20.784"	"15.917"
"1916"	"15.074"	"15.762"	"24.735"	"29.724"	"32.497"	"33.498"	"31.275"	"29.669"	"29.595"	"26.371"	"18.609"	"14.521"
"1917"	"14.477"	"17.197"	"22.111"	"25.034"	"28.87"	"32.922"	"30.5"	"29.371"	"27.912"	"24.925"	"17.906"	"15.218"
"1918"	"13.451"	"17.045"	"21.779"	"25.549"	"34.87"	"33.897"	"34.634"	"32.279"	"30.685"	"27.401"	"20.414"	"14.727"
"1919"	"14.244"	"15.596"	"22.699"	"27.405"	"32.105"	"36.69"	"31.543"	"29.972"	"29.88"	"26.691"	"19.703"	"14.438"
"1920"	"13.862"	"15.595"	"22.045"	"27.527"	"29.318"	"32.887"	"31.648"	"31.155"	"31.593"	"28.127"	"21.721"	"16.016"
"1921"	"15.139"	"17.48"	"25.224"	"31.495"	"35.593"	"35.848"	"34.064"	"30.534"	"30.049"	"26.001"	"20.425"	"17.011"
"1922"	"13.77"	"17.646"	"23.608"	"28.939"	"33.19"	"33.787"	"32.349"	"30.8"	"29.157"	"25.741"	"19.924"	"15.22"
"1923"	"13.861"	"15.557"	"22.89"	"29.208"	"32.094"	"36.1"	"31.89"	"29.286"	"30.252"	"26.094"	"19.907"	"15.391"
"1924"	"13.426"	"16.183"	"23.308"	"28.915"	"29.972"	"36.119"	"32.939"	"30.465"	"28.3"	"25.845"	"19.64"	"15.602"
"1925"	"12.361"	"14.295"	"23.086"	"30.409"	"32.842"	"31.58"	"29.95"	"30.695"	"31.062"	"26.91"	"18.918"	"14.93"
"1926"	"14.732"	"17.974"	"20.991"	"25.032"	"30.089"	"35.681"	"32.644"	"29.662"	"29.153"	"25.988"	"18.284"	"14.821"
"1927"	"12.855"	"14.208"	"20.928"	"27.031"	"31.402"	"34.46"	"31.233"	"29.632"	"29.589"	"26.692"	"19.928"	"16.119"
"1928"	"13.363"	"16.982"	"22.194"	"28.034"	"34.547"	"34.654"	"32.527"	"31.942"	"30.283"	"27.433"	"20.679"	"14.703"
"1929"	"14.039"	"15.455"	"24.662"	"29.197"	"33.589"	"34.587"	"31.623"	"30.024"	"31.092"	"26.789"	"20.623"	"13.908"
"1930"	"13.089"	"16.164"	"22.728"	"27.258"	"32.583"	"33.103"	"30.126"	"30.619"	"29.41"	"26.781"	"19.438"	"15.002"
"1931"	"14.77"	"13.821"	"20.999"	"29.031"	"32.502"	"34.542"	"31.588"	"30.658"	"29.25"	"26.207"	"19.534"	"15.621"
"1932"	"16.179"	"16.158"	"23.023"	"28.088"	"31.576"	"35.898"	"31.715"	"29.569"	"30.227"	"26.711"	"19.461"	"15.163"
"1933"	"11.76"	"16.808"	"21.734"	"26.158"	"30.357"	"33.786"	"30.828"	"28.454"	"28.285"	"25.795"	"19.71"	"16.013"
"1934"	"12.088"	"18.056"	"21.016"	"27.837"	"31.809"	"33.563"	"31.708"	"29.634"	"30.679"	"26.11"	"19.945"	"16.322"
"1935"	"12.434"	"16.877"	"22.102"	"24.727"	"32.899"	"35.476"	"31.158"	"29.658"	"29.47"	"26.188"	"20.625"	"15.037"
"1936"	"12.686"	"16.974"	"21.059"	"27.631"	"34.993"	"31.974"	"30.776"	"29.736"	"29.451"	"26.621"	"19.833"	"15.246"
"1937"	"13.358"	"16.496"	"20.399"	"26.333"	"32.618"	"34.679"	"30.862"	"31.675"	"30.168"	"25.408"	"19.441"	"13.448"
"1938"	"13.177"	"14.868"	"23.309"	"29.027"	"34.89"	"32.995"	"32.747"	"31.459"	"31.574"	"27.711"	"18.899"	"14.899"
"1939"	"14.751"	"16.704"	"19.546"	"26.362"	"34.111"	"32.582"	"31.762"	"31.862"	"30.952"	"27.992"	"20.106"	"16.006"
"1940"	"14.435"	"16.188"	"20.928"	"26.833"	"33.672"	"34.404"	"32.058"	"29.619"	"29.678"	"26.968"	"21.211"	"15.332"
"1941"	"13.421"	"17.644"	"24.631"	"31.118"	"34.393"	"32.521"	"32.991"	"31.078"	"30.269"	"29.264"	"20.687"	"16.423"
"1942"	"12.944"	"17.175"	"23.702"	"29.936"	"33.406"	"34.994"	"30.476"	"28.955"	"28.19"	"26.306"	"21.327"	"14.111"
"1943"	"13.653"	"16.553"	"22.918"	"26.841"	"32.581"	"33.962"	"31.053"	"29.524"	"30.478"	"26.691"	"20.921"	"16.691"
"1944"	"13.355"	"15.888"	"20.919"	"27.411"	"34.007"	"34.166"	"31.05"	"30.268"	"29.501"	"25.902"	"20.838"	"15.858"
"1945"	"12.051"	"15.574"	"22.825"	"26.54"	"31.612"	"33.85"	"30.912"	"30.449"	"28.962"	"26.217"	"20.227"	"14.021"
"1946"	"14.747"	"18.657"	"21.617"	"30.579"	"33.369"	"34.204"	"31.155"	"30.233"	"30.339"	"27.469"	"19.924"	"14.04"
"1947"	"13.455"	"16.774"	"23.316"	"30.127"	"34.165"	"36.602"	"33.379"	"31.619"	"28.772"	"25.689"	"21.542"	"15.357"
"1948"	"14.039"	"16.173"	"21.412"	"30.546"	"33.876"	"35.399"	"31.762"	"29.733"	"30.346"	"27.638"	"18.938"	"15.107"
"1949"	"15.855"	"16.787"	"23.005"	"30.29"	"35.218"	"34.637"	"30.949"	"30.679"	"31.624"	"26.417"	"18.71"	"14.526"
"1950"	"15.36"	"14.167"	"21.12"	"27.214"	"33.981"	"35.2"	"31.257"	"29.788"	"28.748"	"25.787"	"19.126"	"13.261"
"1951"	"13.365"	"16.106"	"22.414"	"26.224"	"32.606"	"34.291"	"33.741"	"30.957"	"30.932"	"29.596"	"21.752"	"16.014"
"1952"	"15.336"	"18.779"	"22.877"	"30.949"	"33.847"	"33.692"	"32.055"	"29.734"	"30.982"	"27.244"	"20.442"	"15.354"
"1953"	"13.956"	"18.999"	"26.12"	"29.69"	"34.372"	"34.917"	"31.534"	"30.241"	"30.27"	"27.106"	"20.464"	"18.202"
"1954"	"13.55"	"17.748"	"22.507"	"29.319"	"34.872"	"35.308"	"32.245"	"32.046"	"30.583"	"24.793"	"20.494"	"15.721"
"1955"	"14.057"	"17.473"	"24.718"	"26.744"	"31.301"	"35.395"	"32.761"	"30.162"	"29.269"	"25.393"	"19.743"	"15.921"
"1956"	"14.279"	"17.404"	"22.915"	"29.516"	"35.647"	"34.399"	"30.79"	"29.661"	"31.171"	"25.409"	"19.23"	"15.834"
"1957"	"13.576"	"15.401"	"21.817"	"27.018"	"31.393"	"34.052"	"32.25"	"30.656"	"28.832"	"26.881"	"20.824"	"15.382"
"1958"	"15.852"	"16.654"	"24.028"	"31.385"	"33.18"	"35.47"	"31.389"	"30.934"	"29.102"	"26.691"	"21.012"	"16.333"
"1959"	"13.779"	"15.904"	"23.526"	"29.103"	"32.572"	"35.212"	"31.836"	"30.367"	"29.594"	"27.005"	"20.612"	"15.915"
"1960"	"13.663"	"19.553"	"21.839"	"27.703"	"33.868"	"35.401"	"32.03"	"30.545"	"30.673"	"26.489"	"19.537"	"15.246"
"1961"	"14.935"	"15.063"	"23.224"	"27.749"	"32.987"	"34.295"	"31.277"	"30.059"	"30.187"	"26.014"	"18.611"	"13.295"
"1962"	"12.832"	"17.578"	"22.396"	"29.808"	"33.196"	"34.511"	"32.358"	"31.157"	"28.576"	"26.638"	"19.735"	"14.536"
"1963"	"13.142"	"18.496"	"22.411"	"28.186"	"31.661"	"34.399"	"33.092"	"30.024"	"29.176"	"27.489"	"21.355"	"15.128"
"1964"	"12.134"	"16.001"	"23.334"	"29.006"	"31.081"	"34.625"	"30.079"	"30.378"	"29.041"	"25.889"	"18.912"	"14.862"
"1965"	"16.034"	"17.065"	"22.177"	"26.235"	"31.664"	"35.287"	"31.65"	"30.25"	"29.746"	"27.263"	"21.299"	"13.954"
"1966"	"14.46"	"18.765"	"22.133"	"28.643"	"32.953"	"33.507"	"32.876"	"30.354"	"29.244"	"26.802"	"19.739"	"14.328"
"1967"	"12.544"	"18.967"	"21.704"	"27.608"	"32.173"	"35.104"	"31.832"	"29.934"	"29.234"	"25.98"	"20.234"	"15.462"
"1968"	"13.481"	"15.198"	"22.507"	"28.276"	"32.388"	"35.1"	"31.827"	"30.84"	"31.336"	"26.2"	"20.713"	"15.639"
"1969"	"14.452"	"17.458"	"25.218"	"29.24"	"31.789"	"35.67"	"32.226"	"31.43"	"30.068"	"27.993"	"21.743"	"16.018"
"1970"	"14.931"	"16.558"	"22.516"	"29.798"	"34.348"	"32.795"	"32.775"	"30.462"	"30.075"	"27.72"	"19.859"	"15.719"
"1971"	"13.259"	"17.563"	"22.562"	"29.699"	"31.561"	"32.393"	"30.352"	"28.567"	"28.332"	"26.274"	"19.455"	"16.32"
"1972"	"14.554"	"14.603"	"23.588"	"27.503"	"32.851"	"33.798"	"32.341"	"29.135"	"29.208"	"25.461"	"20.933"	"15.642"
"1973"	"14.307"	"18.544"	"22.409"	"30.192"	"33.223"	"35.699"	"31.912"	"28.999"	"29.615"	"25.522"	"19.486"	"13.734"
"1974"	"13.858"	"14.781"	"24.236"	"30.397"	"32.606"	"32.269"	"30.851"	"30.555"	"30.691"	"26.251"	"19.754"	"14.233"
"1975"	"13.176"	"16.113"	"21.853"	"28.745"	"33.292"	"33.118"	"29.704"	"29.34"	"28.257"	"27.272"	"19.156"	"16.118"
"1976"	"14.877"	"17.134"	"20.702"	"28"	"32.84"	"31.988"	"31.427"	"28.006"	"28.794"	"27.305"	"20.785"	"15.327"
"1977"	"14.213"	"16.971"	"24.014"	"28.189"	"30.629"	"31.332"	"29.306"	"29.423"	"27.726"	"25.788"	"22.522"	"16.909"
"1978"	"13.285"	"14.939"	"20.39"	"28.437"	"36.252"	"34.191"	"29.606"	"29.276"	"28.013"	"26.326"	"20.643"	"15.77"
"1979"	"14.039"	"16.013"	"20.554"	"29.251"	"29.569"	"34.559"	"31.725"	"30.88"	"28.884"	"26.529"	"21.809"	"16.349"
"1980"	"14.195"	"18.206"	"21.507"	"30.196"	"33.939"	"34.09"	"30.03"	"30.372"	"29.523"	"27.359"	"21.084"	"15.766"
"1981"	"15.186"	"17.77"	"21.462"	"29.23"	"32.585"	"33.98"	"29.808"	"31.009"	"30.247"	"26.475"	"19.412"	"15.831"
"1982"	"14.529"	"15.164"	"19.973"	"27.1"	"30.395"	"34.276"	"33.112"	"30.106"	"30.902"	"27.404"	"21.388"	"16.252"
"1983"	"13.636"	"16.151"	"21.813"	"25.538"	"31.334"	"33.457"	"31.271"	"29.764"	"30.328"	"26.349"	"19.949"	"15.949"
"1984"	"13.404"	"14.867"	"24.287"	"28.838"	"35.711"	"35.793"	"30.803"	"29.758"	"28.275"	"25.335"	"20.11"	"15.823"
"1985"	"13.871"	"18.094"	"24.509"	"29.399"	"34.316"	"34.219"	"30.409"	"30.452"	"29.507"	"24.76"	"20.713"	"16.966"
"1986"	"14.035"	"16.08"	"22.297"	"28.866"	"30.89"	"34.174"	"30.764"	"30.446"	"29.848"	"26.22"	"21.558"	"14.936"
"1987"	"15.043"	"18.01"	"22.846"	"29.303"	"29.62"	"35.225"	"35.083"	"32.244"	"32.168"	"28.201"	"21.167"	"16.128"
"1988"	"15.907"	"18.302"	"22.675"	"30.028"	"35.918"	"33.795"	"30.423"	"29.373"	"29.603"	"26.241"	"21.101"	"16.52"
"1989"	"13.442"	"16.336"	"21.852"	"27.49"	"34.162"	"33.734"	"31.536"	"29.58"	"29.509"	"26.549"	"21.121"	"15.221"
"1990"	"16.243"	"16.522"	"20.742"	"28.467"	"33.224"	"35.048"	"30.389"	"30.068"	"29.261"	"25.603"	"21.111"	"15.942"
"1991"	"14.16"	"16.92"	"22.219"	"27.329"	"33.281"	"33.784"	"33.948"	"30.169"	"30.317"	"26.072"	"20.68"	"16.337"
"1992"	"15.137"	"16.142"	"22.222"	"28.035"	"32.33"	"35.124"	"30.572"	"29.909"	"29.052"	"26.028"	"20.12"	"16.979"
"1993"	"14.594"	"18.878"	"20.982"	"29.033"	"34.634"	"34.856"	"30.886"	"32.232"	"28.403"	"26.308"	"21.429"	"15.837"
"1994"	"15.384"	"16.616"	"24.106"	"27.636"	"34.067"	"34.974"	"30.36"	"29.569"	"28.98"	"25.792"	"20.731"	"16.346"
"1995"	"13.695"	"17.013"	"21.499"	"27.908"	"34.617"	"36.178"	"32.435"	"28.636"	"29.692"	"27.024"	"20.821"	"16.14"
"1996"	"14.305"	"17.485"	"23.442"	"29.184"	"33.107"	"32.276"	"32.377"	"29.902"	"29.447"	"26.285"	"20.094"	"14.926"
"1997"	"13.522"	"16.769"	"21.937"	"26.933"	"30.595"	"31.987"	"32.043"	"29.766"	"29.789"	"24.301"	"19.559"	"13.331"
"1998"	"13.94"	"17.296"	"20.8"	"29.114"	"34.075"	"34.099"	"31.558"	"30.711"	"29.8"	"26.585"	"21.125"	"15.424"
"1999"	"13.557"	"17.575"	"23.424"	"30.49"	"33.678"	"33.303"	"32.176"	"30.883"	"30.427"	"27.188"	"22.001"	"15.945"
"2000"	"14.33"	"15.973"	"22.396"	"30.797"	"35.028"	"32.949"	"30.758"	"30.546"	"29.794"	"27.236"	"21.555"	"16.151"
"2001"	"13.532"	"17.773"	"23.088"	"28.642"	"33.259"	"31.878"	"31.205"	"30.859"	"31.049"	"27.726"	"21.595"	"16.41"
"2002"	"14.965"	"16.761"	"22.716"	"30.633"	"34.343"	"34.219"	"32.76"	"31.274"	"28.654"	"26.835"	"21.522"	"16.442"
