
"Year"	"Jan"	"Feb"	"Mar"	"Apr"	"May"	"Jun"	"Jul"	"Aug"	"Sep"	"Oct"	"Nov"	"Dec"
"1901"	"13.798"	"15.739"	"19.079"	"22.242"	"22.618"	"23.357"	"23.332"	"23.295"	"23.328"	"22.258"	"18.139"	"14.964"
"1902"	"14.237"	"15.473"	"19.849"	"20.533"	"22.781"	"22.752"	"23.433"	"23.167"	"23.199"	"20.953"	"17.443"	"14.459"
"1903"	"13.168"	"14.748"	"19.034"	"22.142"	"22.843"	"23.111"	"23.838"	"22.402"	"23.262"	"22.458"	"18.347"	"15.094"
"1904"	"13.468"	"15.738"	"19.588"	"20.908"	"22.307"	"23.357"	"23.262"	"23.027"	"23.428"	"21.758"	"17.712"	"14.135"
"1905"	"13.167"	"12.639"	"17.904"	"19.937"	"22.777"	"23.687"	"23.633"	"22.633"	"23.762"	"21.857"	"18.242"	"15.054"
"1906"	"13.994"	"15.042"	"18.204"	"21.247"	"23.213"	"23.387"	"23.967"	"22.266"	"24.229"	"21.557"	"18.343"	"15.034"
"1907"	"14.838"	"14.682"	"18.199"	"20.337"	"22.018"	"22.424"	"22.897"	"23.367"	"22.993"	"21.957"	"18.443"	"14.934"
"1908"	"13.969"	"15.182"	"19.684"	"22.653"	"22.247"	"23.087"	"23.032"	"23.167"	"23.394"	"21.658"	"17.847"	"14.834"
"1909"	"13.768"	"15.348"	"20.159"	"20.743"	"21.759"	"22.324"	"23.903"	"22.563"	"24.129"	"22.757"	"19.347"	"15.169"
"1910"	"13.797"	"14.953"	"18.678"	"20.722"	"22.548"	"22.253"	"22.434"	"22.832"	"23.534"	"21.458"	"18.476"	"14.2"
"1911"	"14.2"	"14.718"	"18.408"	"20.768"	"21.723"	"22.654"	"22.832"	"22.766"	"23.229"	"21.758"	"18.139"	"14.16"
"1912"	"13.869"	"15.684"	"18.975"	"20.162"	"22.319"	"22.852"	"22.998"	"22.732"	"22.957"	"21.257"	"18.414"	"14.863"
"1913"	"14.438"	"16.553"	"18.519"	"20.888"	"21.282"	"22.454"	"23.403"	"22.766"	"23.129"	"21.458"	"17.612"	"13.894"
"1914"	"13.64"	"15.148"	"19.109"	"20.266"	"21.852"	"22.853"	"23.438"	"22.133"	"23.195"	"20.424"	"18.143"	"15.194"
"1915"	"15.072"	"15.607"	"19.234"	"21.484"	"21.723"	"22.32"	"22.262"	"22.731"	"23.027"	"23.369"	"19.748"	"15.764"
"1916"	"13.768"	"15.739"	"19.53"	"20.643"	"22.385"	"22.961"	"22.923"	"22.871"	"23.333"	"21.562"	"18.848"	"14.455"
"1917"	"13.469"	"14.748"	"18.184"	"20.012"	"21.948"	"22.358"	"23.032"	"22.866"	"22.904"	"21.758"	"19.082"	"14.239"
"1918"	"13.735"	"15.043"	"18.984"	"20.743"	"22.688"	"21.387"	"23.233"	"22.567"	"23.328"	"21.648"	"17.813"	"14.903"
"1919"	"14.967"	"15.178"	"20.383"	"21.112"	"22.677"	"22.86"	"22.932"	"23.406"	"22.329"	"21.453"	"18.647"	"14.944"
"1920"	"14.968"	"14.971"	"18.449"	"20.537"	"22.013"	"22.553"	"23.742"	"22.667"	"23.299"	"21.658"	"18.199"	"15.345"
"1921"	"15.339"	"15.539"	"19.312"	"21.041"	"22.289"	"22.022"	"23.338"	"23.167"	"23.129"	"20.428"	"18.023"	"14.759"
"1922"	"15.034"	"15.857"	"19.724"	"21.633"	"22.947"	"22.428"	"23.447"	"23.171"	"23.204"	"21.468"	"18.632"	"15.165"
"1923"	"15.068"	"15.173"	"19.643"	"21.617"	"21.684"	"22.956"	"23.108"	"23.352"	"23.404"	"21.032"	"18.653"	"15.341"
"1924"	"14.368"	"15.248"	"20.801"	"21.913"	"21.588"	"23.057"	"23.442"	"23.108"	"22.832"	"22.472"	"18.982"	"14.669"
"1925"	"12.794"	"14.263"	"19.079"	"21.167"	"22.122"	"22.89"	"22.842"	"22.866"	"22.728"	"20.529"	"17.618"	"14.574"
"1926"	"14.263"	"15.148"	"18.445"	"20.512"	"22.349"	"22.324"	"23.167"	"23.181"	"23.125"	"21.767"	"17.652"	"15.865"
"1927"	"13.565"	"14.672"	"17.45"	"20.423"	"21.818"	"22.524"	"23.332"	"22.976"	"22.629"	"21.433"	"17.853"	"15.265"
"1928"	"14.897"	"16.453"	"19.583"	"22.073"	"21.944"	"22.429"	"23.314"	"23.167"	"23.328"	"21.251"	"17.338"	"15.569"
"1929"	"14.497"	"14.671"	"19.312"	"21.042"	"21.908"	"22.098"	"23.338"	"22.966"	"23.233"	"21.767"	"17.742"	"14.689"
"1930"	"12.598"	"15.748"	"18.849"	"20.941"	"22.553"	"21.828"	"23.534"	"22.966"	"23.894"	"21.057"	"18.673"	"14.987"
"1931"	"13.724"	"14.702"	"19.209"	"22.133"	"21.702"	"22.287"	"22.732"	"23.367"	"23.022"	"22.728"	"18.289"	"15.659"
"1932"	"14.468"	"15.008"	"19.95"	"21.842"	"22.831"	"22.483"	"23.167"	"23.098"	"23.529"	"22.453"	"18.844"	"15.36"
"1933"	"13.723"	"15.477"	"20.113"	"21.307"	"21.718"	"23.153"	"23.332"	"22.965"	"23.604"	"22.129"	"17.248"	"14.539"
"1934"	"14.393"	"15.082"	"19.879"	"21.837"	"21.993"	"21.973"	"23.093"	"22.701"	"23.424"	"22.152"	"17.282"	"14.764"
"1935"	"13.338"	"15.597"	"19.813"	"21.146"	"23.437"	"22.539"	"23.338"	"22.463"	"23.353"	"22.258"	"18.653"	"14.191"
"1936"	"12.793"	"14.672"	"19.88"	"21.608"	"22.578"	"23.324"	"23.428"	"23.262"	"23.332"	"21.524"	"18.877"	"15.456"
"1937"	"12.398"	"15.74"	"19.283"	"22.513"	"22.722"	"23.332"	"23.629"	"22.795"	"23.453"	"21.891"	"17.573"	"15.514"
"1938"	"14.633"	"14.977"	"20.909"	"22.538"	"22.167"	"22.956"	"23.027"	"23.159"	"23.324"	"22.258"	"17.239"	"15.485"
"1939"	"13.874"	"15.938"	"19.388"	"22.373"	"22.423"	"22.752"	"23.159"	"23.501"	"23.328"	"21.653"	"18.838"	"15.56"
"1940"	"13.143"	"15.274"	"17.553"	"22.408"	"22.117"	"23.053"	"23.003"	"23.501"	"22.828"	"22.057"	"18.413"	"15.698"
"1941"	"13.76"	"15.477"	"20.775"	"22.073"	"22.078"	"22.671"	"23.538"	"23.492"	"23.094"	"21.558"	"17.473"	"15.993"
"1942"	"14.065"	"16.082"	"19.974"	"21.743"	"22.143"	"22.822"	"23.613"	"22.976"	"22.638"	"22.333"	"18.547"	"14.66"
"1943"	"14.264"	"14.157"	"18.383"	"20.297"	"22.368"	"22.687"	"23.237"	"22.373"	"23.003"	"21.557"	"18.853"	"15.539"
"1944"	"13.298"	"14.577"	"19.312"	"20.577"	"22.613"	"22.488"	"23.343"	"23.167"	"22.553"	"21.688"	"17.873"	"15.528"
"1945"	"13.97"	"14.373"	"19.601"	"21.872"	"22.143"	"23.553"	"23.262"	"22.861"	"23.758"	"21.061"	"18.367"	"14.884"
"1946"	"14.402"	"17.224"	"19.875"	"21.055"	"22.349"	"22.852"	"23.159"	"23.567"	"23.428"	"21.458"	"19.077"	"15.89"
"1947"	"14.19"	"15.947"	"20.179"	"21.549"	"22.692"	"23.147"	"23.338"	"23.167"	"23.172"	"20.958"	"18.318"	"16.089"
"1948"	"14.443"	"15.314"	"18.554"	"20.982"	"20.989"	"22.801"	"22.961"	"23.332"	"23.463"	"21.354"	"19.148"	"14.789"
"1949"	"14.172"	"15.382"	"18.799"	"19.402"	"21.453"	"22.453"	"22.828"	"22.567"	"23.129"	"22.392"	"18.073"	"13.995"
"1950"	"13.814"	"14.947"	"18.885"	"21.142"	"22.712"	"22.558"	"23.167"	"22.497"	"23.423"	"21.882"	"18.177"	"15.294"
"1951"	"13.644"	"16.043"	"19.854"	"22.183"	"21.852"	"22.353"	"22.856"	"23.666"	"23.332"	"22.163"	"18.617"	"16.559"
"1952"	"14.572"	"17.023"	"18.583"	"21.848"	"22.344"	"23.757"	"23.533"	"23.562"	"23.053"	"22.777"	"18.919"	"15.549"
"1953"	"13.673"	"16.448"	"20.449"	"22.042"	"21.848"	"23.187"	"23.087"	"23.666"	"23.328"	"21.948"	"18.443"	"16.764"
"1954"	"13.068"	"17.118"	"19.679"	"22.103"	"22.489"	"22.183"	"22.756"	"22.757"	"23.629"	"21.353"	"17.452"	"15.56"
"1955"	"14.065"	"15.349"	"19.642"	"21.171"	"22.452"	"22.847"	"22.633"	"22.468"	"23.637"	"22.625"	"19.152"	"14.544"
"1956"	"13.773"	"15.562"	"19.674"	"22.073"	"21.927"	"22.229"	"23.409"	"23.167"	"23.108"	"22.229"	"18.517"	"15.265"
"1957"	"14.439"	"14.743"	"19.283"	"22.208"	"22.539"	"22.766"	"23.242"	"23.442"	"23.333"	"21.057"	"17.757"	"15.36"
"1958"	"13.587"	"15.147"	"19.393"	"22.543"	"21.976"	"24.338"	"23.912"	"22.368"	"23.768"	"21.865"	"18.028"	"15.169"
"1959"	"14.139"	"14.618"	"18.754"	"21.548"	"21.948"	"22.472"	"23.842"	"23.181"	"22.933"	"21.191"	"17.747"	"15.695"
"1960"	"14.16"	"15.771"	"18.819"	"22.622"	"23.727"	"23.428"	"22.842"	"23.871"	"23.163"	"22.001"	"18.373"	"15.213"
"1961"	"14.191"	"14.477"	"18.987"	"22.022"	"22.946"	"23.167"	"23.647"	"23.542"	"23.633"	"21.961"	"17.443"	"14.009"
"1962"	"12.856"	"14.93"	"19.168"	"22.233"	"22.666"	"22.458"	"23.834"	"22.658"	"23.633"	"21.462"	"17.914"	"15.161"
"1963"	"13.739"	"16.684"	"19.745"	"20.751"	"21.752"	"22.266"	"22.937"	"23.097"	"23.929"	"21.256"	"17.608"	"15.36"
"1964"	"13.598"	"15.476"	"19.568"	"20.471"	"21.881"	"22.077"	"22.233"	"23.262"	"23.719"	"22.654"	"18.976"	"14.929"
"1965"	"13.739"	"14.752"	"18.078"	"21.532"	"22.843"	"22.757"	"22.667"	"22.067"	"22.927"	"21.728"	"17.807"	"15.798"
"1966"	"14.472"	"16.717"	"20.251"	"22.233"	"23.272"	"21.753"	"23.533"	"22.563"	"23.098"	"21.052"	"19.672"	"15.223"
"1967"	"14.723"	"16.317"	"18.773"	"21.343"	"22.843"	"23.31"	"23.433"	"23.768"	"23.023"	"21.458"	"17.434"	"15.469"
"1968"	"14.065"	"14.909"	"19.636"	"21.212"	"21.743"	"22.563"	"23.266"	"23.463"	"23.029"	"21.857"	"18.439"	"15.055"
"1969"	"13.664"	"15.909"	"20.15"	"22.139"	"22.855"	"22.659"	"23.833"	"22.592"	"23.728"	"21.957"	"18.434"	"15.361"
"1970"	"13.294"	"15.348"	"19.436"	"21.942"	"22.613"	"23.254"	"22.932"	"23.196"	"22.629"	"21.553"	"18.443"	"15.256"
"1971"	"13.989"	"15.134"	"20.005"	"20.882"	"22.432"	"22.663"	"22.837"	"22.172"	"23.324"	"21.723"	"17.704"	"15.147"
"1972"	"14.66"	"14.907"	"19.308"	"20.899"	"23.134"	"23.283"	"23.628"	"23.171"	"23.644"	"22.154"	"18.93"	"15.389"
"1973"	"14.789"	"16.247"	"19.738"	"22.942"	"22.284"	"22.853"	"24.034"	"23.167"	"23.429"	"21.757"	"18.317"	"14.589"
"1974"	"13.764"	"15.608"	"19.083"	"20.703"	"22.153"	"22.787"	"21.862"	"23.167"	"22.699"	"22.563"	"19.701"	"14.286"
"1975"	"13.865"	"15.753"	"19.904"	"22.253"	"22.247"	"23.762"	"22.538"	"23.167"	"22.927"	"22.358"	"17.948"	"14.331"
"1976"	"14.006"	"16.342"	"19.674"	"21.638"	"22.122"	"21.462"	"22.737"	"22.762"	"23.233"	"21.353"	"19.114"	"14.698"
"1977"	"13.197"	"15.007"	"20.092"	"19.181"	"20.949"	"21.848"	"23.242"	"22.795"	"23.458"	"20.957"	"18.545"	"15.427"
"1978"	"13.094"	"16.205"	"19.009"	"21.351"	"22.154"	"22.957"	"23.106"	"23.912"	"22.774"	"22.629"	"18.541"	"15.359"
"1979"	"15.033"	"15.847"	"19.874"	"22.842"	"24.043"	"24.029"	"23.528"	"23.367"	"22.998"	"21.652"	"19.935"	"15.93"
"1980"	"14.16"	"15.519"	"19.278"	"22.432"	"21.878"	"23.533"	"23.904"	"23.266"	"23.463"	"21.358"	"19.034"	"16.068"
"1981"	"14.697"	"15.952"	"19.208"	"20.247"	"22.453"	"23.632"	"23.625"	"23.563"	"23.434"	"22.192"	"19.214"	"15.469"
"1982"	"15.043"	"15.684"	"19.378"	"20.607"	"23.514"	"22.756"	"23.428"	"23.501"	"23.229"	"21.931"	"18.114"	"15.13"
"1983"	"13.909"	"14.821"	"18.748"	"20.716"	"21.948"	"23.349"	"23.262"	"23.272"	"23.398"	"22.501"	"18.852"	"14.534"
"1984"	"13.097"	"15.116"	"19.6"	"21.355"	"21.281"	"22.742"	"22.998"	"23.371"	"22.5"	"21.841"	"18.012"	"16.167"
"1985"	"14.464"	"15.51"	"19.704"	"21.4"	"22.423"	"22.391"	"22.658"	"23.468"	"23.129"	"22.654"	"18.114"	"16.501"
"1986"	"14.303"	"16.908"	"20.581"	"20.696"	"22.562"	"23.658"	"23.167"	"23.462"	"22.853"	"21.048"	"17.926"	"15.56"
"1987"	"15.067"	"16.812"	"18.583"	"20.647"	"22.673"	"23.827"	"23.225"	"23.159"	"23.028"	"21.462"	"19.613"	"15.502"
"1988"	"14.958"	"16.747"	"19.209"	"22.802"	"22.173"	"23.267"	"23.432"	"22.497"	"22.962"	"22.288"	"19.543"	"17.136"
"1989"	"12.832"	"16.038"	"19.218"	"22.402"	"23.848"	"23.058"	"22.761"	"23.367"	"23.059"	"22.063"	"17.848"	"15.231"
"1990"	"14.408"	"16.03"	"17.613"	"19.289"	"22.595"	"22.927"	"23.167"	"23.867"	"23.052"	"21.853"	"20.243"	"15.97"
"1991"	"13.237"	"16.777"	"20.379"	"21.766"	"21.102"	"22.592"	"23.533"	"23.566"	"23.353"	"22.819"	"17.747"	"14.764"
"1992"	"14.065"	"13.382"	"20.76"	"22.632"	"22.043"	"23.748"	"22.516"	"23.567"	"23.728"	"21.528"	"18.642"	"13.769"
"1993"	"13.573"	"15.492"	"18.308"	"20.712"	"21.123"	"22.093"	"23.362"	"22.866"	"23.029"	"22.852"	"19.347"	"16.698"
"1994"	"15.099"	"15.283"	"19.798"	"20.982"	"23.045"	"23.068"	"23.666"	"23.772"	"24.399"	"21.057"	"19.332"	"15.426"
"1995"	"14.363"	"16.048"	"20.578"	"22.638"	"23.938"	"23.192"	"23.167"	"23.567"	"23.299"	"22.952"	"20.338"	"15.303"
"1996"	"14.199"	"16.258"	"19.247"	"23.012"	"22.349"	"22.968"	"23.233"	"22.976"	"23.933"	"22.159"	"19.572"	"17.159"
"1997"	"13.969"	"14.672"	"19.1"	"20.452"	"22.847"	"23.462"	"23.242"	"23.875"	"23.028"	"21.662"	"19.342"	"16.36"
"1998"	"14.199"	"16.049"	"18.308"	"21.951"	"23.833"	"23.547"	"23.908"	"23.266"	"24.305"	"23.463"	"20.352"	"16.593"
"1999"	"15.293"	"19.422"	"20.988"	"23.086"	"23.027"	"23.833"	"23.941"	"22.966"	"23.733"	"22.612"	"19.648"	"16.094"
"2000"	"13.595"	"16.027"	"18.509"	"21.396"	"22.559"	"23.167"	"24.338"	"23.027"	"22.832"	"22.192"	"18.547"	"15.764"
"2001"	"14.797"	"16.848"	"19.918"	"22.138"	"22.921"	"23.562"	"24.238"	"23.871"	"24.727"	"22.593"	"18.987"	"15.994"
"2002"	"15.069"	"17.158"	"20.288"	"21.742"	"22.619"	"23.058"	"24.003"	"23.372"	"23.368"	"22.163"	"19.283"	"16.159"
