
"Year"	"Jan"	"Feb"	"Mar"	"Apr"	"May"	"Jun"	"Jul"	"Aug"	"Sep"	"Oct"	"Nov"	"Dec"
"1901"	"33.011"	"54.65"	"0.198"	"10.062"	"60.679"	"95.517"	"209.749"	"214.894"	"365.814"	"112.103"	"196.864"	"0.824"
"1902"	"16.009"	"1.88"	"12.599"	"26.352"	"54.787"	"167.528"	"248.252"	"316.495"	"199.854"	"144.8"	"4.27"	"34.479"
"1903"	"9.052"	"33.19"	"6.54"	"7.625"	"12.974"	"143.838"	"204.243"	"167.604"	"251.597"	"190.734"	"30.466"	"2.194"
"1904"	"1.006"	"11.875"	"22.475"	"2.204"	"93.294"	"218.947"	"345.925"	"250.727"	"223.282"	"82.103"	"4.171"	"7.079"
"1905"	"8.753"	"13.749"	"69.8"	"33.142"	"107.429"	"64.13"	"353.404"	"187.213"	"256.289"	"109.474"	"3.331"	"0.824"
"1906"	"10.286"	"54.268"	"50.217"	"0.23"	"21.68"	"162.098"	"256.916"	"415.519"	"171.586"	"136.101"	"42.721"	"1.584"
"1907"	"1.006"	"9.557"	"44.477"	"50.818"	"39.445"	"183.987"	"147.153"	"250.476"	"91.905"	"47.424"	"6.929"	"29.295"
"1908"	"22.352"	"1.699"	"0.198"	"1.117"	"33.595"	"368.48"	"343.229"	"326.761"	"243.21"	"53.178"	"4.237"	"0.494"
"1909"	"1.222"	"27.92"	"0.198"	"43.638"	"30.545"	"175.955"	"210.964"	"321.771"	"193.447"	"71.905"	"4.451"	"27.4"
"1910"	"22.379"	"2.968"	"5.86"	"6.867"	"31.856"	"210.679"	"382.241"	"321.193"	"203.189"	"270.013"	"3.988"	"0.362"
"1911"	"0"	"2.69"	"16.742"	"9.663"	"21.14"	"295.068"	"162.27"	"163.498"	"319.816"	"74.076"	"4.728"	"0.609"
"1912"	"1.106"	"29.722"	"69.703"	"11.281"	"33.503"	"166.856"	"294.316"	"308.48"	"208.736"	"113.871"	"198.264"	"0"
"1913"	"1.519"	"34.665"	"7.462"	"9.323"	"49.949"	"185.323"	"330.951"	"187.668"	"132.549"	"254.719"	"37.65"	"3.925"
"1914"	"0"	"41.549"	"3.121"	"39.872"	"70.829"	"198.177"	"270.902"	"191.243"	"380.084"	"7.873"	"1.764"	"16.57"
"1915"	"5.383"	"19.6"	"40.574"	"24.005"	"69.55"	"186.203"	"262.641"	"433.618"	"205.33"	"162.443"	"116.939"	"0.84"
"1916"	"1.006"	"0.198"	"0.198"	"7.674"	"22.628"	"390.17"	"209.738"	"304.492"	"239.063"	"409.724"	"166.294"	"0.362"
"1917"	"0"	"92.217"	"15.457"	"9.37"	"69.778"	"239.727"	"271.833"	"315.04"	"168.834"	"361.668"	"21.192"	"0.824"
"1918"	"1.222"	"0.527"	"8.948"	"22.977"	"74.061"	"265.471"	"157.586"	"219.801"	"188.55"	"18.344"	"3.89"	"3.179"
"1919"	"66.405"	"14.428"	"4.591"	"19.4"	"24.617"	"217.685"	"236.685"	"335.594"	"95.427"	"121.508"	"132.145"	"0.693"
"1920"	"1.222"	"15.185"	"62.337"	"1.216"	"27.625"	"131.393"	"178.447"	"294.274"	"189.185"	"181.617"	"2.687"	"0.23"
"1921"	"67.287"	"2.276"	"6.159"	"20.096"	"17.472"	"199.768"	"192.301"	"261.322"	"249.384"	"107.674"	"4.106"	"0.824"
"1922"	"9.697"	"7.76"	"0.198"	"5.251"	"13.378"	"271.363"	"240.981"	"346.901"	"302.962"	"68.574"	"40.592"	"0.478"
"1923"	"1.222"	"79.985"	"21.038"	"3.751"	"36.79"	"105.469"	"239.834"	"247.523"	"178.244"	"200.94"	"81.872"	"13.213"
"1924"	"26.568"	"8.403"	"0.198"	"2.204"	"26.329"	"54.553"	"171.714"	"244.248"	"394.971"	"107.17"	"109.813"	"0.346"
"1925"	"3.267"	"1.847"	"14.598"	"35.372"	"63.203"	"420.907"	"311.814"	"241.342"	"148.573"	"264.286"	"8.559"	"29.781"
"1926"	"7.876"	"6.156"	"58.52"	"20.844"	"23.747"	"117.864"	"381.834"	"350.853"	"294.628"	"108.598"	"1.435"	"4.165"
"1927"	"1.287"	"5.475"	"39.564"	"9.022"	"34.191"	"121.724"	"181.779"	"230.23"	"241.114"	"68.628"	"14.572"	"0.693"
"1928"	"1.535"	"1.699"	"1.073"	"26.947"	"41.889"	"245.261"	"343.975"	"388.177"	"194.687"	"289.141"	"12.624"	"0"
"1929"	"2.804"	"31.317"	"21.408"	"8.907"	"38.202"	"124.634"	"152.086"	"303.261"	"218.291"	"332.375"	"2.44"	"7.62"
"1930"	"1.321"	"17.971"	"3.748"	"1.664"	"114.732"	"192.228"	"349.791"	"287.238"	"198.719"	"98.872"	"119.711"	"0.693"
"1931"	"3.799"	"12.305"	"14.085"	"12.868"	"58.465"	"126.252"	"252.22"	"266.066"	"235.572"	"309.507"	"58.232"	"8.049"
"1932"	"0.413"	"10.536"	"5.863"	"6.355"	"72.957"	"76.914"	"250.248"	"244.306"	"178.63"	"112.869"	"181.328"	"0.346"
"1933"	"29.043"	"6.282"	"10.684"	"13.799"	"55.434"	"263.277"	"307.603"	"219.337"	"209.412"	"279.444"	"10.742"	"0.049"
"1934"	"0"	"9.494"	"1.668"	"7.87"	"16.885"	"209.722"	"296.867"	"297.184"	"206.064"	"151.845"	"14.56"	"1.316"
"1935"	"2.871"	"9.555"	"8.406"	"10.193"	"10.656"	"120.121"	"134.31"	"164.767"	"122.406"	"85.519"	"2.654"	"1.037"
"1936"	"6.87"	"39.498"	"4.472"	"6.373"	"90.363"	"392.783"	"200.883"	"257.955"	"268.271"	"204.016"	"33.642"	"3.457"
"1937"	"1.222"	"65.837"	"13.111"	"16.164"	"51.233"	"217.996"	"162.005"	"274.531"	"197.079"	"234.34"	"3.659"	"1.943"
"1938"	"9.2"	"10.74"	"4.393"	"1.101"	"89.28"	"174.94"	"131.197"	"209.658"	"222.995"	"133.784"	"9.009"	"0.247"
"1939"	"11.732"	"5.375"	"64.879"	"6.898"	"17.511"	"130.03"	"287.861"	"358.047"	"300.021"	"314.391"	"14.637"	"3.776"
"1940"	"0"	"19.882"	"88.529"	"0.247"	"114.541"	"250.39"	"208.981"	"237.158"	"237.702"	"125.697"	"7.029"	"3.629"
"1941"	"31.288"	"1.699"	"1.353"	"4.345"	"38.067"	"219.461"	"218.98"	"322.793"	"172.962"	"324.158"	"68.665"	"0.609"
"1942"	"2.064"	"11.213"	"1.021"	"9.618"	"4.475"	"100.857"	"208.342"	"295.888"	"307.311"	"215.54"	"47.904"	"0.592"
"1943"	"34.881"	"6.859"	"5.447"	"50.779"	"14.461"	"164.611"	"321.533"	"302.705"	"133.687"	"171.231"	"19.807"	"0.362"
"1944"	"28.791"	"19.882"	"58.752"	"7.559"	"39.25"	"162.544"	"240.11"	"280.943"	"174.664"	"216.904"	"7.573"	"0.592"
"1945"	"7.927"	"2.309"	"4.819"	"20.752"	"23.916"	"86.238"	"165.218"	"133.312"	"261.573"	"320.076"	"3.676"	"22.076"
"1946"	"1.222"	"1.797"	"3.084"	"23.954"	"40.224"	"267.488"	"242.773"	"191.71"	"253.588"	"201.588"	"156.109"	"0.824"
"1947"	"30.878"	"55.333"	"11.961"	"2.993"	"31.129"	"248.94"	"356.857"	"291.394"	"300.909"	"162.118"	"3.331"	"28.964"
"1948"	"21.295"	"77.979"	"44.951"	"6.674"	"38.882"	"147.535"	"201.249"	"213.044"	"194.283"	"163.351"	"118.736"	"0"
"1949"	"1.321"	"8.239"	"10.85"	"28.725"	"114.613"	"132.795"	"224.52"	"267.172"	"412.461"	"201.488"	"4.106"	"0"
"1950"	"0"	"13.297"	"2.741"	"8.602"	"32.637"	"180.906"	"294.246"	"149.762"	"103.013"	"187.109"	"185.274"	"0.23"
"1951"	"0.792"	"0.297"	"34.895"	"11.34"	"50.754"	"149.19"	"507.735"	"326.62"	"267.426"	"75.234"	"105.138"	"1.135"
"1952"	"2.048"	"4.64"	"12.543"	"49.49"	"29.262"	"221.333"	"291.964"	"177.226"	"173.676"	"242.745"	"3.495"	"0.049"
"1953"	"28.053"	"3.895"	"0.198"	"0.494"	"9.576"	"115.64"	"156.893"	"370.406"	"309.591"	"131.996"	"173.854"	"0.033"
"1954"	"2.359"	"25.774"	"0.198"	"1.5"	"53.947"	"282.93"	"182.498"	"285.443"	"297.159"	"163.611"	"4.106"	"16.823"
"1955"	"0.892"	"1.039"	"8.598"	"2.667"	"105.067"	"171.066"	"133.368"	"287.837"	"436.757"	"391.396"	"115.986"	"0.576"
"1956"	"1.552"	"42.423"	"14.664"	"9.027"	"92.635"	"359.813"	"346.018"	"429.733"	"351.542"	"328.598"	"54.338"	"0.033"
"1957"	"15.503"	"16.494"	"31.44"	"6.742"	"2.007"	"97.583"	"252.644"	"340.123"	"122.854"	"146.43"	"4.106"	"0"
"1958"	"25.096"	"48.053"	"2.444"	"12.01"	"6.614"	"162.083"	"250.873"	"163.19"	"280.522"	"182.872"	"172.455"	"0.824"
"1959"	"16.608"	"14.443"	"5.161"	"16.908"	"83.689"	"190.598"	"310.433"	"187.275"	"182.402"	"343.841"	"1.386"	"10.897"
"1960"	"1.222"	"1.138"	"20.345"	"1.084"	"36.633"	"162.058"	"465.913"	"263.936"	"113.653"	"134.327"	"4.203"	"6.237"
"1961"	"43.303"	"69.617"	"1.668"	"1.019"	"61.443"	"153.147"	"199.335"	"276.188"	"429.311"	"258.58"	"3.099"	"0.033"
"1962"	"1.767"	"9.017"	"0.677"	"14.994"	"9.015"	"156.644"	"237.961"	"192.191"	"272.951"	"287.147"	"0.957"	"0.807"
"1963"	"0.693"	"1.452"	"5.962"	"38.494"	"95.291"	"137.383"	"359.453"	"182.331"	"231.056"	"316.618"	"15.104"	"0.445"
"1964"	"1.04"	"24.489"	"10.406"	"13.13"	"57.36"	"65.875"	"426.149"	"272.556"	"266.4"	"101.734"	"3.545"	"0"
"1965"	"8.822"	"26.007"	"8.854"	"17.302"	"8.864"	"100.972"	"279.405"	"372.591"	"262.39"	"130.99"	"1.599"	"6.535"
"1966"	"69.056"	"17.373"	"5.129"	"2.188"	"8.053"	"183.019"	"178.332"	"224.222"	"295.397"	"81.617"	"159.245"	"1.516"
"1967"	"60.484"	"0.709"	"84.86"	"8.254"	"8.885"	"213.68"	"308.612"	"234.067"	"341.972"	"84.381"	"0.758"	"1.601"
"1968"	"24.538"	"39.217"	"11.18"	"3.934"	"13.644"	"249.744"	"324.265"	"291.345"	"292.831"	"172.937"	"83.001"	"0.214"
"1969"	"0.776"	"0.924"	"15.572"	"20.272"	"27.958"	"82.703"	"261.293"	"260.737"	"214.191"	"137.628"	"82.884"	"1.584"
"1970"	"3.236"	"49.531"	"65.182"	"7.162"	"73.537"	"312.598"	"232.522"	"300.387"	"24.555"	"206.492"	"27.774"	"0.23"
"1971"	"26.874"	"81.925"	"16.166"	"43.573"	"49.892"	"444.115"	"313.97"	"389.997"	"173.904"	"254"	"5.142"	"0.033"
"1972"	"0"	"9.659"	"0.297"	"18.728"	"8.919"	"72.439"	"245.388"	"309.076"	"318.243"	"160.998"	"23.901"	"0.576"
"1973"	"0.644"	"3.38"	"27.3"	"4.516"	"58.631"	"69.928"	"196.067"	"330.592"	"155.307"	"210.653"	"50.142"	"53.482"
"1974"	"1.039"	"0.908"	"63.156"	"10.028"	"31.68"	"111.479"	"251.494"	"332.233"	"187.379"	"332.255"	"37.199"	"0"
"1975"	"2.361"	"3.467"	"0.478"	"1.927"	"22.148"	"264.268"	"200.476"	"284.054"	"252.362"	"267.342"	"78.234"	"1.91"
"1976"	"0"	"0.198"	"9.215"	"12.154"	"51.807"	"94.134"	"298.312"	"337.724"	"140.056"	"42.844"	"86.276"	"0.576"
"1977"	"0.595"	"2.455"	"0.247"	"26.129"	"90.321"	"186.956"	"324.96"	"238.014"	"263.787"	"123.964"	"85.85"	"2.09"
"1978"	"1.19"	"11.509"	"20.035"	"36.556"	"65.664"	"113.762"	"314.958"	"339.182"	"192.003"	"138.237"	"22.929"	"59.424"
"1979"	"0"	"20.791"	"4.674"	"15.499"	"3.821"	"111.612"	"233.583"	"175.463"	"168.442"	"67.901"	"0.413"	"9.253"
"1980"	"55.81"	"38.27"	"35.487"	"1.747"	"40.603"	"243.035"	"307.768"	"321.445"	"286.822"	"162.919"	"3.298"	"24.036"
"1981"	"15.501"	"21.539"	"28.006"	"33.073"	"74.858"	"113.063"	"267.461"	"312.37"	"315.966"	"31.953"	"2.591"	"6.842"
"1982"	"0.742"	"9.439"	"12.997"	"48.369"	"14.626"	"132.451"	"304.695"	"274.243"	"187.511"	"233.572"	"22.417"	"0.429"
"1983"	"3.581"	"31.807"	"26.287"	"6.681"	"39.38"	"246.447"	"209.558"	"250.451"	"126.712"	"292.628"	"6.993"	"14.987"
"1984"	"31.953"	"9.709"	"0.198"	"11.383"	"29.958"	"355.186"	"364.302"	"340.579"	"146.995"	"90.681"	"7.791"	"3.711"
"1985"	"19.674"	"2.625"	"0.198"	"8.795"	"17.668"	"215.532"	"349.351"	"228.105"	"155.958"	"239.911"	"20.104"	"0.939"
"1986"	"21.429"	"14.994"	"3.137"	"14.711"	"44.393"	"151.634"	"264.83"	"419.685"	"520.884"	"136.368"	"188.123"	"11.3"
"1987"	"4.856"	"9.562"	"57.873"	"21.51"	"40.787"	"63.314"	"239.245"	"363.243"	"126.016"	"167.337"	"120.48"	"6.994"
"1988"	"0"	"16.317"	"4.123"	"13.96"	"64.186"	"45.038"	"375.113"	"332.191"	"305.227"	"166.766"	"7.352"	"2.383"
"1989"	"0.792"	"1.038"	"30.846"	"2.162"	"132.953"	"260.733"	"474.218"	"236.58"	"155.578"	"221.452"	"1.715"	"0"
"1990"	"0"	"36.723"	"73.98"	"15.957"	"78.144"	"203.911"	"452.515"	"346.359"	"181.83"	"167.136"	"54.182"	"14.958"
"1991"	"20.073"	"4.806"	"16.781"	"0.902"	"18.365"	"132.879"	"248.675"	"263.806"	"186.304"	"234.079"	"34.775"	"28.63"
"1992"	"13.907"	"8.302"	"0.198"	"1.35"	"173.681"	"155.868"	"371.919"	"263.48"	"219.058"	"130.75"	"74.809"	"0.082"
"1993"	"5.567"	"0.413"	"27.29"	"31.117"	"43.282"	"327.288"	"260.739"	"311.698"	"229.01"	"293.986"	"30.246"	"0"
"1994"	"2.377"	"27.784"	"48.351"	"19.236"	"15.99"	"163.868"	"396.031"	"281.165"	"289.71"	"298.658"	"28.557"	"0"
"1995"	"26.863"	"13.056"	"11.508"	"9.702"	"39.914"	"123.973"	"288.236"	"196.702"	"206.381"	"396.48"	"77.858"	"0"
"1996"	"1.573"	"7.858"	"3.319"	"20.392"	"41.19"	"169.453"	"118.182"	"386.526"	"91.494"	"276.757"	"5.245"	"7.111"
"1997"	"24.463"	"11.325"	"56.905"	"29.668"	"16.645"	"196.532"	"449.482"	"308.67"	"316.238"	"101.457"	"21.109"	"23.211"
"1998"	"41.995"	"99.393"	"13.568"	"16.834"	"29.231"	"223.117"	"339.977"	"258.404"	"303.544"	"366.76"	"87.916"	"0.082"
"1999"	"0.592"	"0.344"	"0.312"	"0.277"	"124.364"	"192.855"	"183.536"	"372.619"	"177.944"	"158.233"	"43.596"	"1.252"
"2000"	"0.66"	"56.835"	"0.361"	"19.477"	"72.763"	"297.691"	"190.665"	"306.189"	"102.928"	"105.385"	"27.291"	"1.648"
"2001"	"0.065"	"2.756"	"20.501"	"11.006"	"77.195"	"392.146"	"142.145"	"299.124"	"172.784"	"236.104"	"55.174"	"2.392"
"2002"	"24.251"	"9.294"	"0.312"	"42.57"	"82.613"	"200.888"	"245.138"	"364.149"	"225.236"	"68.242"	"34.343"	"0.033"
