
"Year"	"Jan"	"Feb"	"Mar"	"Apr"	"May"	"Jun"	"Jul"	"Aug"	"Sep"	"Oct"	"Nov"	"Dec"
"1901"	"14.135"	"16.723"	"24.238"	"28.98"	"33.782"	"35.787"	"32.369"	"28.917"	"29.843"	"28.524"	"22.218"	"18.48"
"1902"	"17.355"	"19.76"	"26.358"	"30.464"	"33.898"	"33.564"	"30.852"	"30.28"	"28.895"	"26.55"	"21.434"	"16.748"
"1903"	"16.328"	"17.841"	"21.99"	"27.849"	"33.092"	"36.192"	"32.079"	"28.965"	"29.483"	"26.543"	"20.4"	"16.356"
"1904"	"15.87"	"18.87"	"22.874"	"30.182"	"33.567"	"33.635"	"29.453"	"27.755"	"28.472"	"26.564"	"21.013"	"17.178"
"1905"	"14.257"	"13.295"	"20.401"	"27.235"	"35.199"	"35.213"	"31.908"	"29.635"	"30.594"	"27.678"	"23.387"	"17.667"
"1906"	"14.868"	"16.13"	"22.318"	"28.54"	"35.509"	"33.538"	"30.837"	"29.886"	"28.698"	"27.337"	"22.65"	"18.195"
"1907"	"18.121"	"16.67"	"21.765"	"27.421"	"31.888"	"34.415"	"32.895"	"27.987"	"28.938"	"27.022"	"22.137"	"16.275"
"1908"	"15.952"	"18.432"	"23.108"	"29.961"	"33.55"	"34.523"	"28.835"	"27.299"	"28.491"	"26.211"	"20.89"	"16.742"
"1909"	"15.362"	"17.603"	"23.772"	"27.695"	"32.602"	"33.216"	"28.565"	"27.756"	"27.834"	"26.734"	"22.55"	"16.129"
"1910"	"15.334"	"18.651"	"23.751"	"27.829"	"33.959"	"33.237"	"29.964"	"28.38"	"29.008"	"25.403"	"20.212"	"16.919"
"1911"	"17.574"	"18.971"	"21.696"	"29.16"	"35.066"	"33.668"	"32.633"	"30.712"	"28.491"	"26.955"	"19.76"	"17.296"
"1912"	"16.93"	"19.702"	"22.623"	"29.692"	"33.988"	"35.681"	"30.697"	"28.355"	"28.007"	"26.518"	"20.268"	"16.935"
"1913"	"16.655"	"18.128"	"21.437"	"30.313"	"32.257"	"32.073"	"29.368"	"29.601"	"30.059"	"28.06"	"21.373"	"16.75"
"1914"	"18.457"	"17.666"	"22.832"	"29.54"	"34.983"	"33.259"	"29.924"	"28.9"	"29.094"	"26.125"	"22.147"	"16.152"
"1915"	"15.559"	"16.542"	"23.403"	"28.913"	"35.331"	"34.982"	"32.898"	"29.813"	"31.165"	"28.28"	"21.482"	"18.072"
"1916"	"16.959"	"17.032"	"25.814"	"30.164"	"33.396"	"32.553"	"30.666"	"27.692"	"28.283"	"25.095"	"19.103"	"15.892"
"1917"	"16.812"	"18.328"	"23.012"	"26.256"	"30.113"	"32.243"	"28.593"	"27.333"	"27.136"	"24.407"	"18.599"	"16.793"
"1918"	"14.854"	"19.19"	"23.506"	"27.009"	"35.228"	"33.682"	"32.486"	"29.911"	"29.132"	"27.24"	"21.432"	"15.857"
"1919"	"16.052"	"17.366"	"23.865"	"28.285"	"32.589"	"35.176"	"30.122"	"27.798"	"28.105"	"26.272"	"20.629"	"16.152"
"1920"	"15.62"	"17.555"	"23.733"	"28.387"	"29.651"	"31.043"	"28.825"	"28.593"	"30.512"	"27.711"	"22.398"	"17.161"
"1921"	"16.735"	"18.948"	"26.346"	"31.538"	"34.869"	"35.357"	"32.437"	"28.487"	"28.216"	"25.876"	"21.266"	"18.929"
"1922"	"15.504"	"19.91"	"24.275"	"29.734"	"33.33"	"32.995"	"30.694"	"28.423"	"28.217"	"25.852"	"20.857"	"16.682"
"1923"	"15.928"	"17.826"	"24.657"	"29.854"	"32.61"	"35.422"	"30.715"	"27.746"	"28.947"	"26.093"	"20.61"	"16.629"
"1924"	"14.974"	"18.142"	"25.169"	"29.815"	"31.047"	"34.865"	"31.002"	"28.07"	"27.024"	"25.077"	"19.882"	"16.754"
"1925"	"13.854"	"16.043"	"24.105"	"31.166"	"32.79"	"30.306"	"28.393"	"29.822"	"30.465"	"27.673"	"20.413"	"16.983"
"1926"	"16.496"	"20.526"	"22.543"	"26.389"	"31.611"	"35.387"	"31.242"	"28.327"	"27.632"	"25.736"	"19.057"	"16.077"
"1927"	"14.022"	"16.018"	"22.285"	"28.481"	"32.797"	"34.419"	"30.1"	"27.865"	"28.032"	"26.898"	"20.242"	"17.832"
"1928"	"15.461"	"18.957"	"24.446"	"29.068"	"35.144"	"34.363"	"30.811"	"29.729"	"29.106"	"27.192"	"21.841"	"16.123"
"1929"	"15.517"	"16.97"	"25.934"	"29.816"	"33.681"	"33.949"	"29.514"	"28.078"	"29.451"	"26.741"	"21.915"	"15.679"
"1930"	"15.388"	"18.121"	"24.294"	"28.418"	"32.873"	"32.726"	"28.591"	"28.338"	"30.044"	"27.186"	"20.43"	"16.774"
"1931"	"17.333"	"16.242"	"22.89"	"30.624"	"33.707"	"34.789"	"30.611"	"28.497"	"28.46"	"25.738"	"20.943"	"17.957"
"1932"	"18.878"	"17.964"	"24.191"	"28.772"	"33.017"	"35.013"	"30.267"	"27.559"	"29.564"	"26.913"	"20.317"	"17.276"
"1933"	"14.331"	"18.769"	"23.74"	"27.596"	"30.697"	"32.85"	"29.353"	"27.197"	"27.693"	"25.408"	"20.916"	"17.38"
"1934"	"14.322"	"19.748"	"22.81"	"28.989"	"32.804"	"33.017"	"29.848"	"27.731"	"28.999"	"25.346"	"20.446"	"17.707"
"1935"	"13.989"	"18.646"	"23.64"	"26.559"	"33.536"	"34.598"	"29.606"	"28.271"	"28.123"	"25.379"	"21.364"	"16.849"
"1936"	"14.638"	"18.642"	"22.907"	"28.819"	"35.477"	"32.406"	"29.721"	"28.141"	"28.518"	"26.392"	"21.344"	"16.865"
"1937"	"15.229"	"19.079"	"22.151"	"28.408"	"33.914"	"34.734"	"29.291"	"29.262"	"28.885"	"25.84"	"21.409"	"15.754"
"1938"	"15.171"	"16.943"	"25.257"	"29.937"	"35.688"	"31.944"	"31.209"	"29.608"	"30.531"	"27.658"	"20.169"	"17.045"
"1939"	"17.132"	"18.953"	"20.99"	"27.594"	"34.37"	"32.661"	"30.589"	"30.999"	"29.892"	"27.922"	"21.061"	"17.947"
"1940"	"16.642"	"17.989"	"22.042"	"28.357"	"34.481"	"33.771"	"30.835"	"27.834"	"28.173"	"27.033"	"22.213"	"16.783"
"1941"	"15.005"	"19.519"	"25.936"	"31.49"	"34.409"	"32.92"	"31.605"	"29.803"	"29.33"	"29.137"	"21.962"	"18.458"
"1942"	"14.785"	"19.363"	"25.108"	"31.262"	"34.4"	"34.843"	"28.896"	"27.119"	"27.392"	"26.052"	"21.768"	"15.863"
"1943"	"16.216"	"18.312"	"24.856"	"28.212"	"34.151"	"33.02"	"29.243"	"27.239"	"28.482"	"26.108"	"21.464"	"18.151"
"1944"	"15.177"	"18.231"	"22.857"	"28.634"	"34.486"	"33.064"	"29.298"	"28.336"	"28.619"	"25.239"	"21.347"	"18.092"
"1945"	"13.366"	"17.42"	"24.647"	"28.398"	"33.23"	"33.959"	"29.178"	"28.6"	"27.938"	"25.503"	"20.82"	"15.282"
"1946"	"16.49"	"20.194"	"23.379"	"31.861"	"33.998"	"33.708"	"30.028"	"27.894"	"27.66"	"26.83"	"20.542"	"16.722"
"1947"	"14.754"	"18.592"	"24.914"	"30.259"	"34.426"	"35.491"	"32.248"	"28.816"	"27.764"	"25.105"	"22.111"	"17.404"
"1948"	"15.523"	"17.596"	"23.289"	"31.02"	"35.549"	"35.183"	"30.48"	"28.175"	"29.057"	"27.561"	"20.527"	"17.534"
"1949"	"17.947"	"18.817"	"24.403"	"30.925"	"35.542"	"33.718"	"29.743"	"28.674"	"30.006"	"25.946"	"19.771"	"16.318"
"1950"	"17.032"	"16.2"	"23.084"	"28.37"	"34.162"	"34.672"	"29.377"	"27.915"	"27.768"	"25.654"	"19.583"	"15.06"
"1951"	"14.967"	"17.369"	"23.101"	"27.079"	"32.702"	"32.727"	"32.14"	"28.445"	"29.691"	"29.23"	"22.338"	"16.855"
"1952"	"16.833"	"19.95"	"23.388"	"30.703"	"34.527"	"33.342"	"30.41"	"27.801"	"29.243"	"26.536"	"20.966"	"17.022"
"1953"	"14.979"	"20.445"	"26.564"	"29.528"	"33.752"	"34.033"	"30.411"	"27.912"	"28.623"	"26.219"	"21.088"	"19.553"
"1954"	"14.84"	"19.032"	"23.628"	"29.372"	"34.72"	"34.547"	"30.333"	"29.547"	"28.76"	"23.992"	"21.148"	"16.81"
"1955"	"15.598"	"18.22"	"25.695"	"27.132"	"32.497"	"34.136"	"31.001"	"27.966"	"27.676"	"24.498"	"19.74"	"16.872"
"1956"	"15.495"	"18.059"	"23.608"	"29.523"	"35.254"	"33.805"	"28.285"	"27.514"	"29.406"	"24.234"	"19.306"	"17.159"
"1957"	"14.457"	"16.645"	"22.32"	"27.729"	"31.474"	"33.067"	"30.063"	"28.521"	"28.914"	"26.093"	"22.07"	"17.255"
"1958"	"17.528"	"18.46"	"24.806"	"31.333"	"33.213"	"34.279"	"29.183"	"28.887"	"27.668"	"25.772"	"21.198"	"18.006"
"1959"	"14.987"	"17.318"	"24.604"	"29.188"	"32.621"	"32.615"	"29.546"	"28.112"	"28.148"	"26.965"	"20.755"	"17.336"
"1960"	"15.01"	"20.11"	"22.597"	"27.733"	"32.947"	"34.08"	"30.254"	"27.86"	"29.121"	"25.929"	"20.117"	"17.571"
"1961"	"15.268"	"16.389"	"24.212"	"28.542"	"33.715"	"32.913"	"29.942"	"28.347"	"28.218"	"25.611"	"20.353"	"14.866"
"1962"	"14.789"	"19.253"	"23.778"	"30.054"	"32.729"	"33.235"	"30.005"	"28.127"	"27.106"	"24.674"	"20.525"	"17.211"
"1963"	"15.518"	"20.851"	"24.494"	"29.659"	"33.425"	"33.992"	"31.762"	"28.2"	"28.542"	"27.875"	"23.658"	"17.217"
"1964"	"14.521"	"18.27"	"25.829"	"31.298"	"32.557"	"32.584"	"29.356"	"28.738"	"28.339"	"26.65"	"20.138"	"16.881"
"1965"	"18.161"	"18.969"	"23.871"	"28.084"	"32.91"	"34.616"	"30.323"	"29.259"	"28.84"	"28.022"	"23.128"	"16.355"
"1966"	"17.079"	"21.587"	"24.031"	"29.896"	"33.809"	"32.56"	"31.526"	"27.93"	"28.099"	"27.473"	"21.428"	"15.901"
"1967"	"13.929"	"20.544"	"22.54"	"28.082"	"32.444"	"33.036"	"29.789"	"27.097"	"27.056"	"25.9"	"21.74"	"17.529"
"1968"	"15.076"	"16.754"	"23.45"	"28.815"	"32.203"	"34.644"	"29.626"	"28.37"	"29.81"	"26.463"	"21.386"	"16.965"
"1969"	"15.923"	"18.902"	"26.437"	"29.873"	"32.212"	"35.035"	"30.217"	"28.532"	"28.644"	"28.051"	"22.977"	"17.654"
"1970"	"16.707"	"17.72"	"23.237"	"30.29"	"34.273"	"32.533"	"30.591"	"28.651"	"28.104"	"27.076"	"20.623"	"16.99"
"1971"	"14.881"	"18.201"	"24.092"	"30.713"	"32.339"	"30.885"	"28.583"	"27.458"	"27.984"	"25.965"	"20.45"	"16.808"
"1972"	"15.613"	"15.664"	"24.33"	"28.451"	"34.84"	"33.225"	"31.389"	"28.019"	"28.111"	"26.391"	"21.487"	"17.203"
"1973"	"14.79"	"19.462"	"23.504"	"32.073"	"35.234"	"34.541"	"30.017"	"27.757"	"28.517"	"26.278"	"20.459"	"14.913"
"1974"	"14.423"	"16.745"	"25.733"	"30.992"	"33.037"	"33.05"	"29.716"	"29.015"	"29.842"	"26.399"	"20.509"	"15.408"
"1975"	"13.762"	"16.556"	"23.136"	"30.613"	"34.763"	"32.166"	"29.316"	"27.81"	"27.203"	"25.584"	"19.465"	"17.597"
"1976"	"16.633"	"18.299"	"23.186"	"28.894"	"32.696"	"31.694"	"29.974"	"27.32"	"27.549"	"27.186"	"21.9"	"16.318"
"1977"	"14.685"	"18.798"	"25.793"	"28.968"	"31.634"	"32.123"	"27.725"	"28.277"	"26.448"	"26.735"	"22.794"	"17.593"
"1978"	"14.87"	"16.514"	"21.574"	"29.697"	"35.949"	"32.853"	"27.683"	"27.109"	"27.658"	"26.222"	"21.162"	"16.353"
"1979"	"15.583"	"16.803"	"21.71"	"27.966"	"29.15"	"32.659"	"29.013"	"27.873"	"28.09"	"27.03"	"22.539"	"16.994"
"1980"	"15.019"	"19.424"	"23.062"	"29.899"	"32.808"	"30.948"	"28.057"	"28.158"	"28.685"	"27.88"	"21.246"	"16.394"
"1981"	"15.555"	"19.051"	"23.338"	"30.269"	"32.285"	"33.145"	"27.865"	"27.451"	"28.817"	"26.56"	"19.681"	"16.338"
"1982"	"15.567"	"16.279"	"20.99"	"27.925"	"29.909"	"33.271"	"30.843"	"27.839"	"29.151"	"26.813"	"20.83"	"16.476"
"1983"	"14.336"	"16.617"	"22.546"	"25.796"	"31.391"	"32.38"	"29.895"	"28.178"	"28.837"	"25.366"	"19.28"	"16.162"
"1984"	"14.301"	"15.588"	"24.743"	"29.764"	"35.368"	"33.7"	"29.479"	"28.142"	"27.044"	"25.103"	"20.202"	"16.617"
"1985"	"14.938"	"18.048"	"25.568"	"29.744"	"34.611"	"33.811"	"29.326"	"27.907"	"28.444"	"24.262"	"21.049"	"16.851"
"1986"	"15.281"	"16.83"	"23.477"	"29.919"	"32.387"	"33.73"	"29.553"	"28.444"	"29.286"	"26.696"	"22.201"	"15.18"
"1987"	"15.943"	"19.452"	"24.543"	"30.39"	"30.805"	"34.304"	"33.072"	"30.519"	"30.779"	"28.045"	"21.353"	"16.445"
"1988"	"16.624"	"19.878"	"23.786"	"30.839"	"36.217"	"33.178"	"29.266"	"28.013"	"29.622"	"26.397"	"21.169"	"17.325"
"1989"	"14.389"	"17.626"	"23.317"	"28.571"	"34.333"	"32.873"	"29.549"	"28.163"	"28.54"	"26.77"	"21.951"	"16.197"
"1990"	"17.323"	"17.479"	"22.194"	"29.617"	"33.374"	"33.606"	"28.946"	"28.128"	"27.782"	"25.723"	"21.263"	"16.669"
"1991"	"15.211"	"18.766"	"24.23"	"28.697"	"34.118"	"34.279"	"31.27"	"28.403"	"28.515"	"26.002"	"20.435"	"16.668"
"1992"	"15.546"	"16.884"	"23.222"	"29.038"	"33.053"	"35.424"	"29.922"	"28.038"	"27.532"	"25.941"	"20.919"	"17.531"
"1993"	"15.716"	"19.426"	"22.537"	"29.644"	"34.387"	"32.768"	"29.341"	"29.746"	"28.022"	"27.326"	"22.128"	"16.931"
"1994"	"16.941"	"18.083"	"25.531"	"28.251"	"34.65"	"34.085"	"28.619"	"27.664"	"27.573"	"26.132"	"21.31"	"16.831"
"1995"	"14.541"	"18.221"	"22.308"	"29.262"	"34.605"	"35.821"	"30.137"	"27.515"	"29.177"	"27.574"	"21.399"	"17.275"
"1996"	"15.234"	"18.671"	"25.553"	"29.964"	"33.022"	"31.826"	"30.168"	"27.751"	"28.096"	"26.054"	"20.575"	"15.974"
"1997"	"15.157"	"18.444"	"23.54"	"27.584"	"30.942"	"31.444"	"30.295"	"28.382"	"28.632"	"24.064"	"20.709"	"14.921"
"1998"	"15.714"	"18.971"	"22.308"	"30.014"	"34.704"	"33.712"	"30.106"	"29.711"	"29.044"	"26.98"	"22.273"	"17.949"
"1999"	"15.377"	"18.998"	"24.659"	"31.594"	"34.168"	"32.923"	"30.22"	"29.073"	"28.798"	"26.973"	"23.121"	"17.265"
"2000"	"16.689"	"17.483"	"23.699"	"31.614"	"34.178"	"32.898"	"29.276"	"29.233"	"29.094"	"27.308"	"23.023"	"18.089"
"2001"	"15.608"	"19.04"	"24.254"	"29.339"	"33.011"	"31.137"	"28.848"	"29.03"	"30.619"	"27.804"	"22.456"	"18.05"
"2002"	"16.057"	"18.25"	"24.839"	"31.437"	"34.878"	"34.019"	"31.717"	"29.303"	"29.02"	"27.433"	"22.638"	"18.824"
