
"Year"	"Jan"	"Feb"	"Mar"	"Apr"	"May"	"Jun"	"Jul"	"Aug"	"Sep"	"Oct"	"Nov"	"Dec"
"1901"	"20.316"	"20.947"	"26.968"	"30.52"	"32.416"	"31.082"	"27.321"	"25.417"	"26.6"	"26.863"	"22.47"	"20.88"
"1902"	"22.051"	"23.631"	"28.347"	"31.439"	"32.961"	"31.224"	"27.783"	"27.208"	"26.113"	"26.138"	"21.59"	"20.007"
"1903"	"21.026"	"21.193"	"25.424"	"29.939"	"31.588"	"31.378"	"27.398"	"26.263"	"25.976"	"25.132"	"20.709"	"19.549"
"1904"	"21.322"	"22.228"	"25.774"	"31.161"	"32.737"	"29.589"	"26.703"	"26.374"	"26.176"	"26.133"	"21.427"	"20.592"
"1905"	"20.008"	"20.049"	"25.121"	"28.567"	"33.877"	"31.203"	"26.684"	"26.494"	"26.012"	"26.13"	"23.017"	"19.758"
"1906"	"19.749"	"21.403"	"26.273"	"30.975"	"33.275"	"29.146"	"26.574"	"26.337"	"25.248"	"25.193"	"22.972"	"20.8"
"1907"	"21.177"	"22.302"	"26.028"	"28.888"	"31.218"	"30.371"	"27.974"	"24.967"	"26.396"	"27.234"	"23.667"	"19.354"
"1908"	"20.235"	"22.1"	"25.558"	"31.318"	"32.186"	"30.175"	"25.899"	"25.482"	"26.463"	"26.146"	"22.198"	"19.051"
"1909"	"21.662"	"22.948"	"28.058"	"29.528"	"32.591"	"29.334"	"26.242"	"26.131"	"25.625"	"25.344"	"22.386"	"20.934"
"1910"	"20.937"	"22.284"	"26.793"	"30.462"	"32.173"	"28.956"	"26.688"	"26.208"	"25.809"	"24.544"	"20.36"	"20.2"
"1911"	"22.011"	"21.758"	"25.178"	"30.228"	"33.241"	"28.942"	"27.719"	"26.054"	"25.973"	"27.093"	"23.889"	"21.886"
"1912"	"21.684"	"23.885"	"26.807"	"31.285"	"33.08"	"32.113"	"27.447"	"25.893"	"26.445"	"26.174"	"21.896"	"19.849"
"1913"	"20.176"	"23.563"	"25.788"	"31.867"	"31.942"	"28.783"	"26.654"	"25.633"	"26.462"	"26.725"	"22.855"	"21.352"
"1914"	"21.8"	"23.199"	"26.028"	"30.334"	"33.023"	"29.419"	"26.517"	"26.299"	"26.555"	"26.19"	"23.857"	"20.727"
"1915"	"21.129"	"22.129"	"26.664"	"30.349"	"32.981"	"32.31"	"28.199"	"26.251"	"26.944"	"26.364"	"23.927"	"20.273"
"1916"	"20.922"	"22.025"	"28.117"	"31.689"	"33.233"	"28.119"	"27.716"	"26.124"	"26.657"	"25.69"	"22.041"	"19.737"
"1917"	"21.207"	"22.058"	"26.182"	"29.115"	"30.682"	"28.66"	"26.38"	"26.471"	"25.837"	"24.789"	"20.848"	"20.233"
"1918"	"19.343"	"23.186"	"26.495"	"29.397"	"32.227"	"28.983"	"28.087"	"26.42"	"26.819"	"26.966"	"24.285"	"20.868"
"1919"	"21.944"	"23.091"	"27.593"	"30.392"	"32.535"	"29.005"	"26.523"	"26.004"	"26.436"	"25.393"	"23.886"	"20.315"
"1920"	"21.448"	"22.046"	"27.171"	"30.476"	"30.521"	"30.039"	"26.238"	"26.091"	"27.15"	"27.161"	"23.128"	"21.033"
"1921"	"21.726"	"22.495"	"28.508"	"32.136"	"33.027"	"29.718"	"28.035"	"26.05"	"25.369"	"25.539"	"21.481"	"21.319"
"1922"	"20.722"	"24.051"	"27.358"	"31.317"	"32.73"	"29.651"	"26.342"	"26.004"	"25.806"	"25.638"	"21.759"	"18.935"
"1923"	"20.963"	"21.637"	"27.18"	"30.464"	"31.811"	"32.017"	"26.778"	"25.618"	"26.152"	"25.034"	"22.234"	"21.825"
"1924"	"21.899"	"23.841"	"28.72"	"31.867"	"32.451"	"30.903"	"27.229"	"26.465"	"26.109"	"24.265"	"20.66"	"20.545"
"1925"	"18.952"	"21.371"	"27.101"	"32.139"	"31.672"	"28.489"	"26.247"	"26.403"	"26.933"	"27.264"	"23.664"	"20.36"
"1926"	"21.853"	"24.435"	"27.037"	"28.496"	"32.476"	"32.585"	"27.488"	"25.963"	"26.31"	"26.376"	"21.801"	"20.184"
"1927"	"21.099"	"22.363"	"26.492"	"30.573"	"32.144"	"29.683"	"26.099"	"25.71"	"26.382"	"25.69"	"20.16"	"20.774"
"1928"	"21.036"	"22.546"	"26.804"	"30.391"	"32.614"	"29.893"	"26.268"	"25.871"	"25.803"	"25.739"	"23.009"	"20.109"
"1929"	"20.093"	"22.113"	"28.073"	"30.51"	"32.995"	"29.307"	"26.498"	"26.006"	"26.599"	"25.695"	"23.108"	"20.462"
"1930"	"21.33"	"20.977"	"27.387"	"30.319"	"32.638"	"30.153"	"25.824"	"25.499"	"26.352"	"26.675"	"21.469"	"21.353"
"1931"	"22.057"	"23.205"	"26.422"	"31.831"	"32.987"	"31.782"	"26.941"	"25.953"	"25.783"	"24.854"	"22.027"	"20.179"
"1932"	"21.392"	"21.069"	"26.128"	"29.831"	"32.767"	"29.929"	"26.197"	"26.358"	"26.312"	"26.591"	"22.223"	"20.643"
"1933"	"20.827"	"23.236"	"27.115"	"30.226"	"30.579"	"28.626"	"26.884"	"25.709"	"25.612"	"25.197"	"22.72"	"20.147"
"1934"	"19.787"	"22.873"	"26.249"	"30.897"	"32.337"	"30.07"	"26.298"	"25.404"	"25.218"	"24.978"	"21.231"	"20.503"
"1935"	"19.439"	"22.383"	"25.775"	"28.551"	"32.567"	"30.132"	"26.045"	"25.665"	"25.235"	"25.857"	"22.208"	"21.1"
"1936"	"20.538"	"22.198"	"26.493"	"29.539"	"33.091"	"28.286"	"26.783"	"25.932"	"26.221"	"25.641"	"23.246"	"20.113"
"1937"	"19.494"	"23.174"	"25.786"	"29.517"	"32.272"	"30.052"	"25.787"	"25.92"	"25.911"	"25.287"	"23.071"	"20.202"
"1938"	"22.528"	"20.996"	"28.302"	"31.058"	"32.237"	"26.701"	"25.858"	"26.256"	"26.484"	"25.166"	"21.502"	"20.342"
"1939"	"21.775"	"23.746"	"25.508"	"29.934"	"32.085"	"29.891"	"26.441"	"26.501"	"25.722"	"26.119"	"21.562"	"19.569"
"1940"	"20.742"	"23.177"	"25.025"	"30.086"	"32.579"	"29.805"	"26.017"	"25.511"	"26.242"	"25.791"	"22.668"	"20.492"
"1941"	"20.449"	"23.15"	"27.91"	"31.5"	"32.97"	"31.086"	"26.458"	"26.196"	"26.775"	"26.989"	"22.98"	"22.051"
"1942"	"20.68"	"23.11"	"27.829"	"31.922"	"32.79"	"30.921"	"25.749"	"25.759"	"25.466"	"25.811"	"21.851"	"20.307"
"1943"	"21.778"	"21.43"	"27.13"	"30.124"	"32.872"	"28.717"	"25.829"	"25.271"	"25.78"	"24.884"	"23.094"	"19.223"
"1944"	"20.641"	"22.036"	"25.966"	"29.725"	"33.056"	"30.048"	"26.196"	"25.567"	"26.347"	"25.109"	"22.402"	"21.944"
"1945"	"19.824"	"21.481"	"26.645"	"29.551"	"32.371"	"30.533"	"26.06"	"26.259"	"25.735"	"25.636"	"21.19"	"19.056"
"1946"	"20.616"	"23.629"	"26.885"	"31.603"	"31.886"	"28.752"	"26.101"	"25.372"	"25.99"	"26.477"	"21.387"	"22.603"
"1947"	"20.63"	"23.129"	"27.1"	"29.904"	"32.849"	"30.793"	"26.73"	"26.99"	"25.763"	"24.622"	"22.914"	"21.266"
"1948"	"21.628"	"22.644"	"27.139"	"31.638"	"33.58"	"29.649"	"26.443"	"25.8"	"25.565"	"26.908"	"23.709"	"19.692"
"1949"	"21.961"	"22.312"	"27.726"	"31.293"	"32.836"	"29.116"	"27.001"	"26.712"	"25.764"	"26.085"	"22.035"	"20.557"
"1950"	"21.606"	"21.473"	"26.324"	"30.63"	"32.325"	"30.538"	"26.472"	"26.743"	"26.068"	"25.118"	"20.966"	"20.368"
"1951"	"20.191"	"22.406"	"27.177"	"29.44"	"32.802"	"30.132"	"27.733"	"25.815"	"27.565"	"27.63"	"23.913"	"19.927"
"1952"	"21.449"	"24.318"	"26.273"	"31.715"	"33.175"	"30.009"	"26.975"	"25.419"	"26.612"	"26.588"	"22.078"	"22.9"
"1953"	"20.911"	"25.234"	"29.385"	"31.226"	"32.565"	"30.498"	"26.948"	"25.731"	"26.643"	"25.754"	"22.395"	"21.074"
"1954"	"20.09"	"24.064"	"27.321"	"31.276"	"33.541"	"30.119"	"26.784"	"26.359"	"24.72"	"24.361"	"22.178"	"20.857"
"1955"	"21.977"	"23.761"	"28.508"	"29.164"	"32.539"	"29.506"	"27.218"	"25.662"	"25.874"	"25.148"	"21.025"	"20.272"
"1956"	"21.708"	"23.014"	"28.034"	"31.229"	"32.019"	"28.62"	"25.375"	"25.52"	"25.872"	"25.296"	"22.068"	"20.941"
"1957"	"21.249"	"21.53"	"26.076"	"30.496"	"32.186"	"30.796"	"26.887"	"26.064"	"26.221"	"26.491"	"24.373"	"22.778"
"1958"	"22.096"	"22.993"	"27.458"	"31.897"	"33.289"	"31.447"	"26.599"	"26.675"	"25.725"	"25.947"	"23.589"	"21.407"
"1959"	"21.847"	"23.304"	"28.069"	"31.187"	"33.231"	"30.373"	"25.829"	"25.466"	"25.614"	"25.862"	"23.047"	"21.604"
"1960"	"20.32"	"24.09"	"26.13"	"30.789"	"32.233"	"29.357"	"27.187"	"25.072"	"26.557"	"25.731"	"22.615"	"22.634"
"1961"	"21.789"	"21.306"	"28.366"	"31.096"	"32.462"	"29.291"	"26.211"	"26.121"	"24.965"	"24.74"	"23.072"	"20.191"
"1962"	"19.41"	"22.986"	"26.706"	"30.371"	"32.763"	"30.408"	"26.904"	"26.209"	"25.71"	"24.906"	"23.084"	"20.997"
"1963"	"20.812"	"24.013"	"26.969"	"29.671"	"32.165"	"29.705"	"27.041"	"25.477"	"26.017"	"26.067"	"24.226"	"21.496"
"1964"	"20.151"	"22.941"	"28.36"	"32.175"	"32.135"	"29.733"	"26.583"	"25.521"	"26.102"	"26.46"	"22.148"	"20.872"
"1965"	"21.959"	"22.894"	"26.697"	"30.324"	"33.26"	"30.515"	"27.012"	"26.597"	"26.316"	"27.003"	"23.656"	"21.404"
"1966"	"20.967"	"24.266"	"26.444"	"30.737"	"31.409"	"30.836"	"28.159"	"26.175"	"26.273"	"27.403"	"24.691"	"21.29"
"1967"	"20.501"	"24.372"	"26.967"	"30.265"	"32.595"	"29.68"	"26.997"	"25.64"	"25.878"	"26.462"	"23.777"	"22.653"
"1968"	"19.932"	"21.887"	"26.2"	"30.091"	"31.757"	"30.802"	"26.899"	"25.179"	"27.312"	"25.519"	"22.421"	"21.002"
"1969"	"21.267"	"24.023"	"29.21"	"31.831"	"33.102"	"30.586"	"26.721"	"25.515"	"25.663"	"26.466"	"24.827"	"21.423"
"1970"	"21.384"	"23.842"	"27.179"	"31.882"	"33.43"	"28.3"	"27.087"	"26.005"	"25.815"	"26.2"	"21.625"	"19.797"
"1971"	"20.289"	"23.005"	"26.676"	"31.931"	"31.408"	"28.356"	"26.439"	"25.915"	"26.449"	"25.24"	"21.785"	"19.544"
"1972"	"20.144"	"21.169"	"28.46"	"30.475"	"32.775"	"30.683"	"27.465"	"25.773"	"26.716"	"27.384"	"23.068"	"21.969"
"1973"	"21.294"	"24.014"	"27.719"	"33.065"	"34.098"	"30.231"	"25.62"	"25.561"	"25.121"	"25.605"	"22.259"	"21.532"
"1974"	"20.699"	"22.99"	"28.819"	"31.68"	"31.936"	"30.237"	"27.324"	"25.925"	"27.494"	"25.941"	"21.865"	"20.032"
"1975"	"19.649"	"22.656"	"26.583"	"32.223"	"32.628"	"29.531"	"26.63"	"25.631"	"25.812"	"26.383"	"21.131"	"19.701"
"1976"	"20.533"	"23.226"	"27.51"	"30.259"	"31.924"	"28.327"	"26.792"	"25.597"	"26.093"	"27.331"	"25.584"	"22.285"
"1977"	"20.996"	"24.037"	"29.399"	"30.703"	"31.661"	"29.731"	"26.953"	"25.866"	"25.749"	"26.996"	"24.866"	"20.926"
"1978"	"20.01"	"22.478"	"25.653"	"30.911"	"33.329"	"28.943"	"26.21"	"25.527"	"26.687"	"26.598"	"24.683"	"20.773"
"1979"	"22.807"	"22.064"	"26.109"	"30.95"	"31.943"	"31.306"	"27.388"	"25.457"	"27.234"	"27.274"	"24.705"	"21.494"
"1980"	"21.819"	"23.813"	"27.416"	"31.951"	"33.435"	"28.034"	"26.421"	"25.543"	"26.974"	"27.809"	"25.062"	"20.937"
"1981"	"19.828"	"24.051"	"26.889"	"30.959"	"32.478"	"30.814"	"26.369"	"25.721"	"26.336"	"26.479"	"22.175"	"20.688"
"1982"	"21.842"	"22.497"	"26.08"	"29.987"	"31.228"	"30.782"	"27.846"	"26.181"	"26.907"	"27.462"	"23.823"	"22.681"
"1983"	"21.079"	"22.181"	"26.69"	"29.547"	"33.104"	"31.069"	"27.816"	"26.576"	"26.417"	"25.31"	"21.788"	"20.478"
"1984"	"20.802"	"21.537"	"28.177"	"31.389"	"33.476"	"29.864"	"26.902"	"25.236"	"26.013"	"26.35"	"22.83"	"22.054"
"1985"	"21.965"	"23.056"	"28.991"	"31.042"	"33.063"	"29.844"	"27.07"	"25.923"	"27.17"	"25.013"	"23.068"	"22.249"
"1986"	"21.687"	"23.467"	"27.871"	"31.629"	"32.623"	"29.758"	"26.565"	"25.491"	"27.497"	"27.538"	"24.276"	"20.813"
"1987"	"22.387"	"23.89"	"27.766"	"31.321"	"31.636"	"30.833"	"28.122"	"27.005"	"28.037"	"27.001"	"24.266"	"21.013"
"1988"	"22.485"	"24.686"	"27.593"	"31.558"	"33.561"	"30.03"	"26.284"	"26.479"	"27.233"	"25.755"	"22.85"	"21.033"
"1989"	"20.925"	"23.15"	"26.194"	"30.536"	"33.068"	"28.801"	"26.981"	"25.477"	"26.698"	"26.654"	"24.749"	"21.085"
"1990"	"22.89"	"23.375"	"26.14"	"31.046"	"31.133"	"28.288"	"26.14"	"25.881"	"26.207"	"25.877"	"23.888"	"21.545"
"1991"	"20.573"	"23.631"	"27.647"	"30.369"	"33.295"	"30.055"	"26.627"	"25.96"	"26.975"	"26.951"	"23.982"	"21.051"
"1992"	"21.354"	"22.194"	"27.861"	"31.009"	"33.002"	"31.616"	"28.372"	"26.02"	"26.175"	"26.388"	"23.577"	"21.296"
"1993"	"22.238"	"23.104"	"26.384"	"30.709"	"33.392"	"31.194"	"26.952"	"26.354"	"26.214"	"26.864"	"23.795"	"20.764"
"1994"	"21.965"	"22.478"	"27.877"	"29.772"	"33.213"	"28.896"	"25.917"	"25.518"	"25.531"	"26.688"	"23.186"	"20.718"
"1995"	"19.267"	"23.135"	"26.606"	"30.626"	"32.381"	"32.413"	"27.688"	"27.063"	"27.314"	"27.349"	"24.016"	"22.733"
"1996"	"23.087"	"24.723"	"29.266"	"31.224"	"33.032"	"31.155"	"27.778"	"26.039"	"26.674"	"25.798"	"23.336"	"21.348"
"1997"	"20.276"	"22.033"	"27.692"	"29.203"	"31.502"	"29.029"	"26.86"	"26.177"	"26.38"	"26.449"	"25.786"	"22.168"
"1998"	"21.531"	"22.969"	"27.291"	"32.08"	"34.231"	"31.629"	"27.4"	"27.127"	"26.826"	"27.356"	"24.171"	"21.207"
"1999"	"20.698"	"24.381"	"28.222"	"32.107"	"32.402"	"28.993"	"26.911"	"26.133"	"26.094"	"26.14"	"23.089"	"20.696"
"2000"	"21.839"	"22.265"	"26.815"	"32.737"	"31.336"	"29.284"	"26.073"	"27.081"	"26.937"	"27.777"	"24.835"	"21.665"
"2001"	"21.559"	"24.468"	"27.594"	"30.667"	"32.256"	"28.456"	"26.059"	"25.958"	"27.571"	"26.551"	"23.827"	"22.57"
"2002"	"20.546"	"24.309"	"27.857"	"31.919"	"33.128"	"29.397"	"27.446"	"25.142"	"26.015"	"27.18"	"24.036"	"22.712"
