
"Year"	"Jan"	"Feb"	"Mar"	"Apr"	"May"	"Jun"	"Jul"	"Aug"	"Sep"	"Oct"	"Nov"	"Dec"
"1901"	"15.593"	"18.65"	"23.034"	"27.258"	"27.323"	"28.799"	"28.324"	"28.502"	"27.623"	"26.58"	"21.684"	"17.906"
"1902"	"17.816"	"18.919"	"24.258"	"25.331"	"27.604"	"28.104"	"28.2"	"28.808"	"27.631"	"25.187"	"21.352"	"17.646"
"1903"	"15.936"	"17.981"	"22.144"	"26.473"	"27.341"	"27.575"	"28.803"	"28.087"	"27.92"	"26.719"	"22.181"	"18.07"
"1904"	"16.769"	"18.492"	"23.378"	"26.08"	"26.224"	"28.014"	"27.849"	"28.417"	"27.782"	"25.775"	"21.172"	"18.042"
"1905"	"15.621"	"15.327"	"20.953"	"23.875"	"26.489"	"28.416"	"28.2"	"27.618"	"27.619"	"26.175"	"22.378"	"18.303"
"1906"	"16.24"	"17.809"	"21.504"	"26.624"	"27.555"	"28.057"	"28.622"	"27.786"	"28.47"	"25.876"	"22.536"	"18.664"
"1907"	"17.74"	"17.97"	"20.656"	"24.501"	"26.723"	"27.687"	"27.995"	"28.977"	"27.691"	"26.216"	"22.053"	"18.115"
"1908"	"15.858"	"18.215"	"23.061"	"28.21"	"27.179"	"28.515"	"28.4"	"28.821"	"27.832"	"26.186"	"21.557"	"17.669"
"1909"	"16.891"	"18.055"	"24.613"	"25.511"	"27.079"	"27.488"	"28.421"	"28.193"	"28.659"	"26.768"	"22.808"	"18.89"
"1910"	"16.607"	"18.543"	"22.761"	"26.009"	"26.672"	"27.634"	"27.267"	"28.483"	"28.148"	"25.872"	"21.828"	"18.186"
"1911"	"17.82"	"17.843"	"22.029"	"26.113"	"26.913"	"27.884"	"28.199"	"28.154"	"27.43"	"25.33"	"20.836"	"17.386"
"1912"	"17.019"	"19.006"	"21.921"	"24.197"	"26.917"	"28"	"27.754"	"28.188"	"27.782"	"25.846"	"21.415"	"18.187"
"1913"	"16.649"	"18.273"	"20.984"	"26.434"	"26.03"	"27.09"	"28.161"	"28.397"	"27.874"	"25.78"	"20.869"	"17.794"
"1914"	"16.877"	"18.456"	"22.474"	"24.291"	"27.115"	"28.336"	"28.45"	"28.101"	"27.381"	"24.675"	"21.58"	"18.874"
"1915"	"17.729"	"18.372"	"22.366"	"25.848"	"26.855"	"27.545"	"28.261"	"28.517"	"27.755"	"27.961"	"23.732"	"18.542"
"1916"	"16.708"	"18.426"	"24.576"	"26.096"	"27.849"	"28.194"	"27.572"	"28.306"	"27.832"	"25.883"	"22.469"	"17.798"
"1917"	"16.288"	"18.168"	"21.878"	"25.386"	"26.884"	"27.756"	"28.061"	"28.678"	"27.581"	"25.675"	"22.461"	"18.381"
"1918"	"15.807"	"17.921"	"23.046"	"25.503"	"28.158"	"27.234"	"27.919"	"27.693"	"27.911"	"25.975"	"21.631"	"17.43"
"1919"	"17.32"	"17.723"	"24.027"	"25.466"	"26.848"	"28.497"	"28.212"	"28.994"	"27.342"	"26.155"	"22.63"	"18.601"
"1920"	"17.32"	"18.021"	"22.036"	"25.51"	"26.213"	"27.923"	"28.732"	"28.264"	"27.535"	"26.475"	"22.361"	"19.654"
"1921"	"17.203"	"18.205"	"24.14"	"26.302"	"27.966"	"27.217"	"28.028"	"28.607"	"27.828"	"24.975"	"21.708"	"18.04"
"1922"	"17.287"	"19.155"	"24.445"	"28.169"	"28.281"	"27.483"	"28.012"	"28.389"	"27.636"	"25.635"	"22.12"	"18.496"
"1923"	"17.107"	"18.122"	"23.75"	"26.797"	"26.892"	"28.126"	"28.112"	"28.931"	"27.66"	"25.596"	"22.294"	"18.61"
"1924"	"16.717"	"18.383"	"24.826"	"27.469"	"26.605"	"28.642"	"28.092"	"28.21"	"27.091"	"26.81"	"21.884"	"18.892"
"1925"	"15.42"	"17.035"	"23.151"	"26.107"	"26.021"	"27.908"	"28.002"	"28.422"	"27.093"	"25.122"	"21.501"	"17.23"
"1926"	"16.591"	"18.467"	"21.59"	"24.94"	"26.748"	"28.404"	"27.907"	"28.314"	"27.941"	"26.188"	"20.832"	"18.811"
"1927"	"16.283"	"17.56"	"21.192"	"25.837"	"26.332"	"27.806"	"28.313"	"28.185"	"27.182"	"25.999"	"21.541"	"18.457"
"1928"	"16.19"	"18.877"	"23.485"	"26.552"	"27.016"	"27.926"	"28.259"	"28.261"	"28.62"	"25.927"	"21.264"	"18.525"
"1929"	"16.252"	"17.71"	"23.603"	"25.817"	"27.124"	"27.83"	"28.012"	"28.302"	"27.782"	"25.522"	"21.685"	"18.198"
"1930"	"15.554"	"18.043"	"22.859"	"25.802"	"27.317"	"27.015"	"28.322"	"28.417"	"27.836"	"25.498"	"21.488"	"17.902"
"1931"	"17.582"	"18.729"	"23.05"	"26.652"	"26.574"	"28.473"	"27.923"	"29.056"	"27.013"	"26.288"	"21.329"	"18.56"
"1932"	"16.885"	"16.758"	"23.364"	"26.415"	"26.653"	"27.995"	"28.419"	"28.529"	"28.155"	"26.387"	"22.91"	"18.356"
"1933"	"15.521"	"18.93"	"23.958"	"25.102"	"26.284"	"28.053"	"28.259"	"28.193"	"27.849"	"26.28"	"21.856"	"18.48"
"1934"	"16.607"	"18.558"	"22.971"	"26.639"	"26.476"	"27.082"	"28.112"	"28.544"	"28.571"	"25.47"	"21.456"	"18.317"
"1935"	"16.887"	"19.311"	"24.132"	"26.624"	"28.685"	"28.474"	"28.824"	"27.844"	"28.246"	"26.171"	"22.443"	"18.314"
"1936"	"16.108"	"18.049"	"23.798"	"26.891"	"27.51"	"27.917"	"28.466"	"29.039"	"27.828"	"25.512"	"23.033"	"18.974"
"1937"	"16.309"	"18.558"	"22.96"	"27.751"	"27.594"	"29.317"	"29.354"	"28.35"	"28.054"	"25.619"	"22.087"	"18.507"
"1938"	"17.7"	"17.569"	"24.643"	"28.042"	"27.114"	"28.481"	"28.024"	"28.981"	"28.1"	"26.528"	"20.56"	"18.496"
"1939"	"17.261"	"18.923"	"22.729"	"28.299"	"27.668"	"27.874"	"28.17"	"28.706"	"27.778"	"25.588"	"22.209"	"18.774"
"1940"	"16.675"	"18.397"	"20.685"	"26.411"	"27.37"	"28.196"	"28.274"	"28.718"	"27.656"	"26.366"	"22.296"	"18.87"
"1941"	"16.376"	"18.627"	"24.502"	"27.279"	"26.956"	"27.604"	"28.466"	"28.67"	"28.389"	"25.334"	"21.791"	"19.272"
"1942"	"16.97"	"19.043"	"23.611"	"25.878"	"28.334"	"29.117"	"28.979"	"28.486"	"27.537"	"26.157"	"22.839"	"17.994"
"1943"	"17.808"	"17.947"	"22.798"	"24.488"	"27.317"	"28.223"	"27.838"	"28.34"	"28.349"	"26.246"	"23.079"	"19.079"
"1944"	"16.325"	"17.838"	"23.004"	"24.783"	"28.374"	"29.168"	"28.572"	"28.796"	"28.242"	"26.259"	"22.086"	"19.499"
"1945"	"16.63"	"17.061"	"23.698"	"26.347"	"26.744"	"28.774"	"28.87"	"28.738"	"28.496"	"25.569"	"21.707"	"17.461"
"1946"	"17.484"	"19.701"	"23.11"	"24.427"	"26.966"	"28.471"	"28.446"	"28.959"	"28.596"	"25.667"	"22.783"	"19.373"
"1947"	"17.077"	"18.897"	"23.605"	"27.793"	"27.578"	"29.282"	"28.269"	"28.637"	"27.832"	"26.231"	"22.164"	"19.642"
"1948"	"17.138"	"18.608"	"23.462"	"26.262"	"27.263"	"28.911"	"28.159"	"28.875"	"28.617"	"25.706"	"22.739"	"18.109"
"1949"	"17.433"	"18.597"	"23.658"	"24.551"	"26.586"	"27.57"	"28.117"	"28.367"	"27.782"	"26.948"	"21.848"	"17.259"
"1950"	"17.16"	"18.314"	"22.761"	"26.477"	"28.082"	"27.79"	"28.674"	"27.859"	"28.234"	"25.888"	"21.641"	"18.97"
"1951"	"16.448"	"19.067"	"24.25"	"26.399"	"27.946"	"28.401"	"28.613"	"29.014"	"28.676"	"27.456"	"22.434"	"18.272"
"1952"	"17.186"	"19.192"	"21.376"	"26.057"	"26.546"	"28.23"	"27.774"	"28.422"	"27.451"	"26.87"	"22.221"	"17.964"
"1953"	"16.066"	"19.263"	"24.485"	"26.776"	"27.848"	"27.744"	"27.568"	"29.148"	"27.799"	"25.975"	"22.019"	"19.58"
"1954"	"16.182"	"20.288"	"24.099"	"28.802"	"28.372"	"27.278"	"27.464"	"28.108"	"28.583"	"25.467"	"21.488"	"18.186"
"1955"	"16.95"	"18.908"	"24.09"	"25.844"	"28.4"	"27.687"	"27.502"	"27.65"	"28.24"	"27.297"	"22.923"	"17.694"
"1956"	"17.05"	"18.458"	"23.911"	"27.629"	"29.157"	"28.268"	"27.551"	"28.062"	"27.488"	"26.451"	"22.606"	"17.693"
"1957"	"16.57"	"18.01"	"22.218"	"26.605"	"28.443"	"27.837"	"28.582"	"28.164"	"28.001"	"25.188"	"22.051"	"19.363"
"1958"	"18.07"	"18.4"	"23.169"	"27.686"	"28.313"	"28.972"	"28.939"	"28.306"	"28.436"	"27.485"	"23.662"	"19.322"
"1959"	"17.291"	"17.997"	"23.58"	"27.641"	"27.712"	"28.212"	"28.416"	"28.829"	"27.778"	"26.395"	"22.704"	"19.386"
"1960"	"16.273"	"20.725"	"22.413"	"27.744"	"28.838"	"28.588"	"28.119"	"28.955"	"27.494"	"26.605"	"22.133"	"20.3"
"1961"	"18.295"	"18.414"	"24.059"	"27.439"	"28.629"	"28.525"	"28.59"	"29.248"	"28.472"	"26.527"	"21.009"	"16.064"
"1962"	"16.297"	"18.47"	"22.99"	"27.256"	"27.194"	"28.486"	"28.533"	"28.02"	"28.132"	"25.692"	"22.337"	"18.331"
"1963"	"16.586"	"19.376"	"22.809"	"25.442"	"26.715"	"28.222"	"28.322"	"28.767"	"27.985"	"26.285"	"21.948"	"18.977"
"1964"	"16.71"	"18.748"	"24.338"	"27.284"	"26.581"	"28.562"	"27.742"	"28.652"	"28.138"	"27.528"	"22.75"	"18.621"
"1965"	"17.439"	"18.239"	"21.783"	"26.214"	"27.996"	"28.12"	"27.741"	"27.68"	"27.269"	"25.463"	"21.229"	"18.598"
"1966"	"15.09"	"20.013"	"24.169"	"27.287"	"28.63"	"28.44"	"28.504"	"28.711"	"27.153"	"24.683"	"22.679"	"18.602"
"1967"	"17.378"	"19.823"	"22.231"	"25.317"	"27.173"	"28.212"	"28.261"	"28.351"	"27.723"	"24.728"	"20.138"	"18.61"
"1968"	"15.842"	"17.832"	"23.558"	"26.074"	"27.779"	"27.482"	"27.951"	"28.502"	"28.428"	"24.584"	"20.588"	"16.942"
"1969"	"16.151"	"19.525"	"24.712"	"26.463"	"27.586"	"28.446"	"28.167"	"28.16"	"27.679"	"25.455"	"23.353"	"18.931"
"1970"	"16.555"	"18.038"	"22.257"	"27.147"	"28.687"	"28.11"	"28.404"	"28.559"	"27.991"	"26.343"	"21.183"	"18.297"
"1971"	"16.6"	"18.312"	"22.527"	"25.361"	"25.994"	"27.826"	"27.397"	"27.445"	"27.43"	"26.378"	"21.799"	"19.118"
"1972"	"18.534"	"17.995"	"24.165"	"26.064"	"28.82"	"27.951"	"28.709"	"27.958"	"26.645"	"25.907"	"21.046"	"18.576"
"1973"	"18.124"	"19.319"	"22.281"	"27.158"	"27.294"	"27.697"	"28.157"	"28.388"	"27.814"	"25.193"	"21.42"	"18.597"
"1974"	"16.344"	"19.555"	"23.32"	"27.175"	"27.061"	"27.799"	"27.658"	"28.351"	"27.305"	"28.233"	"22.017"	"17.264"
"1975"	"16.62"	"18.933"	"23.083"	"27.034"	"27.499"	"28.227"	"27.124"	"28.187"	"27.57"	"28.164"	"22.316"	"18.009"
"1976"	"16.341"	"19.907"	"23.946"	"26.478"	"26.807"	"27.813"	"27.774"	"27.841"	"27.121"	"26.258"	"24.698"	"18.538"
"1977"	"17.729"	"19.884"	"24.933"	"26.268"	"25.502"	"27.05"	"28.159"	"28.764"	"27.844"	"25.801"	"23.678"	"17.667"
"1978"	"14.595"	"17.994"	"21.306"	"25.465"	"27.384"	"27.758"	"27.91"	"28.306"	"27.656"	"26.946"	"23.352"	"19.031"
"1979"	"17.678"	"17.949"	"23.267"	"26.769"	"28.635"	"28.501"	"28.166"	"28.853"	"27.298"	"26.745"	"24.838"	"18.572"
"1980"	"16.525"	"19.324"	"23.189"	"27.558"	"26.559"	"28.271"	"28.349"	"28.756"	"28.131"	"25.905"	"22.592"	"20.344"
"1981"	"15.492"	"19.689"	"22.613"	"25.524"	"26.505"	"28.285"	"28.305"	"28.977"	"27.626"	"26.865"	"22.096"	"18.137"
"1982"	"17.911"	"18.177"	"22.037"	"26.214"	"27.502"	"27.92"	"28.986"	"28.422"	"28.172"	"25.178"	"22.33"	"19.471"
"1983"	"15.69"	"16.995"	"23.158"	"25.072"	"26.592"	"28.609"	"28.647"	"28.929"	"28.542"	"26.435"	"21.649"	"17.662"
"1984"	"16.622"	"19.16"	"24.88"	"26.68"	"28.511"	"27.841"	"27.78"	"28.191"	"26.968"	"27.675"	"21.251"	"20.026"
"1985"	"16.932"	"19.309"	"25.907"	"27.218"	"26.94"	"28.293"	"27.272"	"28.898"	"27.64"	"25.47"	"21.297"	"19.57"
"1986"	"17.835"	"19.216"	"23.34"	"25.535"	"25.642"	"28.499"	"27.792"	"28.274"	"27.276"	"25.401"	"23.058"	"17.876"
"1987"	"16.501"	"19.507"	"23.324"	"25.937"	"26.888"	"28.857"	"28.283"	"28.052"	"28.216"	"25.033"	"20.474"	"19.386"
"1988"	"18.903"	"20.678"	"24.061"	"27.087"	"27.755"	"27.635"	"28.385"	"28.792"	"28.434"	"26.823"	"22.331"	"19.625"
"1989"	"17.101"	"19.104"	"23.725"	"26.665"	"27.784"	"27.671"	"28.09"	"28.445"	"28.382"	"27.096"	"22.375"	"17.899"
"1990"	"20.038"	"18.81"	"21.717"	"25.428"	"27.423"	"28.922"	"28.212"	"28.742"	"28.387"	"25.913"	"23.684"	"19.465"
"1991"	"15.294"	"20.197"	"23.96"	"26.748"	"27.659"	"27.958"	"28.771"	"28.84"	"27.665"	"26.885"	"22.333"	"18.218"
"1992"	"17.413"	"17.489"	"25.389"	"26.949"	"26.045"	"27.931"	"27.303"	"28.498"	"27.861"	"26.53"	"22.282"	"18.022"
"1993"	"17.719"	"20.378"	"21.938"	"25.548"	"26.606"	"28.069"	"28.624"	"28.721"	"27.59"	"27.362"	"23.521"	"20.338"
"1994"	"17.711"	"17.708"	"24.298"	"25.746"	"27.902"	"28.579"	"28.832"	"28.785"	"28.348"	"26.431"	"21.764"	"18.433"
"1995"	"14.898"	"18.404"	"23.857"	"26.145"	"29.336"	"29.069"	"28.253"	"28.522"	"28.03"	"27.2"	"22.015"	"19.868"
"1996"	"17.183"	"18.629"	"23.503"	"26.142"	"28.038"	"27.331"	"28.401"	"28.417"	"27.996"	"26.741"	"23.108"	"19.67"
"1997"	"16.38"	"18.066"	"24.233"	"26.74"	"27.593"	"28.451"	"28.48"	"29.086"	"27.234"	"25.385"	"22.327"	"19.061"
"1998"	"17.008"	"20.154"	"22.741"	"27.275"	"28.868"	"29.095"	"28.297"	"28.805"	"28.55"	"28.108"	"23.648"	"19.752"
"1999"	"18.272"	"20.817"	"24.751"	"30.14"	"28.333"	"29.027"	"28.082"	"28.328"	"28.06"	"27.077"	"23.72"	"19.81"
"2000"	"17.938"	"19.021"	"23.037"	"25.854"	"27.542"	"28.967"	"28.901"	"28.218"	"27.482"	"27.067"	"23.261"	"19.246"
"2001"	"17.724"	"19.887"	"23.316"	"27.043"	"28.543"	"28.812"	"29.081"	"29.157"	"28.567"	"27.121"	"23.9"	"19.958"
"2002"	"17.235"	"20.278"	"24.445"	"26.456"	"27.612"	"28.695"	"29.025"	"28.438"	"27.949"	"26.433"	"23.091"	"19.658"
