
"Year"	"Jan"	"Feb"	"Mar"	"Apr"	"May"	"Jun"	"Jul"	"Aug"	"Sep"	"Oct"	"Nov"	"Dec"
"1901"	"37.011"	"56.371"	"10.877"	"16.737"	"12.788"	"96.769"	"232.758"	"337.101"	"235.49"	"18.113"	"8.078"	"0"
"1902"	"12.494"	"4.46"	"0.969"	"6.787"	"5.973"	"69.951"	"322.075"	"303.274"	"333.123"	"7.232"	"1.448"	"13.475"
"1903"	"4.796"	"15.233"	"3.69"	"1.941"	"23.882"	"123.372"	"403.01"	"273.598"	"188.351"	"76.965"	"1.071"	"0.454"
"1904"	"2.012"	"7.206"	"44.296"	"0.158"	"81.246"	"185.703"	"342.525"	"718.025"	"128.23"	"53.1"	"0.781"	"3.043"
"1905"	"8.689"	"19.628"	"48.211"	"33.356"	"18.993"	"66.929"	"390.873"	"458.803"	"492.87"	"5.59"	"0"	"2.011"
"1906"	"6.28"	"68.34"	"33.959"	"0.158"	"4.943"	"240.898"	"599.99"	"334.87"	"225.044"	"49.424"	"2.003"	"3.215"
"1907"	"0.048"	"63.384"	"37.576"	"78.651"	"10.001"	"392.669"	"214.205"	"451.654"	"122.753"	"2.914"	"1.41"	"10.488"
"1908"	"15.547"	"44.895"	"9.961"	"2.495"	"7.822"	"199.377"	"321.848"	"532.768"	"145.155"	"72.69"	"0"	"0.486"
"1909"	"1.331"	"12.37"	"0.204"	"59.941"	"7.232"	"256.64"	"501.115"	"299.209"	"164.799"	"1.956"	"0"	"6.116"
"1910"	"12.533"	"5.893"	"23.542"	"10.564"	"7.529"	"187.781"	"339.831"	"514.719"	"241.578"	"62.654"	"15.415"	"0"
"1911"	"6.226"	"0.272"	"37.935"	"0.512"	"10.236"	"509.45"	"152.914"	"434.662"	"309.795"	"77.33"	"27.276"	"0.089"
"1912"	"0.595"	"35.578"	"3.737"	"15.254"	"16.81"	"54.04"	"413.937"	"459.503"	"135.628"	"12.548"	"9.757"	"0.051"
"1913"	"0.043"	"69.432"	"46.546"	"2.716"	"22.789"	"305.392"	"373.04"	"452.591"	"172.922"	"65.204"	"2.51"	"14.082"
"1914"	"1.977"	"17.09"	"32.469"	"45.829"	"26.645"	"156.889"	"238.156"	"521.747"	"209.882"	"4.787"	"0"	"9.155"
"1915"	"7.97"	"61.71"	"27.646"	"8.15"	"12.585"	"79.593"	"293.358"	"420.194"	"271.877"	"44.918"	"19.851"	"0.008"
"1916"	"0.043"	"22.784"	"0.199"	"4.731"	"4.333"	"244.507"	"379.84"	"460.268"	"160.255"	"97.812"	"3.039"	"0"
"1917"	"1.563"	"55.859"	"7.769"	"7.883"	"39.097"	"195.598"	"338.425"	"672.656"	"215.706"	"186.891"	"0.317"	"0.82"
"1918"	"0.585"	"0.838"	"11.516"	"2.816"	"15.828"	"358.904"	"212.676"	"615.849"	"210.108"	"2.831"	"0.424"	"3.494"
"1919"	"56.079"	"32.143"	"32.261"	"14.914"	"27.694"	"297.15"	"428.844"	"664.073"	"186.942"	"108.614"	"6.043"	"2.245"
"1920"	"0.182"	"19.574"	"47.226"	"4.199"	"11.234"	"82.392"	"631.427"	"501.766"	"110.569"	"10.655"	"0"	"0"
"1921"	"51.121"	"16.03"	"0.2"	"5.526"	"0.2"	"342.919"	"394.597"	"615.841"	"146.204"	"12.844"	"0"	"0"
"1922"	"13.617"	"0.959"	"0.199"	"8.131"	"4.346"	"294.27"	"510.773"	"453.4"	"355.283"	"58.713"	"10.205"	"0.82"
"1923"	"0.195"	"67.013"	"2.387"	"7.165"	"1.439"	"121.209"	"458.065"	"660.593"	"247.727"	"21.986"	"6.253"	"0.497"
"1924"	"20.745"	"22.606"	"1.725"	"22.192"	"8.395"	"80.146"	"421.166"	"341.912"	"290.11"	"70.478"	"19.037"	"0.192"
"1925"	"0.41"	"4.7"	"6.577"	"7.325"	"32.114"	"220.125"	"435.147"	"699.283"	"140.403"	"23.504"	"8.365"	"1.195"
"1926"	"4.255"	"1.61"	"78.184"	"15.502"	"37.819"	"93.591"	"414.688"	"579.203"	"282.342"	"43.364"	"3.165"	"12.123"
"1927"	"4.336"	"39.292"	"79.492"	"0.797"	"9.904"	"121.861"	"527.951"	"657.643"	"136.182"	"45.249"	"11.371"	"0.124"
"1928"	"6.616"	"13.87"	"4.27"	"22.7"	"18.783"	"148.446"	"577.633"	"296.907"	"223.677"	"119.826"	"0.053"	"2.727"
"1929"	"22.412"	"22.919"	"4.005"	"11.242"	"9.177"	"153.559"	"512.98"	"596.895"	"136.675"	"165.624"	"0"	"22.224"
"1930"	"2.196"	"1.77"	"13.489"	"18.842"	"7.076"	"95.25"	"376.649"	"301.556"	"261.386"	"24.585"	"25.039"	"10.454"
"1931"	"1.993"	"60.197"	"24.09"	"5.564"	"5.791"	"52.991"	"472.132"	"610.551"	"221.894"	"80.095"	"14.808"	"3.607"
"1932"	"0.043"	"30.543"	"0.485"	"9.848"	"19.375"	"82.588"	"677.67"	"519.029"	"196.041"	"21.818"	"13.889"	"1.614"
"1933"	"17.306"	"28.458"	"6.522"	"34.814"	"24.286"	"237.236"	"312.042"	"518.981"	"194.663"	"67.007"	"2.639"	"4.058"
"1934"	"7.271"	"4.073"	"1.603"	"10.109"	"0.394"	"187.952"	"434.618"	"713.931"	"248.564"	"51.942"	"16.835"	"0.94"
"1935"	"3.452"	"5.359"	"3.025"	"21.302"	"1.823"	"132.243"	"478.284"	"656.453"	"232.661"	"5.249"	"0"	"0"
"1936"	"4.187"	"53.643"	"24.355"	"2.948"	"41.877"	"410.742"	"530.954"	"488.752"	"286.575"	"119.88"	"3.901"	"11.391"
"1937"	"0.043"	"68.139"	"15.512"	"39.122"	"9.606"	"87.464"	"549.82"	"403.804"	"208.882"	"92.363"	"0"	"0"
"1938"	"19.378"	"27.396"	"7.482"	"6.93"	"32.917"	"213.622"	"297.333"	"428.943"	"247.622"	"75.187"	"2.596"	"0"
"1939"	"12.141"	"15.048"	"25.208"	"10.151"	"1.108"	"209.946"	"516.917"	"383.769"	"252.5"	"58.474"	"1.852"	"0.103"
"1940"	"0.402"	"47.176"	"99.853"	"12.959"	"15.341"	"115.095"	"356.729"	"605.666"	"140.416"	"24.508"	"2.413"	"6"
"1941"	"24.658"	"7.788"	"20.837"	"1.078"	"17.817"	"290.007"	"263.254"	"483.667"	"194.728"	"48.599"	"3.426"	"0"
"1942"	"21.276"	"69.716"	"27.885"	"20.382"	"5.154"	"149.875"	"525.439"	"606.229"	"313.369"	"8.967"	"1.365"	"0.046"
"1943"	"19.418"	"8.859"	"2.035"	"43.55"	"22.846"	"110.022"	"505.103"	"763.45"	"218.469"	"51.786"	"0.587"	"0"
"1944"	"19.928"	"68.91"	"110.827"	"17.438"	"11.591"	"93.897"	"538.423"	"656.009"	"182.602"	"83.629"	"0.802"	"0"
"1945"	"14.723"	"23.025"	"0.2"	"18.089"	"16.125"	"218.974"	"383.563"	"244.116"	"348.482"	"91.376"	"3.064"	"4.971"
"1946"	"0.043"	"14.305"	"20.328"	"26.185"	"20.866"	"282.077"	"531.677"	"649.038"	"319.981"	"69.987"	"14.308"	"1.617"
"1947"	"19.742"	"13.426"	"31.798"	"3.723"	"3.778"	"146.15"	"464.68"	"364.244"	"366.311"	"60.205"	"2.453"	"8.021"
"1948"	"15.698"	"20.05"	"14.843"	"11.895"	"13.344"	"218.34"	"377.193"	"384.614"	"336.439"	"42.439"	"26.654"	"1.614"
"1949"	"0.24"	"16.841"	"14.775"	"7.568"	"30.199"	"102.973"	"309.55"	"666.535"	"198.764"	"131.629"	"0"	"0"
"1950"	"6.2"	"30.472"	"68.706"	"4.642"	"2.289"	"161.775"	"431.805"	"539.037"	"105.811"	"14.502"	"6.266"	"9.747"
"1951"	"4.695"	"3.1"	"66.799"	"33.718"	"9.087"	"134.324"	"375.063"	"422.363"	"224.789"	"55.802"	"0.994"	"0"
"1952"	"0.735"	"13.449"	"38.815"	"14.318"	"8.231"	"210.138"	"261.203"	"346.653"	"291.555"	"47.443"	"0"	"9.129"
"1953"	"23.208"	"0.225"	"0.199"	"8.713"	"3.04"	"137.793"	"364.533"	"622.01"	"254.575"	"23.254"	"1.697"	"0"
"1954"	"5.36"	"17.606"	"6.271"	"4.15"	"9.003"	"135.273"	"225.542"	"395.409"	"326.174"	"33.622"	"0"	"1.404"
"1955"	"13.221"	"9.772"	"18.355"	"7.585"	"4.277"	"76.492"	"314.908"	"337.374"	"156.641"	"107.152"	"1.582"	"0"
"1956"	"10.952"	"17.54"	"6.351"	"2.987"	"48.692"	"282.206"	"499.853"	"635.345"	"363.748"	"46.797"	"2.309"	"7.467"
"1957"	"13.11"	"3.516"	"28.713"	"6.031"	"5.492"	"122.829"	"574.972"	"436.687"	"141.7"	"22.667"	"0"	"0.075"
"1958"	"21.769"	"15.575"	"27.999"	"27.144"	"8"	"77.245"	"613.57"	"377.048"	"298.512"	"139.084"	"3.083"	"0"
"1959"	"23.561"	"3.07"	"0.199"	"1.98"	"14.86"	"149.986"	"430.821"	"376.95"	"224.744"	"121.859"	"0"	"1.592"
"1960"	"3.956"	"0.225"	"42.317"	"12.015"	"12.989"	"151.219"	"452.381"	"541.963"	"170.704"	"53.386"	"0"	"0.236"
"1961"	"32.404"	"63.352"	"13.46"	"3.826"	"12.545"	"256.896"	"331.111"	"506.098"	"254.944"	"92.368"	"3.496"	"9.389"
"1962"	"6.011"	"22.266"	"5.518"	"7.296"	"4.462"	"163.281"	"405.93"	"356"	"274.651"	"32.188"	"0.932"	"14.515"
"1963"	"6.364"	"4.668"	"37.278"	"18.712"	"41.313"	"119.064"	"320.115"	"539.677"	"212.478"	"86.994"	"2.57"	"0"
"1964"	"0.505"	"21.371"	"10.946"	"27.576"	"17.325"	"207.241"	"354.149"	"664.002"	"252.554"	"61.623"	"13.556"	"0"
"1965"	"5.3"	"1.472"	"20.61"	"32.952"	"9.855"	"87.929"	"474.495"	"245.121"	"204.379"	"25.303"	"0"	"4.038"
"1966"	"39.914"	"3.576"	"1.238"	"3.804"	"3.662"	"227.841"	"151.871"	"273.613"	"125.848"	"9.129"	"3.888"	"23.028"
"1967"	"27.851"	"0.225"	"74.869"	"8.688"	"6.288"	"179.225"	"351.282"	"600.08"	"303.256"	"13.954"	"0"	"21.856"
"1968"	"17.503"	"15.825"	"11.174"	"9.838"	"4.857"	"124.013"	"335.84"	"370.761"	"182.781"	"45.118"	"2.321"	"3.815"
"1969"	"0.855"	"3.525"	"5.445"	"10.54"	"28.41"	"109.906"	"605.556"	"424.13"	"271.664"	"12.276"	"10.67"	"21.134"
"1970"	"11.736"	"24.01"	"32.887"	"6.561"	"15.204"	"282.574"	"341.041"	"473.797"	"323.39"	"30.615"	"0.128"	"0"
"1971"	"16.584"	"15.419"	"3.252"	"36.925"	"51.315"	"447.522"	"492.191"	"676.82"	"137.603"	"72.601"	"0"	"0"
"1972"	"7.755"	"68.348"	"1.077"	"32.278"	"3.021"	"79.943"	"392.727"	"477.38"	"181.871"	"121.962"	"17.381"	"1.64"
"1973"	"5.365"	"0.544"	"3.438"	"5.096"	"2.898"	"177.273"	"163.016"	"425.349"	"201.312"	"138.207"	"1.031"	"2.089"
"1974"	"0.457"	"4.928"	"9.463"	"1.609"	"13.752"	"138.315"	"520.014"	"297.005"	"119.839"	"87.692"	"4.307"	"0"
"1975"	"5.119"	"14.123"	"30.942"	"3.392"	"12.949"	"192.556"	"588.091"	"262.13"	"201.546"	"86.723"	"4.974"	"0"
"1976"	"9.366"	"5.063"	"2.842"	"38.121"	"10.015"	"73.347"	"488.677"	"363.858"	"442.088"	"3.677"	"4.175"	"0.985"
"1977"	"6.671"	"3.874"	"0.347"	"52.062"	"72.496"	"189.229"	"569.607"	"481.837"	"241.65"	"42.126"	"28.939"	"12.868"
"1978"	"9.172"	"71.511"	"44.871"	"52.648"	"7.427"	"389.177"	"334.934"	"492.882"	"370.545"	"43.237"	"3.794"	"26.999"
"1979"	"8.704"	"20.308"	"0.247"	"16.803"	"0.854"	"207.471"	"412.868"	"290.517"	"172.208"	"21.065"	"12.224"	"6.579"
"1980"	"31.843"	"24.653"	"21.055"	"3.767"	"8.499"	"332.448"	"466.24"	"390.583"	"130.592"	"22.042"	"0"	"2.841"
"1981"	"19.712"	"8.128"	"51.519"	"12.717"	"20.763"	"66.008"	"425.907"	"286.422"	"229.65"	"5.969"	"4.778"	"5.428"
"1982"	"19.741"	"17.223"	"66.715"	"20.733"	"24.271"	"153.261"	"321.755"	"563.795"	"300.301"	"6.208"	"11.761"	"3.686"
"1983"	"2.226"	"26.234"	"18.506"	"21.251"	"34.618"	"169.512"	"368.373"	"333.406"	"155.847"	"67.379"	"0.404"	"3.258"
"1984"	"23.468"	"28.827"	"1.433"	"20.855"	"10.584"	"368.821"	"383.118"	"399.198"	"150.124"	"37.48"	"0.052"	"0"
"1985"	"25.019"	"2.614"	"1.5"	"3.385"	"7.335"	"169.998"	"475.422"	"459.688"	"170.272"	"108.491"	"0"	"0.343"
"1986"	"23.722"	"45.261"	"2.504"	"13.739"	"11.465"	"185.558"	"416.663"	"514.195"	"151.955"	"9.063"	"9.529"	"12.851"
"1987"	"8.022"	"11.516"	"13.286"	"3.727"	"15.403"	"65.693"	"335.561"	"597.779"	"445.505"	"42.229"	"11.071"	"2.779"
"1988"	"3.8"	"20.654"	"37.74"	"13.005"	"24.893"	"244.432"	"382.63"	"275.879"	"162.354"	"31.043"	"0.953"	"1.111"
"1989"	"0.789"	"0.225"	"23.788"	"1.18"	"33.829"	"251.376"	"316.403"	"428.558"	"177.478"	"43.526"	"5.386"	"31.001"
"1990"	"0.103"	"73.308"	"39.238"	"3.612"	"32.736"	"355.22"	"653.691"	"483.068"	"203.291"	"91.422"	"2.337"	"1.574"
"1991"	"16.079"	"8.082"	"47.253"	"15.155"	"7.485"	"226.518"	"350.773"	"651.427"	"156.749"	"24.971"	"2.509"	"29"
"1992"	"15.921"	"4.386"	"0.199"	"5.612"	"9.762"	"95.119"	"283.467"	"246.13"	"114.216"	"57.949"	"2.66"	"0"
"1993"	"4.27"	"0.775"	"20.671"	"3.026"	"21.668"	"84.117"	"271.28"	"258.427"	"271.252"	"85.693"	"0.409"	"0.005"
"1994"	"26.66"	"11.519"	"29.861"	"16.359"	"14.43"	"338.808"	"447.606"	"471.386"	"89.294"	"102.912"	"1.302"	"0"
"1995"	"9.792"	"9.571"	"47.832"	"2.985"	"19.703"	"93.589"	"388.584"	"308.865"	"229.517"	"37.674"	"4.317"	"0"
"1996"	"16.505"	"10.124"	"5.227"	"8.138"	"3.014"	"260.525"	"355.402"	"435.747"	"125.48"	"100.531"	"2.547"	"0"
"1997"	"21.133"	"0.655"	"25.71"	"11.787"	"29.901"	"35.064"	"282.118"	"452.957"	"128.661"	"18.579"	"20.044"	"26.499"
"1998"	"10.071"	"28.856"	"6.808"	"11.732"	"41.583"	"59.618"	"252.045"	"283.742"	"174.879"	"142.47"	"20.839"	"0"
"1999"	"12.576"	"8.311"	"0.199"	"0.158"	"22.499"	"152.273"	"306.866"	"547.075"	"140.258"	"31.082"	"0.267"	"0"
"2000"	"4.851"	"46.27"	"0.199"	"15.173"	"9.358"	"269.526"	"189.349"	"240.462"	"204.867"	"18.591"	"0.15"	"0"
"2001"	"1.114"	"0.298"	"42.898"	"15.126"	"14.213"	"100.524"	"327.557"	"478.258"	"65.099"	"64.312"	"5.073"	"0"
"2002"	"42.289"	"8.102"	"8.823"	"10.527"	"11.395"	"84.321"	"219.26"	"473.55"	"142.142"	"67.078"	"7.974"	"0"
