
"Year"	"Jan"	"Feb"	"Mar"	"Apr"	"May"	"Jun"	"Jul"	"Aug"	"Sep"	"Oct"	"Nov"	"Dec"
"1901"	"12.758"	"14.955"	"21.99"	"27.115"	"31.61"	"35.44"	"32.665"	"31.244"	"30.864"	"28.128"	"20.957"	"15.886"
"1902"	"15.305"	"17.591"	"24.187"	"28.605"	"32.361"	"33.23"	"31.935"	"32.243"	"29.754"	"26.67"	"20.301"	"14.334"
"1903"	"13.999"	"15.947"	"20.593"	"26.415"	"31.41"	"35.972"	"33.71"	"30.845"	"30.806"	"26.754"	"19.688"	"14.331"
"1904"	"13.216"	"16.506"	"20.999"	"28.616"	"32.082"	"34.725"	"31.481"	"30.477"	"29.698"	"26.575"	"19.73"	"15.629"
"1905"	"12.395"	"11.843"	"18.387"	"25.214"	"33.484"	"35.392"	"33.033"	"32.11"	"31.567"	"27.419"	"21.518"	"15.625"
"1906"	"13.005"	"14.64"	"19.821"	"27.267"	"34.546"	"33.634"	"32.833"	"30.063"	"29.298"	"27.361"	"21.348"	"16.33"
"1907"	"15.501"	"14.261"	"18.834"	"24.815"	"30.361"	"33.413"	"33.91"	"30.155"	"31.317"	"27.417"	"20.747"	"14.334"
"1908"	"13.933"	"16.634"	"21.776"	"28.331"	"32.493"	"35.326"	"30.926"	"28.665"	"29.664"	"26.306"	"19.501"	"14.819"
"1909"	"13.153"	"15.091"	"21.781"	"26.195"	"32.028"	"32.417"	"29.856"	"29.607"	"28.921"	"26.724"	"21.457"	"14.345"
"1910"	"13.345"	"16.286"	"21.733"	"26.57"	"32.946"	"33.483"	"30.921"	"29.821"	"29.869"	"25.664"	"19.358"	"14.789"
"1911"	"15.265"	"16.593"	"19.687"	"27.414"	"33.705"	"33.881"	"33.934"	"32.424"	"29.94"	"27.128"	"17.862"	"14.633"
"1912"	"14.538"	"17.576"	"21.418"	"27.657"	"32.903"	"35.681"	"32.069"	"29.922"	"28.756"	"26.676"	"19.4"	"14.79"
"1913"	"14.8"	"15.998"	"19.303"	"29.051"	"30.594"	"31.549"	"30.689"	"30.989"	"30.741"	"27.489"	"20.015"	"14.894"
"1914"	"15.8"	"15.707"	"21.241"	"27.589"	"32.454"	"33.192"	"30.67"	"30.54"	"29.716"	"24.85"	"20.598"	"14.43"
"1915"	"13.896"	"14.591"	"21.879"	"27.99"	"35.188"	"34.411"	"34.004"	"31.939"	"31.121"	"27.643"	"20.6"	"15.686"
"1916"	"14.994"	"15.696"	"24.572"	"29.609"	"32.201"	"33.225"	"30.811"	"29.428"	"29.464"	"26.289"	"18.502"	"14.372"
"1917"	"14.3"	"17.071"	"21.873"	"24.718"	"28.351"	"32.734"	"30.254"	"29.209"	"27.831"	"24.786"	"17.689"	"14.986"
"1918"	"13.44"	"16.681"	"21.379"	"25.272"	"34.546"	"33.624"	"34.515"	"32.271"	"30.714"	"27.171"	"20.255"	"14.668"
"1919"	"14.194"	"15.39"	"22.47"	"27.17"	"31.855"	"36.561"	"30.995"	"29.757"	"29.859"	"26.418"	"19.556"	"14.338"
"1920"	"13.798"	"15.399"	"21.786"	"27.367"	"29.151"	"32.932"	"31.426"	"31.104"	"31.473"	"28.037"	"21.652"	"15.984"
"1921"	"15.108"	"17.399"	"24.975"	"31.356"	"35.596"	"35.469"	"33.809"	"30.254"	"29.838"	"25.733"	"20.242"	"16.785"
"1922"	"13.752"	"17.36"	"23.524"	"28.751"	"33.002"	"33.54"	"31.931"	"30.395"	"28.87"	"25.543"	"19.757"	"15.027"
"1923"	"13.74"	"15.299"	"22.479"	"28.955"	"31.805"	"36.045"	"31.621"	"29.064"	"30.049"	"25.722"	"19.758"	"15.177"
"1924"	"13.287"	"15.896"	"22.932"	"28.644"	"29.599"	"36.074"	"32.463"	"30.254"	"28.338"	"25.715"	"19.652"	"15.482"
"1925"	"12.296"	"14.092"	"22.655"	"30.099"	"32.533"	"31.312"	"29.546"	"30.326"	"30.709"	"26.492"	"18.661"	"14.633"
"1926"	"14.586"	"17.537"	"20.631"	"24.713"	"29.661"	"35.383"	"32.258"	"29.37"	"29.008"	"25.624"	"18.099"	"14.673"
"1927"	"12.83"	"14.152"	"20.633"	"26.662"	"30.965"	"34.085"	"30.815"	"29.312"	"29.503"	"26.333"	"19.843"	"15.983"
"1928"	"13.196"	"16.746"	"21.789"	"27.756"	"34.151"	"34.214"	"32.158"	"31.875"	"30.285"	"27.285"	"20.622"	"14.64"
"1929"	"13.994"	"15.233"	"24.263"	"29.008"	"33.452"	"34.325"	"31.398"	"29.716"	"31.169"	"26.53"	"20.414"	"13.846"
"1930"	"13.01"	"15.906"	"22.538"	"27.124"	"32.399"	"32.907"	"29.755"	"30.359"	"28.993"	"26.431"	"19.367"	"14.787"
"1931"	"14.769"	"13.931"	"20.77"	"28.825"	"32.409"	"34.517"	"31.518"	"30.399"	"29.164"	"26.156"	"19.39"	"15.486"
"1932"	"15.667"	"15.809"	"22.895"	"27.967"	"31.066"	"35.721"	"31.522"	"29.297"	"29.694"	"26.418"	"19.373"	"14.762"
"1933"	"11.669"	"16.699"	"21.498"	"25.823"	"29.882"	"33.625"	"30.42"	"28.255"	"28.008"	"25.423"	"19.533"	"15.829"
"1934"	"12.244"	"17.678"	"20.744"	"27.463"	"31.5"	"33.216"	"31.302"	"29.196"	"30.513"	"25.778"	"19.7"	"16.13"
"1935"	"12.477"	"16.703"	"21.718"	"24.343"	"32.658"	"35.24"	"30.898"	"29.413"	"29.451"	"25.985"	"20.457"	"14.881"
"1936"	"12.653"	"16.699"	"20.899"	"27.271"	"34.65"	"31.616"	"30.459"	"29.593"	"29.154"	"26.222"	"19.796"	"15.127"
"1937"	"13.13"	"16.343"	"20.185"	"26.042"	"32.15"	"34.258"	"30.57"	"31.718"	"29.921"	"25.258"	"19.562"	"13.661"
"1938"	"13.292"	"14.757"	"22.989"	"28.868"	"34.685"	"32.639"	"32.428"	"31.212"	"31.559"	"27.444"	"18.895"	"14.83"
"1939"	"14.739"	"16.403"	"19.29"	"26.182"	"33.929"	"32.382"	"31.455"	"31.568"	"30.695"	"27.817"	"19.846"	"15.721"
"1940"	"14.172"	"15.891"	"20.617"	"26.61"	"33.314"	"34.314"	"31.666"	"29.203"	"29.603"	"26.508"	"20.933"	"15.128"
"1941"	"13.368"	"17.289"	"24.275"	"30.966"	"34.209"	"32.24"	"32.912"	"30.711"	"30.078"	"28.974"	"20.545"	"16.412"
"1942"	"12.787"	"16.967"	"23.442"	"29.557"	"33.267"	"34.708"	"30.145"	"28.518"	"28.148"	"26.034"	"21.188"	"14.121"
"1943"	"13.758"	"16.345"	"22.532"	"26.655"	"32.259"	"33.867"	"30.826"	"29.257"	"30.31"	"26.38"	"20.8"	"16.475"
"1944"	"13.28"	"15.699"	"20.673"	"26.948"	"33.828"	"33.93"	"30.606"	"30.206"	"29.403"	"25.927"	"20.645"	"15.839"
"1945"	"12.039"	"15.5"	"22.644"	"26.238"	"30.952"	"33.602"	"30.874"	"30.126"	"28.613"	"25.917"	"20.099"	"14.068"
"1946"	"14.783"	"18.81"	"21.345"	"30.029"	"32.936"	"33.634"	"30.701"	"29.912"	"30.347"	"27.025"	"19.994"	"14.131"
"1947"	"13.343"	"16.699"	"23.017"	"30.098"	"33.822"	"36.717"	"33.001"	"31.44"	"28.453"	"25.447"	"21.303"	"15.229"
"1948"	"14.085"	"16.084"	"21.052"	"30.435"	"33.22"	"35.234"	"31.508"	"29.29"	"29.985"	"27.431"	"18.881"	"14.938"
"1949"	"16.049"	"16.794"	"22.901"	"30.074"	"34.797"	"34.642"	"30.65"	"30.792"	"31.344"	"26.425"	"18.806"	"14.478"
"1950"	"15.434"	"14.296"	"21.027"	"27.153"	"33.764"	"35.259"	"31.221"	"29.861"	"28.423"	"25.434"	"19.197"	"13.198"
"1951"	"13.452"	"16.235"	"22.328"	"26.093"	"32.346"	"34.222"	"33.535"	"30.712"	"30.797"	"29.135"	"21.695"	"15.887"
"1952"	"15.392"	"18.796"	"22.856"	"30.908"	"33.532"	"33.383"	"31.712"	"29.402"	"31.113"	"27.379"	"20.509"	"15.503"
"1953"	"13.894"	"18.983"	"26.08"	"29.581"	"34.355"	"34.697"	"31.097"	"30.182"	"30.302"	"27.07"	"20.494"	"18.029"
"1954"	"13.496"	"17.585"	"22.318"	"29.252"	"34.645"	"35.181"	"31.954"	"31.94"	"30.474"	"24.423"	"20.257"	"15.652"
"1955"	"14.133"	"17.385"	"24.623"	"26.747"	"31.088"	"35.33"	"32.635"	"29.93"	"29.078"	"25.038"	"19.795"	"15.771"
"1956"	"14.49"	"17.581"	"22.827"	"29.508"	"35.449"	"34.236"	"30.746"	"29.621"	"31.243"	"25.272"	"19.254"	"15.781"
"1957"	"13.635"	"15.387"	"21.701"	"26.908"	"31.409"	"33.879"	"32.083"	"30.369"	"28.402"	"26.479"	"20.613"	"15.436"
"1958"	"15.838"	"16.494"	"23.959"	"31.214"	"33.07"	"35.279"	"31.072"	"30.285"	"29.076"	"26.518"	"21.209"	"15.988"
"1959"	"13.853"	"15.843"	"23.178"	"28.984"	"32.345"	"35.04"	"31.692"	"30.265"	"29.542"	"26.338"	"20.413"	"15.893"
"1960"	"13.596"	"19.583"	"21.673"	"27.823"	"34.152"	"35.515"	"31.984"	"30.372"	"30.408"	"26.218"	"19.454"	"15.114"
"1961"	"14.991"	"14.984"	"22.978"	"27.75"	"32.872"	"34.417"	"31.428"	"29.708"	"30.164"	"25.761"	"18.454"	"13.033"
"1962"	"12.697"	"17.442"	"22.032"	"29.641"	"33.043"	"34.406"	"32.233"	"30.868"	"28.237"	"26.948"	"19.516"	"14.397"
"1963"	"12.989"	"18.33"	"22.227"	"27.899"	"31.209"	"34.116"	"32.584"	"29.281"	"28.664"	"26.925"	"21.025"	"14.845"
"1964"	"12.192"	"15.911"	"22.636"	"28.473"	"30.547"	"34.776"	"29.701"	"30.251"	"28.689"	"25.635"	"18.769"	"14.797"
"1965"	"15.772"	"16.83"	"21.999"	"26.095"	"31.393"	"35.384"	"31.421"	"29.968"	"29.388"	"26.573"	"20.817"	"13.864"
"1966"	"14.128"	"18.399"	"21.944"	"28.649"	"32.834"	"33.41"	"32.662"	"30.155"	"29.165"	"26.375"	"19.705"	"14.297"
"1967"	"12.75"	"18.787"	"21.574"	"27.458"	"32.04"	"35.145"	"31.459"	"29.601"	"29.099"	"25.594"	"19.85"	"15.368"
"1968"	"13.506"	"15.181"	"22.318"	"28.073"	"32.425"	"34.868"	"31.302"	"30.32"	"31.152"	"25.68"	"20.461"	"15.582"
"1969"	"14.438"	"17.443"	"25.004"	"29.054"	"31.532"	"35.477"	"31.762"	"31.158"	"29.7"	"27.622"	"21.518"	"15.829"
"1970"	"14.795"	"16.42"	"22.364"	"29.505"	"33.971"	"32.32"	"32.788"	"30.169"	"29.974"	"27.422"	"19.924"	"15.635"
"1971"	"13.297"	"17.486"	"22.337"	"29.731"	"31.332"	"32.622"	"30.509"	"28.405"	"28.742"	"26.38"	"20.123"	"16.115"
"1972"	"14.649"	"14.791"	"23.361"	"27.27"	"33.624"	"34.776"	"32.548"	"29.722"	"29.159"	"26.004"	"20.962"	"15.551"
"1973"	"14.487"	"18.799"	"22.092"	"29.94"	"32.879"	"35.132"	"30.984"	"28.946"	"29.484"	"25.41"	"19.572"	"13.642"
"1974"	"13.88"	"14.768"	"23.434"	"30.192"	"32.346"	"32.416"	"30.386"	"30.349"	"30.23"	"25.748"	"19.76"	"14.145"
"1975"	"13.594"	"16.028"	"21.737"	"28.925"	"33.428"	"33.109"	"29.946"	"29.43"	"28.08"	"27.258"	"19.344"	"15.944"
"1976"	"14.767"	"16.9"	"21.396"	"27.746"	"32.422"	"31.893"	"31.473"	"28.111"	"28.746"	"26.935"	"20.724"	"15.09"
"1977"	"14.032"	"16.551"	"23.38"	"27.749"	"30.109"	"31.285"	"29.511"	"29.469"	"27.893"	"26.028"	"22.207"	"16.78"
"1978"	"13.071"	"15.007"	"20.323"	"27.848"	"35.238"	"33.628"	"29.531"	"29.23"	"28.163"	"26.333"	"20.819"	"15.729"
"1979"	"14.016"	"15.847"	"20.428"	"29.31"	"30.388"	"34.258"	"31.306"	"30.866"	"28.941"	"26.771"	"21.835"	"16.642"
"1980"	"14.35"	"17.892"	"21.343"	"30.332"	"34.533"	"33.645"	"29.908"	"30.306"	"29.234"	"27.09"	"20.608"	"15.655"
"1981"	"14.739"	"17.545"	"21.367"	"28.913"	"32.513"	"34.118"	"29.818"	"30.551"	"30.173"	"26.202"	"19.577"	"15.686"
"1982"	"14.884"	"15.516"	"19.674"	"26.605"	"29.717"	"33.933"	"32.658"	"29.872"	"30.447"	"26.967"	"21.121"	"16.295"
"1983"	"13.539"	"16.085"	"21.52"	"25.481"	"30.325"	"33.115"	"31.158"	"29.512"	"30.053"	"25.883"	"19.817"	"15.843"
"1984"	"13.2"	"14.8"	"23.981"	"28.625"	"35.28"	"35.004"	"30.511"	"29.605"	"28.176"	"25.41"	"20.069"	"15.962"
"1985"	"14.102"	"17.778"	"24.23"	"29.117"	"33.938"	"34.079"	"30.15"	"30.119"	"29.326"	"24.895"	"20.712"	"16.985"
"1986"	"13.909"	"16.042"	"21.989"	"28.431"	"30.446"	"33.761"	"30.421"	"30.279"	"29.468"	"25.792"	"21.329"	"14.742"
"1987"	"14.937"	"18.049"	"22.655"	"29.051"	"29.259"	"34.843"	"34.712"	"31.844"	"31.744"	"27.932"	"21.109"	"16.138"
"1988"	"15.796"	"18.142"	"22.335"	"29.853"	"35.179"	"33.373"	"30.169"	"29.108"	"29.441"	"26.042"	"20.917"	"16.386"
"1989"	"13.353"	"16.142"	"21.642"	"27.101"	"33.307"	"33.136"	"31.674"	"29.153"	"29.278"	"26.457"	"20.816"	"15.125"
"1990"	"16.153"	"16.606"	"20.584"	"28.047"	"32.518"	"34.733"	"30.079"	"29.821"	"28.871"	"25.246"	"20.913"	"15.853"
"1991"	"14.028"	"17.017"	"21.89"	"26.932"	"32.835"	"33.132"	"33.407"	"29.801"	"29.871"	"25.636"	"20.238"	"16.131"
"1992"	"14.998"	"15.891"	"21.99"	"27.801"	"31.847"	"34.741"	"30.332"	"29.569"	"28.866"	"25.787"	"20.038"	"16.923"
"1993"	"14.356"	"18.703"	"20.635"	"28.478"	"34.13"	"34.422"	"30.719"	"31.627"	"28.111"	"25.822"	"21.161"	"15.687"
"1994"	"15.004"	"16.649"	"23.764"	"27.135"	"33.525"	"34.616"	"30.065"	"29.418"	"28.833"	"25.447"	"20.557"	"16.393"
"1995"	"13.79"	"16.952"	"21.179"	"27.516"	"34.183"	"35.719"	"32.015"	"28.324"	"29.407"	"26.747"	"20.713"	"16.18"
"1996"	"14.406"	"17.385"	"23.127"	"28.899"	"32.583"	"32.132"	"31.833"	"29.393"	"29.053"	"25.918"	"19.845"	"14.839"
"1997"	"13.482"	"16.476"	"21.771"	"26.842"	"30.401"	"31.726"	"31.603"	"29.426"	"29.703"	"24.241"	"19.609"	"13.24"
"1998"	"13.822"	"17.09"	"20.478"	"28.857"	"33.748"	"33.842"	"31.209"	"30.149"	"29.623"	"26.376"	"20.958"	"15.244"
"1999"	"13.497"	"17.49"	"23.286"	"30.401"	"33.432"	"33.035"	"31.965"	"30.778"	"30.098"	"26.808"	"21.457"	"15.884"
"2000"	"14.197"	"15.581"	"21.979"	"30.448"	"34.569"	"32.515"	"30.259"	"30.325"	"29.676"	"27.119"	"21.429"	"16.14"
"2001"	"13.397"	"17.685"	"22.779"	"28.456"	"32.909"	"31.474"	"31.037"	"30.975"	"30.364"	"27.572"	"21.403"	"16.399"
"2002"	"15.169"	"16.457"	"22.036"	"30.541"	"34.078"	"33.71"	"32.662"	"30.916"	"28.203"	"26.547"	"21.391"	"16.535"
