
"Year"	"Jan"	"Feb"	"Mar"	"Apr"	"May"	"Jun"	"Jul"	"Aug"	"Sep"	"Oct"	"Nov"	"Dec"
"1901"	"6.589"	"51.831"	"26.848"	"28.597"	"36.328"	"36.869"	"18.755"	"68.798"	"204.288"	"58.718"	"214.575"	"197.533"
"1902"	"119.06"	"37.632"	"12.509"	"0.299"	"61.729"	"29.062"	"34.218"	"89.019"	"159.72"	"170.314"	"279.522"	"265.26"
"1903"	"50.851"	"7.821"	"0.2"	"0.398"	"128.646"	"47.043"	"60.977"	"87.862"	"259.303"	"153.464"	"121.231"	"524.954"
"1904"	"73.571"	"0.199"	"0.2"	"0.398"	"62.903"	"2.151"	"63.058"	"17.561"	"30.785"	"113.069"	"26.033"	"145.994"
"1905"	"3.13"	"0.002"	"16.374"	"49.646"	"61.095"	"8.211"	"42.836"	"135.555"	"74.634"	"232.701"	"178.935"	"5.876"
"1906"	"45.843"	"16.615"	"41.713"	"8.367"	"20.25"	"12.855"	"52.311"	"130.989"	"33.04"	"194.104"	"372.502"	"314.477"
"1907"	"2.987"	"0.202"	"0.696"	"96.027"	"63.394"	"15.228"	"19.739"	"38.703"	"130.798"	"216.757"	"569.459"	"81.474"
"1908"	"4.889"	"58.348"	"2.092"	"4.403"	"10.706"	"10.161"	"24.412"	"49.184"	"149.697"	"234.462"	"27.048"	"66.19"
"1909"	"52.39"	"0.209"	"0.696"	"16.91"	"85.736"	"10.621"	"11.027"	"227.986"	"85.922"	"26.992"	"60.456"	"34.73"
"1910"	"1.098"	"39.569"	"0.2"	"3.919"	"10.326"	"36.706"	"152.507"	"98.01"	"91.996"	"230.224"	"164.509"	"9.251"
"1911"	"0.5"	"0"	"0.2"	"8.607"	"50.127"	"49.3"	"15.687"	"47.978"	"169.557"	"115.17"	"328.502"	"228.609"
"1912"	"6.235"	"0"	"0.2"	"29.697"	"69.557"	"46.189"	"19.243"	"54.077"	"110.747"	"179.699"	"372.373"	"91.857"
"1913"	"4.671"	"0.199"	"0.2"	"24.709"	"99.277"	"28.995"	"15.608"	"53.086"	"98.098"	"338.964"	"453.03"	"285.987"
"1914"	"14.087"	"1.207"	"1.491"	"47.943"	"2.019"	"85.624"	"6.365"	"71.546"	"104.533"	"228.46"	"184.505"	"195.192"
"1915"	"25.874"	"60.669"	"24.648"	"40.795"	"35.631"	"33.25"	"82.834"	"104.025"	"174.049"	"103.462"	"286.204"	"124.745"
"1916"	"0.2"	"9.874"	"1.392"	"48.747"	"36.392"	"28.426"	"162.925"	"113.466"	"115.834"	"125.273"	"211.686"	"109.504"
"1917"	"34.229"	"68.131"	"0.601"	"0.398"	"100.192"	"38.727"	"48.401"	"155.599"	"103.813"	"99.675"	"303.308"	"76.952"
"1918"	"51.269"	"7.471"	"41.976"	"0.299"	"35.446"	"80.349"	"45.182"	"28.091"	"20.184"	"15.277"	"511.936"	"205.753"
"1919"	"2.093"	"0.298"	"14.792"	"1.302"	"68.581"	"52.587"	"108.609"	"112.724"	"126.795"	"140.852"	"434.886"	"363.514"
"1920"	"139.514"	"0"	"0.398"	"61.827"	"44.225"	"53.421"	"4.503"	"70.262"	"233.392"	"230.354"	"632.847"	"3.488"
"1921"	"112.357"	"0"	"0.2"	"83.751"	"3.791"	"48.458"	"91.154"	"114.029"	"100.728"	"249.766"	"104.859"	"116.807"
"1922"	"94.652"	"12.184"	"0.2"	"33.281"	"46.668"	"38.013"	"13.622"	"52.697"	"90.409"	"235.666"	"246.916"	"72.241"
"1923"	"125.5"	"0.199"	"38.486"	"19.135"	"21.56"	"31.7"	"10.645"	"14.182"	"144.884"	"284.612"	"33.068"	"253.845"
"1924"	"33.898"	"0"	"52.828"	"11.954"	"38.587"	"28.189"	"41.13"	"59.277"	"229.116"	"38.494"	"136.497"	"61.168"
"1925"	"15.923"	"0.397"	"74.938"	"28.107"	"99.815"	"6.253"	"12.507"	"115.459"	"40.236"	"199.565"	"260.952"	"329.308"
"1926"	"108.318"	"15.159"	"3.622"	"0.361"	"76.856"	"6.739"	"72.076"	"70.191"	"78.954"	"110.202"	"304.941"	"37.19"
"1927"	"30.245"	"42.804"	"8.672"	"84.326"	"42.922"	"47.53"	"10.379"	"51.373"	"143.591"	"38.114"	"132.241"	"83.087"
"1928"	"129.305"	"42.034"	"20.235"	"51.392"	"54.013"	"4.603"	"43.557"	"74.704"	"48.829"	"181.106"	"343.937"	"321.019"
"1929"	"59.564"	"6.94"	"0.696"	"38.313"	"3.58"	"36.227"	"34.722"	"92.242"	"56.994"	"123.082"	"221.991"	"127.934"
"1930"	"123.884"	"24.738"	"5.797"	"3.884"	"163.074"	"16.368"	"25.81"	"64.72"	"88.099"	"516.278"	"223.01"	"128.38"
"1931"	"40.568"	"0.298"	"0.2"	"72.857"	"72.518"	"25.139"	"37.848"	"74.704"	"40.54"	"77.78"	"147.535"	"673.245"
"1932"	"0.511"	"2.707"	"14.672"	"129.431"	"135.319"	"11.782"	"32.763"	"182.332"	"130.45"	"248.778"	"455.688"	"160.5"
"1933"	"3.596"	"16.355"	"22.388"	"7.473"	"59.38"	"30.203"	"69.346"	"83.409"	"29.219"	"375.115"	"152.533"	"265.665"
"1934"	"125.631"	"0.199"	"3.185"	"10.576"	"47.89"	"33.646"	"16.451"	"21.487"	"17.19"	"290.704"	"286.621"	"16.145"
"1935"	"73.303"	"0.01"	"13.778"	"39.127"	"8.562"	"68.628"	"11.982"	"134.927"	"55.383"	"88.702"	"274.794"	"235.56"
"1936"	"3.79"	"30.305"	"77.531"	"10.726"	"22.147"	"15.853"	"43.281"	"53.655"	"82.367"	"76.607"	"265"	"70.638"
"1937"	"12.01"	"0.613"	"18.743"	"49.043"	"28.633"	"19.096"	"29.532"	"79.793"	"105.755"	"271.177"	"382.646"	"49.893"
"1938"	"1.096"	"41.449"	"54.807"	"40.069"	"23.378"	"35.647"	"65.677"	"75.064"	"98.21"	"120.491"	"66.555"	"61.081"
"1939"	"57.947"	"0.298"	"5.434"	"95.05"	"27.84"	"20.178"	"6.713"	"94.57"	"54.242"	"242.933"	"485.578"	"19.673"
"1940"	"0.405"	"0.399"	"10.567"	"40.441"	"64.682"	"37.433"	"60.062"	"26.229"	"137.742"	"122.79"	"484.165"	"108.85"
"1941"	"19.843"	"0.856"	"0.398"	"2.834"	"51.892"	"6.033"	"73.291"	"41.006"	"147.88"	"381.541"	"253.267"	"252.753"
"1942"	"3.684"	"0"	"0.696"	"124.595"	"22.445"	"5.536"	"2.632"	"222.722"	"152.394"	"128.103"	"76.792"	"165.171"
"1943"	"87.802"	"27.9"	"17.868"	"129.217"	"177.42"	"19.126"	"34.692"	"58.034"	"49.199"	"219.368"	"86.074"	"69.426"
"1944"	"27.317"	"31.695"	"109.715"	"0.622"	"17.964"	"79.429"	"32.711"	"126.395"	"103.962"	"98.433"	"453.078"	"177.795"
"1945"	"3.295"	"0.298"	"1.416"	"107.124"	"18.956"	"18.882"	"42.611"	"80.349"	"88.229"	"195.598"	"270.55"	"19.041"
"1946"	"37.092"	"0"	"24.649"	"3.001"	"79.058"	"31.868"	"37.199"	"46.852"	"86.431"	"106.953"	"465.11"	"473.507"
"1947"	"103.903"	"47.738"	"20.689"	"55.079"	"26.618"	"31.649"	"114.892"	"100.958"	"117.859"	"266.436"	"62.813"	"20.21"
"1948"	"43.999"	"9.391"	"0.897"	"13.351"	"65.405"	"11.942"	"89.117"	"13.561"	"74.24"	"97.063"	"294.061"	"56.256"
"1949"	"1.691"	"0"	"0.2"	"39.765"	"67.93"	"59.235"	"68.692"	"170.19"	"61.027"	"249.409"	"96.885"	"18.987"
"1950"	"5.396"	"21.179"	"3.991"	"13.153"	"58.092"	"13.866"	"12.846"	"142.838"	"54.155"	"111.189"	"263.287"	"83.437"
"1951"	"8.79"	"0.397"	"8.696"	"59.326"	"75.049"	"9.538"	"129.586"	"72.785"	"46.035"	"68.522"	"174.155"	"20.631"
"1952"	"27.23"	"50.015"	"0.2"	"14.659"	"35.465"	"2.849"	"108.75"	"39.05"	"6.011"	"68.493"	"80.898"	"285.68"
"1953"	"17.976"	"37.895"	"0.299"	"61.314"	"4.719"	"40.574"	"82.59"	"26.329"	"75.309"	"318.381"	"131.254"	"41.523"
"1954"	"39.133"	"10.32"	"24.903"	"64.309"	"42.22"	"20.811"	"68.715"	"144.324"	"25.283"	"287.615"	"25.536"	"201.926"
"1955"	"42.624"	"13.172"	"1.298"	"82.894"	"110.238"	"5.476"	"32.205"	"62.747"	"116.262"	"206.818"	"165.183"	"264.993"
"1956"	"29.877"	"5.785"	"0.2"	"67.967"	"81.984"	"91.512"	"8.733"	"43.787"	"106.22"	"240.456"	"282.564"	"86.865"
"1957"	"0.995"	"21.168"	"0.2"	"0.299"	"36.056"	"57.324"	"50.012"	"45.737"	"91.075"	"157.462"	"182.314"	"207.493"
"1958"	"4.52"	"0.199"	"17.965"	"14.555"	"85.942"	"10.741"	"12.611"	"101.993"	"26.542"	"148.721"	"221.217"	"35.19"
"1959"	"20.445"	"70.176"	"0.2"	"77.898"	"26.585"	"92.444"	"7.046"	"23.176"	"73.596"	"135.688"	"219.622"	"56.399"
"1960"	"17.702"	"12.735"	"0.796"	"61.801"	"31.654"	"21.374"	"135.296"	"31.778"	"79.59"	"105.591"	"460.008"	"48.387"
"1961"	"112.588"	"5.462"	"0.498"	"30.896"	"61.435"	"54.726"	"46.005"	"86.248"	"135.425"	"221.923"	"120.754"	"116.661"
"1962"	"4.395"	"0.417"	"11.974"	"8.804"	"66.95"	"40.924"	"6.501"	"101.674"	"52.688"	"368.427"	"112.393"	"36.844"
"1963"	"189.323"	"22.037"	"53.251"	"77.864"	"17.566"	"67.109"	"135.955"	"73.612"	"99.161"	"57.518"	"218.814"	"105.727"
"1964"	"0.498"	"0.199"	"4.506"	"0.597"	"8.488"	"38.943"	"119.113"	"100.309"	"45.581"	"122.39"	"176.574"	"107.5"
"1965"	"8.437"	"15.832"	"1.293"	"98.882"	"49.91"	"21.175"	"43.092"	"152.048"	"72.522"	"183.333"	"106.623"	"474.363"
"1966"	"25.71"	"0.015"	"20.823"	"8.965"	"66.631"	"75.579"	"45.403"	"270.406"	"112.578"	"378.752"	"184.703"	"135.725"
"1967"	"4.034"	"0.596"	"11.713"	"64.553"	"9.746"	"39.407"	"40.161"	"80.378"	"61.773"	"169.64"	"252.947"	"337.949"
"1968"	"5.984"	"7.138"	"9.973"	"109.785"	"18.401"	"53.872"	"9.968"	"21.439"	"82.844"	"117.339"	"281.115"	"152.653"
"1969"	"0.498"	"0.453"	"0.2"	"0.895"	"35.454"	"4.521"	"29.866"	"112.179"	"10.009"	"265.905"	"279.235"	"181.996"
"1970"	"21.15"	"38.317"	"0.722"	"37.707"	"108.697"	"57.053"	"86.695"	"83.91"	"53.879"	"231.946"	"441.181"	"32.672"
"1971"	"46.685"	"17.223"	"83.319"	"32.455"	"83.82"	"5.657"	"52.97"	"78.421"	"121.848"	"174.041"	"153.563"	"282.163"
"1972"	"0.2"	"0"	"0.2"	"0.332"	"132.74"	"39.442"	"52.17"	"22.314"	"184.785"	"277.003"	"159.089"	"463.774"
"1973"	"0.2"	"0"	"0.398"	"0.299"	"32.213"	"42.116"	"74.595"	"46.792"	"150.934"	"190.833"	"96.036"	"235.074"
"1974"	"3.807"	"45.475"	"14.917"	"4.477"	"54.285"	"81.196"	"51.33"	"45.091"	"108.286"	"94.161"	"21.697"	"106.427"
"1975"	"4.404"	"0.298"	"50.736"	"0.498"	"65.871"	"2.527"	"90.929"	"136.189"	"113.408"	"152.574"	"349.32"	"168.394"
"1976"	"1.794"	"0"	"25.051"	"38.972"	"29.052"	"43.466"	"55.234"	"130.952"	"53.622"	"214.758"	"402.849"	"76.243"
"1977"	"1.705"	"50.216"	"7.287"	"35.89"	"78.638"	"48.199"	"60.806"	"161.903"	"47.801"	"405.964"	"493.123"	"21.656"
"1978"	"1.603"	"14.435"	"0.398"	"40.238"	"63.558"	"5.586"	"67.747"	"65.579"	"86.048"	"160.281"	"363.015"	"331.049"
"1979"	"0.301"	"8.876"	"33.065"	"0.796"	"14.366"	"7.324"	"54.956"	"50.297"	"121.703"	"209.435"	"515.802"	"119.901"
"1980"	"0.303"	"0"	"0.405"	"28.877"	"19.702"	"23.503"	"39.71"	"42.817"	"19.481"	"142.29"	"256.752"	"147.728"
"1981"	"14.723"	"2.99"	"14.913"	"9.17"	"84.377"	"9.083"	"117.283"	"39.788"	"169.335"	"307.132"	"247.198"	"164.582"
"1982"	"0.203"	"0"	"4.895"	"4.899"	"12.009"	"13.638"	"21.987"	"49.263"	"66.925"	"153.316"	"349.218"	"68.533"
"1983"	"0.498"	"0"	"0.4"	"0.7"	"63.856"	"27.526"	"38.154"	"183.182"	"130.819"	"84.346"	"181.627"	"710.995"
"1984"	"79.292"	"75.46"	"57.732"	"49.106"	"5.389"	"2.932"	"139.515"	"46.276"	"118.603"	"126.91"	"178.284"	"154.216"
"1985"	"152.318"	"17.37"	"3.509"	"25.185"	"21.994"	"16.738"	"160.834"	"241.194"	"196.034"	"144.805"	"467.478"	"110.544"
"1986"	"55.969"	"31.194"	"6.795"	"9.278"	"20.695"	"4.428"	"174.53"	"24.751"	"52.105"	"215.945"	"128.091"	"251.945"
"1987"	"3.896"	"0"	"17.364"	"14.29"	"75.743"	"39.134"	"7.927"	"23.714"	"71.587"	"318.491"	"184.786"	"276.276"
"1988"	"0.2"	"0"	"19.689"	"67.619"	"23.37"	"170.779"	"76.923"	"323.649"	"312.574"	"60.904"	"190.142"	"111.763"
"1989"	"12.188"	"0"	"33.485"	"36.006"	"21.798"	"50.842"	"98.501"	"10.55"	"99.754"	"211.373"	"238.522"	"144.193"
"1990"	"56.713"	"4.803"	"21.166"	"0.504"	"64.025"	"83.454"	"11.332"	"17.984"	"79.923"	"386.713"	"136.064"	"187.705"
"1991"	"7"	"4.094"	"10.194"	"1.802"	"4.826"	"34.464"	"29.624"	"35.893"	"83.251"	"184.506"	"285.958"	"70.165"
"1992"	"10.812"	"0"	"0.2"	"3.393"	"83.767"	"27.511"	"14.661"	"150.046"	"80.21"	"112.392"	"339.354"	"144.781"
"1993"	"7.187"	"3.394"	"1.017"	"0.605"	"49.738"	"85.198"	"26.836"	"91.85"	"13.972"	"195.031"	"342.128"	"452.72"
"1994"	"10.781"	"40.787"	"5.699"	"21.048"	"32.183"	"16.221"	"12.043"	"28.61"	"12.94"	"247.786"	"318.287"	"82.984"
"1995"	"75.095"	"18.668"	"11.544"	"21.558"	"81.009"	"19.615"	"21.768"	"77.188"	"73.156"	"220.477"	"95.785"	"34.754"
"1996"	"7.388"	"7.686"	"0.2"	"86.343"	"15.943"	"96.268"	"50.889"	"37.209"	"95.735"	"230.263"	"284.334"	"309.732"
"1997"	"14.002"	"0"	"8.309"	"32.963"	"23.194"	"28.542"	"84.127"	"24.39"	"21.88"	"236.045"	"439.349"	"284.926"
"1998"	"24.056"	"0.399"	"0.2"	"29.155"	"27.85"	"12.613"	"96.989"	"128.53"	"29.957"	"113.391"	"234.524"	"262.912"
"1999"	"37.635"	"40.938"	"0.2"	"18.875"	"8.635"	"17.86"	"8.437"	"35.542"	"62.37"	"155.417"	"205.142"	"83.048"
"2000"	"28.947"	"40.689"	"2.799"	"27.463"	"11.534"	"16.358"	"19.663"	"168.963"	"312.933"	"124.632"	"193.387"	"178.641"
"2001"	"26.951"	"0.898"	"0.2"	"71.362"	"10.624"	"148.125"	"73.196"	"39.15"	"38.227"	"248.79"	"221.719"	"224.653"
"2002"	"22.723"	"1.801"	"0.2"	"1.996"	"51.842"	"10.725"	"9.027"	"37.21"	"88.044"	"317.128"	"369.387"	"136.586"
