
"Year"	"Jan"	"Feb"	"Mar"	"Apr"	"May"	"Jun"	"Jul"	"Aug"	"Sep"	"Oct"	"Nov"	"Dec"
"1901"	"18.963"	"20.322"	"27.404"	"31.146"	"33.74"	"33.665"	"30.693"	"28.56"	"29.026"	"29.008"	"25.178"	"22.187"
"1902"	"21.242"	"22.979"	"28.507"	"31.979"	"33.741"	"33.06"	"30.765"	"29.769"	"28.924"	"28.867"	"24.395"	"20.665"
"1903"	"19.977"	"20.923"	"25.326"	"29.575"	"33.166"	"33.463"	"30.574"	"29.091"	"28.995"	"28.145"	"22.625"	"20.166"
"1904"	"20.418"	"21.916"	"25.85"	"31.432"	"33.594"	"32.179"	"29.218"	"28.813"	"29.004"	"28.75"	"24.282"	"21.396"
"1905"	"19.196"	"18.995"	"24.78"	"29.074"	"34.464"	"33.014"	"29.585"	"29.413"	"29.396"	"29.02"	"25.451"	"21.024"
"1906"	"18.865"	"20.541"	"25.637"	"30.439"	"33.94"	"31.855"	"29.686"	"28.914"	"28.371"	"28.144"	"24.903"	"21.512"
"1907"	"21.013"	"21.799"	"26.325"	"30.098"	"32.483"	"32.54"	"31.342"	"27.812"	"28.631"	"28.611"	"25.382"	"19.991"
"1908"	"19.791"	"21.489"	"25.407"	"31.338"	"33.094"	"32.653"	"28.836"	"28.143"	"28.728"	"28.613"	"24.01"	"20.095"
"1909"	"19.852"	"21.976"	"27.48"	"30.151"	"33.207"	"32.054"	"29.037"	"28.21"	"28.176"	"27.651"	"24.257"	"20.527"
"1910"	"20.095"	"22.124"	"26.705"	"30.358"	"32.96"	"31.633"	"29.112"	"28.665"	"28.645"	"27.121"	"22.868"	"20.729"
"1911"	"21.054"	"21.672"	"25.228"	"30.008"	"33.74"	"31.353"	"30.195"	"28.735"	"28.251"	"28.384"	"24.088"	"22.072"
"1912"	"21.145"	"23.349"	"26.483"	"31.253"	"33.74"	"33.618"	"29.817"	"28.531"	"28.575"	"28.351"	"23.459"	"20.489"
"1913"	"19.946"	"22.119"	"24.737"	"31.286"	"32.892"	"31.758"	"29.514"	"28.188"	"28.676"	"28.903"	"24.634"	"21.052"
"1914"	"21.5"	"21.895"	"26.049"	"30.532"	"33.965"	"31.889"	"29.514"	"28.864"	"29.103"	"28.75"	"25.925"	"20.451"
"1915"	"20.15"	"21.023"	"27.028"	"30.341"	"33.849"	"33.971"	"30.992"	"29.138"	"29.707"	"29.299"	"25.176"	"21.42"
"1916"	"20.943"	"21.199"	"28.083"	"31.538"	"33.692"	"31.202"	"30.373"	"28.59"	"29.255"	"28.172"	"22.956"	"20.574"
"1917"	"21.121"	"22.191"	"26.747"	"29.704"	"31.842"	"31.505"	"29.014"	"28.564"	"28.255"	"27.547"	"23.225"	"20.551"
"1918"	"18.988"	"22.447"	"26.683"	"29.481"	"33.691"	"31.73"	"30.47"	"28.87"	"28.754"	"28.361"	"25.68"	"20.398"
"1919"	"20.453"	"21.847"	"27.036"	"30.481"	"33.395"	"31.978"	"29.218"	"28.242"	"28.73"	"28.099"	"25.181"	"20.718"
"1920"	"20.72"	"21.72"	"27.404"	"30.729"	"31.802"	"32.01"	"28.994"	"28.465"	"29.604"	"29.178"	"25.281"	"20.906"
"1921"	"20.721"	"21.946"	"28.384"	"32.085"	"33.847"	"32.788"	"30.87"	"28.864"	"28.149"	"28.054"	"24.149"	"22.217"
"1922"	"19.621"	"23.299"	"27.289"	"31.529"	"33.571"	"32.433"	"29.585"	"28.665"	"28.355"	"27.874"	"24.048"	"20.168"
"1923"	"20.522"	"21.369"	"27.429"	"30.905"	"32.763"	"33.548"	"29.618"	"28.068"	"29.046"	"27.397"	"23.611"	"21.646"
"1924"	"20.252"	"22.678"	"28.625"	"31.741"	"33.235"	"33.188"	"30.006"	"28.813"	"28.554"	"27.296"	"22.582"	"21.019"
"1925"	"18.41"	"20.52"	"27.404"	"32.289"	"33.144"	"31.333"	"29.091"	"29.169"	"29.183"	"29.751"	"25.181"	"21.387"
"1926"	"20.876"	"23.972"	"27.157"	"29.129"	"32.937"	"34.192"	"30.316"	"28.889"	"28.31"	"27.935"	"22.978"	"20.319"
"1927"	"18.851"	"21.001"	"25.782"	"30.041"	"32.691"	"32.31"	"28.886"	"27.962"	"28.799"	"28.051"	"22.348"	"21.221"
"1928"	"20.023"	"21.769"	"26.732"	"30.578"	"33.393"	"32.087"	"28.965"	"28.114"	"28.355"	"27.732"	"24.336"	"20.018"
"1929"	"19.143"	"21.125"	"27.85"	"31.207"	"33.761"	"32.283"	"29.513"	"27.989"	"28.678"	"28.099"	"25.603"	"19.974"
"1930"	"20.198"	"21.148"	"27.201"	"30.486"	"33.393"	"32.584"	"28.416"	"28.09"	"29.228"	"29.128"	"23.651"	"21.342"
"1931"	"21.375"	"21.429"	"26.229"	"31.63"	"33.762"	"33.838"	"30.239"	"28.836"	"28.546"	"27.375"	"24.275"	"21.398"
"1932"	"21.627"	"21.662"	"26.672"	"30.431"	"33.439"	"32.213"	"29.118"	"28.442"	"28.878"	"29.321"	"24.001"	"21.688"
"1933"	"19.997"	"22.624"	"27.102"	"30.386"	"32.151"	"31.832"	"29.317"	"27.961"	"28.356"	"28.099"	"24.56"	"20.966"
"1934"	"18.498"	"22.704"	"26.283"	"30.91"	"33.096"	"32.442"	"29.114"	"28.367"	"28.124"	"27.353"	"23.925"	"21.722"
"1935"	"18.499"	"22.024"	"26.307"	"29.174"	"33.052"	"32.635"	"28.919"	"28.045"	"27.982"	"27.852"	"24.481"	"21.319"
"1936"	"19.421"	"22.191"	"26.28"	"29.8"	"33.764"	"31.131"	"29.317"	"28.755"	"28.503"	"27.776"	"24.781"	"20.663"
"1937"	"19.19"	"22.821"	"25.85"	"29.932"	"32.919"	"32.464"	"28.618"	"28.336"	"28.428"	"27.753"	"24.902"	"20.245"
"1938"	"20.484"	"20.768"	"28.159"	"31.253"	"33.465"	"30.47"	"28.983"	"28.713"	"29.06"	"27.981"	"23.184"	"21.319"
"1939"	"20.879"	"22.756"	"25.426"	"29.731"	"32.893"	"32.286"	"29.516"	"29.115"	"28.371"	"28.202"	"24.253"	"21.284"
"1940"	"20.991"	"22.669"	"25.328"	"30.006"	"33.618"	"32.383"	"29.243"	"28.256"	"28.478"	"28.442"	"24.696"	"20.696"
"1941"	"19.766"	"23.413"	"27.482"	"31.385"	"33.393"	"32.741"	"28.25"	"28.442"	"28.875"	"29.352"	"24.581"	"22.396"
"1942"	"19.641"	"22.622"	"27.582"	"32.005"	"32.894"	"32.962"	"28.563"	"27.674"	"27.823"	"27.87"	"23.97"	"19.949"
"1943"	"19.906"	"22.428"	"27.293"	"30.207"	"34.117"	"30.83"	"28.114"	"27.767"	"27.833"	"27.499"	"24.925"	"21.182"
"1944"	"19.966"	"21.546"	"26.252"	"29.684"	"33.348"	"31.862"	"28.369"	"27.866"	"28.877"	"27.669"	"24.304"	"21.75"
"1945"	"18.399"	"21.512"	"27.274"	"30.002"	"32.525"	"32.439"	"28.094"	"28.322"	"28.013"	"27.328"	"22.959"	"19.566"
"1946"	"19.922"	"23.568"	"26.38"	"31.486"	"32.548"	"31.332"	"28.815"	"27.322"	"28.177"	"28.328"	"22.423"	"20.866"
"1947"	"19.619"	"22.667"	"27.273"	"30.077"	"33.393"	"32.908"	"29.563"	"29.488"	"27.876"	"26.53"	"23.911"	"20.805"
"1948"	"19.682"	"21.967"	"27.452"	"31.809"	"34.147"	"32.876"	"30.774"	"28.931"	"28.992"	"29.251"	"25.043"	"21.237"
"1949"	"22.142"	"22.521"	"27.949"	"31.922"	"34.217"	"32.579"	"29.914"	"28.943"	"28.771"	"28.406"	"23.757"	"20.243"
"1950"	"20.599"	"19.955"	"26.405"	"30.875"	"33.39"	"32.786"	"27.982"	"28.364"	"28.18"	"29.058"	"23.339"	"20.616"
"1951"	"19.097"	"21.823"	"27.207"	"29.228"	"33.05"	"32.552"	"30.667"	"28.294"	"30.104"	"30.554"	"26.08"	"21.113"
"1952"	"21.288"	"23.802"	"26.974"	"31.71"	"33.92"	"32.286"	"29.113"	"27.667"	"28.603"	"29.094"	"23.927"	"21.805"
"1953"	"19.999"	"24.722"	"29.184"	"31.475"	"32.848"	"32.41"	"29.275"	"27.476"	"28.235"	"27.805"	"23.758"	"21.999"
"1954"	"19.296"	"23.793"	"27.549"	"31.253"	"33.672"	"32.462"	"29.193"	"28.915"	"27.06"	"26.471"	"23.815"	"20.476"
"1955"	"20.851"	"23.338"	"28.753"	"29.274"	"33.094"	"31.833"	"30.24"	"27.947"	"28"	"27.57"	"22.656"	"20.621"
"1956"	"20.474"	"22.075"	"28.128"	"31.207"	"33.418"	"31.577"	"27.324"	"27.421"	"28.057"	"26.386"	"23.31"	"20.652"
"1957"	"19.696"	"20.4"	"25.46"	"30.304"	"32.369"	"32.314"	"29.838"	"28.713"	"28.948"	"28.995"	"26.305"	"22.274"
"1958"	"21.887"	"22.691"	"27.971"	"32.133"	"33.963"	"33.188"	"29.116"	"29.235"	"27.555"	"27.627"	"24.601"	"21.843"
"1959"	"20.097"	"22.33"	"28.13"	"31.353"	"34.114"	"32.388"	"27.894"	"27.522"	"27.553"	"27.607"	"24.357"	"21.371"
"1960"	"19.566"	"24.27"	"25.86"	"30.426"	"32.892"	"31.686"	"29.738"	"27.634"	"29.103"	"28.373"	"24.158"	"22.304"
"1961"	"20.516"	"21.022"	"28.304"	"30.783"	"33.304"	"31.485"	"28.472"	"28.589"	"27.469"	"27.05"	"24.656"	"20.195"
"1962"	"18.799"	"23.238"	"26.805"	"30.953"	"33.89"	"32.286"	"29.169"	"28.609"	"28.178"	"26.356"	"24.632"	"21.668"
"1963"	"20.908"	"24.173"	"27.36"	"30.354"	"32.74"	"32.455"	"29.54"	"28.045"	"27.61"	"28.275"	"25.558"	"22.144"
"1964"	"18.598"	"22.689"	"28.627"	"31.842"	"33.094"	"31.887"	"28.815"	"28.169"	"28.503"	"28.06"	"23.656"	"20.92"
"1965"	"22.158"	"22.868"	"26.606"	"30.452"	"32.783"	"32.864"	"29.449"	"28.901"	"28.843"	"29.305"	"25.783"	"21.941"
"1966"	"21.736"	"24.92"	"26.481"	"30.587"	"33.009"	"32.438"	"30.248"	"29.033"	"28.724"	"29.703"	"26.012"	"21.296"
"1967"	"19.039"	"24.303"	"26.925"	"30.427"	"33.482"	"31.506"	"28.901"	"27.987"	"28.222"	"28.75"	"25.358"	"22.798"
"1968"	"19.566"	"21.391"	"26.997"	"30.753"	"32.367"	"33.355"	"30.231"	"27.712"	"29.981"	"29.086"	"25.253"	"21.398"
"1969"	"20.822"	"23.321"	"29.427"	"32.131"	"33.736"	"32.886"	"30.284"	"28.267"	"28.844"	"29.052"	"26.881"	"22.486"
"1970"	"20.966"	"23.011"	"27.38"	"32.186"	"34.261"	"31.055"	"29.171"	"28.61"	"28.055"	"29.152"	"23.606"	"20.4"
"1971"	"19.768"	"22.569"	"27.449"	"32.385"	"32.892"	"30.639"	"28.532"	"28.09"	"28.877"	"27.607"	"23.905"	"20.59"
"1972"	"20.421"	"20.153"	"28.004"	"30.35"	"33.393"	"33.008"	"29.593"	"28.935"	"29.268"	"29.449"	"24.738"	"21.375"
"1973"	"19.183"	"23.668"	"27.604"	"32.518"	"34.002"	"32.528"	"28.336"	"27.989"	"26.812"	"27.75"	"23.788"	"20.953"
"1974"	"19.819"	"20.885"	"28.482"	"31.561"	"32.349"	"32.615"	"29.964"	"29.258"	"30.203"	"29.363"	"23.283"	"20.623"
"1975"	"18.945"	"22.266"	"25.98"	"29.033"	"33.596"	"31.839"	"29.56"	"28.386"	"28.108"	"28.061"	"23.324"	"20.868"
"1976"	"20.5"	"22.576"	"27.355"	"31.247"	"33.116"	"31.554"	"29.249"	"28.021"	"28.175"	"29.248"	"27.482"	"22.172"
"1977"	"19.896"	"23.003"	"29.16"	"32.421"	"33.488"	"31.817"	"29.211"	"28.833"	"28.602"	"29.994"	"26.926"	"22.37"
"1978"	"19.721"	"22.612"	"26.06"	"32.198"	"34.264"	"32.283"	"29.137"	"28.532"	"28.211"	"29.049"	"26.425"	"22.108"
"1979"	"21"	"21.322"	"26.382"	"30.937"	"33.324"	"33.733"	"30.217"	"28.213"	"30.081"	"29.56"	"26.804"	"22.487"
"1980"	"20.63"	"23.194"	"27.66"	"30.085"	"34.596"	"31.158"	"29.783"	"28.791"	"29.58"	"29.976"	"26.305"	"21.642"
"1981"	"20.782"	"22.933"	"27.749"	"32.269"	"33.985"	"33.61"	"29.513"	"28.168"	"29.381"	"28.825"	"23.044"	"21.186"
"1982"	"20.843"	"21.968"	"25.976"	"30.853"	"31.721"	"32.615"	"30.292"	"28.634"	"29.279"	"29.826"	"25.178"	"22.13"
"1983"	"19.555"	"20.876"	"25.959"	"29.694"	"33.547"	"32.638"	"29.845"	"28.541"	"29.18"	"27.228"	"22.687"	"20.331"
"1984"	"18.808"	"20.027"	"27.979"	"32.155"	"33.917"	"32.286"	"29.046"	"27.243"	"27.73"	"27.758"	"24.215"	"21.275"
"1985"	"19.55"	"21.699"	"28.616"	"31.31"	"33.67"	"32.509"	"29.692"	"28.165"	"29.18"	"27.542"	"25.206"	"22.667"
"1986"	"21.019"	"22.721"	"27.404"	"31.633"	"33.437"	"31.945"	"29.385"	"27.786"	"29.457"	"29.176"	"26.105"	"20.82"
"1987"	"21.321"	"23.624"	"27.938"	"31.611"	"33.388"	"33.166"	"31.412"	"30.552"	"31.015"	"30.89"	"26.895"	"22.834"
"1988"	"22.388"	"24.594"	"27.429"	"32.531"	"34.217"	"33.152"	"29.149"	"28.821"	"29.733"	"28.556"	"24.986"	"22.413"
"1989"	"19.698"	"22.571"	"26.78"	"31.146"	"33.716"	"31.584"	"29.247"	"27.944"	"29.334"	"29.003"	"26.626"	"21.823"
"1990"	"22.497"	"22.922"	"26.003"	"31.286"	"33.44"	"32.265"	"29.139"	"27.999"	"28.157"	"28.383"	"25.581"	"22.016"
"1991"	"19.621"	"22.633"	"27.582"	"31.298"	"33.713"	"33.457"	"29.538"	"28.386"	"28.654"	"27.915"	"25.481"	"21.533"
"1992"	"20.675"	"20.531"	"27.056"	"30.093"	"33.485"	"33.618"	"30.322"	"28.487"	"27.807"	"28.305"	"24.934"	"22.591"
"1993"	"21.366"	"23.469"	"26.705"	"31.185"	"33.941"	"33.429"	"29.514"	"29.659"	"29.169"	"29.631"	"26.304"	"22.859"
"1994"	"21.998"	"21.97"	"28.619"	"30.953"	"33.938"	"31.608"	"28.023"	"28.903"	"28.594"	"28.214"	"25.281"	"21.342"
"1995"	"19.566"	"22.723"	"26.335"	"30.716"	"33.868"	"34.295"	"30.316"	"29.365"	"29.532"	"30.196"	"25.094"	"22.522"
"1996"	"21.153"	"23.7"	"29.349"	"31.307"	"33.647"	"32.839"	"29.848"	"28.088"	"28.364"	"28.206"	"24.791"	"22.019"
"1997"	"20.098"	"22.023"	"27.781"	"29.76"	"32.393"	"31.708"	"29.511"	"28.244"	"28.752"	"28.034"	"26.565"	"21.57"
"1998"	"20.618"	"22.2"	"26.791"	"32.162"	"34.715"	"33.295"	"29.516"	"29.443"	"28.835"	"30.598"	"24.844"	"21.209"
"1999"	"19.755"	"23.775"	"27.367"	"31.841"	"32.83"	"31.507"	"29.422"	"28.543"	"29.427"	"27.96"	"25.03"	"21.222"
"2000"	"21.175"	"21.253"	"26.538"	"32.539"	"32.487"	"32.555"	"28.863"	"29.344"	"29.348"	"29.825"	"26.092"	"22.574"
"2001"	"20.23"	"22.732"	"27.428"	"31.253"	"33.139"	"30.205"	"28.013"	"28.491"	"30.003"	"29.573"	"25.637"	"22.13"
"2002"	"19.944"	"22.519"	"27.859"	"32.04"	"34.195"	"32.433"	"29.972"	"28.215"	"28.846"	"30.05"	"25.757"	"22.854"
