
"Year"	"Jan"	"Feb"	"Mar"	"Apr"	"May"	"Jun"	"Jul"	"Aug"	"Sep"	"Oct"	"Nov"	"Dec"
"1901"	"14.936"	"18.331"	"23.064"	"28.187"	"28.454"	"29.689"	"28.596"	"28.495"	"27.861"	"26.896"	"21.333"	"17.003"
"1902"	"16.97"	"18.532"	"24.526"	"26.352"	"28.654"	"29.023"	"28.232"	"28.863"	"27.862"	"25.494"	"20.967"	"16.606"
"1903"	"15.531"	"17.696"	"22.461"	"27.585"	"29.113"	"28.491"	"29.162"	"28.163"	"28.161"	"26.632"	"21.373"	"16.972"
"1904"	"16.097"	"18.297"	"23.562"	"27.716"	"27.518"	"28.527"	"27.897"	"28.494"	"27.995"	"25.996"	"20.671"	"17.27"
"1905"	"14.867"	"14.765"	"20.996"	"24.787"	"27.456"	"29.685"	"28.298"	"27.695"	"27.763"	"26.298"	"21.706"	"17.206"
"1906"	"15.469"	"17.433"	"21.464"	"27.851"	"29.019"	"28.923"	"28.698"	"27.861"	"28.562"	"26.095"	"21.774"	"17.737"
"1907"	"17.067"	"17.567"	"20.698"	"25.323"	"27.953"	"28.69"	"28.296"	"28.996"	"28.059"	"26.461"	"21.403"	"17.105"
"1908"	"14.803"	"17.833"	"23.361"	"29.55"	"28.815"	"29.226"	"28.431"	"28.96"	"28.06"	"26.495"	"20.969"	"16.572"
"1909"	"16.365"	"17.896"	"24.763"	"26.125"	"28.715"	"28.027"	"28.497"	"28.096"	"28.665"	"26.798"	"22.103"	"17.806"
"1910"	"15.702"	"18.196"	"23.128"	"27.416"	"28.217"	"28.324"	"27.594"	"28.561"	"28.263"	"25.996"	"21.105"	"17.007"
"1911"	"17.066"	"17.433"	"22.097"	"27.186"	"28.649"	"28.427"	"28.726"	"28.26"	"27.66"	"25.695"	"20.37"	"16.305"
"1912"	"16.204"	"18.896"	"22.426"	"25.452"	"28.054"	"28.987"	"27.996"	"28.296"	"27.995"	"26.095"	"20.704"	"17.006"
"1913"	"15.769"	"17.931"	"21.26"	"28.014"	"27.35"	"27.462"	"28.397"	"28.298"	"28.161"	"25.832"	"20.302"	"16.706"
"1914"	"16.167"	"18.23"	"22.562"	"25.287"	"28.088"	"28.664"	"28.399"	"28.096"	"27.725"	"24.897"	"21.168"	"17.871"
"1915"	"16.803"	"17.966"	"22.364"	"26.986"	"28.317"	"28.324"	"28.76"	"28.662"	"27.995"	"28.032"	"23.171"	"17.604"
"1916"	"15.803"	"18.067"	"24.928"	"27.417"	"29.977"	"28.463"	"27.96"	"28.297"	"28.06"	"26.195"	"21.772"	"16.706"
"1917"	"15.467"	"17.831"	"22.062"	"26.32"	"27.424"	"28.326"	"28.296"	"28.597"	"27.697"	"25.896"	"21.672"	"17.206"
"1918"	"14.837"	"17.696"	"23.46"	"26.388"	"28.892"	"27.661"	"28.659"	"27.696"	"28.162"	"26.261"	"21.169"	"16.406"
"1919"	"16.502"	"17.265"	"24.097"	"26.485"	"28.314"	"28.962"	"28.397"	"28.896"	"27.661"	"26.197"	"21.839"	"17.442"
"1920"	"16.501"	"17.798"	"22.196"	"26.85"	"27.813"	"29.185"	"28.798"	"28.495"	"27.828"	"26.632"	"21.771"	"18.242"
"1921"	"16.566"	"17.933"	"24.494"	"27.75"	"29.98"	"28.486"	"28.396"	"28.595"	"27.931"	"25.196"	"21.007"	"16.742"
"1922"	"16.501"	"18.897"	"24.564"	"28.923"	"29.914"	"28.027"	"28.294"	"28.295"	"27.696"	"25.598"	"21.505"	"17.406"
"1923"	"16.204"	"17.831"	"23.698"	"28.051"	"28.648"	"29.452"	"28.297"	"28.896"	"27.995"	"25.731"	"21.605"	"17.606"
"1924"	"15.835"	"18.067"	"25.062"	"28.586"	"28.411"	"30.053"	"28.296"	"28.296"	"27.295"	"26.797"	"21.268"	"17.807"
"1925"	"14.604"	"16.567"	"23.229"	"26.987"	"27.715"	"28.558"	"28.096"	"28.495"	"27.525"	"25.396"	"21.004"	"16.373"
"1926"	"15.801"	"18.297"	"21.861"	"25.82"	"28.15"	"30.214"	"28.261"	"28.495"	"28.062"	"26.197"	"20.302"	"17.804"
"1927"	"15.501"	"17.496"	"21.428"	"27.313"	"27.651"	"28.987"	"28.496"	"28.261"	"27.724"	"26.294"	"21.267"	"17.571"
"1928"	"15.401"	"18.466"	"23.96"	"27.421"	"28.583"	"28.427"	"28.298"	"28.56"	"28.861"	"26.362"	"20.966"	"17.734"
"1929"	"15.764"	"17.332"	"23.762"	"26.953"	"29.078"	"29.185"	"28.196"	"28.295"	"27.995"	"25.597"	"21.17"	"17.105"
"1930"	"14.9"	"17.73"	"23.327"	"26.95"	"28.718"	"28.287"	"28.397"	"28.495"	"28.062"	"25.959"	"20.969"	"16.806"
"1931"	"16.9"	"18.229"	"23.229"	"28.313"	"28.215"	"29.95"	"28.197"	"29.161"	"27.824"	"26.594"	"20.968"	"17.87"
"1932"	"16.565"	"16.861"	"23.925"	"27.584"	"29.6"	"29.153"	"28.861"	"28.695"	"28.659"	"26.759"	"22.106"	"17.405"
"1933"	"14.637"	"18.795"	"23.965"	"25.889"	"27.948"	"28.626"	"28.298"	"28.097"	"28.06"	"26.297"	"21.27"	"17.507"
"1934"	"15.8"	"18.069"	"23.064"	"27.686"	"28.313"	"28.088"	"28.297"	"28.595"	"28.598"	"25.695"	"20.871"	"17.472"
"1935"	"15.841"	"18.932"	"24.197"	"27.421"	"30.052"	"29.226"	"29.095"	"27.863"	"28.265"	"26.198"	"21.771"	"17.273"
"1936"	"15.106"	"18.195"	"23.863"	"27.719"	"28.523"	"28.657"	"28.596"	"28.995"	"27.864"	"25.696"	"22.304"	"17.906"
"1937"	"15.14"	"18.33"	"22.702"	"28.291"	"28.752"	"29.96"	"29.332"	"28.363"	"28.46"	"25.433"	"21.306"	"17.208"
"1938"	"16.801"	"17.067"	"24.764"	"29.086"	"28.253"	"28.896"	"28.295"	"28.797"	"28.725"	"26.696"	"20.528"	"17.506"
"1939"	"16.502"	"18.532"	"22.499"	"29.318"	"29.314"	"28.822"	"28.758"	"28.697"	"28.258"	"25.895"	"21.968"	"17.906"
"1940"	"16.102"	"18.197"	"21.16"	"27.388"	"29.476"	"29.288"	"28.693"	"28.794"	"28.058"	"26.695"	"22.067"	"17.608"
"1941"	"16.093"	"18.661"	"24.928"	"28.55"	"28.417"	"28.521"	"28.86"	"28.695"	"28.494"	"25.759"	"21.368"	"18.571"
"1942"	"16.267"	"18.466"	"23.861"	"26.954"	"29.951"	"30.088"	"29.128"	"28.56"	"27.529"	"26.131"	"22.401"	"16.973"
"1943"	"17.334"	"17.433"	"23.326"	"25.456"	"28.95"	"29.157"	"28.194"	"28.201"	"28.397"	"26.397"	"22.206"	"18.369"
"1944"	"15.599"	"17.796"	"22.864"	"25.522"	"29.916"	"29.826"	"28.695"	"28.698"	"28.762"	"26.133"	"21.47"	"18.21"
"1945"	"15.702"	"16.73"	"23.861"	"26.856"	"28.151"	"29.691"	"29.261"	"28.698"	"28.496"	"25.53"	"21.101"	"16.406"
"1946"	"16.634"	"19.531"	"23.264"	"25.322"	"27.987"	"29.161"	"28.53"	"28.996"	"28.498"	"25.831"	"21.871"	"18.305"
"1947"	"16.4"	"18.731"	"24.026"	"28.787"	"28.884"	"30.191"	"28.86"	"28.861"	"28.06"	"26.331"	"21.605"	"18.343"
"1948"	"16.668"	"18.467"	"23.662"	"27.555"	"28.784"	"30.124"	"28.232"	"28.831"	"28.532"	"25.829"	"22.071"	"17.172"
"1949"	"16.671"	"18.23"	"23.598"	"25.556"	"27.455"	"28.325"	"28.296"	"28.56"	"28.059"	"27.394"	"21.302"	"16.37"
"1950"	"16.468"	"17.933"	"22.763"	"27.388"	"29.749"	"29.02"	"29.029"	"27.996"	"28.593"	"26.195"	"20.904"	"17.872"
"1951"	"15.867"	"18.928"	"24.363"	"27.551"	"29.616"	"29.127"	"28.469"	"29.259"	"28.729"	"27.498"	"22.233"	"17.504"
"1952"	"16.6"	"18.934"	"21.793"	"26.855"	"28.183"	"29.187"	"28.162"	"28.594"	"27.595"	"27.095"	"21.767"	"17.072"
"1953"	"15.137"	"19.066"	"24.961"	"27.852"	"29.285"	"28.691"	"27.864"	"29.031"	"27.862"	"26.195"	"21.402"	"18.804"
"1954"	"15.302"	"19.934"	"24.23"	"29.753"	"29.882"	"28.028"	"27.762"	"28.424"	"28.595"	"25.433"	"20.87"	"17.008"
"1955"	"16.198"	"18.071"	"24.395"	"26.786"	"29.225"	"28.625"	"27.598"	"27.697"	"28.231"	"27.231"	"22.567"	"16.934"
"1956"	"15.901"	"18.394"	"24.589"	"28.257"	"29.795"	"28.661"	"28.324"	"28.39"	"27.429"	"26.234"	"21.708"	"17.135"
"1957"	"15.869"	"17.075"	"22.562"	"27.848"	"30.873"	"28.792"	"28.796"	"28.426"	"28.328"	"25.266"	"21.472"	"18.209"
"1958"	"17.567"	"18.395"	"23.526"	"28.982"	"30.145"	"30.485"	"29.294"	"28.198"	"28.53"	"27.432"	"22.741"	"18.57"
"1959"	"16.402"	"17.896"	"23.266"	"28.359"	"29.25"	"28.862"	"28.894"	"29.125"	"28.128"	"26.035"	"21.708"	"18.208"
"1960"	"15.565"	"20.459"	"22.463"	"28.753"	"30.453"	"29.127"	"28.33"	"29.259"	"27.527"	"26.794"	"21.534"	"18.874"
"1961"	"17.535"	"17.57"	"24.532"	"28.654"	"30.149"	"29.16"	"29.093"	"29.294"	"28.469"	"26.596"	"20.928"	"15.336"
"1962"	"15.573"	"18.823"	"23.387"	"28.55"	"28.651"	"28.96"	"28.861"	"27.796"	"28.197"	"25.724"	"21.605"	"17.469"
"1963"	"15.636"	"19.194"	"22.693"	"26.586"	"27.889"	"29.323"	"28.596"	"28.696"	"28.163"	"26.225"	"21.434"	"18.234"
"1964"	"15.905"	"18.466"	"24.395"	"28.454"	"27.852"	"29.651"	"27.961"	"28.693"	"28.329"	"27.228"	"22.399"	"17.607"
"1965"	"16.799"	"18.358"	"22.323"	"27.257"	"29.417"	"29.187"	"27.896"	"27.727"	"27.558"	"25.988"	"21.198"	"17.208"
"1966"	"16.276"	"19.96"	"24.461"	"28.716"	"29.854"	"29.353"	"28.63"	"28.364"	"27.653"	"24.961"	"22.009"	"18.006"
"1967"	"16.738"	"19.333"	"22.299"	"25.693"	"28.419"	"29.089"	"28.695"	"28.693"	"28.322"	"25.223"	"20.295"	"17.802"
"1968"	"15.364"	"17.202"	"23.599"	"27.417"	"29.448"	"28.259"	"28.195"	"28.695"	"28.561"	"25.184"	"21.485"	"16.925"
"1969"	"15.401"	"19.231"	"24.895"	"27.75"	"28.291"	"29.159"	"28.296"	"27.998"	"27.698"	"25.926"	"22.968"	"17.806"
"1970"	"15.904"	"17.796"	"22.893"	"28.287"	"29.953"	"28.627"	"28.532"	"28.595"	"27.997"	"26.399"	"20.735"	"17.239"
"1971"	"16.098"	"17.767"	"22.695"	"25.462"	"26.79"	"28.097"	"27.299"	"27.233"	"27.794"	"26.398"	"20.838"	"17.61"
"1972"	"16.711"	"17.071"	"23.801"	"26.919"	"30.285"	"28.724"	"28.736"	"28.162"	"26.397"	"25.732"	"20.205"	"17.208"
"1973"	"16.511"	"18.6"	"22"	"27.788"	"28.189"	"27.797"	"28.496"	"28.495"	"27.798"	"26.296"	"21.368"	"17.606"
"1974"	"15.041"	"18.541"	"22.767"	"27.925"	"28.055"	"28.689"	"27.697"	"28.198"	"27.626"	"27.769"	"21.138"	"15.909"
"1975"	"15.8"	"18.398"	"23.226"	"28.021"	"28.75"	"28.891"	"26.932"	"28.295"	"27.432"	"27.605"	"22.135"	"17.008"
"1976"	"15.767"	"19.267"	"24.097"	"27.421"	"27.853"	"28.987"	"28.128"	"28.06"	"27.295"	"26.365"	"24.007"	"17.606"
"1977"	"16.341"	"19.003"	"25.229"	"27.421"	"26.026"	"27.759"	"28.067"	"28.796"	"28.226"	"25.567"	"22.671"	"16.109"
"1978"	"14.231"	"17.567"	"21.861"	"26.289"	"28.093"	"28.227"	"28.03"	"28.229"	"27.862"	"26.401"	"22.868"	"18.006"
"1979"	"16.802"	"17.365"	"23.263"	"27.852"	"29.785"	"29.587"	"28.398"	"29.425"	"27.724"	"26.831"	"23.94"	"17.606"
"1980"	"16.202"	"18.604"	"23.46"	"28.95"	"27.684"	"29.089"	"28.761"	"28.698"	"28.198"	"26.03"	"22.169"	"18.943"
"1981"	"14.996"	"18.802"	"22.564"	"25.661"	"26.99"	"28.924"	"28.231"	"28.961"	"27.927"	"26.568"	"21.504"	"17.139"
"1982"	"17.035"	"17.931"	"21.865"	"27.023"	"29.213"	"28.726"	"29.826"	"28.794"	"28.625"	"25.824"	"21.768"	"17.979"
"1983"	"15.363"	"16.962"	"23.46"	"25.855"	"27.785"	"29.82"	"29.128"	"29.061"	"28.763"	"26.496"	"21.1"	"17.1"
"1984"	"16.135"	"18.107"	"24.501"	"27.851"	"30.118"	"28.228"	"28.095"	"28.129"	"27.361"	"27.496"	"20.569"	"18.552"
"1985"	"16.201"	"18.701"	"25.403"	"28.288"	"27.852"	"29.39"	"27.33"	"28.863"	"27.698"	"26.257"	"21.66"	"18.871"
"1986"	"16.674"	"18.502"	"23.034"	"26.817"	"26.652"	"29.653"	"28.06"	"28.162"	"27.626"	"25.431"	"22.239"	"17.169"
"1987"	"15.867"	"18.898"	"23.363"	"26.722"	"27.92"	"29.954"	"28.497"	"27.83"	"28.263"	"26.087"	"21.353"	"18.635"
"1988"	"17.641"	"19.573"	"23.667"	"28.021"	"29.152"	"28.226"	"28.365"	"28.897"	"29.09"	"27.394"	"22.097"	"18.835"
"1989"	"16.237"	"19.625"	"23.964"	"28.249"	"29.019"	"28.127"	"28.627"	"28.492"	"28.727"	"27.329"	"22.002"	"17.206"
"1990"	"18.245"	"18.762"	"21.963"	"26.718"	"28.189"	"29.363"	"28.397"	"28.929"	"28.53"	"25.898"	"23.068"	"18.442"
"1991"	"15.064"	"19.965"	"23.965"	"27.457"	"29.78"	"28.261"	"28.996"	"28.629"	"27.93"	"27.196"	"22.695"	"17.306"
"1992"	"15.777"	"16.8"	"25.203"	"27.986"	"27.451"	"29.186"	"27.725"	"28.495"	"28.361"	"26.663"	"22.101"	"17.27"
"1993"	"16.444"	"20.197"	"22.064"	"26.29"	"27.522"	"28.862"	"28.995"	"28.365"	"27.993"	"27.233"	"22.9"	"19.141"
"1994"	"16.967"	"17.529"	"24.132"	"26.852"	"29.052"	"29.293"	"29.294"	"28.629"	"28.559"	"26.397"	"21.896"	"17.605"
"1995"	"14.298"	"19.254"	"23.764"	"27.449"	"30.354"	"29.298"	"28.236"	"28.234"	"28.328"	"27.031"	"22.021"	"18.71"
"1996"	"16.007"	"18.328"	"24.092"	"27.151"	"29.087"	"28.289"	"28.397"	"27.966"	"28.525"	"26.634"	"22.735"	"18.838"
"1997"	"15.435"	"17.402"	"24.132"	"27.555"	"28.39"	"29.159"	"28.431"	"29.228"	"27.46"	"25.727"	"22.201"	"17.907"
"1998"	"16.2"	"19.369"	"22.6"	"27.76"	"29.589"	"30.188"	"28.629"	"28.896"	"28.662"	"28.56"	"23.068"	"18.739"
"1999"	"17.436"	"20.036"	"24.502"	"30.299"	"29.321"	"29.396"	"28.327"	"28.495"	"28.259"	"27.33"	"23.105"	"18.836"
"2000"	"16.941"	"18.398"	"22.965"	"27.715"	"28.685"	"29.495"	"28.831"	"28.424"	"27.595"	"27.133"	"23.134"	"18.273"
"2001"	"16.903"	"19.234"	"23.328"	"28.086"	"29.654"	"29.195"	"29.032"	"29.096"	"28.763"	"27.593"	"23.7"	"19.236"
"2002"	"16.237"	"19.831"	"24.563"	"27.454"	"29.049"	"29.589"	"29.295"	"28.495"	"28.095"	"26.694"	"22.57"	"18.871"
