
"Year"	"Jan"	"Feb"	"Mar"	"Apr"	"May"	"Jun"	"Jul"	"Aug"	"Sep"	"Oct"	"Nov"	"Dec"
"1901"	"2.758"	"8.681"	"12.877"	"33.032"	"100.282"	"375.725"	"494.6"	"231.184"	"178.231"	"201.573"	"132.552"	"23.845"
"1902"	"6.903"	"9.838"	"17.834"	"59.725"	"121.765"	"393.432"	"735.185"	"176.085"	"191.747"	"198.023"	"67.742"	"68.922"
"1903"	"0.327"	"0.151"	"0.025"	"12.632"	"197.453"	"433.929"	"664.673"	"367.36"	"204.628"	"246.819"	"219.632"	"88.79"
"1904"	"2.171"	"0"	"3.853"	"49.278"	"175.828"	"576.881"	"564.102"	"154.67"	"205.312"	"115.216"	"2.982"	"0.726"
"1905"	"0.123"	"0.238"	"6.551"	"16.27"	"161.618"	"451.021"	"444.374"	"265.094"	"89.676"	"183.252"	"48.799"	"0.275"
"1906"	"26.572"	"0.378"	"5.616"	"18.712"	"83.216"	"369.07"	"616.183"	"680.25"	"167.736"	"138.992"	"37.849"	"55.218"
"1907"	"23.986"	"0"	"18.714"	"82.146"	"62.563"	"479.864"	"795.151"	"547.815"	"129.923"	"81.352"	"126.09"	"28.049"
"1908"	"7.088"	"6.642"	"21.502"	"53.59"	"140.114"	"237.315"	"583.274"	"332.796"	"76.706"	"147.247"	"3.919"	"0.275"
"1909"	"21.94"	"1.908"	"4.285"	"49.658"	"318.137"	"580.151"	"546.603"	"413.531"	"123.758"	"161.205"	"45.143"	"16.663"
"1910"	"0"	"11.765"	"9.067"	"39.424"	"94.549"	"367.93"	"634.16"	"566.827"	"195.049"	"264.347"	"105.977"	"0.275"
"1911"	"1.465"	"0.373"	"7.48"	"37.177"	"123.427"	"901.552"	"892.258"	"202.832"	"77.112"	"144.107"	"95.74"	"13.085"
"1912"	"0.76"	"0.451"	"7.823"	"42.913"	"93.551"	"445.694"	"673.025"	"297.209"	"148.207"	"216.595"	"97.866"	"0.278"
"1913"	"0"	"0"	"0.065"	"32.143"	"121.851"	"408.185"	"683.23"	"207.844"	"200.151"	"157.242"	"18.248"	"8.147"
"1914"	"0.307"	"0"	"6.765"	"13.894"	"90.214"	"279.255"	"727.808"	"334.422"	"185.72"	"184.309"	"101.098"	"35.126"
"1915"	"4.578"	"7.007"	"12.876"	"64.891"	"59.827"	"894.205"	"467.29"	"290.51"	"210.12"	"129.64"	"209.046"	"13.022"
"1916"	"0"	"0.225"	"0.025"	"20.97"	"168.623"	"737.122"	"461.31"	"678.778"	"231.751"	"206.336"	"137.142"	"18.974"
"1917"	"0.047"	"20.41"	"10.096"	"33.634"	"44.521"	"423.633"	"203.738"	"346.943"	"318.004"	"202.449"	"111.506"	"12.596"
"1918"	"11.141"	"0"	"10.237"	"36.162"	"285.568"	"228.807"	"82.644"	"303.952"	"73.984"	"108.055"	"280.749"	"21.822"
"1919"	"7.674"	"0"	"7.145"	"40.205"	"101.984"	"483.035"	"413.198"	"327.704"	"192.657"	"142.35"	"234.034"	"11.441"
"1920"	"9.028"	"1.794"	"5.967"	"66.723"	"89.146"	"614.248"	"550.506"	"250.604"	"129.247"	"103.572"	"177.442"	"0.275"
"1921"	"31.533"	"0"	"0.558"	"61.73"	"72.481"	"376.745"	"604.473"	"451.471"	"164.262"	"145.205"	"59.778"	"0.715"
"1922"	"23.495"	"3.127"	"1.538"	"58.749"	"131.553"	"481.423"	"561.687"	"346.939"	"160.415"	"151.069"	"121.609"	"13.132"
"1923"	"12.665"	"0"	"34.438"	"27.798"	"112.772"	"356.064"	"843.606"	"629.095"	"128.817"	"76.354"	"18.605"	"5.665"
"1924"	"1.637"	"5.697"	"10.355"	"46.946"	"77.843"	"546.775"	"1126.997"	"308.537"	"171.09"	"87.025"	"61.999"	"43.491"
"1925"	"4.864"	"1.127"	"19.67"	"55.371"	"78.441"	"481.075"	"481.362"	"360.065"	"135.777"	"101.017"	"166.981"	"110.292"
"1926"	"36.521"	"0.667"	"14.601"	"10.978"	"67.007"	"215.701"	"680.678"	"380.385"	"159.702"	"137.622"	"30.875"	"5.785"
"1927"	"0.003"	"14.606"	"24.15"	"20.031"	"76.499"	"438.195"	"713.319"	"270.511"	"164.414"	"44.137"	"119.36"	"1.898"
"1928"	"0.114"	"18.047"	"28.907"	"36.429"	"72.028"	"341.516"	"357.201"	"317.574"	"65.559"	"157.369"	"60.748"	"33.648"
"1929"	"2.793"	"5.807"	"0.025"	"90.444"	"96.823"	"579.448"	"479.736"	"230.45"	"206.559"	"124.017"	"39.94"	"10.68"
"1930"	"8.734"	"1.876"	"12.489"	"26.689"	"175.097"	"418.878"	"244.962"	"266.117"	"186.613"	"228.143"	"95.179"	"24.267"
"1931"	"0.008"	"0"	"4.156"	"46.612"	"143.367"	"225.572"	"470.121"	"564.475"	"227.902"	"58.734"	"106.103"	"45.459"
"1932"	"0"	"3.326"	"14.754"	"36.114"	"328.467"	"228.835"	"594.852"	"532.697"	"217.447"	"208.437"	"141.019"	"1.236"
"1933"	"0.983"	"0.01"	"16.445"	"45.021"	"313.809"	"455.994"	"767.478"	"628.768"	"291.101"	"190.209"	"15.912"	"46.93"
"1934"	"17.587"	"0.986"	"1.049"	"38.954"	"89.248"	"507.414"	"415.461"	"356.908"	"78.154"	"164.508"	"67.751"	"1.813"
"1935"	"33.178"	"0.944"	"7.787"	"27.367"	"64.624"	"355.944"	"475.862"	"410.311"	"166.9"	"181.264"	"8.973"	"9.62"
"1936"	"0"	"14.665"	"49.007"	"6.808"	"213.691"	"682.888"	"587.693"	"310.406"	"185.983"	"124.145"	"85.482"	"2.556"
"1937"	"0.123"	"5.162"	"17.745"	"85.249"	"64.794"	"301.737"	"686.991"	"272.002"	"118.014"	"152.78"	"69.683"	"34.613"
"1938"	"0"	"1.554"	"27.059"	"63.433"	"22.82"	"476.525"	"504.016"	"458.929"	"201.31"	"100.513"	"39.13"	"25.379"
"1939"	"6.394"	"0.005"	"7.142"	"79.482"	"49.69"	"220.486"	"391.306"	"401.757"	"98.245"	"250.917"	"145.431"	"0.275"
"1940"	"0"	"0"	"0.431"	"73.613"	"131.515"	"627.434"	"521.606"	"342.213"	"53.753"	"126.422"	"247.105"	"28.845"
"1941"	"2.961"	"0"	"1.625"	"49.695"	"167.955"	"520.87"	"429.785"	"430.183"	"148.607"	"92.665"	"71.293"	"75.847"
"1942"	"0"	"2.05"	"5.464"	"57.942"	"164.271"	"517.304"	"652.467"	"425.74"	"125.926"	"181.271"	"37.897"	"44.195"
"1943"	"24.228"	"3.392"	"2.057"	"43.136"	"270.3"	"344.902"	"672.236"	"137.429"	"315.967"	"229.496"	"242.014"	"1.299"
"1944"	"6.565"	"14.47"	"22.306"	"23.353"	"70.623"	"288.576"	"541.017"	"210.97"	"104.817"	"136.804"	"128.201"	"29.637"
"1945"	"0.003"	"0.373"	"0.025"	"71.811"	"64.053"	"290.814"	"891.919"	"251.477"	"127.879"	"99.302"	"83.106"	"0.28"
"1946"	"0.069"	"0.466"	"36.481"	"65.557"	"35.85"	"476.759"	"431.402"	"574.737"	"170.3"	"128.231"	"184.902"	"87.086"
"1947"	"8.024"	"0"	"21.918"	"55.837"	"71.982"	"452.139"	"475.773"	"387.657"	"257.99"	"156.714"	"5.943"	"66.285"
"1948"	"18.541"	"0.007"	"3.885"	"99.186"	"96.995"	"414.955"	"372.108"	"592.571"	"155.065"	"116.549"	"167.621"	"12.356"
"1949"	"2.019"	"0"	"1.625"	"42.861"	"210.789"	"321.09"	"560.55"	"427.446"	"206.635"	"144.023"	"8.007"	"0.275"
"1950"	"9.524"	"6.028"	"0.877"	"4.882"	"84.122"	"287.726"	"716.417"	"404.444"	"313.552"	"124.493"	"79.345"	"0.789"
"1951"	"5.052"	"0.005"	"23.199"	"73.492"	"122.887"	"354.99"	"584.429"	"237.516"	"244.038"	"106.023"	"127.502"	"0.589"
"1952"	"0.402"	"6.975"	"0.159"	"65.774"	"87.212"	"310.037"	"438.54"	"391.147"	"85.555"	"180.579"	"1.376"	"74.362"
"1953"	"0.452"	"2.193"	"2.46"	"61.381"	"65.981"	"539.275"	"861.694"	"368.645"	"102.551"	"219.163"	"7.736"	"0.288"
"1954"	"9.072"	"1.101"	"11.413"	"65.007"	"187.398"	"446.597"	"803.325"	"385.451"	"172.23"	"186.247"	"13.449"	"36.356"
"1955"	"0.067"	"7.734"	"9.482"	"71.244"	"282.959"	"466.507"	"294.973"	"249.88"	"228.554"	"224.367"	"59.397"	"5.089"
"1956"	"21.397"	"5.868"	"0.488"	"67.005"	"88.894"	"670.255"	"535.22"	"241.972"	"117.013"	"290.524"	"157.646"	"1.238"
"1957"	"0"	"0.901"	"18.002"	"24.261"	"215.01"	"489.823"	"531.517"	"266.476"	"34.599"	"206.805"	"144.785"	"2.983"
"1958"	"8.122"	"0.976"	"5.117"	"100.452"	"301.659"	"414.495"	"455.637"	"420.99"	"135.505"	"154.375"	"129.446"	"0.848"
"1959"	"0"	"1.217"	"0.025"	"16.33"	"198.603"	"897.716"	"862.801"	"268.35"	"311.305"	"112.08"	"117.45"	"7.761"
"1960"	"6.81"	"0.373"	"17.739"	"74.373"	"149.657"	"218.537"	"611.06"	"261.47"	"243.393"	"143.365"	"148.4"	"1.164"
"1961"	"3.092"	"2.669"	"2.26"	"73.912"	"329.391"	"901.878"	"1412.061"	"431.059"	"128.575"	"212.464"	"38.742"	"31.829"
"1962"	"1.54"	"12.402"	"5.002"	"77.105"	"201.885"	"170.362"	"735.887"	"455.966"	"169.269"	"293.581"	"23.114"	"52.263"
"1963"	"7.586"	"9.136"	"10.824"	"64.719"	"124.363"	"222.15"	"490.992"	"455.019"	"105.369"	"238.047"	"27.133"	"34.87"
"1964"	"0"	"0"	"1.147"	"22.907"	"83.007"	"468.584"	"705.682"	"762.849"	"163.682"	"216.947"	"121.288"	"9.544"
"1965"	"14.733"	"0"	"3.341"	"23.221"	"82.802"	"272.967"	"345.377"	"349.981"	"104.626"	"51.845"	"55.095"	"75.977"
"1966"	"6.446"	"0"	"12.407"	"43.398"	"144.256"	"205.441"	"436.626"	"163.295"	"205.525"	"187.555"	"216.443"	"15.411"
"1967"	"17.168"	"0"	"0.76"	"24.416"	"114.714"	"568.341"	"653.78"	"264.417"	"52.869"	"59.501"	"34.327"	"17.315"
"1968"	"0.391"	"8.722"	"9.152"	"54.728"	"79.729"	"294.479"	"502.33"	"266.134"	"198.552"	"72.196"	"17.236"	"20.856"
"1969"	"0"	"0.978"	"4.32"	"42.729"	"102.163"	"248.435"	"585.198"	"454.046"	"185.262"	"120.937"	"108.397"	"43.026"
"1970"	"3.109"	"4.438"	"25.301"	"49.249"	"192.8"	"246.971"	"373.179"	"345.824"	"142.886"	"216.716"	"143.183"	"1.482"
"1971"	"0.018"	"0"	"8.201"	"39.353"	"122.35"	"563.816"	"315.449"	"418.658"	"251.584"	"142.254"	"29.485"	"23.131"
"1972"	"0.005"	"2.774"	"0.025"	"33.884"	"249.48"	"438.88"	"501.583"	"197.735"	"217.251"	"150.286"	"34.456"	"55.845"
"1973"	"0"	"0"	"0.025"	"19.468"	"149.505"	"460.319"	"562.055"	"402.588"	"76.597"	"134.576"	"51.217"	"14.333"
"1974"	"0"	"0"	"2.234"	"35.173"	"122.736"	"156.723"	"621.838"	"325.987"	"220.908"	"93.218"	"28.092"	"0.349"
"1975"	"1.653"	"0.299"	"17.081"	"18.499"	"103.479"	"731.647"	"567.015"	"520.101"	"252.843"	"98.413"	"48.296"	"0.862"
"1976"	"0"	"0"	"2.016"	"53.922"	"57.923"	"180.822"	"381.292"	"292.782"	"157.851"	"85.165"	"131.056"	"1.963"
"1977"	"0"	"2.205"	"19.82"	"46.479"	"177.536"	"414.957"	"478.172"	"268.701"	"252.827"	"328.716"	"173.174"	"0.275"
"1978"	"26.134"	"2.864"	"1.434"	"43.431"	"147.949"	"582.895"	"631.953"	"459.725"	"110.817"	"104.805"	"108.215"	"67.659"
"1979"	"0"	"3.968"	"12.303"	"46.672"	"93.08"	"568.959"	"330.128"	"431.528"	"222.711"	"103.609"	"179.724"	"0.28"
"1980"	"0.003"	"0"	"4.13"	"51.363"	"91.116"	"622.196"	"794.035"	"278.121"	"219.95"	"102.517"	"85.612"	"4.87"
"1981"	"4.34"	"0"	"32.807"	"28.184"	"151.399"	"383.652"	"374.759"	"511.49"	"217.704"	"128.106"	"39.249"	"19.588"
"1982"	"0"	"0"	"0.277"	"33.203"	"114.66"	"414.976"	"320.422"	"391.095"	"76.805"	"119.04"	"76.218"	"2.527"
"1983"	"0.124"	"0"	"0.025"	"2.626"	"118.518"	"484.672"	"428.184"	"475.717"	"208.677"	"141.307"	"54.911"	"36.981"
"1984"	"1.777"	"20.676"	"51.437"	"55.814"	"56.347"	"329.332"	"526.816"	"321.848"	"256.639"	"240.135"	"8.735"	"99.146"
"1985"	"3.623"	"0"	"12.956"	"27.25"	"93.258"	"477.452"	"347.614"	"284.462"	"113.099"	"156.147"	"83.414"	"6.984"
"1986"	"21.12"	"5.105"	"2.534"	"8.49"	"81.146"	"568.728"	"300.012"	"355.068"	"270.028"	"113.442"	"107.527"	"9.256"
"1987"	"0"	"0.158"	"5.706"	"27.358"	"66.085"	"406.699"	"262.534"	"339.917"	"107.2"	"206.992"	"27.426"	"68.31"
"1988"	"0"	"0"	"5.035"	"83.686"	"153.635"	"381.007"	"694.191"	"479.24"	"308.782"	"34.218"	"38.008"	"16.13"
"1989"	"0.007"	"0"	"6.97"	"35.855"	"88.207"	"495.004"	"536.171"	"221.779"	"167.301"	"172.728"	"21.085"	"2.676"
"1990"	"0.407"	"0"	"0.595"	"13.771"	"282.514"	"314.178"	"408.508"	"245.579"	"71.495"	"139.118"	"73.187"	"2.722"
"1991"	"0"	"0"	"2.379"	"44.13"	"80.391"	"697.228"	"543.08"	"347.101"	"69.473"	"153.262"	"31.841"	"0.275"
"1992"	"0"	"0"	"0.025"	"41.369"	"120.499"	"644.779"	"657.882"	"376.735"	"181.389"	"204.107"	"143.35"	"0.278"
"1993"	"0"	"0"	"10.763"	"17.379"	"90.698"	"502.239"	"517.907"	"282.278"	"74.327"	"201.345"	"69.785"	"54.448"
"1994"	"0"	"0.007"	"5.886"	"70.384"	"48.446"	"493.831"	"832.275"	"316.613"	"101.671"	"248.867"	"36.914"	"8.711"
"1995"	"11.781"	"0"	"3.228"	"33.042"	"125.439"	"388.364"	"470.122"	"405.195"	"176.611"	"141.145"	"23.878"	"0.275"
"1996"	"0.003"	"0.158"	"14.506"	"39.206"	"49.354"	"679.875"	"454.284"	"409.833"	"213.987"	"182.316"	"10.025"	"42.42"
"1997"	"6.523"	"0"	"12.04"	"20.828"	"46.326"	"525.257"	"640.552"	"519.466"	"143.058"	"199.243"	"140.499"	"50.927"
"1998"	"0"	"4.886"	"3.953"	"26.523"	"134.114"	"515.153"	"693.004"	"498.507"	"275.146"	"218.742"	"44.314"	"51.433"
"1999"	"0"	"4.313"	"9.491"	"37.704"	"211.258"	"408.544"	"512.134"	"201.864"	"53.057"	"262.547"	"32.35"	"1.555"
"2000"	"0"	"2.711"	"0.03"	"45.109"	"67.146"	"378.283"	"397.252"	"437.528"	"136.748"	"197.378"	"63.195"	"48.522"
"2001"	"0"	"2.411"	"0.394"	"105.414"	"125.378"	"274.45"	"561.358"	"276.586"	"129.488"	"157.118"	"48.837"	"4.644"
"2002"	"0"	"0.28"	"1.595"	"15.135"	"195.636"	"530.452"	"235.517"	"291.229"	"72.005"	"287.245"	"61.586"	"1.253"
