
"Year"	"Jan"	"Feb"	"Mar"	"Apr"	"May"	"Jun"	"Jul"	"Aug"	"Sep"	"Oct"	"Nov"	"Dec"
"1901"	"0.219"	"6.005"	"0"	"20.318"	"42.517"	"58.675"	"68.312"	"39.893"	"104.746"	"53.004"	"103.313"	"2.049"
"1902"	"0.479"	"0"	"0"	"16.624"	"31.446"	"46.485"	"13.803"	"58.601"	"159.702"	"106.744"	"58.93"	"4.532"
"1903"	"0.756"	"0"	"0"	"1.271"	"38.134"	"38.171"	"89.856"	"115.189"	"144.324"	"171.913"	"145.82"	"11.308"
"1904"	"3.309"	"0"	"4.882"	"4.492"	"49.975"	"52.322"	"47.363"	"21.71"	"68.177"	"127.373"	"0.393"	"0.412"
"1905"	"0.653"	"3.98"	"8.353"	"16.539"	"35.759"	"78.293"	"23.241"	"150.649"	"37.268"	"116.732"	"1.842"	"0"
"1906"	"8.235"	"0"	"1.072"	"0.242"	"12.913"	"72.367"	"77.038"	"90.139"	"152.759"	"72.991"	"9.263"	"53.165"
"1907"	"6.351"	"0"	"3.029"	"40.671"	"2.569"	"48.731"	"56.713"	"34.262"	"94.5"	"4.827"	"41.407"	"11.863"
"1908"	"6.817"	"2.489"	"6.145"	"3.239"	"51.623"	"15.17"	"55.659"	"52.994"	"283.797"	"36.704"	"1.187"	"0.019"
"1909"	"3.918"	"0"	"0.702"	"25.849"	"19.795"	"27.398"	"50.695"	"112.223"	"140.241"	"18.754"	"2.558"	"0"
"1910"	"0"	"0"	"6.856"	"6.265"	"39.846"	"41.616"	"65.789"	"89.799"	"210.556"	"80.516"	"90.695"	"0"
"1911"	"0"	"0"	"0.994"	"12.963"	"23.905"	"43.966"	"65.015"	"50.209"	"81.345"	"55.772"	"11.693"	"11.169"
"1912"	"0"	"0.686"	"0"	"13.709"	"13.916"	"17.383"	"59.34"	"95.896"	"121.175"	"74.974"	"82.753"	"0"
"1913"	"0"	"1.012"	"0"	"4.392"	"59.937"	"20.471"	"77.141"	"12.484"	"81.779"	"156.302"	"0.394"	"10.533"
"1914"	"0"	"0"	"0.671"	"7.504"	"37.084"	"31.354"	"74.026"	"114.329"	"183.187"	"23.575"	"33.984"	"18.618"
"1915"	"2.932"	"2.915"	"19.168"	"9.111"	"35.463"	"39.537"	"88.179"	"43.884"	"186.287"	"77.636"	"109.193"	"0.086"
"1916"	"0"	"0"	"0"	"6.642"	"40.855"	"51.472"	"95.953"	"61.47"	"165.564"	"343.419"	"100.154"	"0.123"
"1917"	"0"	"4.176"	"8.972"	"6.455"	"52.299"	"92.452"	"38.197"	"110.766"	"181.044"	"196.116"	"32.91"	"0.447"
"1918"	"0.792"	"0.041"	"8.878"	"5.083"	"92.918"	"11.878"	"25.855"	"43.132"	"177.95"	"9.213"	"97.927"	"4.703"
"1919"	"2.815"	"0"	"3.335"	"8.404"	"52.587"	"42.35"	"53.332"	"13.195"	"206.463"	"71.457"	"51.894"	"6.268"
"1920"	"4.238"	"0"	"0"	"1.392"	"29.956"	"20.747"	"18.83"	"38.302"	"121.856"	"62.928"	"6.266"	"0"
"1921"	"2.937"	"0"	"0"	"28.518"	"5.459"	"48.148"	"76.4"	"24.989"	"54.999"	"196.849"	"60.381"	"0.005"
"1922"	"0.999"	"0"	"0"	"8.654"	"35.976"	"15.746"	"29.121"	"30.454"	"32.096"	"94.543"	"83.674"	"0.188"
"1923"	"1.992"	"2.877"	"11.556"	"9.573"	"42.269"	"24.828"	"55.25"	"25.052"	"170.856"	"44.522"	"0.892"	"0.018"
"1924"	"0.165"	"0"	"0.104"	"15.62"	"26.801"	"15.964"	"37.688"	"75.178"	"174.455"	"52.212"	"59.12"	"0"
"1925"	"0"	"0"	"0.021"	"20.458"	"73.475"	"24.372"	"49.278"	"72.762"	"58.089"	"167.585"	"36.441"	"56.123"
"1926"	"6.854"	"0.87"	"2.853"	"31.987"	"32.768"	"44.346"	"26.198"	"38.306"	"187.178"	"39.567"	"2.226"	"0.041"
"1927"	"0"	"0.305"	"2.525"	"8.35"	"22.908"	"66.703"	"75.073"	"50.953"	"158.115"	"51.297"	"153.033"	"0"
"1928"	"0"	"5.756"	"3.824"	"13.876"	"12.263"	"69.298"	"73.988"	"54.946"	"138.854"	"86.694"	"13.283"	"6.224"
"1929"	"0.004"	"3.897"	"0"	"22.292"	"35.855"	"28.486"	"40.451"	"26.6"	"182.784"	"108.613"	"32.336"	"2.814"
"1930"	"0.579"	"0.691"	"7.146"	"6.219"	"45.637"	"47.369"	"59.945"	"36.113"	"146.255"	"175.713"	"44.079"	"6.07"
"1931"	"0"	"0"	"3.623"	"4.501"	"42.231"	"67.519"	"32.58"	"30.475"	"148.971"	"125.304"	"65.741"	"3.556"
"1932"	"0"	"3.757"	"0"	"3.196"	"26.989"	"45.285"	"41.892"	"104.956"	"108.147"	"90.665"	"119.444"	"7.742"
"1933"	"0"	"2.938"	"15.575"	"24.219"	"83.508"	"25.633"	"44.948"	"92.129"	"119.606"	"171.521"	"92.538"	"50.851"
"1934"	"0"	"0"	"0"	"32.675"	"10.503"	"59.448"	"96.821"	"31.953"	"42.537"	"48.425"	"72.427"	"0.081"
"1935"	"8.78"	"0"	"0.194"	"21.258"	"4.481"	"71.324"	"65.98"	"113.748"	"140.976"	"78.256"	"0.479"	"0.123"
"1936"	"0.004"	"9.196"	"5.26"	"15.44"	"37.323"	"50.637"	"35.269"	"44.06"	"78.377"	"51.252"	"72.386"	"1.593"
"1937"	"0"	"8.621"	"7.493"	"67.347"	"11.365"	"26.978"	"67.707"	"21.271"	"117.858"	"137.521"	"5.377"	"0.489"
"1938"	"0"	"2.717"	"10.739"	"5.374"	"32.126"	"54.903"	"43.416"	"118.367"	"180.981"	"22.064"	"0.648"	"0.048"
"1939"	"0.008"	"0"	"3.852"	"21.994"	"4.397"	"30.87"	"32.605"	"72.182"	"110.211"	"127.736"	"96.633"	"0.129"
"1940"	"0.014"	"0.633"	"2.366"	"30.699"	"108.814"	"52.597"	"48.999"	"80.311"	"142.298"	"153.343"	"20.883"	"1.015"
"1941"	"3.038"	"1.239"	"0.143"	"8.412"	"32.149"	"23.671"	"16.296"	"54.264"	"169.864"	"44.738"	"3.533"	"32.067"
"1942"	"0"	"0.83"	"0"	"24.819"	"27.356"	"84.784"	"41.647"	"51.605"	"79.139"	"31.311"	"7.139"	"3.752"
"1943"	"3.055"	"0.11"	"4.356"	"16.156"	"78.399"	"32.181"	"41.431"	"50.916"	"163.793"	"139.619"	"51.117"	"0.463"
"1944"	"0"	"1.875"	"17.834"	"7.319"	"25.89"	"99.537"	"81.658"	"12.249"	"112.569"	"156.534"	"30.428"	"0.006"
"1945"	"0"	"0"	"0"	"17.962"	"32.436"	"24.772"	"126.832"	"45.822"	"106.281"	"107.473"	"33.579"	"0.041"
"1946"	"0"	"9.563"	"3.546"	"12.602"	"53.711"	"51.571"	"37.571"	"56.006"	"86.099"	"147.234"	"123.354"	"13.891"
"1947"	"1.114"	"3.396"	"0"	"18.555"	"17.588"	"57.883"	"63.142"	"173.064"	"168.731"	"42.74"	"3.835"	"24.851"
"1948"	"0.009"	"0"	"5.306"	"32.451"	"26.622"	"12.949"	"43.064"	"95.235"	"116.907"	"68.915"	"135.118"	"0.333"
"1949"	"0"	"0"	"0"	"20.506"	"67.298"	"53.589"	"58.808"	"76.224"	"332.146"	"159.92"	"23.226"	"0"
"1950"	"0"	"1.951"	"1.942"	"0.221"	"49.146"	"81.541"	"48.015"	"107.332"	"135.144"	"118.674"	"19.547"	"0"
"1951"	"0"	"0"	"7.638"	"33.131"	"79.744"	"46.262"	"89.128"	"47.241"	"138.801"	"80.193"	"5.966"	"0"
"1952"	"0"	"2.058"	"0"	"9.27"	"173.274"	"41.056"	"43.2"	"36.915"	"52.582"	"90.892"	"0.375"	"19.896"
"1953"	"0"	"0"	"0"	"15.936"	"1.096"	"35.396"	"92.628"	"45.288"	"218.51"	"287.109"	"0.543"	"0"
"1954"	"0"	"0"	"6.115"	"6.678"	"15.579"	"31.966"	"114.552"	"93.57"	"48.216"	"73.223"	"0.375"	"4.085"
"1955"	"0"	"0"	"12.69"	"15.611"	"104.871"	"30.333"	"59.268"	"122.986"	"175.612"	"103.847"	"28.664"	"0.793"
"1956"	"0.013"	"0.076"	"0"	"32.24"	"74.292"	"56.985"	"148.4"	"56.546"	"137.586"	"195.506"	"41.592"	"20.781"
"1957"	"0"	"0"	"1.445"	"38.222"	"43.268"	"92.598"	"76.322"	"71.827"	"67.347"	"78.154"	"15.925"	"0"
"1958"	"0"	"2.868"	"2.562"	"24.247"	"29.051"	"23.771"	"90.637"	"126.957"	"134.796"	"69.26"	"27.296"	"0.916"
"1959"	"0"	"0.79"	"0"	"16.935"	"64.213"	"63.546"	"90.641"	"66.054"	"103.825"	"53.459"	"7.044"	"4.489"
"1960"	"0"	"0"	"10.973"	"16.17"	"30.345"	"32.481"	"60.194"	"10.352"	"331.525"	"54.457"	"24.056"	"0.105"
"1961"	"0"	"1.194"	"2.218"	"5.267"	"82.551"	"88.976"	"122.463"	"48.837"	"25.682"	"188.049"	"17.24"	"0"
"1962"	"0"	"1.121"	"2.493"	"45.368"	"93.267"	"54.964"	"42.834"	"70.494"	"90.097"	"146.484"	"45.311"	"50.787"
"1963"	"0"	"0"	"2.21"	"60.878"	"35.917"	"52.738"	"45.074"	"157.472"	"50.27"	"161.893"	"0.599"	"21.727"
"1964"	"0"	"0"	"0"	"9.55"	"2.79"	"80.157"	"99.762"	"56.64"	"374.527"	"60.952"	"31.712"	"0.736"
"1965"	"0"	"0.334"	"0"	"16.477"	"17.978"	"91.459"	"61.824"	"71.799"	"135.37"	"2.253"	"35.975"	"32.502"
"1966"	"5.859"	"0"	"0.098"	"7.46"	"28.551"	"36.008"	"98.591"	"65.737"	"167.584"	"40.405"	"113.59"	"35.82"
"1967"	"5.4"	"0"	"2.209"	"17.683"	"14.322"	"48.347"	"78.098"	"35.749"	"120.371"	"78.979"	"1.494"	"11.359"
"1968"	"0.245"	"3.891"	"13.097"	"34.432"	"31.183"	"51.78"	"49.348"	"6.477"	"244.202"	"170.914"	"56.129"	"10.649"
"1969"	"0"	"0"	"2.136"	"6.777"	"52.624"	"52.788"	"81.07"	"128.008"	"45.838"	"98.142"	"28.106"	"6.115"
"1970"	"0.011"	"0.026"	"0.836"	"21.88"	"67.621"	"35.749"	"55.502"	"140.721"	"194.712"	"102.532"	"0.845"	"0"
"1971"	"0.008"	"0.148"	"8.26"	"27.781"	"50.713"	"35.892"	"19.738"	"57.221"	"56.045"	"174.637"	"12.921"	"0.178"
"1972"	"0.007"	"0.222"	"0"	"18.131"	"58.886"	"49.576"	"35.987"	"5.258"	"117.574"	"67.096"	"33.848"	"3.367"
"1973"	"0"	"0"	"0"	"2.193"	"9.672"	"43.633"	"21.646"	"112.573"	"81.58"	"167.56"	"15.348"	"4.367"
"1974"	"0"	"0"	"0.084"	"17.082"	"117.622"	"44.302"	"35.893"	"81.607"	"221.702"	"170.305"	"18.466"	"0.062"
"1975"	"0.319"	"0.041"	"9.991"	"5.471"	"40.21"	"37.855"	"80.854"	"69.547"	"151.65"	"325.856"	"28.198"	"0.165"
"1976"	"0"	"0"	"0"	"24.365"	"43.787"	"51.911"	"52.019"	"88.431"	"72.978"	"32.318"	"72.945"	"0.098"
"1977"	"0.013"	"0.354"	"2.557"	"37.446"	"170.768"	"77.587"	"71.896"	"91.653"	"20.9"	"160.611"	"79.455"	"0.25"
"1978"	"0"	"8.165"	"0.701"	"26.476"	"58.452"	"47.794"	"73.352"	"111.642"	"266.871"	"75.338"	"46.666"	"57.76"
"1979"	"0"	"9.279"	"1.411"	"4.09"	"164.671"	"43.984"	"34.537"	"19.991"	"193.268"	"35.162"	"104.705"	"0.307"
"1980"	"0.004"	"0"	"1.793"	"13.759"	"37.214"	"44.328"	"47.961"	"82.13"	"95.367"	"36.678"	"36.09"	"6.394"
"1981"	"4.629"	"0"	"14.297"	"42.381"	"24.848"	"63.773"	"43.353"	"66.091"	"187.338"	"90.975"	"37.848"	"4.762"
"1982"	"0.015"	"0"	"0.199"	"19.75"	"21.949"	"65.792"	"64.45"	"30.868"	"161.215"	"126.408"	"89.628"	"0"
"1983"	"0"	"0.026"	"1.697"	"0.682"	"61.694"	"64.752"	"83.56"	"133.609"	"218.602"	"132.573"	"14.913"	"12.134"
"1984"	"0.315"	"0.64"	"5.143"	"16.932"	"3.81"	"40.285"	"93.34"	"17.144"	"87.309"	"49.486"	"5.075"	"5.224"
"1985"	"0.611"	"0"	"7.689"	"6.591"	"16.846"	"58.3"	"58.027"	"31.347"	"66.206"	"91.511"	"27.832"	"7.989"
"1986"	"4.74"	"3.13"	"0"	"30.245"	"13.84"	"78.555"	"36.723"	"81.954"	"138.654"	"71.253"	"60.356"	"25.309"
"1987"	"1.288"	"0"	"11.338"	"14.432"	"39.8"	"49.342"	"47.555"	"80.695"	"64.929"	"133.879"	"43.492"	"16.748"
"1988"	"0"	"6.071"	"0"	"42.737"	"34.486"	"33.84"	"110.266"	"111.568"	"204.139"	"29.302"	"11.235"	"23.379"
"1989"	"0"	"0"	"9.813"	"5.458"	"16.276"	"69.485"	"133.316"	"34.717"	"140.46"	"126.063"	"9.917"	"5.328"
"1990"	"0.425"	"0.095"	"6.387"	"7.102"	"175.952"	"53.601"	"35.394"	"84.378"	"78.76"	"121.159"	"41.902"	"0.863"
"1991"	"0.243"	"0"	"0"	"19.796"	"48.189"	"109.93"	"48.575"	"83.931"	"114.954"	"114.076"	"33.99"	"0"
"1992"	"0.006"	"0"	"0"	"6.782"	"56.605"	"72.967"	"56.303"	"98.845"	"97.844"	"76.779"	"35.905"	"0.61"
"1993"	"0"	"0"	"3.647"	"15.366"	"40.412"	"62.076"	"62.263"	"82.404"	"108.139"	"171.66"	"9.812"	"22.965"
"1994"	"2.833"	"1.634"	"2.224"	"22.958"	"24.066"	"46.164"	"54.197"	"74.612"	"48.428"	"227.948"	"48.52"	"1.236"
"1995"	"5.677"	"0"	"10.249"	"7.734"	"89.195"	"62.277"	"73.089"	"102.067"	"143.108"	"268.158"	"36.889"	"0.053"
"1996"	"0"	"0"	"0"	"49.498"	"30.174"	"89.706"	"56.816"	"146.464"	"138.703"	"129.467"	"74.586"	"4.513"
"1997"	"2.083"	"0"	"5.111"	"45.64"	"26.902"	"34.81"	"48.527"	"82.608"	"93.57"	"154.43"	"84.011"	"46.434"
"1998"	"0"	"0"	"0"	"17.971"	"36.108"	"31.512"	"97.847"	"145.927"	"122.177"	"213.978"	"24.003"	"7.238"
"1999"	"0"	"1.145"	"0"	"17.586"	"106.866"	"38.094"	"58.618"	"58.672"	"92.998"	"96.057"	"14.461"	"0.861"
"2000"	"0"	"4.584"	"0"	"21.746"	"67.386"	"91.179"	"56.566"	"180.246"	"91.04"	"102.635"	"6.716"	"3.729"
"2001"	"2.792"	"0"	"11.159"	"26.408"	"12.728"	"74.797"	"36.076"	"78.606"	"104.12"	"147.172"	"12.311"	"2.197"
"2002"	"2.843"	"0.072"	"2.856"	"3.868"	"80.83"	"87.493"	"24.167"	"67.742"	"45.765"	"127.814"	"11.966"	"0.774"
