
"Year"	"Jan"	"Feb"	"Mar"	"Apr"	"May"	"Jun"	"Jul"	"Aug"	"Sep"	"Oct"	"Nov"	"Dec"
"1901"	"15.356"	"20.514"	"16.247"	"170.594"	"249.224"	"537.776"	"549.998"	"484.255"	"365.02"	"293.647"	"237.374"	"4.696"
"1902"	"3.128"	"6.993"	"19.109"	"156.729"	"303.357"	"719.876"	"725.686"	"554.973"	"305.713"	"93.244"	"25.292"	"15.312"
"1903"	"2.907"	"13.502"	"33.657"	"120.008"	"198.617"	"674.624"	"512.329"	"743.096"	"268.245"	"135.694"	"173.678"	"4.613"
"1904"	"3.899"	"41.622"	"22.934"	"294.181"	"275.913"	"448.252"	"544.124"	"470.504"	"202.15"	"123.235"	"83.776"	"3.139"
"1905"	"4.269"	"17.41"	"320.154"	"172.101"	"321.742"	"406.993"	"709.712"	"833.446"	"372.863"	"283.878"	"30.116"	"10.565"
"1906"	"6.943"	"54.123"	"22.341"	"93.641"	"154.324"	"426.905"	"746.015"	"564.449"	"289.798"	"181.571"	"63.096"	"0.017"
"1907"	"15.92"	"44.728"	"84.974"	"112.963"	"240.809"	"673.467"	"605.356"	"452.666"	"216.81"	"106.909"	"24.699"	"10.589"
"1908"	"6.405"	"10.664"	"4.923"	"97.068"	"201.725"	"580.841"	"543.672"	"349.489"	"332.039"	"123.003"	"23.83"	"4.751"
"1909"	"4.647"	"9.663"	"1.732"	"110.418"	"283.803"	"609.349"	"525.319"	"539.717"	"167.925"	"178.685"	"65.299"	"8.378"
"1910"	"8.775"	"14.955"	"92.57"	"125.211"	"270.876"	"566.118"	"754.833"	"550.554"	"279.195"	"214.606"	"73.353"	"3.861"
"1911"	"9.242"	"9.115"	"42.322"	"133.246"	"441.976"	"784.886"	"489.996"	"462.569"	"407.447"	"437.624"	"9.782"	"1.618"
"1912"	"2.239"	"41.002"	"45.782"	"121.148"	"317.77"	"559.02"	"499.245"	"531.764"	"271.905"	"297.802"	"198.923"	"13.39"
"1913"	"1.969"	"40.743"	"44.145"	"152.259"	"288.65"	"736.216"	"505.781"	"447.411"	"280.599"	"302.006"	"42.267"	"16.637"
"1914"	"2.55"	"26.755"	"22.32"	"72.112"	"440.035"	"589.507"	"562.739"	"650.863"	"182.59"	"53.126"	"31.515"	"18.333"
"1915"	"4.514"	"31.827"	"28.704"	"91.448"	"775.867"	"450.314"	"666.389"	"624.94"	"196.068"	"168.271"	"42.365"	"9.58"
"1916"	"5.741"	"6.875"	"47.74"	"138.862"	"431.011"	"534.842"	"522.881"	"655.269"	"341.194"	"485.567"	"192.451"	"2.451"
"1917"	"1.563"	"44.552"	"10.561"	"74.285"	"269.657"	"576.206"	"515.791"	"501.589"	"213.586"	"288.367"	"172.567"	"6.553"
"1918"	"1.446"	"5.454"	"57.922"	"70.205"	"360.477"	"749.406"	"682.728"	"599.378"	"317.622"	"83.01"	"10.776"	"3.751"
"1919"	"6.98"	"4.521"	"2.894"	"91.294"	"170.439"	"619.459"	"642.807"	"456.768"	"358.6"	"340.409"	"91.348"	"3.623"
"1920"	"1.221"	"21.157"	"80.358"	"83.931"	"271.968"	"377.784"	"427.452"	"668.839"	"411.505"	"138.018"	"13.526"	"2.451"
"1921"	"15.153"	"4.806"	"28.535"	"128.877"	"463.193"	"624.929"	"692.462"	"574.703"	"277.091"	"85.942"	"17.422"	"2.158"
"1922"	"5.185"	"0.727"	"38.558"	"179.539"	"130.45"	"799.821"	"528.963"	"441.522"	"291.569"	"327.742"	"20.577"	"11.551"
"1923"	"3.627"	"45.19"	"4.738"	"143.06"	"371.426"	"772.266"	"510.695"	"336.341"	"202.485"	"203.007"	"20.801"	"3.065"
"1924"	"3.493"	"6.108"	"5.308"	"160.928"	"358.148"	"652.036"	"800.378"	"607.982"	"325.034"	"191.511"	"249.279"	"0.189"
"1925"	"15.584"	"16.308"	"23.282"	"147.981"	"365.016"	"381.165"	"639.649"	"402.782"	"292.936"	"167.778"	"14.926"	"5.289"
"1926"	"9.562"	"8.256"	"60.989"	"62.103"	"176.595"	"666.117"	"697.327"	"421.704"	"221.904"	"334.776"	"13.692"	"27.288"
"1927"	"13.436"	"31.727"	"24.773"	"147.28"	"290.814"	"634.392"	"561.631"	"340.382"	"451.175"	"300.146"	"28.342"	"3.144"
"1928"	"3.574"	"13.844"	"25.08"	"85.392"	"321.609"	"703.919"	"669.686"	"422.531"	"320.207"	"278.75"	"27.373"	"0.017"
"1929"	"10.394"	"2.703"	"16.516"	"193.72"	"578.786"	"632.863"	"575.495"	"406.103"	"297.155"	"121.664"	"9.502"	"9.833"
"1930"	"7.835"	"14.645"	"35.989"	"61.077"	"352.439"	"736.378"	"479.746"	"643.336"	"257.818"	"124.746"	"239.965"	"3.627"
"1931"	"0.581"	"18.593"	"17.987"	"155.544"	"321.348"	"718.031"	"745.427"	"296.496"	"218.889"	"79.653"	"23.847"	"4.334"
"1932"	"2.493"	"13.27"	"9.412"	"66.932"	"504.967"	"528.246"	"688.053"	"777.322"	"283.332"	"116.354"	"207.023"	"3.948"
"1933"	"3.247"	"13.688"	"6.714"	"113.316"	"435.188"	"513.562"	"701.133"	"589.772"	"240.861"	"153.25"	"14.709"	"0.017"
"1934"	"8.475"	"32.71"	"5.391"	"179.334"	"200.928"	"830.174"	"755.35"	"493.2"	"274.026"	"364.04"	"38.233"	"7.448"
"1935"	"2.382"	"39.525"	"14.548"	"63.105"	"234.023"	"585.651"	"418.291"	"741.432"	"335.9"	"92.778"	"14.852"	"11.132"
"1936"	"8.039"	"23.126"	"17.68"	"95.666"	"425.226"	"627.629"	"676.576"	"394.587"	"346.825"	"256.986"	"13.952"	"18.063"
"1937"	"1.51"	"16.108"	"7.421"	"18.318"	"367.501"	"609.219"	"852.605"	"476.388"	"210.183"	"115.685"	"9.681"	"9.989"
"1938"	"18.012"	"7.84"	"43.87"	"117.471"	"558.392"	"825.545"	"747.16"	"654.552"	"421.729"	"143.494"	"63.495"	"0.017"
"1939"	"0.485"	"17.403"	"5.421"	"92.511"	"348.781"	"680.853"	"787.307"	"427.598"	"379.59"	"216.334"	"36.877"	"4.522"
"1940"	"0"	"44.512"	"177.164"	"14.397"	"393.627"	"490.11"	"616.496"	"469.235"	"465.706"	"136.8"	"17.076"	"3.663"
"1941"	"1.058"	"28.341"	"51.783"	"86.526"	"300.542"	"696.903"	"561.173"	"444.271"	"346.507"	"288.42"	"17.477"	"0.958"
"1942"	"13.134"	"8.599"	"84.316"	"114.908"	"307.164"	"908.171"	"368.275"	"585.981"	"415.279"	"98.422"	"34.592"	"0.385"
"1943"	"15.76"	"39.846"	"69.244"	"132.362"	"340.97"	"586.406"	"556.245"	"551.254"	"375.526"	"63.018"	"27.879"	"0.683"
"1944"	"24.678"	"5.694"	"35.195"	"46.068"	"361.344"	"528.709"	"465.577"	"415.539"	"287.167"	"185.247"	"18.793"	"3.952"
"1945"	"20.987"	"14.628"	"76.215"	"111.388"	"229.751"	"553.029"	"581.545"	"709.325"	"261.997"	"225.999"	"13.144"	"1.823"
"1946"	"2.301"	"29.026"	"52.841"	"106.889"	"273.361"	"472.078"	"563.544"	"441.25"	"328.276"	"480.432"	"42.895"	"2.158"
"1947"	"3.77"	"10.559"	"39.217"	"178.911"	"313.546"	"669.887"	"746.991"	"646.099"	"703.088"	"458.784"	"6.878"	"64.905"
"1948"	"2.879"	"67.723"	"32.808"	"241.301"	"325.695"	"359.52"	"443.826"	"526.231"	"339.988"	"205.077"	"32.119"	"1.904"
"1949"	"41.29"	"17.007"	"79.565"	"202.931"	"423.72"	"688.48"	"645.708"	"496.245"	"572.334"	"133.73"	"41.905"	"2.918"
"1950"	"1.223"	"42.824"	"27.697"	"67.384"	"219.472"	"474.631"	"542.425"	"572.281"	"317.825"	"251.739"	"122.706"	"2.994"
"1951"	"1.272"	"0.102"	"75.974"	"217.751"	"208.648"	"563.663"	"630.75"	"712.686"	"392.4"	"524.614"	"16.562"	"18.376"
"1952"	"1.885"	"6.876"	"52.537"	"311.846"	"347.519"	"437.83"	"544.865"	"392.724"	"297.546"	"415.375"	"116.369"	"0.084"
"1953"	"2.404"	"0.958"	"37.26"	"59.985"	"311.896"	"562.113"	"740.665"	"619.468"	"515.752"	"274.637"	"17.859"	"1.043"
"1954"	"17.556"	"32.47"	"65.591"	"23.882"	"232.379"	"908.046"	"562.005"	"760.398"	"256.044"	"339.374"	"1.412"	"7.075"
"1955"	"0.758"	"1.192"	"151.319"	"48.992"	"270.994"	"413.646"	"1075.721"	"382.263"	"293.801"	"499.035"	"249.836"	"1.963"
"1956"	"14.303"	"1.988"	"76.461"	"61.003"	"323.54"	"655.289"	"321.296"	"601.263"	"444.763"	"173.101"	"97.114"	"0.285"
"1957"	"20.523"	"13.174"	"8.877"	"24.666"	"188.702"	"415.165"	"618.19"	"433.097"	"264.356"	"201.889"	"0.609"	"0.602"
"1958"	"1.859"	"11.81"	"41.408"	"101.345"	"279.93"	"281.068"	"338.068"	"504.956"	"370.19"	"162.689"	"1.417"	"4.12"
"1959"	"27.159"	"49.333"	"169.14"	"34.83"	"270.327"	"614.868"	"533.709"	"752.977"	"363.086"	"420.802"	"0.609"	"26.7"
"1960"	"0.97"	"1.38"	"33.749"	"6.467"	"287.64"	"400.831"	"740.449"	"315.561"	"352.634"	"177.884"	"71.759"	"6.468"
"1961"	"1.316"	"17.39"	"32.373"	"102.11"	"174.826"	"818.785"	"892.61"	"826.966"	"214.558"	"241.368"	"7.824"	"3.995"
"1962"	"9.536"	"31.647"	"5.448"	"169.19"	"225.725"	"715.214"	"515.46"	"511.753"	"193.375"	"271.902"	"1.109"	"0.269"
"1963"	"0.086"	"1.219"	"42.663"	"74.446"	"249.01"	"605.244"	"765.919"	"502.401"	"150.821"	"260.704"	"4.609"	"1.093"
"1964"	"17.948"	"29.2"	"44.898"	"161.985"	"343.36"	"506.764"	"1016.78"	"480.412"	"371.384"	"362.05"	"46.069"	"1.511"
"1965"	"0.459"	"21.733"	"9.52"	"33.497"	"202.737"	"487.255"	"682.581"	"640.191"	"251.324"	"144.138"	"32.232"	"19.549"
"1966"	"3.036"	"0.103"	"54.293"	"55.87"	"145.401"	"676.323"	"546.292"	"715.875"	"543.407"	"208.086"	"40.839"	"103.156"
"1967"	"21.907"	"0.999"	"81.567"	"128.829"	"116.611"	"389.83"	"532.735"	"376.017"	"416.384"	"221.024"	"5.397"	"0.664"
"1968"	"12.546"	"5.435"	"69.162"	"87.907"	"301.777"	"540.626"	"593.921"	"490.053"	"131.713"	"86.482"	"7.976"	"0.183"
"1969"	"3.509"	"0.102"	"54.685"	"186.516"	"137.923"	"823.697"	"618.589"	"682.009"	"281.76"	"49.046"	"21.798"	"0.262"
"1970"	"6.318"	"44.717"	"63.107"	"126.832"	"296.517"	"548.703"	"902.95"	"483.506"	"364.173"	"443.918"	"149.095"	"3.841"
"1971"	"2.267"	"2.543"	"2.679"	"29.742"	"117.951"	"716.639"	"716.912"	"584.727"	"236.66"	"201.283"	"155.372"	"3.567"
"1972"	"0.376"	"6.176"	"20.286"	"106.991"	"193.453"	"455.378"	"371.971"	"524.259"	"83.344"	"95.59"	"17.473"	"1.237"
"1973"	"2.476"	"8.268"	"50.032"	"125.315"	"438.658"	"513.811"	"445.104"	"410.161"	"272.939"	"103.541"	"272.531"	"62.776"
"1974"	"10.4"	"0.103"	"122.257"	"113.812"	"267.994"	"786.879"	"907.683"	"536.544"	"344.984"	"152.465"	"99.257"	"0.541"
"1975"	"2.291"	"9.12"	"6.659"	"105.255"	"200.871"	"320.188"	"790.933"	"245.905"	"361.009"	"242.03"	"159.362"	"1.336"
"1976"	"2.08"	"11.417"	"38.426"	"82.727"	"222.25"	"863.151"	"1014.941"	"460.105"	"125.125"	"200.975"	"200.61"	"0.392"
"1977"	"6.417"	"50.645"	"15"	"440.902"	"319.838"	"506.563"	"536.534"	"326.719"	"214.332"	"93.241"	"15.846"	"12.489"
"1978"	"0.789"	"1.899"	"3.754"	"50.881"	"430.982"	"718.111"	"368.684"	"414.625"	"479.312"	"175.061"	"2.445"	"0.541"
"1979"	"1.247"	"5.115"	"41.413"	"46.936"	"51.43"	"532.627"	"530.466"	"439.277"	"307.078"	"104.659"	"57.266"	"68.401"
"1980"	"0.712"	"32.076"	"57.696"	"57.915"	"407.499"	"339.057"	"533.359"	"337.096"	"258.749"	"201.58"	"1.747"	"4.717"
"1981"	"38.183"	"6.073"	"101.795"	"257.293"	"371.576"	"587.719"	"690.855"	"554.851"	"182.437"	"22.888"	"17.329"	"20.892"
"1982"	"0"	"40.061"	"8.668"	"172.989"	"225.759"	"707.559"	"413.891"	"713.148"	"420.679"	"22.87"	"36.026"	"6.42"
"1983"	"11.862"	"49.353"	"114.45"	"313.276"	"212.072"	"455.877"	"666.826"	"1109.11"	"235.238"	"377.224"	"65.705"	"22.031"
"1984"	"3.943"	"1.933"	"0.539"	"36.34"	"464.812"	"965.16"	"1038.162"	"817.983"	"335.912"	"166.545"	"0.609"	"1.741"
"1985"	"0.714"	"9.484"	"76.668"	"149.72"	"248.776"	"612.606"	"784.537"	"451.187"	"224.807"	"63.363"	"15.968"	"4.207"
"1986"	"8.549"	"0.585"	"6.684"	"178.053"	"172.267"	"571.134"	"645.587"	"315.301"	"192.977"	"248.16"	"127.878"	"2.594"
"1987"	"4.683"	"29.406"	"46.299"	"251.582"	"83.385"	"280.823"	"1055.461"	"612.97"	"466.968"	"56.388"	"56.909"	"22.695"
"1988"	"0.237"	"8.959"	"74.606"	"131.944"	"449.171"	"607.947"	"580.977"	"454.621"	"377.499"	"176.256"	"77.471"	"1.845"
"1989"	"0.209"	"16.341"	"15.984"	"174.374"	"177.421"	"383.426"	"685.29"	"176.797"	"379.151"	"430.139"	"12.694"	"3"
"1990"	"0.244"	"46.734"	"107.941"	"220.629"	"232.772"	"614.294"	"867.99"	"128.199"	"208.599"	"216.172"	"72.414"	"61.396"
"1991"	"7.694"	"10.786"	"116.541"	"238.688"	"292.366"	"471.806"	"536.478"	"526.321"	"269.318"	"408.951"	"24.846"	"43.692"
"1992"	"6.127"	"26.364"	"17.183"	"44.861"	"279.139"	"439.473"	"889.296"	"508.392"	"308.389"	"163.034"	"50.344"	"24.812"
"1993"	"35.479"	"23.248"	"74.103"	"80.87"	"336.333"	"754.309"	"770.886"	"550.202"	"379.087"	"103.261"	"21.891"	"0.017"
"1994"	"11.511"	"26.254"	"187.534"	"119.72"	"201.797"	"568.542"	"590.615"	"602.553"	"185.99"	"73.362"	"31.13"	"10.842"
"1995"	"11.485"	"18.401"	"7.297"	"75.785"	"242.483"	"470.89"	"742.429"	"626.976"	"245.344"	"61.69"	"144.711"	"1.368"
"1996"	"0.069"	"38.275"	"65.186"	"203.83"	"524.246"	"515.153"	"511.481"	"587.762"	"282.716"	"217.441"	"17.544"	"1.012"
"1997"	"4.365"	"4.67"	"72.223"	"127.7"	"131.69"	"336.101"	"986.39"	"474.778"	"425.23"	"71.691"	"14.866"	"32.619"
"1998"	"8.073"	"4.898"	"73.439"	"139.347"	"331.746"	"405.486"	"831.055"	"768.694"	"188.84"	"126.083"	"143.495"	"0.017"
"1999"	"8.177"	"6.429"	"23.663"	"34.209"	"404.12"	"406.481"	"635.232"	"484.236"	"161.047"	"232.544"	"36.362"	"6.649"
"2000"	"11.752"	"26.422"	"50.801"	"249.512"	"417.932"	"279.363"	"381.876"	"607.607"	"275.147"	"152.809"	"26.431"	"8.732"
"2001"	"3.457"	"7.165"	"107.265"	"102.581"	"339.805"	"537.453"	"525.932"	"715.703"	"228.988"	"263.981"	"47.053"	"4.379"
"2002"	"17.801"	"6.994"	"35.527"	"195.256"	"260.317"	"749.551"	"712.258"	"491.19"	"291.485"	"132.576"	"59.921"	"4.036"
