
"Year"	"Jan"	"Feb"	"Mar"	"Apr"	"May"	"Jun"	"Jul"	"Aug"	"Sep"	"Oct"	"Nov"	"Dec"
"1901"	"65.419"	"54.277"	"35.827"	"20.814"	"17.293"	"94.442"	"401.067"	"432.753"	"185.95"	"11.127"	"0.562"	"0.192"
"1902"	"19.652"	"2.298"	"0.289"	"2.764"	"1.056"	"42.225"	"372.467"	"248.64"	"182.79"	"16.062"	"10.02"	"15.343"
"1903"	"9.376"	"3.342"	"1.142"	"0.574"	"35.405"	"167.985"	"497.68"	"447.34"	"271.778"	"112.112"	"0.063"	"0.2"
"1904"	"2.031"	"18.647"	"50.139"	"0"	"17.027"	"135.375"	"252.549"	"444.501"	"200.599"	"42.677"	"1.194"	"13.417"
"1905"	"14.65"	"22.396"	"18.416"	"12.001"	"16.182"	"105.922"	"346.824"	"435.831"	"474.808"	"1.416"	"0.052"	"1.892"
"1906"	"3.161"	"45.23"	"40.625"	"0"	"5.919"	"307.468"	"623.64"	"453.296"	"159.93"	"15.266"	"0.237"	"15.684"
"1907"	"1.223"	"112.375"	"10.418"	"30.041"	"2.4"	"274.787"	"288.191"	"507.53"	"79.938"	"0.402"	"16.521"	"3.429"
"1908"	"33.973"	"30.344"	"20.538"	"3.989"	"0.447"	"170.244"	"449.153"	"487.127"	"170.5"	"20.395"	"0.052"	"9.388"
"1909"	"8.537"	"14.037"	"5.74"	"44.298"	"31.577"	"183.187"	"476.648"	"271.598"	"166.947"	"0.601"	"0.052"	"48.564"
"1910"	"6.106"	"1.82"	"6.226"	"1.283"	"1.792"	"291.818"	"304.665"	"394.476"	"337.92"	"77.797"	"70.503"	"0.192"
"1911"	"24.173"	"1.933"	"21.725"	"0.202"	"1.459"	"377.817"	"119.036"	"368.872"	"268.552"	"72.168"	"40.877"	"0.2"
"1912"	"17.925"	"48.862"	"1.421"	"5.39"	"4.921"	"57.48"	"443.645"	"471.83"	"174.509"	"2.741"	"41.772"	"6.604"
"1913"	"0.212"	"66.723"	"33.039"	"0.36"	"33.58"	"269.227"	"327.125"	"532.127"	"116.541"	"14.774"	"1.359"	"26.287"
"1914"	"2.42"	"23.518"	"39.31"	"35.602"	"9.515"	"181.591"	"478.186"	"327.143"	"181.906"	"15.772"	"0.052"	"26.657"
"1915"	"47.997"	"31.562"	"49.589"	"8.67"	"10.529"	"170.934"	"392.4"	"360.71"	"277.951"	"111.294"	"21.152"	"3.391"
"1916"	"0.212"	"29.925"	"0.2"	"2.402"	"20.678"	"239.682"	"278.129"	"516.243"	"281.57"	"120.634"	"14.798"	"0.192"
"1917"	"1.822"	"88.109"	"14.619"	"3.806"	"52.247"	"209.014"	"425.887"	"380.167"	"298.33"	"110.197"	"0.107"	"1.455"
"1918"	"18.373"	"10.75"	"5.172"	"3.678"	"49.99"	"452.289"	"149.415"	"371.183"	"65.168"	"3.363"	"7.474"	"28.353"
"1919"	"115.09"	"75.469"	"29.252"	"3.244"	"21.277"	"262.386"	"378.374"	"646.339"	"208.735"	"77.443"	"50.773"	"16.925"
"1920"	"31.091"	"6.153"	"44.058"	"0.563"	"7.964"	"93.351"	"504.163"	"420.126"	"121.932"	"1.721"	"0.052"	"0.192"
"1921"	"30.818"	"6.235"	"0.2"	"1.415"	"0"	"267.02"	"490.921"	"351.305"	"358.715"	"2.66"	"0.052"	"0.192"
"1922"	"38.998"	"0.5"	"0.2"	"2.178"	"0.661"	"291.145"	"305.348"	"371.64"	"288.894"	"16.866"	"66.084"	"1.844"
"1923"	"0.931"	"21.46"	"46.024"	"9.896"	"1.459"	"76.852"	"545.331"	"516.147"	"283.039"	"8.628"	"2.957"	"0.657"
"1924"	"73.649"	"19.939"	"25.124"	"4.909"	"2.92"	"31.172"	"419.657"	"332.27"	"176.601"	"37.427"	"15.007"	"20.212"
"1925"	"0.212"	"1.408"	"1.753"	"0.404"	"23.104"	"153.998"	"357.525"	"609.303"	"148.983"	"8.04"	"39.911"	"0.192"
"1926"	"18.988"	"5.029"	"92.799"	"19.933"	"55.872"	"63.548"	"422.411"	"652.017"	"355.661"	"126.12"	"5.102"	"8.765"
"1927"	"16.519"	"29.889"	"41.32"	"0.066"	"1.561"	"213.126"	"564.28"	"350.687"	"69.288"	"92.441"	"57.397"	"13.961"
"1928"	"13.094"	"53.049"	"9.545"	"2.741"	"9.534"	"162.593"	"667.02"	"206.271"	"130.69"	"136.728"	"0.052"	"29.334"
"1929"	"34.405"	"37.919"	"1.236"	"3.795"	"1.642"	"145.733"	"785.431"	"409.829"	"281.013"	"47.626"	"0.052"	"54.633"
"1930"	"1.717"	"1.653"	"4.027"	"17.899"	"12.715"	"203.801"	"421.968"	"283.238"	"153.534"	"62.284"	"14.916"	"8.159"
"1931"	"4.424"	"41.485"	"29.123"	"4.482"	"9.381"	"80.018"	"608.388"	"435.796"	"232.342"	"168.592"	"19.7"	"6.909"
"1932"	"0.212"	"33.69"	"17.883"	"2.385"	"11.455"	"164.119"	"557.565"	"237.215"	"261.082"	"18.518"	"18.49"	"1.041"
"1933"	"0.692"	"12.226"	"30.245"	"43.235"	"46.047"	"185.221"	"437.866"	"499.974"	"200.61"	"94.849"	"1.892"	"8.763"
"1934"	"16.389"	"1.322"	"6.622"	"4.355"	"0.008"	"234.287"	"412.747"	"586.584"	"281.611"	"39.351"	"58.259"	"9.331"
"1935"	"7.177"	"11.677"	"1.023"	"16.756"	"1.593"	"171.152"	"487.992"	"348.776"	"209.654"	"6.55"	"0.052"	"1.368"
"1936"	"4.508"	"53.546"	"39.192"	"5.613"	"19.726"	"268.055"	"346.575"	"366.135"	"229.695"	"91.8"	"21.267"	"11.066"
"1937"	"0.212"	"72.634"	"41.822"	"43.434"	"4.723"	"271.549"	"533.444"	"238.257"	"195.549"	"107.251"	"0.052"	"0.192"
"1938"	"28.749"	"19.06"	"2.799"	"8.515"	"15.823"	"346.373"	"381.184"	"460.165"	"186.116"	"127.44"	"1.194"	"0.192"
"1939"	"13.733"	"16.904"	"69.479"	"14.99"	"0.035"	"123.831"	"437.35"	"620.964"	"107.006"	"35.704"	"0.845"	"0.332"
"1940"	"0.51"	"27.511"	"30.078"	"16.036"	"7.641"	"126.888"	"700.288"	"478.665"	"91.85"	"60.812"	"18.846"	"17.219"
"1941"	"41.734"	"34.353"	"22.34"	"3.178"	"6.747"	"217.756"	"277.752"	"354.677"	"98.868"	"8.22"	"1.62"	"0.192"
"1942"	"28.027"	"102.055"	"7.311"	"13.84"	"1.262"	"130.105"	"575.482"	"386.401"	"216.805"	"25.299"	"0.218"	"5.154"
"1943"	"91.577"	"2.766"	"0.49"	"7.545"	"27.429"	"104.457"	"401.342"	"465.105"	"335.062"	"134.628"	"4.215"	"0.192"
"1944"	"30.244"	"111.394"	"92.541"	"2.225"	"2.009"	"158.006"	"708.27"	"587.793"	"223.443"	"109.296"	"1.437"	"0.448"
"1945"	"78.6"	"6.928"	"0.2"	"15.586"	"11.086"	"266.753"	"639.927"	"236.958"	"239.947"	"55.965"	"1.429"	"4.932"
"1946"	"0.212"	"34.864"	"5.386"	"15.699"	"16.776"	"270.599"	"420.364"	"347.207"	"137.995"	"28.287"	"34.298"	"3.164"
"1947"	"79.833"	"34.333"	"53.107"	"5.708"	"0.606"	"82.375"	"639.951"	"460.597"	"363.232"	"13.292"	"1.417"	"6.515"
"1948"	"50.229"	"11.483"	"30.55"	"7.354"	"4.323"	"275.559"	"336.253"	"468.726"	"278.198"	"36.274"	"97.951"	"1.041"
"1949"	"0.212"	"29.091"	"3.888"	"5.823"	"46.386"	"249.403"	"389.528"	"564.689"	"332.337"	"202.016"	"0.052"	"0.192"
"1950"	"7.829"	"67.208"	"44.056"	"2.316"	"5.162"	"127.089"	"541.31"	"185.322"	"159.024"	"2.359"	"3.99"	"13.783"
"1951"	"16.338"	"7.983"	"43.728"	"9.349"	"20.504"	"149.071"	"446.765"	"334.038"	"177.469"	"78.898"	"0.138"	"0.192"
"1952"	"0.321"	"32.726"	"26.379"	"5.409"	"10.456"	"131.017"	"217.024"	"316.015"	"171.451"	"14.309"	"0.052"	"5.375"
"1953"	"21.353"	"2.085"	"0.2"	"16.222"	"0.42"	"80.95"	"488.094"	"419.189"	"253.4"	"23.548"	"0.299"	"0.837"
"1954"	"6.257"	"5.606"	"10.473"	"1.402"	"3.964"	"159.124"	"437.599"	"382.409"	"307.443"	"7.232"	"0.052"	"0.496"
"1955"	"48.251"	"4.55"	"13.204"	"5.636"	"3.251"	"130.431"	"489.508"	"675.521"	"407.736"	"140.317"	"0.396"	"0.248"
"1956"	"12.284"	"5.706"	"2.568"	"0.584"	"45.418"	"259.021"	"656.341"	"316.943"	"283.681"	"36.448"	"88.381"	"18.843"
"1957"	"9.799"	"0.77"	"43.992"	"37.102"	"5.304"	"192.995"	"505.353"	"330.395"	"156.161"	"12.054"	"0.052"	"9.158"
"1958"	"15.385"	"25.482"	"20.942"	"12.426"	"1.116"	"79.985"	"502.006"	"387.35"	"237.244"	"91.939"	"44.271"	"0.448"
"1959"	"26.99"	"25.346"	"0.2"	"16.784"	"54.293"	"166.455"	"346.809"	"419.094"	"250.731"	"62.929"	"0.052"	"0.792"
"1960"	"46.535"	"0.264"	"11.989"	"15.278"	"19.433"	"206.578"	"542.336"	"379.173"	"94.204"	"101.551"	"0.052"	"0.192"
"1961"	"29.992"	"38.787"	"9.981"	"4.125"	"16.224"	"59.451"	"526.141"	"541.722"	"423.48"	"82.45"	"8.73"	"44.02"
"1962"	"10.541"	"51.536"	"34.088"	"9.676"	"14.871"	"104.957"	"321.201"	"426.921"	"294.096"	"7.113"	"20.591"	"96.794"
"1963"	"7.442"	"25.724"	"22.198"	"14.445"	"14.526"	"144.073"	"424.866"	"399.927"	"305.596"	"77.982"	"0.921"	"0.448"
"1964"	"0.212"	"37.347"	"13"	"4.952"	"3.418"	"149.052"	"446.994"	"550.169"	"149.351"	"26.877"	"8.409"	"0.192"
"1965"	"15.722"	"0.294"	"36.547"	"10.72"	"5.546"	"155.927"	"310.02"	"250.757"	"224.012"	"7.028"	"0.052"	"2.959"
"1966"	"35.113"	"1.171"	"18.458"	"5.588"	"35.186"	"251.037"	"356.997"	"268.553"	"106.861"	"10.356"	"42.328"	"21.804"
"1967"	"1.092"	"0.264"	"63.394"	"7.201"	"14.096"	"197.135"	"438.021"	"608.238"	"176.06"	"4.181"	"0.052"	"136.072"
"1968"	"37.101"	"24.598"	"26.161"	"16.486"	"0.661"	"156.066"	"379.584"	"435.943"	"343.115"	"23.839"	"0.815"	"2.954"
"1969"	"3.814"	"1.314"	"10.098"	"1.279"	"13.099"	"108.808"	"672.77"	"461.111"	"213.954"	"2.629"	"9.471"	"11.823"
"1970"	"37.909"	"36.738"	"34.034"	"1.212"	"27.736"	"212.179"	"520.499"	"640.066"	"277.029"	"7.032"	"0.052"	"0.192"
"1971"	"17.28"	"14.644"	"16.622"	"8.288"	"8.996"	"361.379"	"286.557"	"463.532"	"172.399"	"128.174"	"0.052"	"0.192"
"1972"	"9.071"	"31.141"	"0.31"	"8.295"	"0.374"	"101.528"	"288.181"	"563.225"	"118.137"	"30.105"	"22.689"	"3.922"
"1973"	"3.695"	"28.906"	"0.928"	"1.853"	"0.232"	"86.797"	"677.689"	"495.31"	"242.663"	"46.959"	"0.455"	"1.079"
"1974"	"0.212"	"4.005"	"3.547"	"0.935"	"5.91"	"160.08"	"413.859"	"405.528"	"119.968"	"161.146"	"2.76"	"0.192"
"1975"	"15.286"	"45.487"	"37.276"	"0.667"	"1.861"	"268.862"	"350.839"	"341.354"	"227.264"	"66.843"	"0.45"	"0.192"
"1976"	"14.499"	"1.795"	"12.644"	"37.124"	"21.184"	"79.563"	"370.196"	"495.207"	"328.448"	"0.394"	"44.44"	"0.635"
"1977"	"9.639"	"5.839"	"11.293"	"7.869"	"28.849"	"299.89"	"414.771"	"390.467"	"261.091"	"32.65"	"66.973"	"56.734"
"1978"	"37.91"	"75.367"	"45.889"	"31.929"	"9.856"	"257.896"	"292.076"	"464.262"	"136.932"	"22.732"	"9.331"	"57.845"
"1979"	"63.953"	"43.912"	"0.2"	"2.087"	"9.244"	"129.852"	"376.508"	"497.062"	"199.118"	"38.02"	"36.248"	"7.504"
"1980"	"1.559"	"8.81"	"4.343"	"1.024"	"1.257"	"256.512"	"279.52"	"500.626"	"74.663"	"6.757"	"0.052"	"26.302"
"1981"	"22.165"	"2.371"	"49.277"	"8.353"	"13.766"	"140.662"	"495.11"	"326.469"	"344.09"	"9.197"	"7.298"	"35.496"
"1982"	"56.103"	"17.852"	"32.829"	"2.691"	"12.33"	"165.069"	"390.008"	"447.003"	"264.217"	"24.477"	"23.731"	"5.694"
"1983"	"4.029"	"11.246"	"3.354"	"5.504"	"10.736"	"171.822"	"337.612"	"451.218"	"270.57"	"51.316"	"0.42"	"10.091"
"1984"	"59.366"	"52.643"	"0.877"	"5.897"	"1.294"	"229.734"	"419.07"	"324.458"	"101.596"	"17.741"	"0.052"	"0.192"
"1985"	"32.547"	"5.31"	"0.203"	"9.969"	"7.312"	"165.579"	"477.369"	"487.014"	"137.243"	"191.741"	"0.052"	"2.819"
"1986"	"40.997"	"63.061"	"1.401"	"0.92"	"23.372"	"182.178"	"295.011"	"479.634"	"153.525"	"5.858"	"11.77"	"60.309"
"1987"	"17.857"	"17.599"	"29.938"	"0.027"	"10.076"	"94.137"	"293.539"	"481.5"	"105.3"	"61.384"	"51.383"	"15.277"
"1988"	"5.42"	"4.561"	"24.964"	"16.835"	"3.902"	"215.426"	"289.589"	"412.469"	"245.051"	"25.862"	"17.429"	"15.564"
"1989"	"0.464"	"0.264"	"64.336"	"0.214"	"4.291"	"193.171"	"337.997"	"326.689"	"112.42"	"15.481"	"5.129"	"50.241"
"1990"	"1.216"	"34.927"	"18.847"	"3.435"	"40.504"	"402.302"	"441.773"	"520.975"	"155"	"48.82"	"0.083"	"22.585"
"1991"	"31.389"	"12.181"	"12.39"	"10.351"	"2.705"	"202.188"	"372.847"	"412.088"	"82.025"	"3.001"	"5.271"	"35.619"
"1992"	"16.344"	"11.969"	"0.2"	"5.561"	"6.554"	"73.605"	"212.638"	"404.574"	"281.042"	"47.769"	"5.272"	"0.192"
"1993"	"3.421"	"24.606"	"58.503"	"1.288"	"17.736"	"148.469"	"420.647"	"278.222"	"279.087"	"46.562"	"0.052"	"1.595"
"1994"	"58.696"	"75.203"	"48.126"	"8.729"	"2.773"	"282.106"	"763.097"	"492.129"	"283.995"	"99.614"	"0.071"	"0.192"
"1995"	"55.021"	"12.725"	"93.212"	"8.613"	"3.802"	"150.832"	"435.461"	"397.937"	"269.634"	"18.842"	"10.159"	"15.338"
"1996"	"22.767"	"23.997"	"5.237"	"31.067"	"0.465"	"139.079"	"347.812"	"426.436"	"152.215"	"72.138"	"16.191"	"0.192"
"1997"	"32.395"	"0.264"	"1.667"	"6.425"	"11.361"	"104.479"	"244.708"	"345.685"	"240.594"	"58.297"	"65.384"	"93.445"
"1998"	"25.663"	"52.442"	"49.837"	"6.234"	"19.175"	"118.679"	"309.514"	"481.339"	"220.739"	"45.82"	"69.937"	"0.192"
"1999"	"21.65"	"44.051"	"0.2"	"0"	"24.391"	"95.643"	"406.308"	"454.048"	"261.769"	"74.63"	"0.052"	"0.192"
"2000"	"3.61"	"26.458"	"0.2"	"1.183"	"23.999"	"178.664"	"449.292"	"202.871"	"175.846"	"7.947"	"0.052"	"0.192"
"2001"	"5.466"	"0.994"	"28.29"	"16.424"	"18.457"	"242.684"	"341.924"	"410.28"	"114.167"	"116.319"	"3.414"	"0.192"
"2002"	"34.99"	"28.488"	"1.327"	"4.322"	"17.875"	"253.456"	"163.558"	"458.201"	"164.054"	"53.419"	"10.288"	"3.446"
