
"Year"	"Jan"	"Feb"	"Mar"	"Apr"	"May"	"Jun"	"Jul"	"Aug"	"Sep"	"Oct"	"Nov"	"Dec"
"1901"	"96.897"	"37.8"	"12.501"	"2.478"	"4.785"	"24.04"	"200.39"	"319.91"	"243.951"	"4.589"	"1.127"	"0"
"1902"	"18.253"	"4.725"	"0.434"	"1.547"	"8.087"	"31.52"	"401.329"	"210.992"	"280.623"	"2.145"	"2.431"	"0.258"
"1903"	"3.634"	"3.612"	"1.488"	"0.991"	"10.129"	"52.096"	"128.253"	"374.133"	"166.617"	"63.185"	"0"	"0"
"1904"	"7.879"	"4.325"	"26.454"	"0.212"	"32.448"	"54.724"	"315.489"	"513.326"	"78.136"	"84.676"	"10.77"	"15.405"
"1905"	"20.283"	"12.761"	"31.834"	"3.521"	"3.542"	"19.791"	"328.105"	"295.065"	"266.493"	"1.61"	"0"	"1.039"
"1906"	"9.556"	"41.321"	"16.323"	"0.013"	"7.397"	"103.903"	"391.459"	"250.298"	"179.753"	"16.564"	"0.428"	"1.474"
"1907"	"0.316"	"98.72"	"18.449"	"18.018"	"3.483"	"147.25"	"201.517"	"382.076"	"55.226"	"0.624"	"1.16"	"1.062"
"1908"	"20.063"	"37.068"	"4.169"	"0.314"	"0.492"	"20.424"	"328.53"	"437.52"	"67.237"	"31.177"	"0"	"0.907"
"1909"	"5.067"	"7.28"	"0.387"	"23.782"	"3.794"	"291.778"	"504.05"	"172.321"	"166.377"	"0.371"	"0"	"17.634"
"1910"	"15.858"	"3.955"	"9.724"	"1.513"	"10.292"	"122.846"	"174.227"	"301.568"	"232.093"	"38.175"	"80.228"	"0"
"1911"	"24.155"	"0.226"	"54.663"	"2.382"	"2.383"	"219.88"	"71.95"	"284.397"	"310.01"	"92.621"	"67.471"	"0"
"1912"	"2.399"	"6.491"	"7"	"2.444"	"7.609"	"49.845"	"295.802"	"305.984"	"96.553"	"1.356"	"38.083"	"0.632"
"1913"	"0.226"	"66.794"	"42.228"	"0.02"	"25.012"	"196.547"	"223.972"	"306.838"	"97.416"	"18.984"	"2.93"	"16.969"
"1914"	"7.462"	"12.39"	"25.334"	"11.899"	"34.864"	"58.954"	"409.77"	"333.4"	"108.893"	"2.506"	"0"	"2.643"
"1915"	"21.199"	"62.254"	"54.367"	"4.853"	"3.793"	"68.678"	"318.791"	"298.703"	"275.794"	"71.494"	"24.126"	"2.256"
"1916"	"0.226"	"29.085"	"0"	"0.697"	"3.03"	"174.196"	"321.787"	"445.949"	"168.965"	"69.694"	"9.7"	"0"
"1917"	"6.065"	"61.76"	"24.902"	"1.04"	"46.155"	"190.357"	"283.476"	"404.638"	"201.362"	"74.823"	"0"	"6.296"
"1918"	"0.226"	"0.962"	"3.268"	"0.878"	"7.754"	"294.739"	"70.439"	"405.381"	"114.4"	"0.356"	"1.451"	"0.694"
"1919"	"82.383"	"20.116"	"10.168"	"4.634"	"13.54"	"115.938"	"309.466"	"445.368"	"165.306"	"52.747"	"3.778"	"1.198"
"1920"	"0.226"	"18.522"	"33.967"	"0"	"8.925"	"40.923"	"653.926"	"260.09"	"77.015"	"1.364"	"0"	"0"
"1921"	"74.498"	"8.906"	"0.013"	"0.409"	"0"	"187.753"	"248.767"	"401.094"	"141.28"	"3.536"	"0"	"0"
"1922"	"36.196"	"4.311"	"0"	"3.468"	"0.013"	"111.1"	"419.475"	"405.945"	"313.38"	"17.153"	"11.766"	"9.216"
"1923"	"0.809"	"39.011"	"2.396"	"0.636"	"0.296"	"47.647"	"344.264"	"520.822"	"207.423"	"27.64"	"5.534"	"3.078"
"1924"	"25.403"	"12.4"	"1.755"	"4.191"	"2.24"	"33.534"	"402.606"	"327.182"	"199.79"	"34.38"	"26.999"	"2.693"
"1925"	"1.969"	"2.408"	"2.666"	"0.089"	"25.233"	"112.093"	"592.087"	"355.634"	"311.624"	"2.481"	"36.81"	"0"
"1926"	"8.286"	"1.455"	"77.982"	"6.706"	"23.214"	"17.444"	"279.016"	"297.54"	"271.184"	"32.713"	"4.394"	"5.919"
"1927"	"17.05"	"40.458"	"43.629"	"0.253"	"4.133"	"44.845"	"473.649"	"291.768"	"157.979"	"40.423"	"57.52"	"0.841"
"1928"	"25.963"	"32.894"	"0.874"	"11.345"	"7.034"	"61.272"	"343.057"	"116.367"	"78.639"	"83.122"	"0"	"14.342"
"1929"	"84.565"	"7.228"	"1.619"	"1.295"	"2.735"	"68.671"	"526.336"	"371.383"	"96.685"	"81.727"	"0"	"25.509"
"1930"	"8.849"	"18.848"	"3.544"	"3.851"	"2.825"	"62.562"	"427.378"	"230.897"	"171.65"	"15.371"	"34.32"	"14.62"
"1931"	"1.24"	"48.637"	"10.309"	"0.195"	"2.717"	"73.088"	"326.442"	"319.2"	"262.6"	"83.949"	"11.879"	"1.518"
"1932"	"0.226"	"14.885"	"1.107"	"0.31"	"10.246"	"51.755"	"316.998"	"394.59"	"125.64"	"22.821"	"17.145"	"0.964"
"1933"	"14"	"32.322"	"10.161"	"24.635"	"33.975"	"143.435"	"192.962"	"340.26"	"119.206"	"47.179"	"0.238"	"0.351"
"1934"	"28.768"	"2.69"	"22.169"	"1.708"	"0.082"	"110.336"	"238.19"	"362.085"	"211.97"	"13.64"	"25.95"	"2.071"
"1935"	"11.653"	"20.412"	"1.145"	"5.581"	"0.433"	"141.113"	"355.522"	"474.47"	"209.639"	"0.825"	"0"	"6.257"
"1936"	"6.341"	"54.468"	"13.482"	"0.78"	"14.311"	"209.992"	"417.768"	"328.869"	"293.685"	"42.9"	"3.861"	"18.2"
"1937"	"0.226"	"56.946"	"11.177"	"7.499"	"5.968"	"83.483"	"384.171"	"315.376"	"193.691"	"65.706"	"0"	"0"
"1938"	"59.695"	"15.919"	"0.13"	"3.972"	"11.562"	"235.75"	"318.871"	"331.598"	"288.071"	"39.34"	"0"	"0"
"1939"	"23.791"	"17.733"	"9.78"	"5.661"	"0.165"	"175.588"	"377.278"	"378.527"	"274.932"	"17.876"	"0"	"0"
"1940"	"1.516"	"29.875"	"67.776"	"5.36"	"8.937"	"66.556"	"227.134"	"415.388"	"157.445"	"6.75"	"1.239"	"5.823"
"1941"	"39.838"	"8.044"	"6.514"	"0.171"	"9.425"	"130.019"	"206.672"	"286.536"	"160.459"	"13.701"	"1.678"	"0"
"1942"	"80.787"	"56.961"	"10.506"	"5.077"	"0.171"	"99.201"	"314.981"	"386.836"	"258.119"	"2.649"	"0"	"8.089"
"1943"	"22.571"	"6.792"	"0.794"	"14.387"	"9.412"	"26.789"	"316.195"	"624.179"	"251.038"	"21.545"	"0.258"	"0"
"1944"	"28.154"	"53.126"	"72.769"	"4.286"	"2.486"	"41.588"	"414.016"	"578.64"	"70.388"	"35.733"	"0.053"	"1.772"
"1945"	"45.831"	"13.218"	"0.082"	"7.279"	"6.936"	"105.107"	"233.074"	"265.217"	"187.261"	"46.086"	"0"	"16.569"
"1946"	"0.226"	"36.442"	"7.896"	"4.944"	"7.694"	"188.922"	"370.402"	"453.882"	"151.323"	"35.654"	"35.513"	"4.581"
"1947"	"20.265"	"15.226"	"19.716"	"1.892"	"1.311"	"64.912"	"394.803"	"286.413"	"212.005"	"21.614"	"5.078"	"1.781"
"1948"	"21.607"	"14.68"	"5.012"	"0.551"	"5.218"	"257.094"	"406.432"	"447.637"	"240.085"	"27.408"	"58.895"	"0.69"
"1949"	"1.1"	"36.991"	"6.065"	"1.323"	"15.944"	"38.862"	"327.013"	"515.548"	"120.194"	"88.008"	"0.326"	"0"
"1950"	"23.713"	"17.199"	"66.535"	"0.292"	"0.695"	"112.223"	"343.922"	"449.692"	"88.79"	"3.493"	"0.478"	"15.313"
"1951"	"17.985"	"16.365"	"50.093"	"9.519"	"2.717"	"170.291"	"216.81"	"402.618"	"185.756"	"22.059"	"1.224"	"0"
"1952"	"1.243"	"22.124"	"46.35"	"1.119"	"5.7"	"193.414"	"171.7"	"315.743"	"163.997"	"11.097"	"0"	"1.384"
"1953"	"38.243"	"26.147"	"0.013"	"3.408"	"0.369"	"155.95"	"374.479"	"368.111"	"211.349"	"2.501"	"0"	"4.191"
"1954"	"20.78"	"20.086"	"5.628"	"0.082"	"2.127"	"101.623"	"222.608"	"308.838"	"236.824"	"12.151"	"0"	"0.348"
"1955"	"50.473"	"28.268"	"3.04"	"0.433"	"1.825"	"87.175"	"419.17"	"246.072"	"121.621"	"86.571"	"0.428"	"0.669"
"1956"	"42.456"	"25.901"	"13.413"	"0.178"	"20.252"	"246.796"	"288.188"	"385.05"	"373.916"	"72.635"	"68.8"	"7.348"
"1957"	"26.911"	"1.399"	"44.253"	"2.817"	"1.254"	"94.343"	"356.092"	"333.599"	"138.215"	"0.56"	"0"	"0.959"
"1958"	"37.38"	"10.931"	"48.104"	"3.883"	"0"	"52.366"	"336.239"	"290.459"	"175"	"56.293"	"3.017"	"1.772"
"1959"	"74.455"	"7.494"	"0"	"0.836"	"32.539"	"29.446"	"248.853"	"359.799"	"109.171"	"126.948"	"0"	"0"
"1960"	"15.108"	"0.2"	"22.563"	"3.119"	"2.247"	"72.832"	"438.675"	"502.399"	"102.657"	"39.957"	"0"	"0"
"1961"	"43.679"	"27.933"	"0.334"	"0.182"	"4.67"	"115.738"	"280.06"	"449.917"	"223.638"	"56.262"	"3.448"	"7.309"
"1962"	"23.192"	"15.714"	"10.085"	"9.107"	"3.786"	"62.665"	"313.793"	"309.199"	"323.107"	"5.831"	"1.418"	"6.263"
"1963"	"24.478"	"13.006"	"25.382"	"6.287"	"26.515"	"103.672"	"477.714"	"411.093"	"192.078"	"19.323"	"7.852"	"1.772"
"1964"	"0.28"	"11.226"	"6.622"	"5.753"	"8.995"	"106.849"	"339.529"	"380.745"	"225.774"	"21.631"	"18.001"	"0"
"1965"	"5.351"	"0.743"	"28.395"	"17.952"	"3.653"	"26.894"	"244.791"	"169.488"	"165.373"	"25.951"	"0.342"	"4.142"
"1966"	"26.368"	"8.765"	"0.952"	"0.262"	"3.425"	"311.571"	"110.89"	"151.381"	"36.442"	"1.518"	"57.634"	"15.929"
"1967"	"16.479"	"0.2"	"48.768"	"4.146"	"3.673"	"71.929"	"296.619"	"581.308"	"235.963"	"3.517"	"0"	"27.204"
"1968"	"36.35"	"10.14"	"5.572"	"0.866"	"0.089"	"81.628"	"205.502"	"212.215"	"70.218"	"15.441"	"0"	"5.212"
"1969"	"3.351"	"6.417"	"0.604"	"1.707"	"31.998"	"51.961"	"521.834"	"270.548"	"161.568"	"0.913"	"22.916"	"0"
"1970"	"41.585"	"59.446"	"6.749"	"0.013"	"35.204"	"150.94"	"325.956"	"268.328"	"573.153"	"32.066"	"0"	"0"
"1971"	"27.125"	"12.354"	"5.302"	"19.484"	"48.976"	"324.679"	"303.919"	"517.826"	"179.418"	"80.496"	"0"	"0"
"1972"	"29.805"	"60.108"	"0.611"	"6.582"	"0.13"	"17.285"	"175.413"	"355.43"	"129.737"	"100.239"	"35.675"	"0.769"
"1973"	"22.901"	"0.964"	"0.515"	"0.317"	"0.537"	"58.546"	"374.412"	"454.819"	"187.26"	"87.114"	"1.194"	"0"
"1974"	"2.187"	"2.682"	"0.257"	"0.02"	"5.38"	"54.391"	"449.771"	"242.297"	"82.008"	"33.941"	"3.623"	"0.117"
"1975"	"22.169"	"11.797"	"30.603"	"2.858"	"2.976"	"165.752"	"393.839"	"185.423"	"139.231"	"39.715"	"2.69"	"0"
"1976"	"36.041"	"4.014"	"0.727"	"8.811"	"6.169"	"31.661"	"272.467"	"174.92"	"413.864"	"0.31"	"4.917"	"0"
"1977"	"25.409"	"18.197"	"0.612"	"11.518"	"32.098"	"137.911"	"445.225"	"271.606"	"186.512"	"58.656"	"28.873"	"9.206"
"1978"	"34.319"	"83.039"	"29.932"	"11.068"	"1.545"	"253.275"	"168.327"	"298.575"	"344.514"	"21.531"	"0.535"	"14.061"
"1979"	"33.808"	"13.38"	"0.089"	"4.987"	"0.531"	"154.436"	"281.919"	"172.01"	"87.487"	"3.93"	"76.175"	"4.037"
"1980"	"17.186"	"7.976"	"7.731"	"0.125"	"3.263"	"229.205"	"450.141"	"523.743"	"147.891"	"10.177"	"0"	"12.105"
"1981"	"24.915"	"4.94"	"20.33"	"1.547"	"10.796"	"120.102"	"434.876"	"352.905"	"167.354"	"0.514"	"22.081"	"5.074"
"1982"	"79.872"	"16.504"	"49.885"	"4.464"	"31.264"	"107.496"	"222.743"	"404.067"	"412.851"	"3.458"	"50.394"	"5.448"
"1983"	"9.012"	"6.193"	"4.169"	"12.033"	"35.539"	"109.593"	"277.656"	"194.583"	"135.42"	"48.294"	"0.106"	"2.578"
"1984"	"52.944"	"40.95"	"0.343"	"9.535"	"1.433"	"205.3"	"227.558"	"239.566"	"197.896"	"27.014"	"0"	"0"
"1985"	"32.464"	"1.601"	"0.013"	"7.861"	"2.131"	"72.1"	"320.256"	"312.142"	"191.673"	"79.925"	"0"	"1.159"
"1986"	"29.668"	"45.803"	"0.906"	"1.873"	"44.032"	"81.377"	"260.062"	"395.715"	"173.013"	"5.335"	"4.751"	"17.869"
"1987"	"22.445"	"16.366"	"16.499"	"0.272"	"7.85"	"19.002"	"168.054"	"311.062"	"229.212"	"64.158"	"13.683"	"4.569"
"1988"	"14.866"	"10.214"	"30.63"	"1.869"	"13.122"	"187.748"	"245.507"	"254.071"	"114.259"	"16.184"	"1.111"	"13.278"
"1989"	"3.421"	"0.972"	"11.271"	"0.484"	"11.181"	"144.297"	"319.397"	"194.258"	"139.183"	"27.082"	"17.468"	"25.426"
"1990"	"0.226"	"36.527"	"9.112"	"6.583"	"23.104"	"269.229"	"431.119"	"310.37"	"225.461"	"17.928"	"0"	"2.338"
"1991"	"22.917"	"13.162"	"21.675"	"7.474"	"7.103"	"133.147"	"143.028"	"244.381"	"141.834"	"2.036"	"1.411"	"29.387"
"1992"	"41.323"	"8.482"	"0.082"	"3.366"	"9.95"	"28.63"	"108.82"	"143.22"	"157.481"	"58.538"	"14.329"	"0"
"1993"	"11.068"	"2.4"	"12.979"	"0.665"	"20.964"	"31.131"	"123.151"	"170.394"	"256.973"	"36.955"	"0.147"	"0"
"1994"	"79.018"	"26.077"	"37.705"	"6.701"	"1.704"	"258.338"	"339.768"	"331.067"	"134.452"	"38.38"	"0"	"0"
"1995"	"33.457"	"24.079"	"23.344"	"5.327"	"4.804"	"39.01"	"241.413"	"257.039"	"180.174"	"3.195"	"25.907"	"12.545"
"1996"	"52.115"	"22.137"	"0.711"	"0.899"	"1.514"	"236.637"	"253.224"	"344.689"	"122.361"	"86.768"	"1.031"	"0"
"1997"	"26.011"	"0.255"	"2.415"	"6.27"	"22.36"	"89.784"	"102.861"	"286.755"	"187.524"	"18.45"	"37.368"	"19.765"
"1998"	"8.568"	"8.805"	"17.784"	"5.1"	"37.562"	"85.685"	"282.396"	"360.969"	"178.469"	"44.341"	"19.574"	"0"
"1999"	"52.497"	"40.087"	"0"	"0"	"19.895"	"37.128"	"391.532"	"240.188"	"191.19"	"27.947"	"0"	"0.615"
"2000"	"11.769"	"14.699"	"0.117"	"2.447"	"10.411"	"119.205"	"202.087"	"144.093"	"287.889"	"0.56"	"0"	"0"
"2001"	"3.988"	"1.884"	"22.306"	"5.873"	"6.511"	"99.095"	"223.052"	"261.537"	"87.849"	"63.919"	"7.321"	"0"
"2002"	"42.281"	"19.224"	"2.959"	"1.287"	"3.015"	"43.018"	"120.269"	"295.663"	"168.356"	"72.944"	"20.412"	"2.645"
