
"Year"	"Jan"	"Feb"	"Mar"	"Apr"	"May"	"Jun"	"Jul"	"Aug"	"Sep"	"Oct"	"Nov"	"Dec"
"1901"	"10.319"	"2.892"	"9.213"	"1.982"	"18.415"	"9.429"	"114.964"	"57.352"	"0.871"	"0"	"0"	"0.105"
"1902"	"0"	"0.2"	"4.487"	"3.417"	"8.502"	"29.483"	"44.952"	"51.067"	"34.752"	"1.674"	"0"	"0"
"1903"	"4.249"	"0.4"	"3.896"	"0.2"	"8.854"	"6.288"	"83.834"	"68.699"	"38.191"	"0.78"	"0"	"6.108"
"1904"	"10.207"	"0.029"	"48.005"	"4.155"	"4.609"	"20.142"	"19.593"	"41.773"	"31.903"	"0.675"	"4.945"	"8.298"
"1905"	"19.007"	"11.92"	"3.956"	"1.773"	"0.424"	"8.874"	"39.445"	"0.84"	"97.094"	"1.499"	"0"	"6.989"
"1906"	"0"	"75.311"	"18.572"	"1.523"	"1.809"	"22.41"	"41.137"	"64.713"	"102.256"	"0"	"0"	"12.583"
"1907"	"4.359"	"26.7"	"8.298"	"26.56"	"2.645"	"21.368"	"61.588"	"92.745"	"0.373"	"0.649"	"0.021"	"0"
"1908"	"14.448"	"1.407"	"0.029"	"19.115"	"2.245"	"22.507"	"137.332"	"249.449"	"30.855"	"0.227"	"0"	"2.883"
"1909"	"4.203"	"10.331"	"0.029"	"44.614"	"4.002"	"66.502"	"159.337"	"95.676"	"94.887"	"0"	"0"	"33.999"
"1910"	"8.84"	"1.547"	"0.509"	"13.773"	"0.873"	"48.724"	"53.74"	"123.428"	"12.181"	"0.895"	"0"	"1.564"
"1911"	"17.185"	"1.245"	"54.839"	"6.322"	"5.793"	"33.992"	"15.259"	"39.252"	"14.654"	"3.072"	"10.275"	"0"
"1912"	"14.381"	"2.24"	"2.879"	"20.796"	"2.793"	"14.765"	"35.934"	"97.128"	"10.297"	"1.62"	"1.97"	"1.726"
"1913"	"0.27"	"18.415"	"11.226"	"3.119"	"38.302"	"37.784"	"78.543"	"75.43"	"8.586"	"0.435"	"2.22"	"7.054"
"1914"	"12.1"	"12.619"	"2.94"	"16.415"	"13.663"	"29.064"	"156.575"	"37.802"	"68.486"	"8.964"	"5.345"	"6.813"
"1915"	"7.355"	"44.898"	"20.74"	"7.808"	"0.129"	"16.356"	"23.269"	"15.765"	"29.703"	"10.942"	"0"	"1.511"
"1916"	"0.534"	"7.678"	"2.093"	"12.919"	"14.854"	"24.283"	"197.962"	"101.748"	"32.214"	"7.605"	"0.196"	"0"
"1917"	"4.05"	"1.122"	"2.978"	"38.087"	"30.769"	"37.197"	"56.448"	"153.26"	"136.523"	"8.859"	"0"	"4.006"
"1918"	"1.309"	"0.943"	"16.195"	"18.526"	"0.251"	"23.098"	"4.935"	"55.806"	"6.141"	"0"	"1.001"	"6.996"
"1919"	"23.366"	"10.184"	"3.594"	"17.295"	"10.143"	"0.296"	"104.096"	"122.762"	"58.156"	"0"	"1.691"	"8.944"
"1920"	"6.246"	"6.891"	"6.181"	"18.15"	"11.481"	"37.576"	"71.378"	"59.638"	"2.475"	"0"	"0"	"0"
"1921"	"1.686"	"0.029"	"0.029"	"1.994"	"1.49"	"18.327"	"166.396"	"100.72"	"36.731"	"2.116"	"0"	"5.831"
"1922"	"4.079"	"2.943"	"1.627"	"7.525"	"2.6"	"23.681"	"61.305"	"28.195"	"116.899"	"1.516"	"0"	"19.213"
"1923"	"11.453"	"18.532"	"2.869"	"17.183"	"19.342"	"8.969"	"80.18"	"102.375"	"2.55"	"2.097"	"0"	"30.264"
"1924"	"22.264"	"18.929"	"3.235"	"2.306"	"17.095"	"4.648"	"103.615"	"47.487"	"52.896"	"0.932"	"0.184"	"38.203"
"1925"	"2.481"	"0.621"	"1.592"	"0.618"	"11.947"	"83.279"	"88.657"	"41.374"	"3.395"	"0.742"	"10.611"	"0"
"1926"	"3.772"	"0.308"	"24.067"	"8.298"	"10.625"	"0.733"	"80.734"	"150.141"	"19.118"	"0"	"0.251"	"12.29"
"1927"	"0"	"15.313"	"4.237"	"3.823"	"11.542"	"11.273"	"90.18"	"59.982"	"6.529"	"1.617"	"0"	"28.191"
"1928"	"2.495"	"8.38"	"4.311"	"12.081"	"4.542"	"17.049"	"64.661"	"95.893"	"50.217"	"0.625"	"4.111"	"7.013"
"1929"	"1.381"	"1.152"	"0.029"	"6.073"	"6.558"	"56.542"	"95.72"	"119.592"	"5.957"	"0.273"	"0"	"36.4"
"1930"	"6.35"	"5.643"	"0.196"	"22.828"	"9.882"	"27.291"	"135.634"	"21.421"	"10.255"	"0.45"	"1.723"	"0.105"
"1931"	"8.305"	"10.241"	"8.945"	"3.579"	"10.917"	"3.345"	"137.922"	"129.696"	"25.276"	"7.553"	"0"	"0"
"1932"	"6.269"	"0.366"	"9.068"	"5.465"	"5.212"	"7.125"	"97.447"	"44.925"	"15.343"	"0"	"0"	"14.904"
"1933"	"0.371"	"8.648"	"6.742"	"9.059"	"7.819"	"34.655"	"62.071"	"158.438"	"41.631"	"0.588"	"3.739"	"0"
"1934"	"4.138"	"1.152"	"18.203"	"0.52"	"2.964"	"27.505"	"65.887"	"81.686"	"4.095"	"0"	"0"	"17.233"
"1935"	"20.117"	"29.722"	"9.756"	"44.62"	"2.513"	"4.937"	"62.348"	"63.918"	"35.508"	"0.62"	"5.103"	"0.816"
"1936"	"0.559"	"14.996"	"10.169"	"6.258"	"0.618"	"104.379"	"50.075"	"54.784"	"27.867"	"3.955"	"7.332"	"10.982"
"1937"	"0"	"63.367"	"1.764"	"19.464"	"1.881"	"6.02"	"160.434"	"3.135"	"23.693"	"0.742"	"0.021"	"11.629"
"1938"	"11.046"	"8.376"	"2.444"	"5.696"	"0.129"	"66.381"	"24.828"	"32.119"	"1.41"	"2.629"	"0"	"3.32"
"1939"	"1.553"	"31.715"	"13.477"	"1.37"	"2.874"	"38.66"	"31"	"28.945"	"24.571"	"0.642"	"0"	"0"
"1940"	"16.874"	"17.284"	"4.238"	"1.727"	"1.218"	"39.845"	"32.354"	"82.774"	"10.335"	"0.086"	"0"	"0"
"1941"	"14.378"	"2.06"	"3.697"	"0.72"	"13.868"	"41.388"	"42.361"	"27.74"	"41.579"	"0"	"0"	"4.565"
"1942"	"5.671"	"15.027"	"7.895"	"15.106"	"18.898"	"31.397"	"147.892"	"90.661"	"68.6"	"0.642"	"0"	"14.373"
"1943"	"6.932"	"0.029"	"0.543"	"14.36"	"5.812"	"38.318"	"96.042"	"15.426"	"11.83"	"0"	"0"	"0"
"1944"	"12.099"	"26.263"	"26.863"	"26.671"	"0.687"	"22.581"	"89.758"	"114.61"	"22.701"	"1.288"	"0"	"5.655"
"1945"	"24.826"	"0.029"	"3.391"	"42.074"	"15.226"	"36.894"	"84.097"	"66.56"	"82.38"	"0.322"	"0.021"	"0.308"
"1946"	"0.029"	"3.695"	"4.039"	"2.196"	"10.392"	"42.713"	"67.289"	"98.075"	"2.511"	"5.351"	"0.407"	"5.343"
"1947"	"3.407"	"5.954"	"1.634"	"0.012"	"0.766"	"0.358"	"7.791"	"96.764"	"45.711"	"7.056"	"0"	"4.748"
"1948"	"8.596"	"22.473"	"21.108"	"8.478"	"1.38"	"20.438"	"117.845"	"69.955"	"19.85"	"0.251"	"2.854"	"13.025"
"1949"	"7.786"	"19.87"	"8.204"	"0.615"	"0.846"	"5.025"	"228.265"	"32.194"	"33.061"	"0"	"0"	"0.2"
"1950"	"18.506"	"10.756"	"24.463"	"1.239"	"2.463"	"2.583"	"215.692"	"120.821"	"104.734"	"0"	"0"	"0"
"1951"	"6.891"	"0.671"	"15.939"	"17.925"	"9.997"	"8.667"	"71.744"	"63.886"	"3.675"	"0.132"	"10.372"	"0"
"1952"	"2.325"	"6.18"	"14.032"	"1.844"	"6.966"	"26.353"	"65.866"	"66.007"	"0.699"	"0.533"	"0.407"	"1.597"
"1953"	"17.32"	"0.828"	"0.029"	"4.478"	"3.022"	"8.961"	"65.961"	"125.011"	"46.3"	"0"	"1.563"	"2.767"
"1954"	"5.028"	"39.699"	"1.459"	"0.614"	"3.583"	"21.308"	"102.148"	"14.141"	"139.861"	"5.581"	"0"	"0"
"1955"	"6.188"	"1.137"	"13.095"	"8.85"	"10.516"	"23.697"	"34.702"	"112.972"	"89.579"	"8.323"	"0"	"2.281"
"1956"	"10.849"	"0.988"	"20.758"	"2.697"	"0.129"	"52.729"	"110.397"	"103.324"	"1.082"	"14.176"	"0.105"	"4.717"
"1957"	"30.559"	"0.737"	"15.407"	"17.064"	"10.521"	"15.218"	"71.869"	"112.738"	"9.866"	"1.555"	"5.524"	"2.755"
"1958"	"13.908"	"0.878"	"3.108"	"1.786"	"1.552"	"15.756"	"84.102"	"31.499"	"125.739"	"2.129"	"5.826"	"24.021"
"1959"	"11.101"	"7.451"	"6.54"	"0.773"	"8.308"	"10.293"	"141.392"	"145.221"	"70.951"	"3.1"	"12.639"	"0"
"1960"	"6.917"	"0.029"	"13.057"	"7.567"	"0.129"	"25.293"	"56.974"	"58.638"	"19.561"	"1.741"	"0"	"9.905"
"1961"	"22.777"	"20.712"	"2.244"	"11.02"	"10.073"	"26.701"	"111.074"	"94.249"	"72.309"	"5.908"	"4.222"	"4.708"
"1962"	"8.881"	"13.261"	"17.035"	"0"	"8.038"	"2.768"	"98.476"	"66.33"	"80.134"	"0"	"4.485"	"7.058"
"1963"	"0"	"5.066"	"3.968"	"2.77"	"15.93"	"10.588"	"48.659"	"54.21"	"24.114"	"0.2"	"0.105"	"9.543"
"1964"	"6.194"	"1.406"	"4.236"	"7.706"	"14.181"	"25.092"	"165.556"	"123.947"	"28.069"	"0"	"1.198"	"4.907"
"1965"	"4.285"	"9.225"	"5.767"	"25.048"	"10.65"	"3.466"	"109.239"	"43.159"	"7.092"	"1.63"	"4.85"	"0"
"1966"	"1.43"	"40.922"	"4.534"	"4.741"	"31.339"	"46.938"	"68.412"	"76.258"	"72.563"	"7.496"	"2.348"	"0.008"
"1967"	"0"	"7.068"	"48.729"	"5.023"	"2.402"	"5.671"	"49.01"	"166.27"	"33.29"	"4.75"	"7.891"	"30.362"
"1968"	"7.535"	"15.417"	"5.475"	"0.976"	"6.73"	"6.005"	"58.781"	"79.319"	"0.373"	"3.742"	"0"	"4.202"
"1969"	"0.802"	"4.825"	"11.937"	"17.94"	"13.628"	"7.851"	"115.18"	"34.709"	"26.283"	"1.63"	"0"	"0"
"1970"	"11.055"	"36.09"	"15.755"	"5.69"	"8.945"	"26.764"	"22.038"	"87.807"	"47.197"	"0.274"	"0"	"0"
"1971"	"1.913"	"7.016"	"1.487"	"19.582"	"31.859"	"46.57"	"61.096"	"145.02"	"13.316"	"2.063"	"0"	"0"
"1972"	"7.505"	"5.948"	"2.672"	"10.533"	"0.129"	"25.803"	"57.179"	"92.494"	"35.372"	"3.497"	"4.423"	"6.388"
"1973"	"4.611"	"6.638"	"3.466"	"0.817"	"11.914"	"6.216"	"88.741"	"121.4"	"26.817"	"0.818"	"0"	"10.32"
"1974"	"1.182"	"2.609"	"1.367"	"8.822"	"14.936"	"18.267"	"167.59"	"27.411"	"3.797"	"0.33"	"0"	"9.961"
"1975"	"6.886"	"10.363"	"12.521"	"2.486"	"0.531"	"58.537"	"127.481"	"83.609"	"78.198"	"1.239"	"0"	"2.314"
"1976"	"8.396"	"10.321"	"8.001"	"12.052"	"14.11"	"31.982"	"109.052"	"232.76"	"82.404"	"4.96"	"0"	"0"
"1977"	"12.307"	"0.029"	"0.633"	"24.273"	"25.196"	"69.516"	"158.468"	"63.362"	"71.028"	"7.653"	"2.606"	"3.524"
"1978"	"1.731"	"9.268"	"28.108"	"13.254"	"0.129"	"44.302"	"198.08"	"140.771"	"54.847"	"0.086"	"1.656"	"0.132"
"1979"	"7.854"	"36.621"	"21.541"	"4.692"	"20.278"	"20.524"	"65.615"	"39.485"	"36.548"	"4.362"	"3.416"	"4.454"
"1980"	"4.389"	"2.603"	"16.98"	"3.831"	"3.256"	"48.77"	"207.546"	"106.623"	"28.088"	"2.623"	"9.689"	"10.622"
"1981"	"24.391"	"10.235"	"30.002"	"0"	"7.125"	"15.725"	"237.681"	"50.262"	"7.221"	"2.468"	"23.253"	"1.261"
"1982"	"13.362"	"11.523"	"59.688"	"30.124"	"42.878"	"18.666"	"146.975"	"131.264"	"0.373"	"3.161"	"10.18"	"14.517"
"1983"	"15.095"	"13.221"	"20.68"	"26.909"	"63.925"	"23.904"	"120.84"	"158.127"	"28.733"	"7.373"	"0"	"0.961"
"1984"	"0"	"20.222"	"4.029"	"15.384"	"0.633"	"8.945"	"175.108"	"113.725"	"47.569"	"0"	"0"	"8.833"
"1985"	"0.854"	"0.528"	"2.337"	"18.727"	"15.474"	"28.034"	"127.032"	"91.074"	"35.879"	"6.327"	"0.776"	"10.37"
"1986"	"3.604"	"27.705"	"6.942"	"7.008"	"18.987"	"55.389"	"131.768"	"99.098"	"27.579"	"1.404"	"0"	"5.364"
"1987"	"12.363"	"20.18"	"16.838"	"4.68"	"18.023"	"29.145"	"46.934"	"33.816"	"1.678"	"6.741"	"0"	"0.62"
"1988"	"1.491"	"5.893"	"39.72"	"4.441"	"0.32"	"27.807"	"112.51"	"78.526"	"59.896"	"11.931"	"0"	"10.073"
"1989"	"25.13"	"2.206"	"11.108"	"1.525"	"4.065"	"12.349"	"125.589"	"86.517"	"23.947"	"0"	"3.982"	"0.361"
"1990"	"0.956"	"34.659"	"22.156"	"9.178"	"22.353"	"9.604"	"84.655"	"105.201"	"78.062"	"1.083"	"4.639"	"17.496"
"1991"	"0"	"14.75"	"4.484"	"25.368"	"19.384"	"50.678"	"22.08"	"62.387"	"23.515"	"1.291"	"0.928"	"13.924"
"1992"	"16.443"	"22.995"	"5.001"	"7.271"	"27.42"	"9.011"	"44.607"	"104.683"	"51.512"	"5.629"	"6.53"	"1.056"
"1993"	"3.16"	"6.975"	"9.883"	"15.056"	"10.696"	"14.63"	"125.566"	"25.667"	"34.077"	"1.401"	"0"	"0"
"1994"	"14.336"	"4.803"	"4.074"	"5.876"	"42.377"	"22.557"	"94.865"	"62.755"	"50.155"	"0.742"	"0"	"3.603"
"1995"	"15.86"	"49.011"	"9.916"	"7.181"	"0.129"	"33.765"	"123.431"	"131.923"	"42.405"	"2.49"	"2.144"	"0.703"
"1996"	"8.72"	"12.027"	"12.366"	"2.897"	"4.459"	"123.489"	"62.709"	"128.534"	"13.842"	"1.381"	"0"	"0"
"1997"	"8.965"	"6.248"	"10.308"	"20.148"	"22.067"	"71.433"	"136.544"	"170.636"	"20.546"	"14.003"	"8.859"	"4.628"
"1998"	"0"	"15.267"	"8.741"	"27.497"	"3.76"	"20.282"	"147.51"	"42.487"	"28.992"	"8.125"	"1.65"	"4.717"
"1999"	"11.998"	"2.802"	"4.247"	"0"	"19.808"	"29.495"	"53.441"	"54.026"	"25.646"	"0.637"	"0"	"0"
"2000"	"7.259"	"9.05"	"2.914"	"0.105"	"5.34"	"26.515"	"169.107"	"40.095"	"9.641"	"0"	"3.804"	"2.854"
"2001"	"1.974"	"2.335"	"9.661"	"9.353"	"20.46"	"47.005"	"139.545"	"23.183"	"24.101"	"0.965"	"0"	"0"
"2002"	"0.993"	"2.868"	"3.1"	"4.549"	"14.063"	"21.935"	"32.847"	"41.969"	"39.819"	"0"	"3.861"	"16.689"
