
"Year"	"Jan"	"Feb"	"Mar"	"Apr"	"May"	"Jun"	"Jul"	"Aug"	"Sep"	"Oct"	"Nov"	"Dec"
"1901"	"13.208"	"15.455"	"18.987"	"21.978"	"22.581"	"24.1"	"24.205"	"24.309"	"23.923"	"22.546"	"18.325"	"14.767"
"1902"	"13.952"	"15.338"	"20.051"	"19.879"	"22.793"	"23.295"	"24.238"	"24.348"	"23.731"	"21.141"	"17.604"	"14.175"
"1903"	"12.736"	"14.723"	"18.382"	"21.735"	"22.556"	"23.039"	"24.699"	"23.529"	"23.927"	"22.933"	"18.835"	"14.767"
"1904"	"13.345"	"15.338"	"19.802"	"20.615"	"21.829"	"24.085"	"24.008"	"24.127"	"23.938"	"21.947"	"17.91"	"14.08"
"1905"	"12.861"	"12.618"	"17.368"	"19.251"	"22.304"	"23.922"	"24.399"	"23.609"	"24.248"	"22.135"	"18.541"	"14.64"
"1906"	"13.209"	"14.773"	"17.678"	"21.292"	"22.986"	"23.762"	"24.747"	"23.266"	"24.819"	"21.857"	"18.699"	"14.972"
"1907"	"14.651"	"14.659"	"17.437"	"19.692"	"22.118"	"23.023"	"23.66"	"24.569"	"23.508"	"22.206"	"18.633"	"14.902"
"1908"	"13.541"	"15.145"	"19.657"	"22.885"	"22.166"	"23.565"	"23.996"	"24.305"	"23.911"	"21.982"	"18.216"	"14.716"
"1909"	"13.407"	"15.186"	"20.766"	"20.412"	"22.246"	"22.917"	"24.717"	"23.662"	"24.808"	"23.021"	"19.778"	"15.342"
"1910"	"13.52"	"15.156"	"18.471"	"19.582"	"22.271"	"22.797"	"23.17"	"23.908"	"24.263"	"21.792"	"18.729"	"14.396"
"1911"	"14.027"	"14.715"	"18.153"	"20.19"	"21.827"	"23.131"	"23.582"	"23.808"	"23.701"	"21.812"	"18.008"	"13.802"
"1912"	"13.662"	"15.641"	"18.301"	"18.897"	"22.344"	"23.186"	"23.766"	"23.866"	"23.575"	"21.634"	"18.722"	"14.823"
"1913"	"14.168"	"16.41"	"18.545"	"21.239"	"21.251"	"22.975"	"24.312"	"23.963"	"23.726"	"21.757"	"17.82"	"13.871"
"1914"	"13.566"	"15.152"	"18.667"	"19.42"	"22.187"	"23.562"	"24.414"	"23.371"	"23.686"	"20.643"	"18.237"	"15.098"
"1915"	"15.003"	"15.433"	"18.494"	"21.204"	"21.993"	"22.709"	"23.156"	"23.925"	"23.621"	"24.109"	"20.343"	"15.549"
"1916"	"13.706"	"15.375"	"20.01"	"20.473"	"22.336"	"23.854"	"23.141"	"24.018"	"24.173"	"22.088"	"19.321"	"14.239"
"1917"	"13.127"	"14.837"	"18.217"	"20.204"	"22.258"	"23.102"	"23.899"	"24.108"	"23.902"	"22.246"	"19.349"	"14.852"
"1918"	"13.332"	"14.976"	"19.088"	"20.577"	"23.164"	"22.133"	"23.697"	"23.675"	"23.922"	"21.925"	"18.325"	"14.657"
"1919"	"14.431"	"15.034"	"20.605"	"20.884"	"22.314"	"23.735"	"23.94"	"24.972"	"22.949"	"21.725"	"19.266"	"15.352"
"1920"	"14.779"	"14.673"	"18.387"	"20.126"	"21.914"	"23.077"	"24.781"	"23.808"	"23.942"	"22.269"	"19.188"	"16.187"
"1921"	"14.987"	"15.924"	"19.373"	"20.67"	"22.519"	"22.557"	"24.142"	"24.211"	"23.703"	"20.929"	"18.619"	"14.917"
"1922"	"14.541"	"16.201"	"20.247"	"22.598"	"22.821"	"23.247"	"24.349"	"24.136"	"24.075"	"22.048"	"19.567"	"15.084"
"1923"	"14.731"	"14.787"	"19.589"	"21.574"	"21.881"	"23.247"	"24.166"	"25.02"	"23.982"	"21.719"	"19.228"	"15.533"
"1924"	"13.922"	"15.221"	"21.471"	"21.796"	"21.981"	"23.592"	"24.172"	"24.036"	"23.48"	"23.295"	"19.06"	"15.075"
"1925"	"12.107"	"13.827"	"18.987"	"20.598"	"21.045"	"23.48"	"23.949"	"23.95"	"22.953"	"21.191"	"18.225"	"14.221"
"1926"	"13.59"	"15.253"	"18.11"	"20.509"	"22.179"	"22.926"	"23.885"	"24.536"	"23.915"	"22.432"	"18.007"	"15.51"
"1927"	"13.229"	"14.091"	"17.294"	"20.854"	"21.971"	"23.068"	"24.084"	"24.09"	"23.162"	"22.172"	"18.429"	"15.037"
"1928"	"13.971"	"16.43"	"19.698"	"21.666"	"21.755"	"23.305"	"24.53"	"24.075"	"24.084"	"21.374"	"17.549"	"15.167"
"1929"	"13.392"	"14.368"	"19.267"	"20.627"	"21.559"	"23.124"	"24.089"	"24.122"	"23.914"	"21.953"	"18.064"	"14.28"
"1930"	"12.084"	"15.3"	"18.695"	"20.63"	"22.69"	"22.512"	"24.541"	"24.243"	"24.282"	"21.049"	"18.302"	"14.509"
"1931"	"14.397"	"15.664"	"18.964"	"21.517"	"21.929"	"23.232"	"23.755"	"24.773"	"23.303"	"22.992"	"18.176"	"15.171"
"1932"	"13.689"	"13.68"	"19.545"	"21.708"	"22.134"	"23.356"	"24.069"	"23.96"	"24.011"	"22.463"	"19.619"	"15.183"
"1933"	"13.19"	"15.39"	"20.192"	"20.476"	"21.748"	"23.426"	"24.153"	"24.018"	"24.11"	"22.512"	"18.081"	"14.672"
"1934"	"13.557"	"15.295"	"19.385"	"21.355"	"21.748"	"22.206"	"24.114"	"24.284"	"24.463"	"21.599"	"17.721"	"14.276"
"1935"	"12.85"	"15.016"	"19.612"	"21.331"	"22.829"	"22.548"	"24.358"	"23.516"	"23.707"	"22.11"	"19.062"	"14.328"
"1936"	"12.24"	"14.42"	"19.677"	"21.566"	"22.617"	"23.562"	"24.094"	"24.306"	"23.882"	"21.422"	"19.188"	"14.982"
"1937"	"12.134"	"15.14"	"18.963"	"22.053"	"22.275"	"23.802"	"24.71"	"24.224"	"24.049"	"22.23"	"17.586"	"15.44"
"1938"	"14.247"	"14.707"	"20.233"	"22.737"	"22.733"	"23.606"	"23.764"	"24.079"	"24.005"	"22.702"	"17.428"	"15.161"
"1939"	"14.022"	"15.63"	"19.394"	"22.738"	"22.601"	"23.216"	"23.818"	"24.591"	"23.755"	"21.928"	"18.893"	"15.084"
"1940"	"13.146"	"14.918"	"16.901"	"22.064"	"22.303"	"23.406"	"23.999"	"24.398"	"23.513"	"22.196"	"18.7"	"15.627"
"1941"	"13.32"	"15.425"	"20.249"	"22.021"	"22.175"	"23.588"	"24.427"	"24.484"	"23.841"	"22.08"	"17.784"	"15.804"
"1942"	"13.991"	"16.341"	"19.357"	"21.196"	"21.999"	"23.388"	"25.12"	"24.289"	"23.779"	"22.803"	"19.34"	"14.418"
"1943"	"14.281"	"14.413"	"18.195"	"19.6"	"22.268"	"23.551"	"24.388"	"23.783"	"23.98"	"21.915"	"19.694"	"15.619"
"1944"	"13.354"	"14.635"	"19.36"	"20.642"	"22.551"	"23.546"	"24.921"	"24.734"	"23.368"	"22.502"	"18.188"	"15.565"
"1945"	"14.059"	"13.859"	"19.759"	"21.917"	"21.952"	"23.878"	"24.462"	"23.752"	"24.378"	"21.819"	"18.579"	"14.791"
"1946"	"14.465"	"17.24"	"19.448"	"20.704"	"22.093"	"23.451"	"23.939"	"24.617"	"23.919"	"21.752"	"19.227"	"15.403"
"1947"	"13.759"	"15.718"	"19.273"	"21.589"	"22.422"	"23.341"	"23.832"	"24.135"	"23.994"	"21.256"	"18.512"	"15.958"
"1948"	"14.21"	"14.85"	"18.747"	"21.044"	"21.659"	"23.195"	"23.814"	"24.021"	"24.086"	"21.402"	"18.665"	"14.408"
"1949"	"13.966"	"15.003"	"19.049"	"18.949"	"21.784"	"22.87"	"23.734"	"23.75"	"23.934"	"22.906"	"18.294"	"13.395"
"1950"	"13.837"	"15.117"	"18.887"	"21.26"	"22.793"	"23.116"	"24.038"	"23.51"	"24.146"	"22.369"	"18.436"	"15.143"
"1951"	"13.743"	"15.781"	"20.025"	"20.554"	"22.302"	"22.892"	"23.471"	"24.554"	"24.041"	"22.446"	"18.822"	"16.093"
"1952"	"14.566"	"16.913"	"18.575"	"22.008"	"21.667"	"24.068"	"24.267"	"24.145"	"23.675"	"22.927"	"18.945"	"15.246"
"1953"	"13.322"	"16.04"	"19.641"	"21.427"	"22.069"	"23.221"	"23.72"	"24.738"	"23.62"	"21.637"	"18.518"	"16.201"
"1954"	"13.05"	"16.396"	"19.911"	"21.346"	"22.246"	"22.516"	"23.232"	"23.636"	"24.264"	"21.367"	"18.002"	"15.34"
"1955"	"13.949"	"15.709"	"19.661"	"21.047"	"22.67"	"22.807"	"23.484"	"23.52"	"24.125"	"22.829"	"19.496"	"14.29"
"1956"	"13.709"	"15.895"	"19.816"	"22.335"	"23.195"	"23.02"	"24.299"	"24.152"	"24.714"	"22.479"	"18.969"	"15.326"
"1957"	"14.15"	"14.472"	"18.901"	"22.144"	"21.994"	"23.62"	"24.607"	"25.103"	"24.554"	"21.562"	"18.82"	"15.251"
"1958"	"15.027"	"14.896"	"20.799"	"22.154"	"22.698"	"24.77"	"25.234"	"23.897"	"24.637"	"22.77"	"19.201"	"15.547"
"1959"	"13.871"	"14.478"	"19.12"	"22.218"	"22.222"	"23.533"	"25.322"	"25.146"	"23.902"	"21.677"	"18.596"	"15.631"
"1960"	"14.417"	"17.927"	"19.282"	"23.316"	"23.834"	"23.923"	"24.136"	"25.124"	"23.933"	"22.809"	"18.853"	"16.424"
"1961"	"15.44"	"14.616"	"19.44"	"22.296"	"22.858"	"24.379"	"25.016"	"24.982"	"24.529"	"22.61"	"18.065"	"14.473"
"1962"	"13.349"	"16.078"	"19.699"	"23.192"	"21.969"	"24.286"	"24.974"	"24.178"	"24.884"	"22.162"	"17.922"	"15.173"
"1963"	"13.582"	"16.615"	"19.702"	"21.099"	"21.971"	"23.219"	"24.41"	"24.266"	"24.637"	"21.749"	"18.138"	"15.319"
"1964"	"13.433"	"15.136"	"19.586"	"20.491"	"22.281"	"22.611"	"23.338"	"24.125"	"23.904"	"22.652"	"19.417"	"15.073"
"1965"	"14.03"	"15.293"	"18.15"	"21.131"	"22.388"	"23.26"	"23.797"	"23.099"	"23.613"	"22.119"	"17.793"	"15.885"
"1966"	"14.439"	"17.28"	"20.415"	"21.842"	"23.408"	"22.378"	"24.189"	"23.608"	"23.555"	"21.02"	"19.521"	"15.316"
"1967"	"14.582"	"16.185"	"18.244"	"20.862"	"21.942"	"22.83"	"24.003"	"24.39"	"23.382"	"21.477"	"17.063"	"15.05"
"1968"	"14.122"	"14.703"	"19.435"	"20.556"	"21.649"	"22.549"	"23.721"	"24.313"	"23.891"	"21.4"	"18.71"	"15.34"
"1969"	"13.859"	"16.456"	"21.022"	"21.948"	"23.213"	"23.6"	"24.359"	"23.302"	"23.973"	"22.018"	"18.54"	"15.56"
"1970"	"13.104"	"15.488"	"18.981"	"21.534"	"22.275"	"23.769"	"23.364"	"23.712"	"23.705"	"21.693"	"18.613"	"15.317"
"1971"	"13.731"	"15.014"	"18.898"	"20.862"	"22.375"	"23.474"	"23.993"	"23.308"	"23.879"	"22.182"	"18.389"	"15.106"
"1972"	"14.401"	"14.612"	"19.581"	"19.766"	"22.055"	"23.414"	"24.329"	"24.282"	"23.545"	"22.437"	"18.509"	"15.383"
"1973"	"14.375"	"16.368"	"19.372"	"22.511"	"22.651"	"23.171"	"24.273"	"24.548"	"23.798"	"22.36"	"18.921"	"14.82"
"1974"	"13.215"	"15.108"	"19.22"	"20.591"	"22.28"	"23.249"	"23.216"	"24.102"	"23.247"	"23.186"	"19.873"	"13.982"
"1975"	"13.519"	"15.93"	"19.865"	"22.291"	"22.144"	"24.157"	"23.407"	"24.331"	"23.675"	"22.708"	"18.294"	"14.143"
"1976"	"13.931"	"16.09"	"19.656"	"21.618"	"21.944"	"22.626"	"23.908"	"23.485"	"24.009"	"21.577"	"19.273"	"14.924"
"1977"	"13.175"	"15.561"	"20.432"	"19.355"	"21.093"	"22.257"	"24.169"	"23.594"	"24.445"	"20.882"	"18.469"	"15.098"
"1978"	"12.432"	"15.362"	"18.873"	"21.202"	"22.363"	"22.978"	"23.714"	"25.017"	"23.85"	"23.176"	"18.451"	"15.544"
"1979"	"14.499"	"15.435"	"19.457"	"22.589"	"23.204"	"24.739"	"23.919"	"24.513"	"23.488"	"21.595"	"19.723"	"15.314"
"1980"	"13.375"	"15.335"	"19.051"	"21.761"	"21.797"	"24.183"	"24.56"	"24.009"	"24.359"	"21.631"	"19.014"	"15.959"
"1981"	"14.318"	"16.007"	"18.817"	"20.178"	"22.37"	"24.339"	"23.992"	"24.538"	"24.194"	"22.707"	"19.574"	"15.628"
"1982"	"15.192"	"15.335"	"19.179"	"20.04"	"23.244"	"23.473"	"24.271"	"24.787"	"23.892"	"22.195"	"18.205"	"14.773"
"1983"	"13.016"	"14.33"	"18.721"	"20.441"	"21.671"	"23.948"	"24.269"	"24.313"	"23.59"	"23.021"	"19.448"	"14.318"
"1984"	"12.793"	"15.6"	"20.425"	"21.905"	"21.48"	"24.264"	"23.178"	"24.528"	"22.658"	"22.542"	"18.116"	"14.742"
"1985"	"13.837"	"14.813"	"19.602"	"21.017"	"22.421"	"23.449"	"23.214"	"24.63"	"23.621"	"22.617"	"18.215"	"15.932"
"1986"	"14.436"	"16.286"	"20.142"	"20.24"	"22.626"	"24.219"	"23.671"	"24.399"	"23.336"	"21.005"	"18.55"	"15.6"
"1987"	"14.808"	"16.966"	"18.874"	"20.952"	"22.778"	"24.462"	"23.79"	"23.801"	"23.726"	"22.19"	"19.676"	"16.685"
"1988"	"14.531"	"16.952"	"19.154"	"21.796"	"22.278"	"24.187"	"24.091"	"23.297"	"23.628"	"22.696"	"19.799"	"17.082"
"1989"	"13.192"	"14.888"	"19.445"	"20.713"	"23.287"	"23.509"	"23.494"	"24.143"	"23.638"	"22.64"	"18.179"	"14.799"
"1990"	"14.705"	"15.751"	"17.659"	"19.059"	"22.713"	"23.535"	"24.088"	"24.694"	"23.738"	"21.823"	"20.059"	"16.188"
"1991"	"13.691"	"16.769"	"20.381"	"21.069"	"20.647"	"23.452"	"24.375"	"24.525"	"23.913"	"22.636"	"18.163"	"14.765"
"1992"	"13.891"	"14.045"	"19.575"	"22.178"	"21.876"	"23.881"	"23.231"	"24.505"	"24.107"	"21.859"	"18.783"	"14.257"
"1993"	"13.637"	"16.224"	"18.358"	"20.717"	"21.648"	"22.839"	"24.14"	"24.119"	"23.738"	"22.772"	"19.592"	"16.776"
"1994"	"15.096"	"15.514"	"19.348"	"21.659"	"23.787"	"24.177"	"24.454"	"24.92"	"24.995"	"21.477"	"18.89"	"15.276"
"1995"	"13.926"	"16.054"	"20.975"	"22.308"	"23.82"	"23.939"	"24.013"	"24.423"	"23.923"	"23.063"	"20.144"	"16.005"
"1996"	"14.426"	"16.966"	"20.146"	"23.621"	"22.677"	"24.045"	"24.175"	"24.248"	"24.636"	"22.46"	"19.688"	"16.608"
"1997"	"14.03"	"14.854"	"20.09"	"20.616"	"23.178"	"24.076"	"24.925"	"25.411"	"23.947"	"22.378"	"18.77"	"16.015"
"1998"	"13.95"	"16.873"	"18.619"	"23.087"	"24.518"	"24.004"	"24.759"	"24.69"	"24.881"	"23.816"	"20.725"	"17.081"
"1999"	"15.238"	"19.642"	"21.3"	"23.719"	"23.233"	"25.105"	"24.572"	"24.119"	"24.619"	"23.005"	"20.199"	"17.218"
"2000"	"14.171"	"16.645"	"18.759"	"20.813"	"22.948"	"24.628"	"25.061"	"24.363"	"23.975"	"22.921"	"18.978"	"15.549"
"2001"	"14.358"	"16.91"	"20.148"	"21.619"	"23.465"	"24.839"	"25.105"	"25.178"	"25.077"	"22.709"	"19.801"	"15.842"
"2002"	"14.726"	"17.448"	"20.258"	"21.401"	"22.831"	"23.81"	"24.88"	"24.678"	"24.212"	"22.612"	"19.71"	"15.853"
