
"Year"	"Jan"	"Feb"	"Mar"	"Apr"	"May"	"Jun"	"Jul"	"Aug"	"Sep"	"Oct"	"Nov"	"Dec"
"1901"	"61.055"	"24.052"	"4.161"	"9.54"	"8.157"	"101.51"	"184.927"	"270.428"	"209.545"	"24.343"	"6.598"	"0"
"1902"	"4.67"	"3.142"	"6.373"	"9.313"	"4.59"	"72.254"	"310.219"	"167.043"	"380.176"	"14.118"	"0.588"	"0.778"
"1903"	"7.004"	"6.159"	"5.422"	"6.925"	"27.095"	"169.849"	"120.511"	"200.142"	"165.95"	"104.119"	"0"	"0"
"1904"	"1.006"	"4.303"	"27.811"	"1.11"	"107.807"	"117.247"	"283.934"	"413.958"	"97.937"	"53.342"	"5.524"	"0.127"
"1905"	"7.557"	"31.981"	"29.388"	"8.196"	"14.479"	"21.111"	"407.407"	"308.826"	"389.462"	"14.372"	"0"	"0.593"
"1906"	"8.563"	"79.653"	"22.928"	"1.367"	"10.212"	"139.77"	"426.708"	"218.163"	"215.03"	"92.683"	"0.643"	"0.593"
"1907"	"0.123"	"58.503"	"24.614"	"40.324"	"11.641"	"282.955"	"180.464"	"268.054"	"164.46"	"14.585"	"0"	"1.231"
"1908"	"12.282"	"58.132"	"6.446"	"1.228"	"6.183"	"94.699"	"282.071"	"287.14"	"101.661"	"98.508"	"0"	"0.337"
"1909"	"2.834"	"6.023"	"0"	"42.082"	"5.371"	"222.154"	"347.565"	"364.457"	"174.822"	"7.895"	"0.241"	"2.699"
"1910"	"5.772"	"13.038"	"18.247"	"11.837"	"9.798"	"169.983"	"284.172"	"331.206"	"210.992"	"48.673"	"13.472"	"0"
"1911"	"8.416"	"0.2"	"22.314"	"1.961"	"12.609"	"409.55"	"157.425"	"267.565"	"269.346"	"101.937"	"29.847"	"0"
"1912"	"3.14"	"8.618"	"4.373"	"17.285"	"22.94"	"98.601"	"313.781"	"298.148"	"52.709"	"18.278"	"12.565"	"0"
"1913"	"0.123"	"61.972"	"33.215"	"0.733"	"34.784"	"373.952"	"220.038"	"333.203"	"162.728"	"79.572"	"2.505"	"9.762"
"1914"	"0.246"	"29.173"	"17.989"	"32.402"	"36.92"	"60.58"	"251.701"	"376.896"	"109.923"	"13.648"	"0"	"2.664"
"1915"	"2.597"	"56.728"	"12.192"	"3.854"	"17.183"	"120.733"	"258.212"	"252.027"	"254.34"	"45.681"	"21.269"	"0"
"1916"	"0.123"	"23.004"	"1.568"	"5.107"	"4.026"	"213.084"	"335.665"	"299.185"	"178.652"	"176.417"	"1.478"	"0"
"1917"	"1.859"	"32.215"	"5.522"	"5.837"	"46.656"	"148.932"	"276.876"	"386.712"	"168.828"	"216.843"	"0.418"	"0.127"
"1918"	"0.315"	"0.326"	"6.322"	"4.437"	"15.835"	"239.447"	"167.509"	"423.097"	"201.521"	"8.014"	"0"	"0.598"
"1919"	"42.746"	"10.36"	"13.634"	"12.887"	"39.602"	"165.29"	"299.813"	"435.459"	"188.844"	"127.909"	"2.515"	"0"
"1920"	"0.123"	"36.626"	"30.969"	"2.4"	"16.424"	"69.724"	"519.541"	"327.977"	"181.373"	"11.02"	"0"	"0"
"1921"	"35.303"	"10.045"	"1.828"	"3.409"	"4.627"	"222.417"	"293.597"	"441.523"	"114.599"	"10.965"	"0"	"0"
"1922"	"13.941"	"8.625"	"0.455"	"7.142"	"2.811"	"351.82"	"396.616"	"322.972"	"335.634"	"73.304"	"4.834"	"5.471"
"1923"	"0.2"	"69.767"	"0.812"	"1.873"	"3.837"	"111.99"	"306.797"	"473.745"	"208.629"	"20.563"	"4.006"	"0.279"
"1924"	"8.466"	"17.069"	"1.353"	"20.576"	"10.373"	"125.432"	"366.815"	"237.845"	"239.519"	"89.239"	"37.303"	"0"
"1925"	"11.083"	"5.783"	"5.52"	"8.854"	"16.282"	"121.002"	"313.954"	"436.05"	"164.001"	"18.541"	"8.452"	"0"
"1926"	"18.168"	"0.688"	"47.326"	"6.739"	"54.46"	"39.612"	"430.885"	"310.903"	"215.107"	"50.476"	"2.72"	"4.976"
"1927"	"19.52"	"57.481"	"36.974"	"1.367"	"14.777"	"75.943"	"296.357"	"358.748"	"133.968"	"43.61"	"24.586"	"0"
"1928"	"23.883"	"14.962"	"1.493"	"14.957"	"25.798"	"182.822"	"432.326"	"181.036"	"167.023"	"159.777"	"0"	"1.328"
"1929"	"20.119"	"4.714"	"4.254"	"5.168"	"15.174"	"143.423"	"350.909"	"270.793"	"71.435"	"259.041"	"0"	"8.085"
"1930"	"12.363"	"6.433"	"3.445"	"8.568"	"7.318"	"77.437"	"279.278"	"212.844"	"220.341"	"30.649"	"21.012"	"6.665"
"1931"	"2.996"	"63.294"	"16.449"	"0.932"	"7.947"	"68.74"	"496.693"	"332.15"	"273.468"	"64.369"	"11.364"	"1.194"
"1932"	"0.123"	"24.841"	"1.528"	"4.295"	"26.842"	"111.556"	"347.643"	"322.863"	"180.088"	"35.192"	"26.504"	"3.887"
"1933"	"30.414"	"28.042"	"2.459"	"28.274"	"26.236"	"158.904"	"352.178"	"386"	"155.281"	"81.976"	"0"	"0"
"1934"	"25.025"	"21.441"	"1.058"	"11.589"	"6.842"	"154.41"	"306.886"	"403.335"	"236.985"	"50.174"	"14.02"	"0.584"
"1935"	"3.496"	"16.856"	"2.215"	"14.459"	"4.883"	"135.842"	"266.123"	"521.822"	"213.63"	"11.554"	"0"	"0.279"
"1936"	"4.296"	"9.248"	"14.965"	"4.735"	"49.478"	"231.008"	"391.596"	"284.642"	"334.545"	"149.214"	"0.812"	"10.36"
"1937"	"0.123"	"53.347"	"3.87"	"26.797"	"14.634"	"86.389"	"261.259"	"330.174"	"229.709"	"137.479"	"0.079"	"0.08"
"1938"	"9.54"	"22.754"	"2.618"	"4.052"	"37.556"	"291.201"	"249.446"	"292.588"	"182.39"	"50.18"	"0.077"	"0"
"1939"	"5.38"	"30.432"	"10.362"	"6.382"	"6.21"	"184.349"	"420.692"	"263.848"	"260.816"	"57.389"	"0.418"	"0"
"1940"	"0.123"	"53.158"	"52.415"	"7.786"	"13.454"	"77.667"	"367.941"	"375.06"	"145.735"	"16.003"	"0"	"3.097"
"1941"	"16.186"	"7.868"	"10.397"	"3.034"	"18.502"	"195.425"	"266.36"	"361.226"	"218.466"	"63.819"	"5.099"	"0"
"1942"	"31.717"	"58.594"	"16.864"	"9.61"	"2.975"	"136.064"	"315.928"	"441.786"	"370.621"	"8.486"	"0.378"	"0.337"
"1943"	"21.249"	"16.81"	"5.451"	"35.421"	"26.034"	"98.144"	"407.578"	"513.423"	"230.168"	"49.057"	"0"	"0"
"1944"	"26.598"	"46.6"	"52.835"	"9.329"	"9.585"	"161.412"	"303.534"	"463.281"	"144.444"	"93.446"	"0"	"0"
"1945"	"54.431"	"30.87"	"1.27"	"2.698"	"24.088"	"166.181"	"244.696"	"147.536"	"290.309"	"142.488"	"0"	"1.328"
"1946"	"0.123"	"21.268"	"18.092"	"17.64"	"26.077"	"168.841"	"394.83"	"401.828"	"322.794"	"99.365"	"20.593"	"0.428"
"1947"	"29.391"	"11.01"	"17.376"	"1.348"	"9.536"	"96.483"	"369.984"	"217.373"	"342.919"	"72.431"	"0"	"1.481"
"1948"	"10.854"	"13.559"	"7.048"	"10.494"	"24.647"	"143.8"	"363.048"	"268.492"	"322.962"	"73.532"	"21.108"	"0.428"
"1949"	"3.915"	"48.321"	"10.642"	"6.179"	"43.189"	"202.055"	"340.537"	"456.688"	"149.838"	"120.416"	"0"	"0"
"1950"	"3.08"	"15.279"	"44.159"	"1.765"	"2.453"	"219.611"	"287.264"	"384.91"	"134.862"	"27.97"	"1.439"	"2.47"
"1951"	"4.155"	"1.764"	"38.659"	"22.849"	"4.815"	"111.106"	"377.119"	"286.007"	"247.824"	"80.008"	"12.965"	"0"
"1952"	"0.263"	"15.74"	"24.725"	"8.239"	"7.752"	"279.334"	"187.353"	"248.784"	"237.459"	"62.125"	"4.341"	"0.857"
"1953"	"59.465"	"3.839"	"1.747"	"5.661"	"4.054"	"145.696"	"391.14"	"337.325"	"260.076"	"5.953"	"0.077"	"0"
"1954"	"11.058"	"15.742"	"2.352"	"1.961"	"12.344"	"135.707"	"237.018"	"267.894"	"251.521"	"33.915"	"0"	"1.182"
"1955"	"8.483"	"15.143"	"1.613"	"3.762"	"2.946"	"115.502"	"428.026"	"144.594"	"103.738"	"98.171"	"4.009"	"0.795"
"1956"	"16.711"	"17.447"	"7.076"	"8.651"	"61.474"	"257.337"	"208.789"	"360.69"	"402.274"	"69.42"	"23.551"	"4.999"
"1957"	"12.856"	"4.905"	"11.369"	"0.763"	"4.519"	"113.1"	"375.349"	"204.616"	"157.78"	"7.766"	"0"	"1.092"
"1958"	"27.895"	"13.737"	"17.552"	"16.464"	"3.708"	"142.318"	"349.246"	"272.6"	"250.505"	"167.062"	"0.279"	"0"
"1959"	"74.83"	"1.015"	"0.442"	"0.238"	"13.073"	"108.329"	"254.609"	"274.382"	"280.162"	"179.406"	"0"	"0"
"1960"	"0.63"	"0.2"	"25.271"	"6.695"	"1.982"	"92.6"	"288.05"	"361.109"	"186.899"	"45.725"	"0.241"	"0"
"1961"	"17.646"	"57.599"	"0.36"	"0"	"6.318"	"200.706"	"224.197"	"321.83"	"239.532"	"89.148"	"2.302"	"4.415"
"1962"	"19.304"	"13.143"	"4.338"	"4.236"	"4.172"	"125.881"	"238.26"	"271.089"	"289.178"	"27.204"	"0"	"2.566"
"1963"	"5.476"	"3.189"	"35.688"	"5.327"	"56.377"	"151.692"	"314.074"	"317.873"	"196.893"	"112.293"	"14.157"	"0"
"1964"	"0.263"	"5.102"	"5.12"	"16.702"	"14.428"	"156.986"	"335.833"	"407.614"	"205.597"	"55.693"	"12.792"	"0"
"1965"	"2.182"	"3.463"	"7.3"	"29.559"	"8.794"	"56.336"	"310.747"	"171.318"	"165.191"	"35.826"	"3.12"	"1.44"
"1966"	"40.263"	"15.611"	"0"	"0.478"	"2.101"	"117.337"	"119.806"	"195.94"	"79.312"	"6.376"	"23.67"	"9.495"
"1967"	"13.736"	"0.279"	"34.422"	"11.066"	"7.784"	"79.477"	"288.414"	"431.693"	"155.942"	"16.733"	"0"	"1.485"
"1968"	"31.432"	"4.859"	"1.926"	"3.311"	"1.108"	"178.354"	"279.289"	"302.475"	"76.543"	"77.112"	"1.911"	"3.302"
"1969"	"4.814"	"16.721"	"3.473"	"11.258"	"38.136"	"163.882"	"347.449"	"317.77"	"207.747"	"16.627"	"17.632"	"0"
"1970"	"9.474"	"18.658"	"9.028"	"0.832"	"17.776"	"216.527"	"340.255"	"238.325"	"313.282"	"64.26"	"1.215"	"0"
"1971"	"26.153"	"14.606"	"4.797"	"32.309"	"54.236"	"385.42"	"392.896"	"405.683"	"125.687"	"116.343"	"0.699"	"0"
"1972"	"7.058"	"69.787"	"1.384"	"26.1"	"4.547"	"34.29"	"186.506"	"272.622"	"190.195"	"157.369"	"16.589"	"0.606"
"1973"	"55.438"	"5.117"	"3.55"	"1.219"	"8.317"	"199.492"	"245.7"	"326.534"	"229.552"	"235.497"	"11.178"	"0.222"
"1974"	"7.593"	"4.03"	"5.298"	"4.339"	"17.509"	"112.252"	"470.165"	"234.151"	"143.558"	"101.464"	"4.62"	"0.817"
"1975"	"63.62"	"10.082"	"16.493"	"2.378"	"18.926"	"69.44"	"386.315"	"104.563"	"229.568"	"60.65"	"2.039"	"0"
"1976"	"7.288"	"24.682"	"0.186"	"26.377"	"12.227"	"95.044"	"291.393"	"261.09"	"396.19"	"0.79"	"0"	"0"
"1977"	"1.93"	"9.906"	"0.735"	"39.503"	"91.44"	"130.822"	"438.088"	"261.808"	"215.338"	"78.041"	"28.504"	"8.541"
"1978"	"11.841"	"67.478"	"33.029"	"39.119"	"11.514"	"233.324"	"259.09"	"267.407"	"370.586"	"72.981"	"6.624"	"10.017"
"1979"	"19.492"	"19.022"	"0.246"	"15.741"	"4.239"	"88.993"	"392.66"	"215.472"	"126.494"	"52.838"	"23.543"	"8.562"
"1980"	"17.915"	"7.64"	"18.588"	"0.539"	"21.285"	"229.971"	"316.839"	"249.136"	"96.553"	"20.507"	"3.152"	"0.727"
"1981"	"17.913"	"7.569"	"25.698"	"10.056"	"27.465"	"60.311"	"366.176"	"169.722"	"161.97"	"0.638"	"6.616"	"2.378"
"1982"	"24.15"	"16.484"	"36.235"	"16.584"	"28.149"	"102.363"	"189.827"	"246.847"	"315.262"	"23.698"	"14.44"	"1.392"
"1983"	"17.774"	"8.696"	"6.595"	"17.923"	"45.382"	"136.008"	"374.729"	"181.688"	"131.944"	"95.112"	"0"	"3.817"
"1984"	"34.657"	"28.663"	"2.86"	"18.145"	"9.736"	"272.638"	"322.61"	"219.044"	"387.5"	"39.981"	"0"	"0"
"1985"	"11.421"	"6.536"	"0.813"	"2.995"	"13.18"	"83.337"	"386.456"	"225.532"	"165.463"	"91.606"	"0.653"	"8.165"
"1986"	"9.896"	"25.612"	"1.449"	"15.028"	"22.611"	"139.027"	"296.483"	"286.509"	"157.238"	"19.151"	"7.987"	"6.251"
"1987"	"2.005"	"13.242"	"9.766"	"4.731"	"17.204"	"136.113"	"269.237"	"544.626"	"519.094"	"126.298"	"11.491"	"1.569"
"1988"	"9.092"	"26.892"	"26.948"	"8.929"	"26.68"	"166.746"	"201.626"	"307.974"	"157.536"	"35.506"	"3.265"	"2.618"
"1989"	"8.784"	"11.493"	"5.409"	"0.819"	"42.117"	"202.756"	"244.882"	"263.482"	"210.525"	"57.932"	"9.715"	"11.772"
"1990"	"0.123"	"30.96"	"10.29"	"6.575"	"48.967"	"196.205"	"383.873"	"258.794"	"213.465"	"69.665"	"0.088"	"0"
"1991"	"17.387"	"5.099"	"28.763"	"10.092"	"16.407"	"122.93"	"179.166"	"501.74"	"177.088"	"28.677"	"1.23"	"8.903"
"1992"	"20.629"	"5.567"	"1.113"	"4.884"	"8.431"	"43.737"	"201.412"	"164.36"	"109.538"	"63.803"	"0.263"	"0"
"1993"	"9.758"	"0.2"	"11.301"	"4.684"	"23.38"	"37.786"	"114.342"	"186.749"	"270.279"	"78.878"	"1.997"	"0"
"1994"	"58.349"	"19.503"	"19.605"	"16.08"	"8.359"	"152.943"	"236.468"	"318.204"	"42.913"	"129.606"	"0.279"	"0"
"1995"	"14.354"	"20.012"	"16.361"	"1.735"	"16.915"	"31.669"	"200.78"	"214.485"	"208.754"	"9.944"	"12.564"	"0"
"1996"	"26.232"	"13.476"	"1.42"	"4.911"	"8.36"	"129.16"	"195.398"	"321.745"	"142.037"	"148.105"	"0"	"0"
"1997"	"21.165"	"12.062"	"4.108"	"5.571"	"56.986"	"37.854"	"189.934"	"337.347"	"124.321"	"38.051"	"24.259"	"8.506"
"1998"	"8.456"	"21.499"	"6.331"	"11.409"	"57.896"	"30.657"	"181.487"	"249.788"	"172.573"	"193.986"	"19.623"	"0"
"1999"	"22.786"	"9.822"	"0.734"	"0.003"	"28.134"	"104.663"	"271.801"	"256.415"	"137.943"	"28.061"	"0.43"	"0"
"2000"	"11.707"	"17.819"	"5.473"	"12.151"	"9.111"	"138.834"	"107.949"	"137.068"	"254.478"	"1.062"	"0.001"	"0.001"
"2001"	"2.617"	"0.99"	"25.987"	"11.577"	"12.645"	"31.858"	"215.405"	"272.762"	"51.215"	"91.545"	"0.084"	"0"
"2002"	"24.962"	"10.017"	"4.803"	"8.097"	"10.214"	"43.834"	"166.671"	"279.175"	"184.777"	"112.12"	"13.444"	"0"
