
"Year"	"Jan"	"Feb"	"Mar"	"Apr"	"May"	"Jun"	"Jul"	"Aug"	"Sep"	"Oct"	"Nov"	"Dec"
"1901"	"23.121"	"23.994"	"27.687"	"30.944"	"31.317"	"29.005"	"25.76"	"24.998"	"26.822"	"26.095"	"22.924"	"21.352"
"1902"	"23.001"	"24.695"	"29.244"	"31.566"	"33.741"	"30.232"	"27.39"	"27.053"	"25.884"	"26.206"	"21.889"	"21.704"
"1903"	"22.622"	"24.049"	"28.379"	"31.381"	"31.218"	"30.792"	"25.649"	"25.289"	"25.769"	"24.808"	"21.604"	"20.518"
"1904"	"22.192"	"23.797"	"27.845"	"31.82"	"32.241"	"28.217"	"26.399"	"26.317"	"25.639"	"25.586"	"21.575"	"20.859"
"1905"	"21.797"	"22.995"	"27.849"	"29.669"	"32.943"	"30.449"	"27.044"	"25.902"	"25.752"	"25.728"	"23.426"	"20.66"
"1906"	"22.663"	"24.64"	"27.78"	"32.09"	"33.72"	"28.255"	"26.562"	"25.926"	"25.493"	"25.343"	"23.067"	"21.827"
"1907"	"22.103"	"24.592"	"27.649"	"29.452"	"31.473"	"28.772"	"26.68"	"24.416"	"26.488"	"26.795"	"24.349"	"21.017"
"1908"	"21.616"	"24.523"	"27.511"	"32.188"	"33.119"	"29.849"	"25.734"	"24.996"	"25.592"	"25.487"	"21.881"	"19.669"
"1909"	"23.312"	"25.11"	"28.843"	"29.497"	"32.468"	"27.863"	"25.31"	"26.103"	"25.566"	"25.637"	"23.101"	"22.677"
"1910"	"22.565"	"24.083"	"28.357"	"31.776"	"32.947"	"28.519"	"26.949"	"25.96"	"25.211"	"25.017"	"20.832"	"20.395"
"1911"	"22.478"	"23.137"	"27.645"	"31.699"	"33.594"	"28.606"	"26.898"	"24.969"	"26.613"	"26.663"	"24.388"	"21.814"
"1912"	"22.798"	"25.498"	"28.823"	"31.171"	"33.138"	"31.675"	"26.536"	"25.343"	"26.308"	"26.044"	"22.564"	"20.427"
"1913"	"21.062"	"25.603"	"28.012"	"32.21"	"32.05"	"28.368"	"26.012"	"25.96"	"26.6"	"26.084"	"22.968"	"22.468"
"1914"	"21.815"	"25.431"	"27.995"	"30.374"	"32.174"	"28.28"	"25.656"	"25.186"	"25.394"	"25.57"	"23.526"	"21.821"
"1915"	"21.731"	"24.24"	"26.936"	"30.613"	"32.372"	"30.732"	"26.925"	"25.571"	"25.792"	"25.871"	"24.438"	"20.219"
"1916"	"22.276"	"24.696"	"28.466"	"31.215"	"32.386"	"26.958"	"26.407"	"25.867"	"25.777"	"25.46"	"22.662"	"19.832"
"1917"	"21.127"	"22.977"	"26.264"	"29.151"	"31.099"	"27.115"	"25.793"	"25.9"	"25.098"	"25.068"	"21.888"	"20.761"
"1918"	"20.52"	"23.868"	"27.507"	"30.52"	"30.578"	"28.067"	"27.789"	"25.922"	"26.776"	"26.103"	"23.879"	"21.743"
"1919"	"23.495"	"25.667"	"28.873"	"31.035"	"32.268"	"27.45"	"26.681"	"25.885"	"26.347"	"24.949"	"23.356"	"20.712"
"1920"	"21.903"	"23.858"	"28.495"	"30.628"	"31.521"	"29.805"	"26.654"	"27.055"	"26.911"	"27.198"	"23.651"	"21.606"
"1921"	"22.904"	"24.341"	"29.643"	"31.808"	"34.452"	"28.332"	"26.523"	"25.803"	"25.601"	"24.773"	"20.827"	"20.93"
"1922"	"21.823"	"24.365"	"28.446"	"31.741"	"32.519"	"28.769"	"26.195"	"26.282"	"25.313"	"25.093"	"22.493"	"19.867"
"1923"	"21.454"	"23.813"	"27.434"	"31.427"	"32.497"	"31.681"	"25.797"	"25.617"	"25.511"	"24.474"	"22.6"	"21.768"
"1924"	"22.819"	"25.727"	"28.923"	"32.525"	"33.3"	"30.192"	"26.927"	"26.359"	"25.513"	"24.488"	"21.405"	"20.681"
"1925"	"21.026"	"23.511"	"27.894"	"32.068"	"31.135"	"28.487"	"26.222"	"25.243"	"26.31"	"25.387"	"23.019"	"20.259"
"1926"	"22.622"	"24.874"	"28.388"	"29.436"	"31.755"	"31.778"	"27.033"	"25.738"	"26.139"	"25.877"	"22.435"	"21.356"
"1927"	"23.971"	"25.461"	"29.181"	"32.119"	"32.915"	"29.186"	"25.626"	"25.934"	"26.666"	"25.494"	"21.249"	"21.768"
"1928"	"22.899"	"24.769"	"28.347"	"30.957"	"33.692"	"29.162"	"26.153"	"26.288"	"25.991"	"25.591"	"23.426"	"21.754"
"1929"	"23.012"	"24.042"	"28.637"	"30.447"	"33.907"	"28.805"	"26.701"	"26.616"	"26.062"	"25.788"	"23.376"	"22.848"
"1930"	"23.15"	"23.402"	"28.656"	"30.727"	"32.903"	"29.966"	"26.738"	"26.184"	"26.208"	"26.076"	"22.359"	"22.621"
"1931"	"22.121"	"25.911"	"28.43"	"32.066"	"33.197"	"29.614"	"25.91"	"25.659"	"25.653"	"25.03"	"22.149"	"20.896"
"1932"	"21.178"	"23.266"	"26.692"	"30.373"	"31.912"	"29.226"	"25.638"	"26.167"	"25.823"	"26.467"	"23.469"	"21.208"
"1933"	"22.262"	"25.599"	"27.67"	"30.158"	"29.63"	"27.747"	"25.5"	"25.056"	"25.78"	"24.731"	"22.862"	"20.906"
"1934"	"21.105"	"24.05"	"27.743"	"31.622"	"33.375"	"29.576"	"25.879"	"25.168"	"25.529"	"25.39"	"21.399"	"20.798"
"1935"	"22.128"	"24.696"	"27.676"	"29.48"	"33.679"	"29.567"	"25.582"	"25.897"	"25.156"	"25.971"	"22.396"	"22.353"
"1936"	"23.854"	"24.331"	"27.492"	"30.548"	"32.401"	"27.488"	"26.788"	"25.565"	"26.442"	"25.689"	"23.207"	"21.508"
"1937"	"21.128"	"25.163"	"27.51"	"30.521"	"32.853"	"29.974"	"25.73"	"26.471"	"26.295"	"25.09"	"23.27"	"21.448"
"1938"	"23.954"	"24.339"	"29.25"	"31.344"	"32.534"	"25.888"	"25.2"	"25.542"	"25.535"	"24.474"	"21.66"	"20.473"
"1939"	"22.073"	"24.719"	"27.163"	"30.732"	"33.294"	"29.47"	"26.027"	"25.965"	"25.887"	"25.888"	"21.393"	"20.256"
"1940"	"20.766"	"24.67"	"27.202"	"30.511"	"31.928"	"28.849"	"25.009"	"25.172"	"26.136"	"25.538"	"23.783"	"22.22"
"1941"	"22.875"	"24.852"	"29.742"	"32.393"	"33.494"	"30.036"	"27.269"	"26.167"	"26.483"	"26.532"	"23.393"	"23.082"
"1942"	"22.948"	"24.886"	"29.025"	"31.659"	"33.064"	"29.613"	"25.683"	"25.434"	"25.248"	"25.09"	"22.631"	"22.01"
"1943"	"23.589"	"22.483"	"27.934"	"30.465"	"31.256"	"27.669"	"25.68"	"25.611"	"24.922"	"24.831"	"23.013"	"19.719"
"1944"	"22.676"	"24.283"	"26.325"	"29.988"	"33.237"	"29.502"	"25.827"	"26.085"	"26.104"	"25.406"	"22.463"	"21.88"
"1945"	"22.03"	"23.906"	"28.078"	"30.078"	"33.315"	"29.156"	"25.792"	"25.289"	"25.292"	"25.151"	"21.34"	"19.953"
"1946"	"20.681"	"23.872"	"28.477"	"30.99"	"32.361"	"27.724"	"26.122"	"25.559"	"26.071"	"26.686"	"23.827"	"22.969"
"1947"	"23.106"	"24.876"	"28.716"	"31.16"	"33.392"	"30.114"	"25.988"	"26.042"	"25.378"	"24.175"	"22.616"	"21.423"
"1948"	"22.727"	"24.791"	"27.604"	"31.019"	"33.646"	"29.204"	"26.358"	"25.586"	"25.306"	"26.238"	"24.396"	"19.675"
"1949"	"21.649"	"23.45"	"28.378"	"31.284"	"31.92"	"27.897"	"25.992"	"26.206"	"25.27"	"25.79"	"21.66"	"21.362"
"1950"	"21.827"	"23.862"	"27.029"	"31.16"	"32.75"	"29.041"	"26.129"	"26.756"	"25.514"	"25.132"	"21.953"	"20.984"
"1951"	"21.868"	"24.033"	"28.494"	"30.915"	"32.622"	"29.202"	"26.727"	"25.866"	"26.727"	"26.774"	"23.984"	"20.904"
"1952"	"22.354"	"25.556"	"27.837"	"32.016"	"33.312"	"29.84"	"27.354"	"25.866"	"26.41"	"25.871"	"21.614"	"22.925"
"1953"	"22.649"	"26.144"	"30.223"	"31.791"	"34.612"	"30.776"	"26.673"	"25.49"	"25.961"	"25.801"	"22.454"	"20.731"
"1954"	"21.728"	"25.635"	"28.412"	"32.132"	"34.328"	"29.478"	"26.031"	"26.105"	"25.095"	"24.309"	"21.685"	"21.908"
"1955"	"22.621"	"25.688"	"29.084"	"30.629"	"32.331"	"28.721"	"26.101"	"24.943"	"25.771"	"25.308"	"21.328"	"20.771"
"1956"	"22.448"	"24.027"	"29.143"	"31.799"	"32.102"	"28.014"	"24.779"	"25.416"	"25.568"	"24.853"	"22.903"	"21.526"
"1957"	"22.754"	"24.318"	"27.142"	"30.415"	"32.428"	"30.052"	"26.101"	"25.094"	"26.216"	"26.546"	"24.153"	"22.901"
"1958"	"22.783"	"25.151"	"28.635"	"31.6"	"33.301"	"31.707"	"25.683"	"25.936"	"25.761"	"25.811"	"24.198"	"21.822"
"1959"	"23.129"	"25.975"	"28.946"	"31.68"	"33.741"	"29.183"	"25.733"	"25.46"	"25.835"	"26.156"	"23.628"	"22.223"
"1960"	"23.017"	"24.821"	"27.963"	"31.112"	"32.694"	"28.579"	"26.942"	"26.455"	"26.381"	"25.486"	"23.178"	"22.684"
"1961"	"23.146"	"24.261"	"29.836"	"32.04"	"32.063"	"28.632"	"25.909"	"25.868"	"25.508"	"24.851"	"22.575"	"21.25"
"1962"	"20.829"	"24.438"	"27.798"	"30.203"	"31.972"	"29.628"	"26.557"	"25.946"	"25.446"	"25.488"	"22.692"	"21.071"
"1963"	"21.05"	"23.945"	"28.151"	"29.725"	"32.468"	"28.12"	"26.675"	"25.12"	"26.139"	"25.643"	"23.662"	"22.05"
"1964"	"22.733"	"25.545"	"29.632"	"32.102"	"33.187"	"29.324"	"26.226"	"25.154"	"25.438"	"25.838"	"22.301"	"20.921"
"1965"	"22.38"	"24.648"	"28.231"	"30.451"	"33.039"	"29.422"	"25.808"	"26.255"	"25.979"	"26.441"	"23.951"	"22.934"
"1966"	"22.753"	"25.714"	"29.001"	"31.772"	"32.456"	"30.246"	"27.657"	"26.687"	"25.911"	"26.207"	"24.688"	"21.622"
"1967"	"22.609"	"25.006"	"27.972"	"31.361"	"33.246"	"29.844"	"26.29"	"25.866"	"25.844"	"25.656"	"23.422"	"23.228"
"1968"	"21.455"	"25.075"	"27.462"	"30.219"	"32.594"	"29.521"	"26.577"	"25.77"	"26.066"	"24.866"	"23.068"	"22.792"
"1969"	"22.603"	"26.231"	"30.638"	"32.812"	"32.925"	"30.324"	"26.397"	"26.241"	"25.175"	"25.715"	"24.418"	"21.414"
"1970"	"22.903"	"26.345"	"29.756"	"32.062"	"33.255"	"27.467"	"26.947"	"25.406"	"25.848"	"25.618"	"22.261"	"19.869"
"1971"	"22.378"	"25.71"	"27.962"	"32.163"	"31.937"	"27.503"	"27.589"	"27.023"	"26.834"	"25.633"	"22.069"	"20.429"
"1972"	"21.599"	"24.704"	"29.585"	"31.576"	"33.108"	"30.977"	"27.18"	"26.355"	"27.192"	"26.454"	"23.583"	"23.301"
"1973"	"23.754"	"26.378"	"29.961"	"33.8"	"34.805"	"29.671"	"26.239"	"25.622"	"26.199"	"25.58"	"22.426"	"22.096"
"1974"	"21.761"	"25.576"	"29.491"	"32.308"	"31.835"	"29.079"	"27.759"	"26.061"	"26.934"	"25.595"	"22.102"	"20.539"
"1975"	"21.23"	"25.15"	"28.422"	"32.198"	"33.584"	"28.498"	"26.313"	"25.912"	"25.383"	"25.984"	"21.42"	"19.796"
"1976"	"20.96"	"24.573"	"28.987"	"31.253"	"32.985"	"29.141"	"26.27"	"25.625"	"26.074"	"26.888"	"25.252"	"23.044"
"1977"	"22.051"	"25.775"	"29.872"	"31.587"	"31.809"	"29.619"	"26.975"	"25.783"	"26.392"	"26.249"	"25.292"	"21.425"
"1978"	"22.502"	"24.807"	"28.329"	"31.759"	"33.446"	"28.254"	"25.742"	"25.161"	"26.291"	"26.382"	"25.244"	"22.466"
"1979"	"23.792"	"25.311"	"28.518"	"31.786"	"32.015"	"30.882"	"27.482"	"26.197"	"26.891"	"27.018"	"25.269"	"22.775"
"1980"	"23.878"	"26.817"	"29.476"	"32.482"	"34.5"	"28.21"	"26.645"	"25.273"	"26.745"	"27.223"	"25.067"	"22.473"
"1981"	"21.878"	"26.262"	"28.378"	"32.067"	"33.008"	"29.405"	"26.659"	"25.425"	"26.023"	"26.093"	"23.172"	"22.114"
"1982"	"23.833"	"26.223"	"29.31"	"31.253"	"31.824"	"29.848"	"27.338"	"26.403"	"26.562"	"26.558"	"24.46"	"22.996"
"1983"	"22.903"	"26.25"	"30.021"	"31.999"	"33.665"	"31.152"	"27.701"	"26.261"	"25.767"	"25.356"	"22.432"	"21.572"
"1984"	"23.854"	"24.975"	"29.244"	"31.837"	"34.758"	"29.251"	"26.525"	"26.012"	"26.778"	"26.408"	"22.856"	"23.283"
"1985"	"24.431"	"26.249"	"30.494"	"32.285"	"33.655"	"28.306"	"26.665"	"26.265"	"27.666"	"25.235"	"23.583"	"23.301"
"1986"	"22.475"	"25.611"	"30.047"	"32.373"	"33.938"	"28.861"	"26.902"	"25.94"	"27.957"	"27.967"	"24.423"	"23.381"
"1987"	"23.547"	"25.35"	"28.851"	"32.455"	"32.193"	"30.431"	"27.194"	"26.538"	"28.197"	"26.695"	"24.597"	"22.592"
"1988"	"23.776"	"26.848"	"29.92"	"31.716"	"34.847"	"30.023"	"26.42"	"26.572"	"26.578"	"25.872"	"23.669"	"22.091"
"1989"	"23.119"	"25.293"	"27.933"	"31.924"	"34.047"	"28.596"	"26.334"	"25.334"	"26.271"	"26.327"	"24.473"	"22.09"
"1990"	"23.184"	"25.796"	"28.587"	"32.486"	"29.878"	"27.046"	"26.329"	"25.946"	"26.594"	"25.377"	"24.588"	"22.871"
"1991"	"23.186"	"26.521"	"29.993"	"31.806"	"34.063"	"28.389"	"26.341"	"26.007"	"27.511"	"26.793"	"23.589"	"21.989"
"1992"	"22.356"	"25.228"	"30.096"	"31.837"	"33.474"	"30.488"	"27.84"	"25.536"	"26.11"	"26.415"	"24.108"	"21.137"
"1993"	"23.315"	"24.606"	"28.713"	"31.912"	"34.088"	"31.092"	"26.983"	"26.076"	"26.335"	"26.516"	"23.873"	"20.612"
"1994"	"22.99"	"25.627"	"30.176"	"30.681"	"34.006"	"28.729"	"25.736"	"25.478"	"26.316"	"26.338"	"22.989"	"20.861"
"1995"	"20.729"	"25.357"	"28.676"	"31.415"	"31.707"	"31.219"	"26.898"	"27.406"	"26.868"	"26.101"	"24.665"	"23.628"
"1996"	"24.53"	"26.151"	"30.164"	"31.212"	"34.093"	"30.053"	"27.492"	"26.02"	"26.538"	"25.589"	"23.596"	"22.01"
"1997"	"21.536"	"24.362"	"28.829"	"29.457"	"32.561"	"29.87"	"26.982"	"26.437"	"26.433"	"26.258"	"25.896"	"24.133"
"1998"	"24.131"	"26.048"	"29.634"	"32.897"	"34.511"	"31.527"	"27.944"	"26.707"	"26.562"	"26.53"	"24.419"	"21.256"
"1999"	"21.966"	"26.17"	"29.829"	"32.882"	"31.954"	"28.201"	"26.656"	"25.986"	"25.784"	"26.047"	"24.058"	"21.952"
"2000"	"23.447"	"25.555"	"28.609"	"33.048"	"31.934"	"27.661"	"25.981"	"26.34"	"26.626"	"27.453"	"24.895"	"22.171"
"2001"	"23.437"	"26.735"	"29.666"	"31.114"	"33.959"	"28.268"	"27.048"	"25.882"	"27.611"	"26.095"	"24.965"	"23.204"
"2002"	"22.932"	"26.411"	"29.909"	"32.928"	"33.558"	"28.805"	"27.559"	"25.186"	"26.406"	"26.548"	"23.658"	"22.971"
