
"Year"	"Jan"	"Feb"	"Mar"	"Apr"	"May"	"Jun"	"Jul"	"Aug"	"Sep"	"Oct"	"Nov"	"Dec"
"1901"	"12.8"	"14.972"	"22.073"	"27.173"	"31.55"	"35.227"	"32.375"	"30.757"	"30.456"	"27.903"	"20.976"	"15.751"
"1902"	"15.349"	"17.57"	"24.127"	"28.452"	"32.3"	"33"	"31.329"	"31.683"	"29.402"	"26.33"	"20.252"	"14.321"
"1903"	"13.949"	"15.825"	"20.65"	"26.522"	"31.423"	"35.579"	"33.305"	"30.382"	"30.455"	"26.378"	"19.673"	"14.371"
"1904"	"13.321"	"16.644"	"21.197"	"28.649"	"31.802"	"34.379"	"30.907"	"29.932"	"29.279"	"26.328"	"19.55"	"15.451"
"1905"	"12.277"	"11.847"	"18.375"	"25.176"	"33.179"	"35.105"	"32.431"	"31.433"	"31.13"	"27.081"	"21.453"	"15.451"
"1906"	"13"	"14.499"	"19.798"	"27.422"	"34.377"	"33.328"	"32.256"	"29.654"	"28.974"	"27.005"	"21.3"	"16.225"
"1907"	"15.547"	"14.175"	"18.726"	"24.848"	"30.35"	"33.399"	"33.43"	"29.804"	"31.03"	"27.227"	"20.674"	"14.323"
"1908"	"13.873"	"16.571"	"21.824"	"28.571"	"32.279"	"35.077"	"30.477"	"28.426"	"29.377"	"26.075"	"19.474"	"14.65"
"1909"	"13.148"	"15.047"	"21.97"	"26.124"	"31.851"	"32.076"	"29.623"	"29.302"	"28.872"	"26.574"	"21.377"	"14.446"
"1910"	"13.446"	"16.198"	"21.848"	"26.771"	"32.754"	"33.179"	"30.578"	"29.527"	"29.553"	"25.355"	"19.374"	"14.7"
"1911"	"15.203"	"16.594"	"19.676"	"27.447"	"33.626"	"33.702"	"33.379"	"31.758"	"29.504"	"26.855"	"17.946"	"14.548"
"1912"	"14.4"	"17.398"	"21.424"	"27.576"	"32.778"	"35.305"	"31.703"	"29.654"	"28.402"	"26.453"	"19.276"	"14.7"
"1913"	"14.751"	"15.826"	"19.399"	"28.975"	"30.451"	"31.402"	"30.576"	"30.78"	"30.601"	"27.23"	"19.902"	"14.704"
"1914"	"15.748"	"15.649"	"21.227"	"27.651"	"32.252"	"33.003"	"30.4"	"30.105"	"29.426"	"24.678"	"20.452"	"14.325"
"1915"	"13.923"	"14.571"	"21.852"	"27.875"	"34.907"	"34.004"	"33.456"	"31.407"	"30.755"	"27.624"	"20.6"	"15.551"
"1916"	"14.926"	"15.747"	"24.674"	"29.601"	"32.224"	"32.928"	"30.525"	"29.228"	"29.177"	"26.177"	"18.646"	"14.225"
"1917"	"14.249"	"16.851"	"21.777"	"24.701"	"28.154"	"32.526"	"29.926"	"28.976"	"27.675"	"24.701"	"17.843"	"14.877"
"1918"	"13.4"	"16.62"	"21.448"	"25.396"	"34.33"	"33.408"	"34.057"	"31.857"	"30.452"	"26.902"	"20.129"	"14.404"
"1919"	"14.077"	"15.347"	"22.401"	"27.103"	"31.679"	"36.033"	"30.528"	"29.5"	"29.553"	"26.177"	"19.525"	"14.251"
"1920"	"13.993"	"15.324"	"21.678"	"27.473"	"29.102"	"32.728"	"30.856"	"30.73"	"31.105"	"27.806"	"21.577"	"16.022"
"1921"	"15.003"	"17.398"	"25.024"	"31.228"	"35.551"	"34.933"	"33.233"	"29.807"	"29.281"	"25.504"	"20.126"	"16.603"
"1922"	"13.629"	"17.372"	"23.599"	"28.675"	"33.05"	"33.28"	"31.353"	"29.857"	"28.578"	"25.453"	"19.726"	"14.73"
"1923"	"13.772"	"15.199"	"22.499"	"28.949"	"31.775"	"35.852"	"31.3"	"28.827"	"29.605"	"25.453"	"19.774"	"15.026"
"1924"	"13.2"	"15.846"	"22.999"	"28.598"	"29.477"	"35.852"	"31.805"	"29.855"	"28.202"	"25.552"	"19.651"	"15.425"
"1925"	"12.251"	"14.218"	"22.526"	"30"	"32.354"	"31.028"	"29.2"	"30.028"	"30.281"	"26.254"	"18.649"	"14.597"
"1926"	"14.451"	"17.398"	"20.551"	"24.676"	"29.65"	"35.175"	"31.828"	"29.102"	"28.752"	"25.403"	"18.025"	"14.55"
"1927"	"12.773"	"14.172"	"20.698"	"26.722"	"30.901"	"33.851"	"30.502"	"28.98"	"29.203"	"26.105"	"19.727"	"15.899"
"1928"	"13.148"	"16.649"	"21.874"	"27.653"	"34.003"	"33.802"	"31.728"	"31.556"	"30.174"	"27.129"	"20.626"	"14.599"
"1929"	"13.925"	"15.124"	"24.152"	"28.952"	"33.452"	"33.955"	"31.002"	"29.378"	"30.806"	"26.277"	"20.426"	"13.728"
"1930"	"12.974"	"15.897"	"22.698"	"27.248"	"32.303"	"32.826"	"29.475"	"29.981"	"28.872"	"26.203"	"19.425"	"14.749"
"1931"	"14.946"	"14.171"	"20.849"	"28.973"	"32.377"	"34.573"	"31.324"	"30.053"	"28.854"	"25.854"	"19.276"	"15.425"
"1932"	"15.474"	"15.5"	"23.025"	"28.049"	"31.027"	"35.452"	"31.324"	"28.928"	"29.179"	"26.2"	"19.546"	"14.574"
"1933"	"11.896"	"16.672"	"21.697"	"25.923"	"29.556"	"33.032"	"29.829"	"28.002"	"27.749"	"25.176"	"19.376"	"15.725"
"1934"	"12.2"	"17.693"	"20.875"	"27.546"	"31.402"	"32.902"	"30.831"	"28.707"	"30.178"	"25.673"	"19.698"	"15.807"
"1935"	"12.302"	"16.649"	"21.699"	"24.522"	"32.675"	"35.1"	"30.552"	"29.128"	"29.056"	"25.852"	"20.401"	"14.751"
"1936"	"12.697"	"16.599"	"21.146"	"27.371"	"34.43"	"31.277"	"30.126"	"29.229"	"28.803"	"25.952"	"19.774"	"14.879"
"1937"	"13.049"	"16.249"	"20.298"	"25.975"	"32.026"	"33.877"	"30.326"	"31.381"	"29.629"	"25.299"	"19.553"	"13.872"
"1938"	"13.3"	"14.798"	"23.073"	"28.924"	"34.503"	"32.475"	"31.831"	"30.831"	"31.155"	"27.326"	"18.755"	"14.874"
"1939"	"14.677"	"16.395"	"19.373"	"26.371"	"34.001"	"32.128"	"31.077"	"31.205"	"30.133"	"27.456"	"19.776"	"15.576"
"1940"	"14.025"	"15.798"	"20.429"	"26.6"	"33.302"	"34.299"	"31.398"	"28.83"	"29.228"	"26.177"	"20.728"	"14.928"
"1941"	"13.128"	"17.198"	"24.299"	"30.976"	"34.128"	"32.123"	"32.899"	"30.378"	"29.828"	"28.631"	"20.379"	"16.299"
"1942"	"12.675"	"17.07"	"23.622"	"29.548"	"33.252"	"34.722"	"29.752"	"28.274"	"27.875"	"25.999"	"21.028"	"14.073"
"1943"	"13.8"	"16.467"	"22.574"	"26.601"	"32.154"	"33.577"	"30.329"	"28.832"	"29.93"	"26.177"	"20.799"	"16.301"
"1944"	"13.102"	"15.647"	"20.649"	"26.873"	"33.924"	"33.534"	"30.202"	"29.879"	"29.077"	"25.802"	"20.502"	"15.848"
"1945"	"11.951"	"15.475"	"22.725"	"26.397"	"31.266"	"33.989"	"30.724"	"29.926"	"28.325"	"25.603"	"20.074"	"13.927"
"1946"	"14.822"	"18.579"	"21.45"	"29.656"	"32.631"	"33.399"	"30.376"	"29.627"	"29.955"	"26.63"	"19.927"	"14.174"
"1947"	"13.251"	"16.7"	"22.927"	"29.953"	"33.505"	"36.405"	"32.528"	"30.86"	"28.471"	"25.326"	"21.129"	"15.125"
"1948"	"13.729"	"15.877"	"20.829"	"30.67"	"33.369"	"35.002"	"31.177"	"28.781"	"29.429"	"27.106"	"19.024"	"14.803"
"1949"	"16.028"	"16.677"	"22.729"	"29.779"	"34.211"	"34.526"	"30.302"	"30.26"	"30.758"	"26.277"	"18.85"	"14.376"
"1950"	"15.326"	"14.421"	"21.027"	"27.223"	"33.455"	"34.832"	"30.753"	"29.602"	"28.2"	"25.324"	"19.297"	"13.297"
"1951"	"13.403"	"16.321"	"22.352"	"25.953"	"32.202"	"33.978"	"33.054"	"30.429"	"30.307"	"28.83"	"21.627"	"15.85"
"1952"	"15.351"	"18.798"	"22.51"	"30.853"	"33.256"	"33.2"	"31.375"	"29.054"	"30.805"	"27.108"	"20.575"	"15.623"
"1953"	"13.753"	"18.972"	"26.127"	"29.353"	"33.91"	"34.526"	"30.677"	"29.73"	"29.881"	"26.804"	"20.426"	"17.852"
"1954"	"13.403"	"17.426"	"22.35"	"29.226"	"34.333"	"34.807"	"31.529"	"31.334"	"30.252"	"24.177"	"20.178"	"15.577"
"1955"	"14.026"	"17.324"	"24.65"	"26.629"	"30.831"	"35.128"	"32.082"	"29.382"	"28.878"	"24.877"	"19.776"	"15.527"
"1956"	"14.378"	"17.549"	"22.754"	"29.477"	"34.91"	"34.004"	"30.354"	"29.355"	"30.733"	"25.077"	"19.251"	"15.553"
"1957"	"13.503"	"15.373"	"21.457"	"26.851"	"31.331"	"33.628"	"31.555"	"30.053"	"28.051"	"26.251"	"20.649"	"15.424"
"1958"	"15.751"	"16.152"	"23.755"	"30.856"	"32.732"	"35.027"	"30.48"	"29.681"	"28.974"	"26.254"	"20.955"	"16.02"
"1959"	"13.948"	"15.798"	"23.224"	"28.731"	"32.107"	"34.828"	"31.181"	"30.028"	"29.498"	"26.518"	"20.375"	"15.948"
"1960"	"13.598"	"19.645"	"21.627"	"27.507"	"33.688"	"35.205"	"31.409"	"29.807"	"30.076"	"25.979"	"19.449"	"15.465"
"1961"	"14.903"	"14.875"	"23.001"	"27.848"	"32.679"	"34.131"	"31.277"	"29.378"	"29.902"	"25.478"	"18.426"	"12.925"
"1962"	"12.722"	"17.3"	"22.073"	"29.477"	"32.928"	"34.278"	"31.851"	"30.506"	"28.075"	"26.508"	"19.62"	"14.472"
"1963"	"13.095"	"18.295"	"22.204"	"27.752"	"31.126"	"33.73"	"32.227"	"28.953"	"28.325"	"26.651"	"20.953"	"14.823"
"1964"	"12.272"	"16.045"	"22.945"	"28.522"	"30.426"	"34.579"	"29.351"	"29.904"	"28.276"	"25.624"	"18.923"	"14.823"
"1965"	"15.599"	"16.578"	"21.829"	"26.076"	"31.325"	"35.277"	"31.103"	"29.654"	"28.999"	"26.203"	"20.727"	"13.996"
"1966"	"14.247"	"18.371"	"22.171"	"28.699"	"32.776"	"33.227"	"32.304"	"29.804"	"28.928"	"26.152"	"19.749"	"14.422"
"1967"	"12.947"	"18.772"	"21.529"	"27.452"	"32"	"34.979"	"31.053"	"29.179"	"28.802"	"25.427"	"19.628"	"15.151"
"1968"	"13.429"	"15.098"	"22.277"	"27.903"	"32.352"	"34.406"	"30.878"	"29.93"	"30.779"	"25.45"	"20.426"	"15.501"
"1969"	"14.302"	"17.472"	"24.95"	"28.904"	"31.328"	"35.13"	"31.304"	"30.683"	"29.204"	"27.256"	"21.478"	"15.725"
"1970"	"14.677"	"16.274"	"22.254"	"29.5"	"33.655"	"31.953"	"32.305"	"29.854"	"29.728"	"27.081"	"20.025"	"15.649"
"1971"	"13.326"	"17.375"	"22.35"	"29.456"	"30.984"	"32.356"	"30.303"	"28.274"	"28.752"	"26.254"	"20.354"	"15.998"
"1972"	"14.677"	"14.823"	"23.327"	"27.324"	"33.903"	"35.175"	"32.254"	"29.679"	"28.805"	"26.081"	"20.977"	"15.646"
"1973"	"14.476"	"18.8"	"22.101"	"29.924"	"32.899"	"34.508"	"30.694"	"28.97"	"29.373"	"25.447"	"19.773"	"13.648"
"1974"	"13.898"	"14.945"	"23.349"	"30.149"	"32.202"	"32.744"	"30.149"	"30.178"	"29.948"	"25.769"	"19.897"	"14.198"
"1975"	"13.676"	"15.997"	"21.874"	"29.273"	"33.723"	"32.855"	"30.147"	"29.425"	"27.877"	"27.054"	"19.327"	"15.875"
"1976"	"14.847"	"16.847"	"21.801"	"27.577"	"32.081"	"31.775"	"31.226"	"28.247"	"28.673"	"26.702"	"20.824"	"14.951"
"1977"	"13.825"	"16.421"	"23.224"	"27.503"	"29.901"	"31.446"	"29.449"	"29.526"	"27.95"	"26.348"	"22.004"	"16.799"
"1978"	"13.096"	"15.147"	"20.401"	"27.553"	"34.606"	"33.077"	"29.399"	"29.052"	"28.321"	"26.25"	"20.925"	"15.599"
"1979"	"14.542"	"15.748"	"20.5"	"29.352"	"30.995"	"33.805"	"30.777"	"30.654"	"28.898"	"27.095"	"21.998"	"16.774"
"1980"	"14.448"	"17.675"	"21.525"	"30.598"	"35.094"	"33.03"	"29.65"	"29.978"	"28.976"	"26.902"	"20.377"	"15.598"
"1981"	"14.379"	"17.423"	"21.449"	"28.827"	"32.501"	"34.125"	"29.674"	"29.956"	"29.926"	"26.051"	"19.798"	"15.502"
"1982"	"14.9"	"15.697"	"19.651"	"26.376"	"29.182"	"33.628"	"32.203"	"29.48"	"29.953"	"26.578"	"21.003"	"16.274"
"1983"	"13.425"	"15.902"	"21.427"	"25.352"	"30.024"	"32.754"	"30.951"	"29.228"	"29.629"	"25.552"	"19.774"	"15.725"
"1984"	"13.075"	"14.822"	"23.876"	"28.724"	"35.004"	"34.208"	"30.177"	"29.449"	"28.024"	"25.498"	"20.074"	"16.049"
"1985"	"14.198"	"17.5"	"24.225"	"29.051"	"33.706"	"33.876"	"29.8"	"29.705"	"29.077"	"24.9"	"20.677"	"16.851"
"1986"	"13.923"	"16.021"	"22.025"	"28.151"	"30.303"	"33.28"	"30.126"	"30.053"	"29.128"	"25.527"	"21.401"	"14.649"
"1987"	"14.849"	"18.17"	"22.874"	"29.024"	"29.201"	"34.555"	"34.281"	"31.332"	"31.23"	"27.704"	"21.125"	"16.098"
"1988"	"15.748"	"18.095"	"22.325"	"29.875"	"34.657"	"33.028"	"29.901"	"28.803"	"29.349"	"25.974"	"20.901"	"16.274"
"1989"	"13.349"	"16.072"	"21.773"	"26.926"	"32.656"	"32.68"	"31.501"	"28.951"	"29.027"	"26.45"	"20.704"	"15.026"
"1990"	"16.147"	"16.747"	"20.649"	"27.878"	"32.007"	"34.405"	"29.875"	"29.551"	"28.478"	"25.124"	"20.901"	"15.849"
"1991"	"13.827"	"17.245"	"21.973"	"26.924"	"32.603"	"32.68"	"32.829"	"29.353"	"29.428"	"25.378"	"19.853"	"15.877"
"1992"	"14.877"	"15.748"	"22.05"	"27.776"	"31.654"	"34.453"	"30.174"	"29.204"	"28.552"	"25.65"	"19.999"	"16.752"
"1993"	"14.3"	"18.601"	"20.626"	"28.079"	"33.731"	"33.882"	"30.527"	"30.884"	"27.777"	"25.527"	"21.101"	"15.599"
"1994"	"14.898"	"16.723"	"23.676"	"26.828"	"33.13"	"34.228"	"29.8"	"29.203"	"28.626"	"25.301"	"20.502"	"16.424"
"1995"	"13.8"	"16.972"	"21.101"	"27.449"	"33.905"	"35.303"	"31.53"	"28.078"	"29.077"	"26.675"	"20.725"	"16.127"
"1996"	"14.448"	"17.3"	"23.15"	"28.802"	"32.23"	"31.976"	"31.158"	"28.758"	"28.603"	"25.651"	"19.702"	"14.776"
"1997"	"13.425"	"16.395"	"21.776"	"26.752"	"30.352"	"31.478"	"31.226"	"29.203"	"29.402"	"24.054"	"19.625"	"13.275"
"1998"	"13.238"	"17.047"	"20.426"	"28.751"	"33.603"	"33.526"	"30.878"	"29.655"	"29.4"	"26.177"	"21.073"	"15.492"
"1999"	"13.524"	"17.716"	"23.594"	"30.668"	"33.302"	"32.778"	"31.7"	"30.578"	"29.705"	"26.551"	"21.449"	"15.922"
"2000"	"14.321"	"15.424"	"21.926"	"30.375"	"34.133"	"32.155"	"29.949"	"30.079"	"29.549"	"26.999"	"21.599"	"16.246"
"2001"	"13.472"	"17.6"	"22.801"	"28.401"	"32.604"	"31.274"	"30.901"	"30.827"	"30.049"	"27.426"	"21.498"	"16.496"
"2002"	"15.102"	"16.544"	"22.319"	"30.379"	"33.976"	"33.423"	"32.451"	"30.554"	"27.826"	"26.475"	"21.228"	"16.45"
