
"Year"	"Jan"	"Feb"	"Mar"	"Apr"	"May"	"Jun"	"Jul"	"Aug"	"Sep"	"Oct"	"Nov"	"Dec"
"1901"	"20.063"	"22.104"	"26.933"	"31.183"	"33.601"	"32.239"	"27.338"	"26.055"	"27.018"	"26.539"	"21.969"	"19.129"
"1902"	"20.985"	"23.126"	"28.796"	"31.647"	"34.403"	"32.565"	"27.391"	"27.253"	"26.916"	"26.131"	"21.749"	"19.117"
"1903"	"20.682"	"21.594"	"27.38"	"31.863"	"32.977"	"31.417"	"27.286"	"26.838"	"26.743"	"25.068"	"20.708"	"18.287"
"1904"	"20.264"	"22.382"	"27.427"	"32.531"	"33.413"	"29.719"	"26.874"	"26.315"	"26.5"	"25.838"	"21.448"	"19.711"
"1905"	"19.806"	"20.664"	"26.784"	"29.599"	"33.559"	"33.28"	"26.951"	"27"	"26.309"	"25.552"	"22.164"	"18.873"
"1906"	"20.114"	"22.903"	"26.31"	"32.422"	"34.952"	"30.445"	"26.863"	"26.685"	"26.68"	"25.658"	"22.122"	"19.926"
"1907"	"20.123"	"22.694"	"26.485"	"28.879"	"32.648"	"30.623"	"27.621"	"25.454"	"27.139"	"26.486"	"22.748"	"18.484"
"1908"	"18.531"	"22.955"	"26.785"	"32.584"	"34.356"	"31.544"	"26.515"	"25.681"	"26.886"	"25.629"	"21.193"	"17.818"
"1909"	"21.185"	"22.894"	"27.943"	"28.784"	"33.308"	"29.326"	"26.181"	"26.802"	"26.476"	"24.854"	"21.32"	"19.772"
"1910"	"19.602"	"21.967"	"27.46"	"32.017"	"33.867"	"29.74"	"27.128"	"26.5"	"26.766"	"25.605"	"20.323"	"17.807"
"1911"	"20.686"	"21.768"	"26.652"	"31.321"	"34.433"	"29.064"	"27.695"	"25.737"	"26.653"	"25.717"	"22.447"	"18.474"
"1912"	"19.775"	"23.306"	"27.971"	"30.76"	"33.974"	"33.071"	"26.946"	"26.257"	"26.731"	"25.872"	"21.504"	"18.102"
"1913"	"18.895"	"23.225"	"26.729"	"32.322"	"32.941"	"28.941"	"26.841"	"26.16"	"26.869"	"25.608"	"21.234"	"19.291"
"1914"	"19.436"	"23.737"	"27.264"	"29.238"	"32.526"	"29.948"	"26.734"	"26.602"	"26.609"	"25.4"	"22.345"	"19.338"
"1915"	"19.752"	"22.509"	"26.452"	"30.958"	"34.312"	"32.351"	"27.83"	"26.869"	"26.932"	"26.672"	"23.706"	"18.934"
"1916"	"19.106"	"22.865"	"27.639"	"32.113"	"33.517"	"28.177"	"27.386"	"26.555"	"26.875"	"26.347"	"22.541"	"17.934"
"1917"	"19.359"	"21.769"	"26.041"	"29.736"	"30.79"	"28.29"	"26.395"	"26.489"	"26.267"	"25.631"	"21.316"	"18.659"
"1918"	"18.794"	"22.243"	"26.97"	"30.371"	"32.08"	"27.569"	"27.74"	"25.895"	"26.98"	"25.183"	"22.732"	"19.52"
"1919"	"21.592"	"22.701"	"27.224"	"30.447"	"32.252"	"28.828"	"26.764"	"25.996"	"26.853"	"25.356"	"22.487"	"18.737"
"1920"	"19.856"	"22.724"	"27.618"	"30.754"	"32.04"	"31.572"	"26.565"	"26.559"	"27.309"	"26.428"	"21.959"	"18.686"
"1921"	"20.569"	"22.346"	"28.8"	"32.02"	"36.526"	"30.485"	"27.422"	"26.254"	"26.306"	"25.165"	"19.898"	"19.248"
"1922"	"19.824"	"22.726"	"28.074"	"31.877"	"34.425"	"29.739"	"26.185"	"26.425"	"26.223"	"24.94"	"21.847"	"17.839"
"1923"	"19.516"	"22.338"	"26.39"	"31.181"	"34.205"	"33.766"	"26.598"	"25.82"	"26.921"	"24.768"	"21.528"	"19.319"
"1924"	"20.199"	"23.533"	"28.397"	"32.17"	"33.611"	"32.881"	"26.966"	"26.794"	"26.53"	"25.242"	"21.279"	"18.697"
"1925"	"19.011"	"21.85"	"26.897"	"31.82"	"31.749"	"29.235"	"25.664"	"26.303"	"27.197"	"25.866"	"22.464"	"18.667"
"1926"	"20.521"	"23.459"	"27.171"	"29.272"	"31.834"	"33.707"	"27.403"	"26.221"	"26.708"	"25.112"	"20.553"	"18.905"
"1927"	"21.555"	"23.517"	"27.058"	"31.905"	"33.719"	"31.035"	"26.506"	"26.075"	"27.098"	"25.338"	"20.978"	"19.345"
"1928"	"20.353"	"22.578"	"27.388"	"30.842"	"34.235"	"30.254"	"26.565"	"27.058"	"27.078"	"26.391"	"21.597"	"19.524"
"1929"	"20.545"	"21.266"	"27.257"	"29.972"	"34.3"	"30.064"	"26.221"	"25.898"	"27.009"	"24.972"	"20.918"	"19.468"
"1930"	"19.686"	"21.434"	"27.43"	"30.395"	"33.269"	"30.824"	"26.495"	"26.212"	"26.778"	"26.122"	"21.025"	"19.17"
"1931"	"20.073"	"23.648"	"27.062"	"31.714"	"34.307"	"32.333"	"26.867"	"26.393"	"27.261"	"25.788"	"21.492"	"18.832"
"1932"	"19.925"	"21.47"	"27.215"	"30.97"	"33.327"	"31.925"	"26.444"	"26.769"	"26.82"	"26.495"	"22.522"	"18.967"
"1933"	"20.057"	"23.943"	"27.385"	"30.144"	"31.164"	"28.418"	"26.964"	"26.415"	"26.56"	"25.52"	"21.694"	"19.352"
"1934"	"19.251"	"22.351"	"27.295"	"31.444"	"34.454"	"30.708"	"26.699"	"26.318"	"26.438"	"24.819"	"20.85"	"19.01"
"1935"	"19.727"	"23.049"	"27.304"	"29.517"	"34.818"	"32.257"	"26.266"	"26.275"	"26.502"	"25.829"	"21.466"	"20.095"
"1936"	"21.536"	"22.274"	"27.737"	"30.834"	"33.607"	"27.918"	"26.911"	"26.096"	"26.803"	"25.337"	"23.114"	"19.735"
"1937"	"18.799"	"23.25"	"26.536"	"30.169"	"33.489"	"31.373"	"26.462"	"26.394"	"26.728"	"25.34"	"21.86"	"18.757"
"1938"	"22.064"	"22.098"	"28.814"	"31.294"	"33.584"	"27.695"	"26.599"	"26.669"	"26.872"	"25.346"	"20.939"	"18.554"
"1939"	"20.608"	"23.529"	"26.568"	"31.109"	"35.007"	"30.991"	"26.221"	"26.281"	"26.53"	"26.229"	"21.104"	"18.682"
"1940"	"18.471"	"22.781"	"26.44"	"30.504"	"33.131"	"30.315"	"25.925"	"26.22"	"27.139"	"26.135"	"22.728"	"19.823"
"1941"	"21.036"	"23.071"	"28.463"	"32.863"	"34.349"	"29.924"	"27.167"	"26.935"	"27.399"	"25.661"	"20.868"	"20.04"
"1942"	"19.933"	"22.69"	"27.741"	"31.114"	"34.666"	"32.267"	"25.912"	"26.326"	"26.993"	"25.017"	"21.633"	"19.659"
"1943"	"21.674"	"21.116"	"27.388"	"30.129"	"33.137"	"29.608"	"26.512"	"25.748"	"26.73"	"25.613"	"21.653"	"17.798"
"1944"	"20.053"	"22.124"	"25.516"	"29.346"	"34.114"	"31.242"	"26.075"	"26.048"	"26.743"	"25.148"	"21.167"	"19.965"
"1945"	"19.283"	"21.843"	"27.391"	"29.665"	"33.905"	"31.115"	"26.412"	"26.787"	"26.198"	"24.554"	"20.429"	"17.474"
"1946"	"18.455"	"22.231"	"27.714"	"29.795"	"33.41"	"28.943"	"26.461"	"26.13"	"26.755"	"26.34"	"23.449"	"21.578"
"1947"	"21.149"	"22.143"	"27.928"	"32.377"	"34.766"	"31.679"	"26.24"	"26.802"	"26.832"	"25.182"	"21.719"	"19.749"
"1948"	"20.901"	"23.427"	"26.635"	"31.931"	"35.099"	"31.728"	"27.173"	"26.437"	"26.615"	"26.285"	"23.698"	"18.281"
"1949"	"19.923"	"22.186"	"27.904"	"31.514"	"33.426"	"30.091"	"26.623"	"26.613"	"26.751"	"26.043"	"21.4"	"17.841"
"1950"	"20.044"	"22.366"	"26.366"	"31.324"	"34.483"	"30.285"	"26.087"	"26.713"	"26.974"	"25.17"	"20.98"	"18.867"
"1951"	"19.211"	"23.07"	"27.511"	"30.387"	"33.268"	"30.768"	"27.373"	"26.238"	"27.615"	"27.329"	"22.591"	"19.651"
"1952"	"20.75"	"24.073"	"27.016"	"31.995"	"34.596"	"31.949"	"27.403"	"26.394"	"26.801"	"26.152"	"21.448"	"20.859"
"1953"	"20.052"	"24.019"	"29.626"	"31.578"	"35.64"	"32.708"	"26.934"	"26.096"	"27.392"	"25.971"	"21.401"	"19.417"
"1954"	"19.292"	"24.157"	"27.578"	"32.311"	"34.845"	"31.212"	"27.072"	"26.879"	"26.276"	"24.622"	"20.405"	"19.826"
"1955"	"20.193"	"23.815"	"28.635"	"30.464"	"33.494"	"31.285"	"26.589"	"26.535"	"26.622"	"25.547"	"20.653"	"18.692"
"1956"	"20.533"	"22.09"	"28.741"	"32.554"	"33.814"	"28.588"	"26.118"	"26.16"	"26.43"	"25.1"	"21.792"	"20.217"
"1957"	"21.252"	"22.415"	"26.051"	"30.556"	"33.493"	"31.363"	"26.281"	"26.559"	"27.115"	"26.45"	"22.37"	"20.656"
"1958"	"20.866"	"23.681"	"28.038"	"32.121"	"34.103"	"33.376"	"26.56"	"26.975"	"26.722"	"25.849"	"23.138"	"19.888"
"1959"	"20.613"	"23.137"	"27.89"	"31.661"	"34.361"	"30.641"	"26.458"	"25.96"	"26.428"	"26.083"	"21.64"	"19.339"
"1960"	"19.899"	"23.148"	"26.611"	"31.267"	"33.765"	"30.886"	"26.665"	"26.106"	"27.252"	"25.37"	"21.394"	"20.667"
"1961"	"20.838"	"21.861"	"28.803"	"31.743"	"33.797"	"29.568"	"26.151"	"26.394"	"25.923"	"25.327"	"20.969"	"18.067"
"1962"	"18.086"	"22.175"	"26.914"	"30.514"	"32.976"	"30.001"	"26.637"	"26.318"	"26.708"	"25.188"	"21.725"	"19.668"
"1963"	"18.559"	"22.999"	"27.102"	"29.711"	"33.038"	"29.956"	"26.665"	"26.438"	"26.761"	"26.074"	"22.656"	"19.533"
"1964"	"20.95"	"23.344"	"28.406"	"32.07"	"34.22"	"30.616"	"26.35"	"25.81"	"26.945"	"26.008"	"21.68"	"19.512"
"1965"	"20.205"	"22.902"	"26.959"	"30.397"	"33.819"	"31.47"	"26.864"	"27.011"	"26.689"	"26.292"	"22.595"	"20.269"
"1966"	"20.016"	"24.091"	"28.017"	"32.137"	"34.748"	"31.127"	"28.303"	"26.794"	"27.189"	"26.323"	"24.231"	"19.438"
"1967"	"20.53"	"23.871"	"26.517"	"30.821"	"34.447"	"31.885"	"27.509"	"26.069"	"26.693"	"25.221"	"22.029"	"21.434"
"1968"	"19.577"	"22.739"	"26.17"	"29.477"	"33.331"	"31.071"	"27.021"	"26.059"	"27.162"	"25.251"	"22.185"	"19.636"
"1969"	"20.103"	"24.776"	"29.481"	"32.662"	"33.084"	"31.254"	"26.537"	"26.299"	"26.402"	"26.022"	"23.402"	"19.132"
"1970"	"20.514"	"24.194"	"27.567"	"31.226"	"34.35"	"28.506"	"26.508"	"26.237"	"26.629"	"25.78"	"20.743"	"18.03"
"1971"	"19.905"	"23.066"	"26.309"	"30.218"	"30.751"	"27.303"	"25.902"	"26.002"	"27.46"	"25.644"	"21.066"	"18.198"
"1972"	"19.819"	"22.382"	"28.674"	"31.072"	"34.779"	"33.504"	"27.7"	"26.02"	"26.812"	"25.439"	"22.351"	"21.017"
"1973"	"21.686"	"24.175"	"28.01"	"33.59"	"35.911"	"31.833"	"26.031"	"26.24"	"26.785"	"25.327"	"21.411"	"19.287"
"1974"	"19.538"	"23.316"	"28.436"	"32.896"	"32.863"	"31.115"	"27.532"	"26.997"	"27.81"	"26.226"	"22.055"	"19.23"
"1975"	"18.733"	"23.259"	"27.208"	"33.21"	"35.545"	"30.867"	"26.31"	"26.606"	"26.478"	"26.436"	"20.167"	"18.245"
"1976"	"18.646"	"23.477"	"27.796"	"30.699"	"33.53"	"30.971"	"26.429"	"26.325"	"26.551"	"26.746"	"25.551"	"21.561"
"1977"	"20.63"	"24.146"	"29.023"	"31.038"	"31.561"	"31.254"	"26.809"	"26.279"	"26.728"	"26.011"	"24.097"	"19.134"
"1978"	"19.262"	"22.033"	"26.3"	"30.961"	"35.296"	"30.468"	"26.521"	"25.389"	"27.055"	"26.149"	"24.343"	"19.507"
"1979"	"21.109"	"21.734"	"27.303"	"31.016"	"33.108"	"31.589"	"27.274"	"26.689"	"26.22"	"27.032"	"25.21"	"20.648"
"1980"	"21.666"	"24.209"	"28.273"	"31.842"	"34.706"	"28.505"	"26.173"	"26.355"	"26.253"	"25.886"	"23.457"	"20.18"
"1981"	"19.224"	"24.016"	"26.247"	"30.605"	"32.335"	"30.969"	"26.698"	"26.366"	"26.812"	"26.135"	"21.974"	"19.419"
"1982"	"21.591"	"23.402"	"26.852"	"31.325"	"32.802"	"31.51"	"28.785"	"25.832"	"27.617"	"26.502"	"23.09"	"21.195"
"1983"	"20.723"	"23.094"	"28.151"	"31.098"	"33.252"	"32.956"	"27.881"	"26.832"	"27.115"	"25.436"	"20.811"	"19.033"
"1984"	"20.498"	"21.993"	"27.632"	"31.096"	"35.315"	"29.592"	"26.678"	"26.191"	"26.701"	"26.513"	"21.437"	"20.579"
"1985"	"21.539"	"23.052"	"29.118"	"32.202"	"34.147"	"30.482"	"26.134"	"26.089"	"27.083"	"25.105"	"21.65"	"20.805"
"1986"	"19.655"	"23.027"	"27.066"	"31.518"	"33.226"	"30.603"	"26.499"	"25.762"	"27.523"	"25.403"	"22.97"	"20.533"
"1987"	"19.969"	"22.632"	"26.862"	"31.827"	"32.605"	"32.494"	"26.867"	"27.216"	"27.645"	"26.116"	"22.727"	"19.431"
"1988"	"21.179"	"23.838"	"27.621"	"31.031"	"35.234"	"30.429"	"26.705"	"27.106"	"27.673"	"25.7"	"22.381"	"20.733"
"1989"	"20.011"	"23.882"	"26.792"	"32.414"	"35.073"	"29.67"	"27.493"	"26.696"	"27.335"	"26.494"	"23.578"	"19.73"
"1990"	"22.229"	"23.829"	"26.763"	"31.461"	"30.187"	"28.083"	"25.997"	"27.145"	"26.927"	"25.273"	"23.463"	"20.475"
"1991"	"20.419"	"25.091"	"28.413"	"31.083"	"34.698"	"30.198"	"27.483"	"26.26"	"27.978"	"25.952"	"21.805"	"19.668"
"1992"	"19.768"	"22.742"	"28.757"	"31.717"	"33.602"	"31.165"	"28.013"	"26.425"	"26.922"	"26.439"	"23.558"	"19.414"
"1993"	"21.058"	"23.074"	"26.926"	"31.703"	"34.961"	"31.283"	"27.569"	"26.888"	"27.033"	"26.89"	"22.371"	"19.138"
"1994"	"21.599"	"23.087"	"29.189"	"30.775"	"34.282"	"29.938"	"26.119"	"25.872"	"26.811"	"26.375"	"22.728"	"19.644"
"1995"	"19.064"	"23.174"	"26.802"	"30.971"	"31.561"	"32.96"	"27.189"	"27.237"	"27.598"	"26.125"	"22.972"	"21.105"
"1996"	"22.024"	"22.966"	"28.619"	"30.852"	"35.014"	"31.524"	"27.44"	"26.375"	"27.786"	"25.909"	"22.707"	"19.303"
"1997"	"19.117"	"22.028"	"27.85"	"29.273"	"32.963"	"31.705"	"27.321"	"26.561"	"27.054"	"26.191"	"24.484"	"21.447"
"1998"	"21.147"	"23.337"	"26.467"	"30.843"	"33.729"	"32.264"	"27.47"	"27.277"	"27.596"	"27.441"	"23.388"	"19.178"
"1999"	"18.558"	"24.195"	"27.985"	"33.127"	"32.934"	"29.896"	"26.918"	"26.16"	"26.485"	"26.663"	"22.665"	"19.671"
"2000"	"21.337"	"22.924"	"26.936"	"32.666"	"33.27"	"28.945"	"26.985"	"26.837"	"26.883"	"27.234"	"23.589"	"19.479"
"2001"	"20.214"	"23.84"	"28.216"	"30.386"	"34.113"	"28.483"	"26.308"	"26.414"	"27.961"	"26.845"	"24.32"	"20.501"
"2002"	"20.201"	"23.924"	"28.306"	"31.902"	"35.043"	"30.421"	"28"	"26.004"	"27.044"	"26.546"	"22.916"	"21.471"
