
"Year"	"Jan"	"Feb"	"Mar"	"Apr"	"May"	"Jun"	"Jul"	"Aug"	"Sep"	"Oct"	"Nov"	"Dec"
"1901"	"16.656"	"20.083"	"25.221"	"30.887"	"31.991"	"32.084"	"28.326"	"27.542"	"27.253"	"26.249"	"20.674"	"17.007"
"1902"	"18.165"	"20.322"	"27.257"	"29.562"	"32.027"	"31.638"	"27.77"	"28.085"	"27.4"	"25.433"	"20.369"	"16.744"
"1903"	"17.965"	"19.326"	"25.808"	"31.015"	"33.311"	"30.691"	"28.692"	"27.827"	"27.527"	"25.438"	"19.769"	"16.149"
"1904"	"17.407"	"19.727"	"26.126"	"31.576"	"31.141"	"29.566"	"26.98"	"27.3"	"27.4"	"25.391"	"20.13"	"17.754"
"1905"	"17.056"	"17.318"	"24.108"	"27.811"	"30.669"	"33.139"	"27.685"	"27.58"	"27.099"	"25.348"	"20.616"	"17.038"
"1906"	"17.256"	"19.55"	"23.853"	"31.13"	"32.984"	"31.208"	"28.085"	"27.485"	"27.8"	"25.496"	"20.715"	"17.592"
"1907"	"18.265"	"19.519"	"23.845"	"28.073"	"31.415"	"30.522"	"28.311"	"27.404"	"27.604"	"25.635"	"20.769"	"16.45"
"1908"	"16.161"	"20.007"	"25.684"	"32.596"	"32.904"	"31.039"	"27.869"	"27.288"	"27.746"	"25.712"	"19.972"	"16.091"
"1909"	"18.807"	"20.126"	"26.438"	"28.219"	"32.56"	"29.077"	"27.542"	"27.023"	"27.4"	"25.249"	"21.335"	"17.534"
"1910"	"17.103"	"19.707"	"25.773"	"30.819"	"32.238"	"29.861"	"27.627"	"27.284"	"27.489"	"25.339"	"19.88"	"16.234"
"1911"	"19.358"	"19.368"	"24.765"	"30.276"	"32.851"	"29.223"	"28.912"	"27.2"	"27.099"	"25.338"	"20.853"	"15.934"
"1912"	"17.865"	"20.972"	"25.764"	"29.243"	"31.876"	"31.357"	"27.673"	"27.442"	"27.4"	"25.396"	"19.918"	"16.196"
"1913"	"17.211"	"19.968"	"24.161"	"31.596"	"30.957"	"28.172"	"27.885"	"27.041"	"27.4"	"24.837"	"19.616"	"16.491"
"1914"	"17.606"	"20.47"	"25.068"	"28.361"	"30.703"	"29.711"	"27.469"	"27.388"	"27.303"	"24.692"	"20.904"	"17.392"
"1915"	"18.05"	"20.11"	"24.911"	"30.261"	"32.334"	"30.534"	"28.831"	"28.241"	"27.4"	"26.795"	"22.376"	"16.953"
"1916"	"17.118"	"20.478"	"26.934"	"30.806"	"34.375"	"29.077"	"27.984"	"27.6"	"27.6"	"25.838"	"20.715"	"16.107"
"1917"	"17.01"	"19.815"	"24.673"	"29.526"	"29.754"	"29.523"	"27.881"	"27.342"	"27.203"	"25.442"	"20.126"	"16.691"
"1918"	"16.468"	"19.972"	"26.226"	"29.319"	"31.289"	"28.376"	"29.289"	"26.938"	"27.657"	"25.504"	"20.823"	"16.906"
"1919"	"19.039"	"19.368"	"26.426"	"29.869"	"32.106"	"29.823"	"27.796"	"27.542"	"27.396"	"25.191"	"20.819"	"16.849"
"1920"	"17.783"	"20.011"	"25.353"	"30.38"	"31.826"	"31.973"	"27.746"	"27.442"	"27.342"	"25.895"	"21.015"	"16.757"
"1921"	"18.172"	"19.63"	"26.819"	"31.265"	"34.599"	"30.984"	"28.288"	"27.099"	"27.262"	"24.495"	"19.492"	"17.758"
"1922"	"17.568"	"20.47"	"26.527"	"31.091"	"33.561"	"28.876"	"27.4"	"26.857"	"26.661"	"24.112"	"20.131"	"16.572"
"1923"	"17.43"	"19.731"	"24.991"	"30.881"	"33.043"	"32.291"	"27.784"	"27.003"	"27.604"	"24.854"	"20.277"	"17.758"
"1924"	"17.826"	"20.373"	"27.233"	"31.576"	"32.723"	"32.812"	"27.738"	"27.542"	"26.942"	"25.597"	"20.319"	"16.8"
"1925"	"16.365"	"18.969"	"25.364"	"29.643"	"31.85"	"30.318"	"27.104"	"27.742"	"27.408"	"24.942"	"20.52"	"16.599"
"1926"	"17.468"	"20.83"	"24.873"	"28.937"	"31.826"	"33.665"	"28.13"	"27.446"	"27.257"	"24.956"	"19.488"	"17.468"
"1927"	"17.861"	"20.207"	"24.161"	"30.883"	"31.592"	"31.707"	"28.027"	"27.438"	"27.846"	"25.796"	"20.934"	"17.861"
"1928"	"18.05"	"20.585"	"26.887"	"30.03"	"32.399"	"29.465"	"27.485"	"27.846"	"28.004"	"26.042"	"20.819"	"17.596"
"1929"	"17.76"	"19.168"	"26.011"	"30.457"	"33.557"	"31.884"	"27.388"	"26.999"	"27.689"	"24.596"	"20.215"	"16.591"
"1930"	"16.806"	"19.43"	"26.073"	"30.073"	"32.106"	"31.208"	"27.542"	"27.245"	"27.489"	"25.938"	"20.22"	"16.495"
"1931"	"18.753"	"19.965"	"24.846"	"31.673"	"32.384"	"32.618"	"27.627"	"27.742"	"27.489"	"25.601"	"20.358"	"17.396"
"1932"	"18.51"	"19.311"	"26.33"	"30.276"	"32.714"	"31.696"	"27.731"	"27.542"	"27.642"	"26.091"	"20.616"	"17.511"
"1933"	"16.407"	"20.373"	"25.972"	"28.664"	"31.888"	"29.919"	"27.527"	"26.942"	"27.408"	"25.395"	"20.272"	"17.15"
"1934"	"16.906"	"19.511"	"25.568"	"30.71"	"32.991"	"30.411"	"27.885"	"27.346"	"27.604"	"24.854"	"19.961"	"17.596"
"1935"	"16.921"	"20.407"	"26.326"	"29.342"	"34.064"	"32.227"	"28.088"	"26.942"	"27.299"	"25.291"	"20.516"	"17.438"
"1936"	"17.252"	"19.927"	"26.569"	"30.784"	"31.231"	"29.214"	"27.481"	"27.542"	"27.138"	"24.753"	"21.111"	"17.853"
"1937"	"16.118"	"20.057"	"24.765"	"29.334"	"31.296"	"30.45"	"27.988"	"27.342"	"27.4"	"24.895"	"20.458"	"16.311"
"1938"	"18.961"	"18.927"	"27.63"	"31.853"	"30.626"	"29.223"	"27.689"	"27.242"	"27.961"	"25.899"	"20.08"	"16.71"
"1939"	"18.468"	"21.073"	"25.026"	"31.046"	"33.004"	"31.023"	"27.388"	"26.938"	"27.299"	"25.696"	"20.335"	"17.472"
"1940"	"17.084"	"20.13"	"24.368"	"30.341"	"32.361"	"31.569"	"27.485"	"27.442"	"27.757"	"26.053"	"22.687"	"18.111"
"1941"	"18.265"	"20.431"	"27.335"	"31.684"	"32.671"	"30.049"	"27.889"	"27.742"	"27.703"	"25.091"	"20.482"	"18.468"
"1942"	"17.961"	"20.326"	"26.422"	"30.33"	"34.072"	"32.464"	"27.681"	"26.841"	"26.857"	"25.352"	"21.681"	"17.453"
"1943"	"19.015"	"18.87"	"26.026"	"28.772"	"33.057"	"30.504"	"27.584"	"26.899"	"27.642"	"26.357"	"21.273"	"18.468"
"1944"	"18.222"	"20.234"	"25.144"	"28.331"	"34.429"	"31.78"	"27.384"	"27.242"	"27.804"	"25.306"	"21.077"	"19.096"
"1945"	"17.322"	"19.422"	"26.68"	"29.065"	"32.349"	"31.562"	"28.085"	"28.187"	"27.8"	"24.85"	"20.474"	"16.468"
"1946"	"17.927"	"21.944"	"26.275"	"27.689"	"31.443"	"30.065"	"27.342"	"27.342"	"27.4"	"25.434"	"21.672"	"18.638"
"1947"	"18.21"	"20.427"	"26.527"	"31.984"	"33.053"	"31.711"	"27.827"	"27.58"	"27.6"	"25.392"	"21.373"	"18.114"
"1948"	"19.23"	"20.769"	"25.026"	"31.081"	"32.227"	"31.404"	"27.069"	"26.884"	"27.358"	"25.496"	"21.619"	"16.395"
"1949"	"18.265"	"19.91"	"26.122"	"28.884"	"30.107"	"31.308"	"27.823"	"27.565"	"27.361"	"26.134"	"19.63"	"16.845"
"1950"	"18.464"	"20.126"	"25.026"	"30.441"	"32.602"	"29.922"	"27.546"	"26.98"	"27.338"	"24.861"	"19.914"	"17.453"
"1951"	"17.126"	"20.389"	"25.735"	"29.819"	"32.784"	"31.334"	"27.885"	"28.203"	"28.196"	"27.072"	"21.319"	"18.229"
"1952"	"18.831"	"22.235"	"26.507"	"28.369"	"32.269"	"31.104"	"27.77"	"27.146"	"27.241"	"25.601"	"20.972"	"18.15"
"1953"	"17.707"	"21.71"	"28.514"	"31.211"	"33.396"	"30.734"	"27.322"	"27.184"	"27.099"	"25.593"	"20.531"	"18.816"
"1954"	"16.863"	"22.111"	"25.769"	"32.487"	"33.204"	"29.596"	"27.55"	"27.384"	"27.045"	"24.249"	"19.015"	"17.491"
"1955"	"17.973"	"20.662"	"27.477"	"30.127"	"33.423"	"31.353"	"27.442"	"27.342"	"27.604"	"25.699"	"20.938"	"17.596"
"1956"	"18.502"	"19.815"	"26.857"	"31.419"	"32.687"	"28.165"	"27.227"	"27.095"	"26.853"	"25.11"	"20.23"	"18.442"
"1957"	"18.749"	"19.665"	"25.068"	"30.83"	"35.084"	"32.007"	"27.523"	"27.642"	"27.515"	"25.996"	"21.015"	"18.692"
"1958"	"19.665"	"20.853"	"26.961"	"31.922"	"34.887"	"33.669"	"28.588"	"27.481"	"27.4"	"26.714"	"21.461"	"18.996"
"1959"	"18.649"	"20.168"	"26.111"	"31.019"	"33.557"	"30.95"	"27.885"	"27.499"	"27.199"	"26.057"	"20.52"	"17.414"
"1960"	"17.768"	"21.935"	"25.015"	"31.388"	"32.852"	"31.35"	"27.326"	"27.384"	"27.477"	"25.696"	"20.072"	"18.093"
"1961"	"18.625"	"18.715"	"26.926"	"31.33"	"33.461"	"29.977"	"27.384"	"27.642"	"27.203"	"24.999"	"19.815"	"15.111"
"1962"	"16.284"	"20.234"	"25.283"	"30.203"	"32.411"	"30.806"	"28.588"	"27.442"	"27.397"	"24.765"	"20.815"	"18.093"
"1963"	"16.718"	"21.672"	"25.827"	"29.857"	"30.999"	"30.261"	"27.842"	"27.742"	"27.715"	"25.957"	"22.389"	"18.446"
"1964"	"18.249"	"20.638"	"27.126"	"30.919"	"31.396"	"31.534"	"26.849"	"27.442"	"27.515"	"25.793"	"20.93"	"18.253"
"1965"	"18.822"	"20.827"	"24.765"	"29.541"	"32.938"	"32.564"	"27.873"	"27.542"	"27.515"	"25.857"	"21.819"	"17.193"
"1966"	"17.711"	"22.077"	"26.43"	"31.688"	"34.072"	"31.827"	"28.769"	"27.934"	"28.095"	"25.838"	"22.704"	"17.75"
"1967"	"18.629"	"22.073"	"24.812"	"28.853"	"32.652"	"32.192"	"28.33"	"27.238"	"27.397"	"25.407"	"20.869"	"19.546"
"1968"	"18.153"	"20.122"	"26.023"	"30.387"	"33.588"	"29.346"	"27.58"	"27.397"	"28.261"	"24.995"	"20.523"	"19.856"
"1969"	"17.76"	"21.749"	"27.669"	"31.215"	"31.199"	"31.204"	"27.927"	"26.884"	"26.995"	"25.831"	"22.058"	"17.938"
"1970"	"18.649"	"20.715"	"25.765"	"31.281"	"33.015"	"29.677"	"27.681"	"27.538"	"26.995"	"25.291"	"20.076"	"16.552"
"1971"	"17.561"	"19.669"	"24.669"	"27.203"	"29.26"	"28.534"	"26.38"	"26.099"	"26.899"	"25.295"	"20.207"	"17.154"
"1972"	"17.453"	"18.146"	"25.707"	"30.169"	"33.223"	"31.854"	"27.991"	"27.527"	"25.976"	"24.888"	"20.395"	"17.526"
"1973"	"17.853"	"20.968"	"24.403"	"30.553"	"31.427"	"29.399"	"27.784"	"27.584"	"26.903"	"25.438"	"20.719"	"17.438"
"1974"	"16.595"	"19.765"	"25.711"	"30.361"	"31.542"	"31.308"	"27.489"	"27.638"	"27.4"	"26.142"	"20.516"	"15.734"
"1975"	"17.122"	"20.407"	"25.626"	"30.361"	"32.537"	"30.565"	"26.896"	"27.245"	"26.899"	"26.295"	"20.827"	"17.015"
"1976"	"17.826"	"21.269"	"26.33"	"29.681"	"30.984"	"30.974"	"27.988"	"27.442"	"26.999"	"26.23"	"23.049"	"18.191"
"1977"	"17.664"	"20.407"	"27.412"	"29.727"	"29.092"	"29.804"	"27.485"	"27.942"	"27.703"	"25.433"	"22.419"	"16.141"
"1978"	"16.764"	"20.106"	"24.284"	"28.922"	"32.142"	"29.661"	"27.485"	"27.646"	"27.103"	"25.387"	"22.073"	"17.815"
"1979"	"18.76"	"18.531"	"25.268"	"29.984"	"32.881"	"31.476"	"28.718"	"28.411"	"26.641"	"26.234"	"23.714"	"18.199"
"1980"	"18.303"	"20.804"	"25.072"	"31.523"	"31.884"	"29.077"	"27.092"	"26.845"	"27.657"	"25.481"	"21.557"	"18.353"
"1981"	"17.365"	"20.469"	"25.011"	"28.027"	"29.865"	"30.806"	"27.623"	"27.946"	"27.646"	"25.692"	"21.073"	"17.649"
"1982"	"19.507"	"20.364"	"24.049"	"29.719"	"33.141"	"30.518"	"30.088"	"27.584"	"28.356"	"26.091"	"21.71"	"18.134"
"1983"	"17.615"	"20.168"	"26.168"	"29.211"	"31.195"	"32.479"	"28.584"	"28.088"	"28.046"	"25.392"	"21.03"	"17.796"
"1984"	"18.05"	"19.211"	"26.069"	"31.219"	"33.358"	"28.914"	"27.738"	"27.4"	"27.295"	"26.057"	"20.114"	"18.153"
"1985"	"18.71"	"19.853"	"26.661"	"30.885"	"31.082"	"31.12"	"26.888"	"27.257"	"27.514"	"25.007"	"21.281"	"19.123"
"1986"	"17.923"	"20.431"	"25.072"	"29.769"	"30.088"	"30.988"	"27.342"	"26.841"	"27.003"	"24.6"	"21.334"	"18.061"
"1987"	"17.691"	"20.942"	"25.28"	"29.527"	"31.362"	"31.862"	"27.493"	"26.73"	"27.303"	"25.976"	"21.642"	"18.801"
"1988"	"18.692"	"20.784"	"25.219"	"30.288"	"32.057"	"29.131"	"27.75"	"28.299"	"28.865"	"26.968"	"21.988"	"19.968"
"1989"	"17.919"	"21.999"	"26.368"	"31.788"	"32.246"	"29.419"	"27.942"	"27.8"	"27.842"	"26.607"	"21.776"	"17.861"
"1990"	"19.007"	"21.015"	"24.311"	"29.665"	"30.557"	"30.423"	"27.397"	"28.258"	"28.061"	"24.696"	"22.177"	"18.558"
"1991"	"17.265"	"22.27"	"26.023"	"29.776"	"32.701"	"29.615"	"28.584"	"27.262"	"27.592"	"25.488"	"20.705"	"17.319"
"1992"	"17.194"	"19.219"	"26.473"	"30.681"	"31.153"	"30.75"	"28.669"	"27.842"	"27.8"	"26"	"22.066"	"17.938"
"1993"	"18.741"	"22.015"	"25.249"	"29.362"	"32.161"	"31.557"	"28.592"	"27.619"	"27.4"	"26.103"	"20.838"	"18.037"
"1994"	"19.073"	"20.268"	"26.507"	"29.315"	"32.656"	"30.508"	"27.608"	"27.361"	"27.4"	"26.138"	"21.824"	"18.292"
"1995"	"16.859"	"20.411"	"25.326"	"30.568"	"31.98"	"31.958"	"27.823"	"27.531"	"27.357"	"25.838"	"21.727"	"18.519"
"1996"	"18.603"	"19.826"	"26.906"	"29.131"	"33.129"	"29.523"	"28.077"	"26.938"	"28.099"	"25.597"	"21.518"	"17.511"
"1997"	"17.427"	"19.588"	"26.069"	"28.172"	"31.857"	"31.985"	"27.546"	"27.465"	"27.037"	"25.968"	"22.415"	"18.472"
"1998"	"17.215"	"20.83"	"23.553"	"29.357"	"31.742"	"32.912"	"27.703"	"28"	"27.865"	"27.507"	"22.319"	"19"
"1999"	"17.652"	"21.687"	"26.765"	"32.041"	"31.926"	"30.526"	"27.588"	"27.542"	"27.203"	"26.481"	"22.165"	"19.354"
"2000"	"18.449"	"19.934"	"25.531"	"31.061"	"31.865"	"29.849"	"28.264"	"28.038"	"27.156"	"26.684"	"23.003"	"17.941"
"2001"	"17.691"	"20.719"	"25.968"	"30.739"	"32.406"	"29.012"	"27.108"	"28.142"	"28.296"	"27.176"	"23.361"	"19.342"
"2002"	"18.319"	"21.626"	"26.669"	"30.318"	"32.846"	"31.112"	"28.831"	"27.503"	"27.4"	"25.796"	"21.623"	"19"
