
"Year"	"Jan"	"Feb"	"Mar"	"Apr"	"May"	"Jun"	"Jul"	"Aug"	"Sep"	"Oct"	"Nov"	"Dec"
"1901"	"20.776"	"22.526"	"27.525"	"31.618"	"34.37"	"32.87"	"27.949"	"26.304"	"27.399"	"26.802"	"22.184"	"19.619"
"1902"	"21.924"	"23.653"	"29.482"	"32.608"	"35.491"	"33.71"	"28.23"	"27.676"	"27.184"	"26.376"	"21.893"	"19.475"
"1903"	"21.268"	"22.027"	"27.775"	"32.35"	"33.117"	"32.57"	"27.854"	"27.248"	"27.058"	"25.079"	"20.569"	"18.696"
"1904"	"21.163"	"23.054"	"27.933"	"33.362"	"34.457"	"30.75"	"27.721"	"26.91"	"26.796"	"26.058"	"21.543"	"20.167"
"1905"	"20.493"	"20.991"	"27.47"	"30.171"	"34.73"	"34.047"	"27.639"	"27.357"	"26.441"	"25.753"	"22.44"	"19.285"
"1906"	"20.635"	"23.437"	"26.974"	"33.145"	"35.848"	"31.055"	"27.3"	"27.051"	"26.794"	"25.776"	"22.311"	"20.306"
"1907"	"20.714"	"23.039"	"27.104"	"29.303"	"33.54"	"31.765"	"28.254"	"25.759"	"27.611"	"26.912"	"22.938"	"18.897"
"1908"	"19.324"	"23.454"	"27.331"	"33.255"	"35.348"	"32.798"	"27.085"	"26.159"	"27.253"	"25.874"	"21.398"	"18.179"
"1909"	"21.798"	"23.497"	"28.782"	"29.391"	"34.106"	"30.456"	"26.838"	"27.371"	"26.765"	"25.614"	"21.919"	"20.253"
"1910"	"20.48"	"22.46"	"28.087"	"32.92"	"34.814"	"30.351"	"27.704"	"26.954"	"26.926"	"25.641"	"20.472"	"18.759"
"1911"	"21.394"	"22.216"	"27.23"	"32.219"	"35.706"	"30.236"	"28.428"	"26.402"	"27.009"	"26.217"	"22.851"	"19.145"
"1912"	"20.674"	"23.854"	"28.525"	"31.679"	"34.913"	"34.548"	"27.913"	"26.768"	"27.212"	"26.199"	"21.801"	"18.685"
"1913"	"19.743"	"23.881"	"27.538"	"33.487"	"33.826"	"30.082"	"27.595"	"26.655"	"27.492"	"26.322"	"21.986"	"19.892"
"1914"	"20.404"	"24.27"	"27.851"	"30.084"	"33.872"	"30.754"	"27.549"	"27.096"	"27.054"	"26.045"	"22.825"	"19.754"
"1915"	"20.358"	"22.912"	"26.858"	"31.509"	"35.219"	"33.848"	"28.537"	"27.157"	"27.392"	"26.93"	"23.902"	"19.191"
"1916"	"20.083"	"23.327"	"28.392"	"33.009"	"34.439"	"28.989"	"28.091"	"27.072"	"27.21"	"26.482"	"22.733"	"18.419"
"1917"	"20.151"	"21.988"	"26.431"	"30.257"	"32.008"	"29.397"	"27.237"	"27.126"	"26.567"	"25.929"	"21.485"	"19.529"
"1918"	"19.227"	"23.182"	"27.734"	"31.464"	"33.08"	"28.747"	"28.529"	"26.642"	"27.734"	"25.751"	"23.003"	"19.907"
"1919"	"21.82"	"22.922"	"27.763"	"31.15"	"33.261"	"29.911"	"27.518"	"26.499"	"27.394"	"25.567"	"22.914"	"19.238"
"1920"	"20.675"	"23.253"	"28.144"	"31.431"	"32.952"	"32.667"	"27.295"	"27.329"	"27.97"	"27.043"	"22.372"	"19.611"
"1921"	"21.316"	"23.098"	"29.688"	"33.169"	"37.293"	"31.207"	"28.137"	"27.021"	"26.708"	"25.833"	"20.531"	"19.926"
"1922"	"20.449"	"23.529"	"28.988"	"32.928"	"35.441"	"30.985"	"27.176"	"27.066"	"26.692"	"25.557"	"22.121"	"18.571"
"1923"	"20.43"	"22.869"	"27.214"	"32.098"	"34.96"	"35.091"	"27.278"	"26.256"	"27.175"	"24.832"	"21.967"	"19.962"
"1924"	"21.164"	"24.465"	"29.221"	"33.195"	"34.894"	"34.063"	"27.819"	"27.312"	"26.98"	"25.427"	"21.287"	"19.468"
"1925"	"19.691"	"22.536"	"27.772"	"33.132"	"32.903"	"30.168"	"26.409"	"26.926"	"27.69"	"26.385"	"22.779"	"19.025"
"1926"	"21.022"	"23.98"	"27.73"	"29.914"	"32.51"	"34.904"	"28.236"	"26.7"	"27.194"	"25.478"	"20.794"	"19.363"
"1927"	"22.33"	"23.833"	"27.522"	"32.939"	"34.858"	"31.895"	"27.012"	"26.861"	"27.528"	"25.822"	"20.884"	"19.956"
"1928"	"21.346"	"23.113"	"28.09"	"31.839"	"35.613"	"31.573"	"27.293"	"27.81"	"27.528"	"26.482"	"22.135"	"19.916"
"1929"	"21.351"	"21.774"	"28.128"	"30.931"	"35.434"	"31.019"	"26.969"	"26.628"	"27.169"	"25.629"	"21.451"	"19.908"
"1930"	"20.699"	"21.932"	"28.25"	"31.146"	"34.379"	"31.814"	"27.377"	"26.851"	"27.311"	"26.625"	"21.336"	"20.039"
"1931"	"20.897"	"24.82"	"27.83"	"32.866"	"35.588"	"33.259"	"27.549"	"26.746"	"27.453"	"25.749"	"21.757"	"19.313"
"1932"	"20.845"	"21.889"	"27.77"	"31.86"	"34.327"	"32.978"	"27.052"	"27.4"	"27.269"	"26.946"	"22.866"	"19.685"
"1933"	"21.203"	"24.656"	"28.088"	"30.923"	"31.465"	"29.529"	"27.744"	"26.933"	"26.812"	"25.749"	"21.996"	"19.863"
"1934"	"19.653"	"23.094"	"28"	"32.376"	"35.284"	"31.696"	"27.379"	"26.737"	"26.538"	"25.08"	"20.973"	"19.6"
"1935"	"20.436"	"23.482"	"27.943"	"30.239"	"35.827"	"32.927"	"26.783"	"26.857"	"26.809"	"26.31"	"22.087"	"20.811"
"1936"	"22.383"	"22.796"	"28.373"	"31.657"	"34.871"	"28.929"	"27.775"	"26.751"	"27.097"	"25.598"	"23.333"	"20.14"
"1937"	"19.602"	"23.612"	"26.901"	"30.957"	"34.039"	"32.324"	"27.067"	"26.868"	"27.124"	"25.567"	"22.4"	"19.38"
"1938"	"22.978"	"22.451"	"29.488"	"32.046"	"34.781"	"28.293"	"26.965"	"27.152"	"27.335"	"25.525"	"21.421"	"19.209"
"1939"	"21.479"	"24.212"	"27.027"	"31.987"	"35.884"	"31.698"	"26.954"	"26.924"	"26.994"	"26.552"	"21.554"	"19.382"
"1940"	"19.614"	"23.582"	"27.357"	"31.686"	"34.484"	"31.294"	"26.552"	"26.727"	"27.484"	"26.36"	"22.798"	"20.206"
"1941"	"21.72"	"23.304"	"29.016"	"33.633"	"35.687"	"31.762"	"27.996"	"27.471"	"27.939"	"26.581"	"21.767"	"20.87"
"1942"	"20.812"	"23.062"	"28.511"	"32.248"	"35.994"	"33.351"	"26.469"	"26.793"	"27.156"	"25.752"	"21.994"	"19.828"
"1943"	"22.047"	"21.711"	"28.227"	"31.446"	"34.373"	"30.511"	"27.11"	"26.109"	"26.811"	"25.408"	"21.792"	"18.003"
"1944"	"20.609"	"22.29"	"26.085"	"30.545"	"35.532"	"32.329"	"26.769"	"26.671"	"27.088"	"25.491"	"21.575"	"20.891"
"1945"	"20.041"	"22.669"	"28.25"	"30.532"	"35.068"	"32.283"	"27.006"	"27.217"	"26.701"	"25.307"	"20.867"	"18.367"
"1946"	"19.668"	"23.063"	"28.514"	"31.081"	"34.629"	"29.538"	"27.264"	"26.641"	"26.679"	"26.81"	"23.279"	"21.691"
"1947"	"21.433"	"22.759"	"28.189"	"32.809"	"35.566"	"32.881"	"26.953"	"27.311"	"26.994"	"25.454"	"22.287"	"20.422"
"1948"	"21.311"	"23.649"	"27.46"	"32.835"	"36.516"	"32.486"	"27.676"	"26.941"	"26.803"	"26.931"	"23.783"	"18.599"
"1949"	"20.724"	"22.756"	"28.707"	"32.561"	"34.523"	"30.541"	"27.295"	"27.213"	"26.952"	"26.264"	"21.26"	"19.193"
"1950"	"20.857"	"22.653"	"26.931"	"32.278"	"35.4"	"31.626"	"26.852"	"27.327"	"27.242"	"25.567"	"21.273"	"19.502"
"1951"	"19.893"	"23.75"	"28.254"	"31.258"	"34.458"	"32.057"	"28.262"	"26.726"	"27.893"	"27.64"	"22.857"	"19.95"
"1952"	"21.313"	"24.553"	"27.714"	"33.203"	"35.989"	"33.1"	"28.109"	"26.874"	"27.404"	"26.575"	"21.673"	"21.532"
"1953"	"20.901"	"25.031"	"30.621"	"32.663"	"36.541"	"33.947"	"27.677"	"26.586"	"27.801"	"26.121"	"21.742"	"20.122"
"1954"	"20.078"	"24.9"	"28.557"	"33.185"	"36.289"	"32.503"	"27.427"	"27.409"	"26.413"	"24.823"	"21.083"	"20.457"
"1955"	"21.027"	"24.553"	"29.444"	"31.083"	"34.505"	"31.876"	"27.375"	"26.911"	"26.924"	"25.595"	"20.69"	"19.259"
"1956"	"21.139"	"22.819"	"29.521"	"33.506"	"34.844"	"29.575"	"26.693"	"26.823"	"26.708"	"25.623"	"21.932"	"20.596"
"1957"	"21.857"	"22.667"	"26.273"	"31.09"	"34.087"	"32.454"	"27.126"	"27.044"	"27.634"	"26.621"	"23.05"	"21.525"
"1958"	"21.618"	"24.257"	"28.567"	"33.02"	"35.392"	"34.404"	"27.229"	"27.499"	"26.992"	"26.054"	"23.476"	"20.124"
"1959"	"21.33"	"23.713"	"28.691"	"32.344"	"35.312"	"31.338"	"26.909"	"26.441"	"26.812"	"26.512"	"22.221"	"20.08"
"1960"	"20.328"	"23.719"	"27.02"	"31.831"	"34.843"	"31.684"	"27.407"	"26.489"	"27.761"	"25.644"	"21.699"	"21.341"
"1961"	"21.842"	"22.41"	"29.609"	"32.699"	"34.673"	"30.577"	"26.821"	"26.874"	"26.081"	"25.481"	"21.675"	"19.015"
"1962"	"19.181"	"22.957"	"27.749"	"31.521"	"33.802"	"31.518"	"27.345"	"26.954"	"26.98"	"25.428"	"22.158"	"20.082"
"1963"	"19.409"	"23.533"	"27.558"	"30.372"	"33.986"	"30.675"	"27.492"	"26.955"	"27.363"	"26.453"	"23.314"	"20.14"
"1964"	"21.619"	"24.158"	"29.088"	"33.456"	"35.334"	"31.82"	"27.339"	"26.385"	"27.392"	"26.578"	"21.811"	"19.851"
"1965"	"20.853"	"23.36"	"27.712"	"31.378"	"35.677"	"32.079"	"27.554"	"27.484"	"26.992"	"26.681"	"23.006"	"20.919"
"1966"	"20.686"	"24.719"	"28.731"	"33.025"	"35.096"	"32.424"	"29.322"	"27.314"	"27.581"	"26.909"	"24.614"	"19.938"
"1967"	"21.213"	"24.502"	"27.247"	"31.674"	"35.222"	"32.612"	"28.055"	"26.637"	"27.095"	"25.854"	"22.728"	"21.919"
"1968"	"20.011"	"23.065"	"26.553"	"30.239"	"34.216"	"32.329"	"27.821"	"26.485"	"27.795"	"25.682"	"22.395"	"20.193"
"1969"	"20.984"	"25.356"	"30.429"	"33.648"	"34.312"	"32.623"	"27.354"	"26.77"	"26.793"	"26.234"	"23.936"	"19.922"
"1970"	"21.279"	"25.075"	"28.327"	"32.449"	"35.513"	"29.16"	"27.377"	"26.738"	"27.095"	"26.298"	"21.091"	"18.741"
"1971"	"20.688"	"23.547"	"26.778"	"31.537"	"32.451"	"28.404"	"26.887"	"26.913"	"27.602"	"25.984"	"20.985"	"18.612"
"1972"	"20.214"	"22.805"	"29.374"	"32.011"	"35.455"	"34.12"	"28.205"	"26.487"	"27.2"	"25.866"	"22.409"	"21.479"
"1973"	"22.244"	"24.712"	"29.083"	"34.798"	"37.128"	"32.652"	"26.747"	"26.74"	"27.05"	"25.594"	"21.497"	"20.092"
"1974"	"19.891"	"23.874"	"29.274"	"33.566"	"33.894"	"31.781"	"28.268"	"27.041"	"28.384"	"26.375"	"21.759"	"19.438"
"1975"	"19.248"	"23.533"	"27.914"	"33.448"	"36.423"	"31.614"	"27.045"	"27.152"	"27.164"	"26.969"	"20.369"	"18.558"
"1976"	"19.658"	"24.257"	"28.432"	"31.492"	"34.49"	"31.767"	"27.248"	"26.944"	"27.08"	"27.18"	"26.099"	"22.404"
"1977"	"21.357"	"25.039"	"29.806"	"32.23"	"32.583"	"32.05"	"27.663"	"26.707"	"27.407"	"26.817"	"24.683"	"20.079"
"1978"	"20.135"	"22.55"	"26.976"	"31.752"	"36.505"	"30.899"	"26.967"	"25.744"	"27.615"	"26.611"	"24.897"	"19.871"
"1979"	"21.98"	"22.086"	"27.939"	"31.686"	"33.293"	"32.69"	"27.579"	"27.125"	"26.787"	"27.667"	"25.631"	"21.124"
"1980"	"22.581"	"25.16"	"29.12"	"32.64"	"36.122"	"29.306"	"27.064"	"26.666"	"26.739"	"26.582"	"23.798"	"20.36"
"1981"	"19.716"	"24.702"	"26.87"	"31.495"	"33.096"	"31.944"	"26.942"	"26.647"	"27.109"	"26.536"	"21.947"	"19.777"
"1982"	"22.296"	"24.071"	"27.5"	"31.969"	"33.481"	"32.571"	"29.448"	"26.428"	"28.039"	"26.665"	"23.326"	"21.699"
"1983"	"21.28"	"23.665"	"28.81"	"31.7"	"34.296"	"34.156"	"28.534"	"27.429"	"27.511"	"25.631"	"20.924"	"19.296"
"1984"	"21.042"	"22.456"	"28.312"	"32.02"	"36.625"	"31.048"	"27.424"	"26.734"	"27.262"	"26.848"	"21.774"	"21.205"
"1985"	"22.406"	"23.836"	"30.118"	"33.045"	"35.609"	"31.148"	"27.078"	"26.911"	"27.821"	"25.682"	"22.089"	"21.45"
"1986"	"20.442"	"23.751"	"27.896"	"32.644"	"34.548"	"32.007"	"27.558"	"26.357"	"28.225"	"26.007"	"23.447"	"21.243"
"1987"	"20.849"	"23.442"	"27.816"	"32.905"	"33.791"	"34.027"	"27.935"	"27.969"	"28.641"	"26.652"	"23.312"	"19.951"
"1988"	"22.354"	"24.846"	"28.796"	"32.164"	"37.012"	"32.048"	"27.519"	"27.653"	"28.072"	"25.959"	"22.56"	"20.808"
"1989"	"20.818"	"24.378"	"27.2"	"32.986"	"36.255"	"30.62"	"28.117"	"27.013"	"27.889"	"26.748"	"23.818"	"20.11"
"1990"	"22.968"	"24.354"	"27.519"	"32.647"	"30.744"	"28.4"	"26.625"	"27.612"	"27.409"	"25.525"	"23.88"	"20.987"
"1991"	"20.605"	"25.754"	"29.082"	"31.885"	"36.379"	"30.994"	"28.082"	"26.74"	"28.817"	"26.205"	"22.215"	"20.142"
"1992"	"20.859"	"23.499"	"29.774"	"32.653"	"34.951"	"33.085"	"29.017"	"26.842"	"27.64"	"26.912"	"23.39"	"19.701"
"1993"	"21.792"	"23.572"	"27.539"	"32.531"	"36.4"	"32.19"	"28.239"	"27.401"	"27.611"	"26.851"	"22.738"	"19.311"
"1994"	"22.298"	"23.537"	"29.779"	"31.298"	"35.86"	"30.42"	"26.699"	"26.468"	"27.392"	"26.651"	"22.977"	"20.131"
"1995"	"19.31"	"23.683"	"27.25"	"31.616"	"32.589"	"33.876"	"27.945"	"27.881"	"28.249"	"26.62"	"23.255"	"21.983"
"1996"	"23.045"	"24.37"	"29.384"	"31.532"	"35.94"	"33.28"	"28.175"	"26.97"	"28.191"	"26.097"	"23.055"	"19.833"
"1997"	"19.67"	"22.78"	"28.669"	"29.954"	"34.018"	"32.056"	"27.934"	"27.346"	"27.625"	"26.317"	"24.782"	"21.036"
"1998"	"21.701"	"23.511"	"26.736"	"31.612"	"34.863"	"32.896"	"28.313"	"27.913"	"27.978"	"27.556"	"23.383"	"19.406"
"1999"	"19.291"	"24.797"	"28.773"	"33.814"	"34.112"	"30.569"	"27.517"	"26.743"	"26.811"	"26.799"	"22.973"	"19.906"
"2000"	"21.832"	"23.296"	"27.632"	"33.533"	"33.912"	"29.488"	"27.24"	"27.516"	"27.319"	"27.496"	"23.909"	"20.211"
"2001"	"21.219"	"24.996"	"28.97"	"31.131"	"35.176"	"29.39"	"27.135"	"26.932"	"28.577"	"26.944"	"24.486"	"20.947"
"2002"	"20.952"	"24.657"	"29.003"	"32.938"	"36.069"	"31.128"	"28.611"	"26.441"	"27.596"	"27.01"	"23.366"	"22.349"
