
"Year"	"Jan"	"Feb"	"Mar"	"Apr"	"May"	"Jun"	"Jul"	"Aug"	"Sep"	"Oct"	"Nov"	"Dec"
"1901"	"23.736"	"24.579"	"27.891"	"31.213"	"30.422"	"28.5"	"26.088"	"25.6"	"27.232"	"26.308"	"23.624"	"22.071"
"1902"	"23.157"	"24.659"	"29.234"	"31.183"	"33.315"	"29.725"	"27.845"	"27.355"	"26.093"	"26.479"	"22.302"	"22.55"
"1903"	"23.138"	"24.772"	"28.854"	"31.603"	"30.97"	"30.451"	"25.837"	"25.454"	"26.028"	"25.136"	"22.291"	"21.068"
"1904"	"22.29"	"23.847"	"27.979"	"31.984"	"31.378"	"28"	"26.745"	"26.813"	"26.08"	"25.819"	"22.222"	"21.118"
"1905"	"22.314"	"23.931"	"28.209"	"30.129"	"31.954"	"30.059"	"27.618"	"26.069"	"26.238"	"26.184"	"23.971"	"21.434"
"1906"	"23.461"	"25.119"	"27.911"	"32.437"	"33.292"	"28.297"	"27.114"	"26.239"	"25.963"	"25.773"	"23.461"	"22.342"
"1907"	"22.395"	"25.229"	"27.944"	"29.862"	"31.22"	"28.473"	"26.864"	"24.781"	"26.512"	"26.681"	"24.626"	"21.691"
"1908"	"22.115"	"24.793"	"27.812"	"32.404"	"32.716"	"29.945"	"26.271"	"25.497"	"25.657"	"25.618"	"22.176"	"20.236"
"1909"	"23.423"	"25.239"	"28.736"	"29.614"	"32.028"	"27.578"	"25.594"	"26.384"	"25.98"	"26.104"	"23.775"	"23.355"
"1910"	"22.851"	"24.592"	"28.62"	"32.133"	"32.456"	"28.754"	"27.414"	"26.366"	"25.457"	"25.493"	"21.395"	"20.512"
"1911"	"22.722"	"23.679"	"28.356"	"32.029"	"33.063"	"28.713"	"27.153"	"25.199"	"27.13"	"26.981"	"24.503"	"22.284"
"1912"	"23.081"	"25.684"	"29.104"	"31.227"	"32.697"	"31.218"	"26.655"	"25.764"	"26.54"	"26.308"	"22.995"	"21.012"
"1913"	"21.324"	"25.656"	"28.407"	"32.1"	"31.663"	"28.413"	"26.321"	"26.541"	"27.078"	"26.101"	"23.453"	"23.114"
"1914"	"22.024"	"25.629"	"28.444"	"30.516"	"31.81"	"28.405"	"25.995"	"25.277"	"25.501"	"25.657"	"23.616"	"22.55"
"1915"	"22.286"	"24.644"	"27.058"	"30.977"	"31.767"	"30.209"	"27.099"	"26.082"	"26.004"	"26.131"	"24.564"	"20.672"
"1916"	"23.106"	"25.283"	"28.53"	"31.129"	"31.779"	"27.17"	"26.712"	"26.23"	"26.147"	"25.624"	"23.075"	"20.308"
"1917"	"21.321"	"23.342"	"26.363"	"29.45"	"30.871"	"26.979"	"26.421"	"26.214"	"25.591"	"25.398"	"22.526"	"21.076"
"1918"	"21.11"	"23.867"	"27.426"	"30.825"	"29.746"	"28.413"	"28.344"	"26.418"	"26.893"	"26.43"	"24.375"	"22.392"
"1919"	"24.009"	"26.187"	"28.953"	"31.463"	"31.792"	"27.478"	"27.135"	"26.442"	"26.78"	"25.438"	"23.423"	"21.199"
"1920"	"22.296"	"24.363"	"28.741"	"30.584"	"31.537"	"29.594"	"27.132"	"27.532"	"27.077"	"27.073"	"24.079"	"21.999"
"1921"	"23.218"	"24.642"	"29.658"	"31.614"	"34.208"	"28.656"	"26.567"	"26.028"	"26.172"	"24.96"	"21.212"	"21.087"
"1922"	"22.296"	"24.23"	"28.681"	"31.973"	"31.97"	"28.846"	"26.631"	"26.812"	"25.721"	"25.355"	"23.25"	"20.658"
"1923"	"21.73"	"24.223"	"27.359"	"31.646"	"32.322"	"31.477"	"26.149"	"26.222"	"25.758"	"25.033"	"23.198"	"22.077"
"1924"	"22.978"	"25.972"	"28.642"	"32.605"	"32.993"	"29.951"	"27.341"	"26.824"	"25.884"	"25.027"	"22.024"	"20.882"
"1925"	"21.802"	"24.125"	"28.092"	"31.998"	"30.638"	"28.767"	"26.993"	"25.605"	"26.56"	"25.168"	"23.313"	"20.887"
"1926"	"23.115"	"25.003"	"28.644"	"29.923"	"31.331"	"31.432"	"27.483"	"26.363"	"26.482"	"26.296"	"23.069"	"22.038"
"1927"	"24.403"	"25.925"	"29.793"	"32.432"	"32.514"	"28.882"	"26.011"	"26.475"	"27.071"	"25.832"	"22.094"	"22.239"
"1928"	"23.441"	"25.297"	"28.417"	"31.085"	"33.241"	"29.231"	"26.687"	"26.585"	"26.377"	"25.992"	"23.968"	"22.526"
"1929"	"23.957"	"24.541"	"28.626"	"30.416"	"33.376"	"29.117"	"27.293"	"26.95"	"26.403"	"26.062"	"23.958"	"23.805"
"1930"	"23.739"	"24.113"	"28.805"	"30.715"	"32.509"	"30.045"	"27.189"	"26.802"	"26.579"	"25.99"	"22.825"	"23.045"
"1931"	"22.194"	"26"	"28.573"	"31.996"	"32.579"	"29.054"	"26.193"	"26.34"	"25.992"	"25.495"	"22.509"	"21.464"
"1932"	"21.263"	"23.887"	"26.69"	"30.585"	"31.093"	"28.947"	"26.048"	"26.637"	"26.049"	"26.549"	"24.056"	"21.644"
"1933"	"22.549"	"25.91"	"27.458"	"30.155"	"29.245"	"27.876"	"25.476"	"25.269"	"26.209"	"24.817"	"23.246"	"21.309"
"1934"	"21.552"	"24.339"	"27.819"	"31.474"	"32.911"	"29.494"	"26.246"	"25.632"	"26.133"	"25.999"	"22.029"	"20.969"
"1935"	"22.979"	"25.26"	"27.977"	"29.772"	"33.41"	"29.59"	"26.21"	"26.386"	"25.611"	"26.108"	"22.56"	"22.607"
"1936"	"24.585"	"24.72"	"27.462"	"30.908"	"31.819"	"27.622"	"27.081"	"26.023"	"27.065"	"26.218"	"23.414"	"22.071"
"1937"	"21.746"	"25.595"	"27.905"	"30.77"	"32.459"	"30.045"	"26.339"	"26.918"	"26.829"	"25.416"	"23.527"	"22.02"
"1938"	"24.067"	"25.239"	"29.268"	"31.507"	"32.078"	"26.255"	"25.685"	"25.78"	"25.556"	"24.657"	"21.912"	"20.885"
"1939"	"22.006"	"24.468"	"27.406"	"30.815"	"32.98"	"29.546"	"26.436"	"26.354"	"26.204"	"26.008"	"21.647"	"20.735"
"1940"	"20.711"	"24.651"	"27.695"	"30.523"	"31.214"	"28.826"	"25.36"	"25.499"	"26.392"	"25.621"	"24.2"	"22.571"
"1941"	"23.435"	"25.406"	"29.866"	"32.566"	"32.987"	"29.499"	"28.024"	"26.692"	"26.664"	"26.556"	"23.895"	"23.707"
"1942"	"23.384"	"25.337"	"29.06"	"31.458"	"32.698"	"29.234"	"26.335"	"25.789"	"25.623"	"25.196"	"23.098"	"22.786"
"1943"	"24.05"	"23.077"	"27.987"	"30.539"	"30.316"	"27.399"	"26.051"	"26.123"	"25.16"	"25.299"	"23.528"	"20.374"
"1944"	"23.278"	"24.813"	"26.191"	"30.138"	"32.643"	"29.315"	"26.284"	"26.747"	"26.423"	"25.711"	"23.064"	"21.906"
"1945"	"22.597"	"24.498"	"28.407"	"30.233"	"32.849"	"28.703"	"26.225"	"25.478"	"25.554"	"25.313"	"21.735"	"20.35"
"1946"	"20.742"	"23.795"	"28.641"	"30.704"	"31.934"	"27.784"	"26.642"	"26.023"	"26.477"	"26.914"	"24.139"	"23.098"
"1947"	"23.832"	"25.095"	"29.064"	"31.374"	"32.859"	"29.763"	"26.165"	"26.232"	"25.557"	"24.414"	"22.647"	"21.623"
"1948"	"23.195"	"25.323"	"27.586"	"30.758"	"32.886"	"29.37"	"27.054"	"26.065"	"25.712"	"26.298"	"24.769"	"20.019"
"1949"	"21.9"	"23.844"	"28.224"	"31.013"	"31.042"	"28.032"	"26.363"	"26.407"	"25.723"	"26.117"	"22.1"	"21.549"
"1950"	"21.972"	"24.29"	"26.988"	"31.091"	"32.066"	"28.511"	"26.449"	"26.96"	"25.639"	"25.229"	"22.532"	"21.183"
"1951"	"22.582"	"24.227"	"28.445"	"31.189"	"31.812"	"28.766"	"26.699"	"26.325"	"26.995"	"26.867"	"24.506"	"21.434"
"1952"	"22.703"	"25.453"	"28.004"	"31.875"	"32.639"	"29.724"	"27.802"	"26.473"	"26.626"	"25.911"	"21.872"	"22.902"
"1953"	"23.043"	"25.875"	"30.22"	"31.834"	"34.593"	"30.685"	"27.05"	"25.951"	"25.961"	"26.108"	"22.84"	"20.951"
"1954"	"22.379"	"25.838"	"28.254"	"32.097"	"33.75"	"29.334"	"26.26"	"26.386"	"25.598"	"24.702"	"21.873"	"22.544"
"1955"	"22.74"	"25.795"	"28.727"	"31.125"	"31.54"	"28.598"	"26.299"	"25.18"	"26.186"	"25.615"	"21.765"	"21.076"
"1956"	"22.472"	"23.951"	"29.131"	"31.743"	"31.542"	"28.245"	"25.057"	"25.638"	"25.689"	"24.859"	"23.468"	"21.75"
"1957"	"23.127"	"24.932"	"27.115"	"30.606"	"32.095"	"29.741"	"26.428"	"25.247"	"26.416"	"26.946"	"24.175"	"22.808"
"1958"	"23.082"	"25.519"	"28.739"	"31.411"	"32.565"	"31.54"	"25.901"	"26.06"	"26.199"	"26.003"	"24.379"	"22.213"
"1959"	"23.394"	"26.482"	"28.832"	"31.592"	"33.133"	"28.669"	"26.146"	"25.963"	"26.402"	"26.359"	"24.038"	"22.592"
"1960"	"23.875"	"24.864"	"28.441"	"31.122"	"32.155"	"28.819"	"27.472"	"27.453"	"26.753"	"25.828"	"23.734"	"22.851"
"1961"	"23.26"	"25.104"	"29.983"	"32.267"	"31.359"	"28.485"	"26.308"	"26.388"	"26.129"	"25.331"	"22.719"	"21.854"
"1962"	"21.444"	"24.683"	"28.117"	"30.409"	"31.44"	"29.492"	"26.747"	"26.392"	"25.854"	"26.015"	"22.841"	"21.356"
"1963"	"21.385"	"23.731"	"28.305"	"29.713"	"32.056"	"27.933"	"26.863"	"25.441"	"26.41"	"25.65"	"23.625"	"22.435"
"1964"	"23.301"	"25.989"	"29.765"	"31.895"	"33.063"	"29.317"	"26.618"	"25.624"	"25.432"	"25.836"	"22.635"	"21.024"
"1965"	"22.566"	"24.956"	"28.381"	"30.526"	"32.276"	"29.287"	"26.185"	"26.788"	"26.525"	"26.847"	"24.733"	"23.836"
"1966"	"23.888"	"26.307"	"29.989"	"32.064"	"32.571"	"30.033"	"27.853"	"27.192"	"26.101"	"26.06"	"24.714"	"21.996"
"1967"	"23.145"	"25.12"	"28.087"	"31.934"	"32.964"	"29.897"	"26.493"	"26.371"	"26.026"	"25.649"	"23.413"	"23.648"
"1968"	"22.119"	"25.94"	"27.908"	"30.771"	"32.45"	"29.369"	"26.781"	"26.603"	"26.019"	"25.101"	"23.655"	"23.572"
"1969"	"23.079"	"26.507"	"30.641"	"32.976"	"32.356"	"30.224"	"27.102"	"27.14"	"25.652"	"26.027"	"24.612"	"21.702"
"1970"	"23.353"	"26.452"	"30.22"	"32.087"	"32.658"	"27.826"	"27.276"	"25.708"	"26.279"	"25.987"	"22.948"	"20.313"
"1971"	"22.972"	"26.275"	"28.211"	"32.201"	"31.821"	"27.631"	"28.12"	"27.338"	"27.236"	"25.858"	"22.441"	"21.016"
"1972"	"22.093"	"25.429"	"29.452"	"31.869"	"32.775"	"31.175"	"27.74"	"27.304"	"27.925"	"26.701"	"24.198"	"23.703"
"1973"	"24.511"	"26.923"	"30.302"	"33.74"	"34.478"	"29.446"	"27.08"	"26.34"	"26.881"	"25.765"	"22.949"	"22.175"
"1974"	"22.65"	"26.133"	"29.549"	"32.569"	"31.53"	"28.748"	"28.086"	"26.701"	"26.772"	"25.796"	"22.914"	"21.012"
"1975"	"22.027"	"25.88"	"28.705"	"32.282"	"33.324"	"28.718"	"26.863"	"26.608"	"25.825"	"26.171"	"22.228"	"20.439"
"1976"	"21.282"	"24.675"	"29.48"	"31.486"	"32.926"	"29.428"	"26.657"	"25.933"	"26.714"	"27.296"	"25.263"	"23.215"
"1977"	"22.719"	"26.129"	"29.565"	"31.705"	"31.287"	"29.495"	"27.407"	"26.403"	"27.468"	"26.511"	"25.63"	"22.073"
"1978"	"23.611"	"25.268"	"28.995"	"31.887"	"32.736"	"28.351"	"26.255"	"25.401"	"26.31"	"26.409"	"25.201"	"23.22"
"1979"	"23.801"	"26.059"	"29.019"	"32.168"	"31.752"	"30.807"	"28.13"	"26.914"	"27.023"	"27.205"	"25.211"	"23.345"
"1980"	"24.297"	"27.474"	"29.839"	"32.216"	"34.149"	"28.699"	"27.109"	"25.791"	"27.041"	"27.589"	"25.097"	"23.228"
"1981"	"23.089"	"26.686"	"28.802"	"32.458"	"32.882"	"29.176"	"27.686"	"25.823"	"26.328"	"26.308"	"24.087"	"22.74"
"1982"	"24.112"	"27.426"	"30.136"	"31.555"	"31.721"	"29.526"	"27.454"	"27.008"	"26.94"	"26.773"	"24.567"	"22.949"
"1983"	"23.236"	"26.929"	"30.596"	"32.747"	"33.434"	"30.978"	"27.911"	"26.513"	"26.14"	"25.854"	"23.195"	"22.511"
"1984"	"24.473"	"25.711"	"29.328"	"32.009"	"34.785"	"29.51"	"26.645"	"26.728"	"27.305"	"26.605"	"23.385"	"23.812"
"1985"	"24.711"	"26.994"	"30.52"	"32.716"	"33.339"	"28.267"	"27.06"	"26.818"	"27.944"	"25.602"	"24.198"	"23.711"
"1986"	"22.549"	"25.973"	"30.335"	"32.643"	"33.769"	"29.136"	"27.647"	"26.428"	"28.26"	"28.238"	"25.577"	"24.076"
"1987"	"23.896"	"25.406"	"29.092"	"32.851"	"32.1"	"30.416"	"27.339"	"26.993"	"28.586"	"26.953"	"24.617"	"23.084"
"1988"	"23.92"	"27.153"	"30.383"	"31.613"	"34.554"	"30.198"	"27.069"	"26.725"	"26.843"	"26.629"	"24.244"	"22.765"
"1989"	"23.853"	"25.79"	"28.275"	"32.489"	"33.902"	"28.803"	"26.658"	"26.385"	"26.839"	"26.887"	"24.565"	"22.797"
"1990"	"23.641"	"26.405"	"29.433"	"32.76"	"29.338"	"27.428"	"27.004"	"26.405"	"27.176"	"25.796"	"25.159"	"23.42"
"1991"	"24.235"	"26.868"	"30.64"	"32.192"	"33.868"	"28.475"	"26.593"	"26.624"	"27.943"	"27.129"	"23.928"	"22.635"
"1992"	"22.385"	"25.76"	"30.102"	"32.312"	"33.23"	"30.069"	"28.16"	"26.24"	"26.869"	"26.993"	"24.91"	"21.82"
"1993"	"23.842"	"25.057"	"29.372"	"32.146"	"33.754"	"30.853"	"27.644"	"26.616"	"26.811"	"26.759"	"24.557"	"21.361"
"1994"	"23.627"	"26.23"	"30.623"	"31.243"	"33.813"	"29.252"	"26.542"	"26.371"	"27.226"	"26.327"	"23.283"	"21.283"
"1995"	"21.673"	"25.999"	"29.423"	"32.003"	"31.135"	"31.116"	"27.163"	"27.581"	"27.226"	"26.222"	"25.08"	"23.556"
"1996"	"24.719"	"26.465"	"30.314"	"31.094"	"33.9"	"30.203"	"27.81"	"26.373"	"26.915"	"25.964"	"24.375"	"22.722"
"1997"	"22.6"	"25.3"	"29.367"	"30.156"	"32.737"	"30.659"	"27.8"	"26.996"	"27.173"	"26.899"	"26.216"	"24.963"
"1998"	"25.172"	"27.09"	"30.493"	"33.328"	"34.154"	"31.473"	"28.493"	"27.021"	"27.08"	"26.669"	"24.956"	"21.949"
"1999"	"22.761"	"26.632"	"30.346"	"33.124"	"31.594"	"28.519"	"27.2"	"26.524"	"26.381"	"26.565"	"24.709"	"22.755"
"2000"	"24.203"	"26.338"	"29.147"	"33.132"	"31.745"	"27.68"	"26.551"	"26.436"	"26.848"	"27.47"	"25.13"	"22.603"
"2001"	"24.092"	"27.216"	"29.825"	"31.866"	"33.801"	"28.615"	"27.675"	"26.439"	"27.733"	"26.367"	"25.623"	"23.085"
"2002"	"23.576"	"26.417"	"30.428"	"33.324"	"33.34"	"29.211"	"28.134"	"25.982"	"27.203"	"26.914"	"24.109"	"23.287"
