
"Year"	"Jan"	"Feb"	"Mar"	"Apr"	"May"	"Jun"	"Jul"	"Aug"	"Sep"	"Oct"	"Nov"	"Dec"
"1901"	"15.621"	"19.092"	"24.138"	"30.013"	"30.702"	"31.364"	"29.203"	"28.651"	"28.351"	"27.247"	"21.497"	"17.397"
"1902"	"17.519"	"19.4"	"25.735"	"28.32"	"30.579"	"30.56"	"28.58"	"29.047"	"28.351"	"25.94"	"20.998"	"16.474"
"1903"	"16.534"	"18.525"	"23.826"	"29.613"	"31.884"	"30.071"	"29.803"	"28.61"	"28.557"	"26.459"	"20.912"	"16.655"
"1904"	"16.489"	"19.101"	"24.731"	"30.355"	"29.672"	"29.617"	"28.181"	"28.447"	"28.351"	"26.247"	"20.693"	"17.466"
"1905"	"15.475"	"15.291"	"22.002"	"26.519"	"29.386"	"31.651"	"28.676"	"27.94"	"28.058"	"26.621"	"21.5"	"16.944"
"1906"	"16.088"	"18.227"	"22.344"	"30.037"	"31.496"	"30.528"	"29.05"	"28.145"	"28.857"	"26.346"	"21.705"	"17.58"
"1907"	"17.712"	"18.4"	"21.727"	"27.02"	"30.167"	"30.457"	"28.905"	"29.159"	"28.656"	"26.683"	"21.205"	"16.98"
"1908"	"15.079"	"18.596"	"24.661"	"31.837"	"31.39"	"30.645"	"28.775"	"29.095"	"28.651"	"26.847"	"20.898"	"16.349"
"1909"	"17.3"	"18.819"	"25.938"	"27.627"	"31.29"	"29.216"	"28.875"	"28.09"	"28.862"	"26.761"	"21.774"	"17.553"
"1910"	"15.983"	"18.802"	"24.561"	"29.636"	"30.696"	"29.61"	"28.268"	"28.757"	"28.657"	"26.217"	"20.776"	"16.561"
"1911"	"17.675"	"18.196"	"23.102"	"29.245"	"31.52"	"29.518"	"29.597"	"28.484"	"28.057"	"26.071"	"20.549"	"15.956"
"1912"	"16.781"	"19.919"	"24.053"	"27.643"	"30.174"	"30.56"	"28.479"	"28.647"	"28.351"	"26.346"	"20.371"	"16.624"
"1913"	"16.184"	"18.691"	"22.525"	"30.525"	"29.574"	"28.325"	"28.873"	"28.26"	"28.682"	"25.928"	"20.194"	"16.453"
"1914"	"16.713"	"19.09"	"23.632"	"27.219"	"29.955"	"29.624"	"28.582"	"28.252"	"28.349"	"25.241"	"21.099"	"17.611"
"1915"	"17.183"	"18.797"	"23.438"	"29.013"	"30.802"	"29.666"	"29.592"	"28.969"	"28.551"	"28.123"	"23.092"	"17.25"
"1916"	"16.277"	"18.984"	"26.297"	"29.572"	"33.102"	"29.393"	"28.6"	"28.622"	"28.551"	"26.621"	"21.505"	"16.356"
"1917"	"15.913"	"18.589"	"23.331"	"28.077"	"28.727"	"29.511"	"28.774"	"28.652"	"28.051"	"26.047"	"21.307"	"16.83"
"1918"	"15.183"	"18.587"	"24.93"	"28.119"	"30.493"	"28.718"	"29.789"	"27.847"	"28.751"	"26.621"	"21.193"	"16.333"
"1919"	"17.071"	"17.891"	"25.132"	"28.383"	"30.66"	"30.018"	"28.873"	"28.921"	"28.252"	"26.252"	"21.569"	"17.05"
"1920"	"16.878"	"18.72"	"23.331"	"29.237"	"30.349"	"31.139"	"29.174"	"28.676"	"28.351"	"26.847"	"21.699"	"17.538"
"1921"	"17.206"	"18.92"	"25.867"	"30.165"	"33.013"	"30.45"	"29.069"	"28.652"	"28.321"	"25.447"	"20.774"	"16.56"
"1922"	"16.983"	"19.626"	"25.668"	"30.588"	"32.491"	"29.118"	"28.774"	"28.329"	"27.957"	"25.524"	"21.201"	"17.181"
"1923"	"16.677"	"18.691"	"24.644"	"30.145"	"31.415"	"31.456"	"28.872"	"28.963"	"28.576"	"25.918"	"21.3"	"17.537"
"1924"	"16.372"	"19.088"	"26.332"	"30.544"	"31.147"	"32.176"	"28.774"	"28.647"	"27.751"	"26.824"	"21"	"17.461"
"1925"	"15.177"	"17.359"	"24.243"	"28.732"	"30.391"	"29.899"	"28.45"	"28.647"	"28.275"	"25.747"	"20.892"	"16.637"
"1926"	"16.377"	"19.382"	"23.125"	"27.585"	"30.466"	"32.763"	"28.873"	"28.647"	"28.354"	"26.252"	"20.188"	"17.574"
"1927"	"16.065"	"18.714"	"22.737"	"29.532"	"29.968"	"30.852"	"28.974"	"28.619"	"28.573"	"26.646"	"21.485"	"17.587"
"1928"	"16.033"	"19.09"	"25.45"	"29.215"	"31.196"	"29.616"	"28.681"	"28.976"	"29.257"	"26.945"	"21.118"	"17.777"
"1929"	"16.484"	"18.095"	"24.869"	"29.042"	"32.013"	"31.24"	"28.58"	"28.459"	"28.548"	"25.653"	"21"	"16.756"
"1930"	"15.507"	"18.52"	"24.861"	"29.013"	"31.067"	"30.25"	"28.676"	"28.622"	"28.582"	"26.439"	"20.799"	"16.549"
"1931"	"17.452"	"18.703"	"24.243"	"30.4"	"30.791"	"31.734"	"28.774"	"29.233"	"28.745"	"26.916"	"21.023"	"17.777"
"1932"	"17.511"	"18.048"	"25.213"	"29.397"	"32.128"	"31.081"	"29.376"	"28.852"	"29.154"	"27.018"	"21.711"	"17.213"
"1933"	"14.983"	"19.626"	"24.844"	"27.521"	"30.549"	"29.816"	"28.58"	"28.152"	"28.354"	"26.348"	"21.106"	"17.349"
"1934"	"16.09"	"18.802"	"24.138"	"29.644"	"31.113"	"29.729"	"28.872"	"28.757"	"28.833"	"25.947"	"20.803"	"17.571"
"1935"	"15.96"	"19.477"	"25.014"	"28.544"	"31.985"	"30.787"	"29.545"	"28.053"	"28.551"	"26.321"	"21.475"	"17.174"
"1936"	"15.707"	"19.329"	"24.931"	"29.167"	"30.768"	"29.583"	"28.844"	"29.028"	"28.252"	"25.723"	"21.97"	"17.743"
"1937"	"15.16"	"18.973"	"23.538"	"29.343"	"30.748"	"31.23"	"29.576"	"28.318"	"29.026"	"25.472"	"21.062"	"16.731"
"1938"	"17.365"	"17.76"	"25.933"	"30.602"	"30.399"	"29.694"	"28.868"	"28.602"	"29.328"	"26.847"	"20.663"	"17.225"
"1939"	"17.196"	"19.614"	"23.4"	"30.525"	"31.703"	"30.231"	"29.251"	"28.609"	"28.728"	"26.27"	"21.752"	"17.846"
"1940"	"16.557"	"19.09"	"22.55"	"28.973"	"31.756"	"30.929"	"29.152"	"28.828"	"28.551"	"27.072"	"22.168"	"17.587"
"1941"	"16.769"	"19.601"	"26.267"	"30.837"	"30.733"	"30.117"	"29.597"	"28.717"	"28.785"	"26.27"	"21.399"	"18.459"
"1942"	"16.875"	"19.092"	"25.03"	"28.95"	"32.466"	"31.629"	"29.533"	"28.444"	"27.722"	"26.252"	"22.393"	"17.103"
"1943"	"18.212"	"18.095"	"24.855"	"27.351"	"31.464"	"30.803"	"28.766"	"28.353"	"28.626"	"26.652"	"21.676"	"18.66"
"1944"	"16.459"	"18.938"	"23.713"	"27.188"	"32.397"	"31.036"	"29.069"	"28.757"	"29.648"	"25.928"	"21.274"	"18.31"
"1945"	"16.177"	"17.709"	"24.931"	"28.16"	"30.497"	"31.365"	"29.999"	"28.971"	"28.622"	"25.516"	"20.862"	"16.338"
"1946"	"17.016"	"20.832"	"24.445"	"27.193"	"29.848"	"30.436"	"28.938"	"29.035"	"28.572"	"26.022"	"21.308"	"18.113"
"1947"	"16.817"	"19.47"	"25.361"	"30.519"	"31.128"	"31.734"	"29.145"	"29.102"	"28.551"	"26.45"	"21.499"	"18.014"
"1948"	"17.534"	"19.614"	"24.795"	"29.791"	"31.209"	"32.031"	"28.546"	"28.615"	"28.572"	"26.012"	"21.706"	"17.148"
"1949"	"17.351"	"18.678"	"24.476"	"27.466"	"29.287"	"30.084"	"28.743"	"28.757"	"28.351"	"27.219"	"20.963"	"16.466"
"1950"	"17.201"	"18.671"	"23.808"	"29.013"	"31.644"	"30.108"	"29.245"	"28.254"	"28.563"	"26.341"	"20.44"	"17.367"
"1951"	"16.267"	"19.368"	"25.215"	"29.291"	"31.904"	"31.081"	"28.774"	"29.436"	"28.915"	"27.751"	"22.105"	"17.734"
"1952"	"17.629"	"20.466"	"23.296"	"28.977"	"30.727"	"30.634"	"28.928"	"28.602"	"28.026"	"26.961"	"21.475"	"17.042"
"1953"	"16.094"	"20.212"	"26.632"	"29.667"	"31.613"	"30.269"	"28.479"	"28.74"	"28.221"	"26.248"	"21.164"	"18.942"
"1954"	"15.679"	"20.721"	"24.837"	"31.477"	"31.896"	"30.017"	"28.695"	"28.459"	"28.889"	"25.336"	"20.164"	"17.155"
"1955"	"16.586"	"18.507"	"25.996"	"28.626"	"31.59"	"30.358"	"27.986"	"28.065"	"28.323"	"26.683"	"21.959"	"17.062"
"1956"	"16.261"	"18.97"	"25.521"	"30.284"	"31.721"	"29.078"	"29.075"	"28.484"	"27.696"	"26.268"	"20.869"	"17.902"
"1957"	"16.628"	"18.371"	"23.924"	"29.819"	"33.362"	"31.006"	"29.274"	"28.9"	"29.087"	"26.351"	"21.44"	"18.669"
"1958"	"18.267"	"19.798"	"25.347"	"30.69"	"32.773"	"32.533"	"29.931"	"28.323"	"28.789"	"27.225"	"22.568"	"18.443"
"1959"	"17.23"	"19.021"	"24.468"	"30.02"	"31.466"	"30.674"	"29.469"	"29.333"	"28.312"	"25.959"	"21.405"	"17.955"
"1960"	"16.656"	"21.629"	"23.538"	"30.76"	"32.302"	"31.299"	"28.868"	"29.557"	"28.28"	"26.941"	"21.272"	"18.411"
"1961"	"17.758"	"18.212"	"25.296"	"30.059"	"32.069"	"29.989"	"28.885"	"29.21"	"28.363"	"26.356"	"20.677"	"15.118"
"1962"	"15.56"	"19.64"	"24.286"	"29.826"	"30.943"	"30.359"	"29.469"	"28.034"	"28.222"	"26.104"	"21.468"	"17.531"
"1963"	"15.805"	"20.282"	"24.229"	"28.511"	"29.779"	"30.115"	"28.944"	"28.623"	"28.212"	"27.045"	"22.521"	"18.681"
"1964"	"16.397"	"19.614"	"25.804"	"29.817"	"29.944"	"31.454"	"28.302"	"28.956"	"28.551"	"27.565"	"21.748"	"17.859"
"1965"	"17.57"	"19.618"	"23.333"	"28.71"	"32.035"	"31.617"	"28.594"	"28.424"	"27.912"	"26.646"	"22.112"	"16.355"
"1966"	"16.632"	"20.458"	"25.309"	"30.478"	"32.604"	"31.699"	"29.193"	"28.238"	"28.345"	"26.06"	"22.643"	"17.846"
"1967"	"17.167"	"20.533"	"23.356"	"27.753"	"31.345"	"31.077"	"28.999"	"28.728"	"28.354"	"26.11"	"20.858"	"18.601"
"1968"	"16.468"	"18.362"	"24.632"	"29.264"	"32.073"	"28.974"	"28.482"	"28.728"	"29.245"	"25.952"	"21.711"	"18.326"
"1969"	"16.071"	"19.637"	"26.336"	"30.116"	"30.314"	"30.865"	"29.003"	"27.959"	"28.053"	"26.675"	"22.805"	"17.748"
"1970"	"16.668"	"18.813"	"24.641"	"30.313"	"32.118"	"29.817"	"28.88"	"28.85"	"28.258"	"26.963"	"21.406"	"17.084"
"1971"	"16.155"	"17.321"	"23.917"	"26.564"	"28.486"	"28.863"	"27.785"	"27.148"	"28.028"	"26.144"	"20.4"	"17.477"
"1972"	"16.338"	"16.906"	"24.346"	"28.709"	"32.108"	"30.674"	"28.972"	"28.651"	"26.816"	"25.444"	"20.656"	"16.869"
"1973"	"16.416"	"19.314"	"23.069"	"29.554"	"29.929"	"28.9"	"28.775"	"28.746"	"28.258"	"26.348"	"21.195"	"17.512"
"1974"	"15.809"	"18.569"	"24.362"	"29.451"	"30.203"	"30.481"	"28.273"	"28.345"	"28.349"	"27.454"	"21.097"	"15.38"
"1975"	"16.248"	"18.964"	"24.308"	"29.393"	"30.867"	"30.037"	"27.334"	"28.597"	"27.95"	"27.348"	"21.505"	"16.968"
"1976"	"16.799"	"19.894"	"24.904"	"29.165"	"29.706"	"30.189"	"28.866"	"28.217"	"27.95"	"26.646"	"22.793"	"17.314"
"1977"	"16.249"	"19.11"	"25.904"	"28.612"	"28.008"	"29.364"	"28.679"	"28.942"	"28.955"	"25.839"	"22.891"	"16.448"
"1978"	"15.323"	"18.386"	"23.038"	"27.915"	"30.628"	"29.371"	"28.575"	"28.794"	"28.152"	"26.248"	"22.394"	"17.812"
"1979"	"17.271"	"17.711"	"24.418"	"29.495"	"32.348"	"31.064"	"29.097"	"30.18"	"27.756"	"26.768"	"23.686"	"18.479"
"1980"	"16.672"	"19.3"	"24.116"	"30.821"	"30.628"	"29.821"	"28.963"	"28.434"	"28.489"	"25.968"	"21.894"	"18.21"
"1981"	"15.9"	"19.068"	"23.594"	"26.638"	"28.572"	"30.289"	"28.475"	"28.794"	"28.401"	"26.621"	"21.362"	"17.26"
"1982"	"17.566"	"18.819"	"22.628"	"28.826"	"32.568"	"30.211"	"30.457"	"28.853"	"28.915"	"26.435"	"21.992"	"16.445"
"1983"	"16.052"	"19.558"	"24.226"	"28.326"	"29.842"	"31.588"	"29.57"	"29.173"	"29.286"	"26.597"	"21.564"	"17.624"
"1984"	"16.059"	"18.099"	"25.279"	"30.116"	"31.936"	"29.434"	"28.546"	"28.422"	"28.149"	"27.528"	"20.567"	"17.937"
"1985"	"17.122"	"18.594"	"26.081"	"30.091"	"29.987"	"31.033"	"28.102"	"28.822"	"28.082"	"26.319"	"21.864"	"18.902"
"1986"	"16.847"	"18.95"	"24.142"	"28.745"	"29.131"	"30.974"	"28.778"	"28.258"	"27.507"	"25.64"	"22.459"	"17.418"
"1987"	"16.544"	"20.625"	"24.333"	"28.743"	"30.673"	"31.175"	"28.775"	"27.722"	"28.657"	"27.083"	"22.458"	"19.173"
"1988"	"18.065"	"19.99"	"24.238"	"29.79"	"31.299"	"29.716"	"29.071"	"28.653"	"29.74"	"28.263"	"22.635"	"19.471"
"1989"	"16.054"	"19.573"	"24.933"	"30.323"	"31.309"	"29.547"	"28.946"	"28.282"	"29.058"	"27.896"	"22.091"	"16.972"
"1990"	"16.661"	"19.206"	"23.266"	"29.287"	"29.547"	"30.647"	"28.824"	"29.005"	"29.12"	"26.257"	"22.864"	"18.337"
"1991"	"16.818"	"20.196"	"25.113"	"28.994"	"31.908"	"29.412"	"29.141"	"28.559"	"28.587"	"27.293"	"22.439"	"17.466"
"1992"	"15.178"	"17.181"	"25.85"	"30.169"	"29.741"	"30.6"	"28.846"	"28.606"	"28.951"	"27.249"	"22.205"	"17.56"
"1993"	"17.035"	"21"	"23.56"	"28.247"	"30.256"	"30.668"	"29.599"	"28.117"	"28.354"	"27.316"	"22.328"	"18.623"
"1994"	"17.6"	"18.612"	"25.378"	"28.631"	"31.167"	"30.645"	"29.328"	"28.622"	"28.833"	"26.841"	"22.286"	"17.806"
"1995"	"15.01"	"21.149"	"24.625"	"29.321"	"31.908"	"30.999"	"28.604"	"28.148"	"28.663"	"26.949"	"22.595"	"18.699"
"1996"	"16.696"	"19.115"	"25.572"	"28.604"	"31.297"	"29.612"	"28.774"	"27.588"	"29.152"	"26.851"	"22.611"	"18.764"
"1997"	"15.839"	"18.418"	"24.938"	"29.391"	"30.436"	"30.678"	"28.675"	"28.922"	"27.921"	"25.662"	"22.414"	"17.614"
"1998"	"16.484"	"19.896"	"23.597"	"28.968"	"31.428"	"32.051"	"28.949"	"29.021"	"28.951"	"28.951"	"22.899"	"18.716"
"1999"	"17.529"	"20.416"	"25.413"	"31.515"	"31.485"	"30.312"	"28.767"	"28.622"	"28.551"	"27.376"	"22.899"	"18.805"
"2000"	"17.882"	"18.745"	"24.568"	"29.843"	"30.773"	"30.52"	"29.203"	"28.647"	"27.957"	"27.529"	"23.527"	"18.247"
"2001"	"17.488"	"19.588"	"24.374"	"30.093"	"31.674"	"29.965"	"28.956"	"29.218"	"29.257"	"27.975"	"23.921"	"19.492"
"2002"	"16.622"	"20.396"	"25.643"	"29.325"	"31.37"	"31.159"	"29.974"	"28.597"	"28.539"	"26.847"	"22.467"	"19.051"
