
"Year"	"Jan"	"Feb"	"Mar"	"Apr"	"May"	"Jun"	"Jul"	"Aug"	"Sep"	"Oct"	"Nov"	"Dec"
"1901"	"23.003"	"22.866"	"26.851"	"29.046"	"28.32"	"26.353"	"24.829"	"24.664"	"25.557"	"26.043"	"24.046"	"23.031"
"1902"	"23.473"	"24.195"	"27.489"	"28.831"	"29.59"	"27.12"	"25.751"	"25.765"	"24.953"	"26.341"	"23.523"	"23.211"
"1903"	"22.928"	"23.218"	"25.938"	"28.745"	"28.735"	"27.251"	"25.017"	"24.93"	"25.199"	"24.906"	"23.257"	"22.223"
"1904"	"22.718"	"23.61"	"26.067"	"28.633"	"28.928"	"26.256"	"25.012"	"25.527"	"25.202"	"25.827"	"22.945"	"22.495"
"1905"	"22.225"	"23.272"	"25.355"	"27.101"	"29.671"	"27.497"	"25.333"	"25.086"	"25.096"	"26.525"	"24.411"	"22.259"
"1906"	"22.842"	"23.459"	"26.203"	"29.629"	"29.888"	"26.232"	"24.938"	"25.082"	"24.354"	"25.395"	"24.62"	"23.414"
"1907"	"23.032"	"24.267"	"26.432"	"27.345"	"28.374"	"26.422"	"25.095"	"23.958"	"25.082"	"26.394"	"24.85"	"22.266"
"1908"	"22.66"	"23.586"	"26.319"	"29.448"	"28.836"	"27.155"	"24.324"	"24.424"	"25.396"	"26.029"	"23.293"	"21.33"
"1909"	"23.431"	"24.19"	"27.869"	"27.779"	"29.308"	"25.995"	"24.322"	"25.133"	"24.67"	"25.547"	"24.258"	"23.877"
"1910"	"22.962"	"23.816"	"27.023"	"29.347"	"29.265"	"26.596"	"25.405"	"24.804"	"24.59"	"24.926"	"22.186"	"21.719"
"1911"	"23.433"	"23.229"	"26.128"	"28.83"	"29.735"	"26.131"	"25.539"	"24.559"	"25.446"	"27.017"	"25.625"	"23.98"
"1912"	"23.311"	"24.998"	"27.239"	"29.828"	"29.842"	"28.055"	"25.465"	"25.035"	"25.865"	"26.047"	"23.779"	"22.497"
"1913"	"21.991"	"24.967"	"26.541"	"29.82"	"29.147"	"25.64"	"24.82"	"24.953"	"25.566"	"25.852"	"24.18"	"24.072"
"1914"	"22.811"	"24.783"	"26.481"	"28.364"	"29.735"	"26.96"	"24.732"	"24.805"	"25.285"	"25.948"	"24.799"	"23.64"
"1915"	"23.313"	"24.171"	"26.501"	"29.143"	"29.239"	"27.719"	"25.58"	"25.259"	"25.336"	"25.532"	"25.298"	"22.168"
"1916"	"22.896"	"23.881"	"27.712"	"29.457"	"29.65"	"25.654"	"25.954"	"25.097"	"25.375"	"25.637"	"24.413"	"22.098"
"1917"	"22.505"	"23.516"	"25.859"	"27.693"	"28.251"	"25.537"	"25.481"	"25.356"	"25.018"	"24.672"	"23.309"	"22.199"
"1918"	"21.948"	"23.967"	"26.048"	"27.868"	"27.689"	"26.174"	"26.216"	"25.611"	"25.7"	"27.141"	"25.984"	"24.047"
"1919"	"23.893"	"24.976"	"27.043"	"28.9"	"28.976"	"25.976"	"25.139"	"25.125"	"25.437"	"25.783"	"25.166"	"22.75"
"1920"	"23.63"	"23.902"	"27.085"	"28.607"	"28.73"	"26.459"	"24.667"	"25.065"	"25.723"	"26.266"	"24.312"	"22.862"
"1921"	"23.641"	"23.881"	"27.786"	"29.531"	"29.604"	"26.805"	"25.383"	"24.646"	"24.729"	"25.676"	"23.308"	"22.777"
"1922"	"23.498"	"24.569"	"27.232"	"29.524"	"29.08"	"26.498"	"24.463"	"24.771"	"24.933"	"25.674"	"23.83"	"21.582"
"1923"	"22.499"	"23.007"	"26.593"	"28.257"	"28.509"	"27.828"	"24.681"	"24.908"	"24.771"	"25.404"	"24.08"	"23.661"
"1924"	"23.787"	"24.776"	"28.025"	"29.801"	"29.714"	"27.092"	"25.628"	"25.572"	"25.116"	"24.671"	"22.841"	"22.745"
"1925"	"22.013"	"23.411"	"27.086"	"29.839"	"28.702"	"25.892"	"24.803"	"25.136"	"25.659"	"25.961"	"25.107"	"22.919"
"1926"	"23.91"	"25.362"	"27.03"	"27.307"	"29.182"	"28.167"	"25.747"	"25.12"	"25.238"	"26.223"	"24.064"	"23.057"
"1927"	"23.683"	"24.35"	"27.432"	"29.022"	"29.135"	"26.144"	"24.427"	"24.758"	"25.586"	"25.756"	"22.884"	"23.084"
"1928"	"23.531"	"24.192"	"26.96"	"29.205"	"29.389"	"27.048"	"25.177"	"24.932"	"24.675"	"25.663"	"24.499"	"23.161"
"1929"	"23.08"	"24.328"	"27.798"	"28.403"	"29.519"	"26.264"	"24.995"	"25.178"	"25.868"	"25.645"	"24.486"	"23.602"
"1930"	"23.561"	"22.681"	"27.014"	"28.334"	"29.258"	"26.759"	"24.323"	"24.574"	"25.111"	"25.912"	"23.361"	"23.803"
"1931"	"23.16"	"24.612"	"26.529"	"29.977"	"29.732"	"27.841"	"24.918"	"25.094"	"24.798"	"24.935"	"23.988"	"22.413"
"1932"	"22.226"	"23.014"	"26.314"	"28.467"	"29.013"	"26.425"	"24.586"	"25.464"	"25.07"	"26.175"	"24.417"	"22.785"
"1933"	"22.679"	"24.143"	"26.342"	"28.473"	"27.806"	"25.432"	"24.772"	"24.466"	"24.641"	"25.085"	"24.542"	"22.551"
"1934"	"22.131"	"23.773"	"25.977"	"28.903"	"28.995"	"26.377"	"24.649"	"24.346"	"24.78"	"25.879"	"23.081"	"22.13"
"1935"	"22.161"	"23.835"	"25.915"	"27.533"	"29.45"	"26.898"	"24.576"	"24.848"	"24.246"	"26.085"	"23.232"	"23.371"
"1936"	"23.072"	"23.437"	"26.421"	"28.455"	"29.767"	"25.41"	"24.747"	"24.783"	"25.603"	"25.798"	"24.905"	"23.079"
"1937"	"22.376"	"24.23"	"26.369"	"28.015"	"29.215"	"26.572"	"24.3"	"25"	"25.11"	"25.268"	"23.931"	"22.991"
"1938"	"24.03"	"23.401"	"27.461"	"29.19"	"28.835"	"24.784"	"24.397"	"24.796"	"24.481"	"24.241"	"23.344"	"22.574"
"1939"	"23.202"	"24.409"	"25.917"	"28.402"	"28.949"	"26.708"	"24.364"	"24.826"	"24.733"	"25.932"	"23.189"	"22.049"
"1940"	"21.871"	"24.07"	"25.918"	"28.488"	"29.117"	"26.602"	"24.445"	"24.434"	"25.232"	"25.537"	"24.886"	"22.995"
"1941"	"22.885"	"25.029"	"27.926"	"29.905"	"30.005"	"27.104"	"25.485"	"25.671"	"25.87"	"26.76"	"25.199"	"24.898"
"1942"	"23.445"	"24.681"	"28.05"	"29.1"	"29.766"	"26.793"	"24.261"	"24.382"	"24.394"	"26.278"	"23.986"	"23.452"
"1943"	"23.807"	"23.241"	"26.717"	"28.247"	"28.397"	"25.487"	"24.322"	"24.616"	"24.31"	"25.037"	"24.806"	"21.947"
"1944"	"23.287"	"23.356"	"25.285"	"28.073"	"29.98"	"26.905"	"24.782"	"24.936"	"25.346"	"25.582"	"24.436"	"23.722"
"1945"	"22.265"	"23.786"	"27.103"	"27.833"	"29.237"	"26.661"	"24.735"	"25.046"	"24.548"	"25.521"	"23.347"	"21.938"
"1946"	"22.11"	"23.946"	"26.956"	"28.296"	"28.363"	"25.779"	"24.611"	"24.537"	"24.948"	"26.541"	"24.736"	"24.516"
"1947"	"23.466"	"24.177"	"27.037"	"27.888"	"29.4"	"27.355"	"24.995"	"25.684"	"24.562"	"24.682"	"24.029"	"23.193"
"1948"	"23.865"	"24.128"	"26.765"	"28.806"	"29.505"	"26.968"	"25.171"	"25.056"	"24.54"	"26.048"	"25.722"	"21.802"
"1949"	"23.208"	"23.534"	"27.172"	"28.62"	"28.581"	"26.294"	"25.287"	"25.255"	"24.644"	"25.753"	"23.467"	"22.942"
"1950"	"22.956"	"23.336"	"26.157"	"28.749"	"28.864"	"26.704"	"24.698"	"25.506"	"24.79"	"24.844"	"23.563"	"23.031"
"1951"	"23.025"	"24.062"	"26.757"	"27.983"	"29.429"	"26.417"	"25.364"	"24.936"	"26.435"	"26.436"	"25.461"	"22.402"
"1952"	"23.394"	"24.755"	"25.912"	"29.363"	"29.686"	"26.726"	"25.299"	"24.647"	"25.224"	"25.96"	"23.265"	"24.716"
"1953"	"23.06"	"25.223"	"28.76"	"28.651"	"29.783"	"27.4"	"25.165"	"24.71"	"25.177"	"26.008"	"24.142"	"22.575"
"1954"	"22.689"	"25.231"	"26.784"	"29.106"	"29.714"	"26.543"	"24.481"	"24.835"	"24.025"	"24.845"	"23.285"	"23.699"
"1955"	"23.808"	"25.159"	"27.198"	"28.308"	"28.8"	"26.261"	"25.048"	"24.3"	"25.52"	"25.457"	"22.9"	"22.512"
"1956"	"23.155"	"23.635"	"27.555"	"29.383"	"27.765"	"25.747"	"23.645"	"24.211"	"24.297"	"25.079"	"24.383"	"22.894"
"1957"	"23.531"	"23.881"	"25.874"	"28.857"	"29.429"	"27.369"	"24.971"	"24.725"	"25.231"	"26.648"	"24.963"	"24.617"
"1958"	"23.668"	"24.363"	"27.061"	"29.488"	"29.805"	"28.055"	"24.815"	"25.127"	"24.818"	"25.83"	"25.479"	"23.868"
"1959"	"24.075"	"25.232"	"27.555"	"29.267"	"30.036"	"26.709"	"24.284"	"24.812"	"24.96"	"25.413"	"24.605"	"24.118"
"1960"	"23.899"	"24.859"	"26.707"	"29.128"	"29.166"	"26.501"	"25.395"	"24.863"	"25.146"	"25.489"	"24.693"	"24.105"
"1961"	"23.782"	"23.434"	"28.085"	"29.576"	"28.228"	"25.97"	"24.215"	"24.902"	"24.491"	"25.086"	"24.576"	"23.836"
"1962"	"21.961"	"24.641"	"26.776"	"28.663"	"29.356"	"27.004"	"24.791"	"24.733"	"24.82"	"25.905"	"24.034"	"23.093"
"1963"	"23.616"	"24.082"	"27.052"	"27.73"	"29.081"	"25.987"	"25.021"	"24.162"	"25.007"	"25.752"	"24.968"	"24.218"
"1964"	"22.997"	"24.682"	"27.751"	"29.75"	"29.164"	"26.651"	"24.923"	"24.133"	"24.445"	"25.651"	"23.834"	"22.67"
"1965"	"23.299"	"24.132"	"26.546"	"28.497"	"28.969"	"26.547"	"24.477"	"25.262"	"25.675"	"26.902"	"25.568"	"24.703"
"1966"	"23.718"	"25.435"	"27.485"	"29.429"	"28.615"	"27.383"	"25.694"	"25.617"	"25.493"	"26.426"	"25.507"	"23.686"
"1967"	"23.291"	"24.838"	"26.935"	"29.408"	"30.1"	"27.361"	"25.016"	"24.736"	"25"	"25.779"	"24.575"	"25.19"
"1968"	"22.614"	"24.678"	"26.689"	"28.962"	"29.523"	"27.217"	"25.095"	"24.948"	"25.722"	"25.178"	"24.232"	"23.921"
"1969"	"23.095"	"25.502"	"28.486"	"30.202"	"30.227"	"27.372"	"24.954"	"25.247"	"24.823"	"26.277"	"25.957"	"24.092"
"1970"	"23.764"	"25.349"	"27.492"	"29.814"	"29.701"	"25.998"	"25.084"	"24.539"	"24.896"	"25.957"	"23.82"	"21.681"
"1971"	"22.319"	"24.802"	"26.688"	"29.556"	"29.391"	"25.946"	"25.469"	"24.84"	"25.721"	"24.731"	"23.975"	"22.375"
"1972"	"23.079"	"23.668"	"27.717"	"29.174"	"29.442"	"28.135"	"25.914"	"25.754"	"26.33"	"27.238"	"25.03"	"24.617"
"1973"	"23.816"	"25.625"	"28.142"	"30.359"	"30.688"	"26.784"	"25.064"	"24.323"	"24.476"	"24.953"	"24.203"	"23.662"
"1974"	"23.469"	"24.948"	"28.176"	"29.825"	"27.823"	"25.661"	"25.174"	"24.659"	"25.155"	"25.071"	"23.759"	"22.556"
"1975"	"22.269"	"24.679"	"26.904"	"29.62"	"29.674"	"26.349"	"24.539"	"24.948"	"24.996"	"25.683"	"22.796"	"21.872"
"1976"	"22.118"	"23.926"	"27.229"	"28.145"	"28.904"	"26.308"	"25.11"	"24.576"	"25.662"	"27.245"	"25.91"	"24.31"
"1977"	"23.091"	"25.291"	"27.975"	"28.585"	"29.076"	"26.698"	"25.025"	"24.99"	"26.095"	"26.211"	"26.053"	"23.053"
"1978"	"23.278"	"23.944"	"26.122"	"28.435"	"29.14"	"25.521"	"24.351"	"23.968"	"24.877"	"25.926"	"25.44"	"24.108"
"1979"	"23.872"	"23.89"	"26.767"	"29.208"	"28.426"	"27.162"	"25.634"	"24.75"	"25.142"	"27.126"	"25.572"	"24.053"
"1980"	"23.781"	"25.406"	"27.249"	"28.539"	"29.622"	"25.683"	"25.061"	"24.214"	"25.77"	"27.701"	"26.244"	"23.506"
"1981"	"22.654"	"25.222"	"26.695"	"28.831"	"28.588"	"26.551"	"25.455"	"24.565"	"24.901"	"26.359"	"24.488"	"23.297"
"1982"	"23.923"	"25.423"	"27.081"	"28.538"	"29.031"	"27.078"	"25.332"	"25.29"	"25.259"	"26.934"	"25.09"	"24.08"
"1983"	"22.94"	"23.57"	"26.743"	"28.867"	"30.321"	"28.129"	"25.53"	"25.185"	"24.755"	"25.45"	"23.659"	"23.271"
"1984"	"23.489"	"24.709"	"27.941"	"29.8"	"30.771"	"26.993"	"24.884"	"24.62"	"25.31"	"25.939"	"24.172"	"24.146"
"1985"	"24.137"	"24.781"	"28.058"	"29.134"	"29.32"	"26.201"	"24.792"	"24.986"	"26"	"25.342"	"24.928"	"24.45"
"1986"	"23.379"	"24.727"	"27.956"	"29.822"	"29.813"	"26.524"	"25.676"	"24.633"	"26.241"	"27.605"	"25.906"	"24.08"
"1987"	"24.328"	"24.837"	"27.466"	"29.679"	"29.204"	"27.326"	"25.8"	"25.6"	"27.06"	"26.389"	"25.48"	"23.604"
"1988"	"23.787"	"25.366"	"27.105"	"29.46"	"29.995"	"27.016"	"25.006"	"25.056"	"25.425"	"26.437"	"24.701"	"23.413"
"1989"	"23.521"	"24.046"	"26.222"	"29.197"	"29.911"	"26.073"	"24.69"	"24.489"	"25.125"	"26.126"	"25.445"	"23.627"
"1990"	"24.187"	"24.077"	"25.929"	"28.67"	"27.49"	"25.456"	"24.834"	"24.744"	"25.799"	"25.725"	"25.576"	"23.928"
"1991"	"23.429"	"24.888"	"27.173"	"28.886"	"29.816"	"26.275"	"24.33"	"25.084"	"26.084"	"26.604"	"25.38"	"23.098"
"1992"	"22.416"	"23.014"	"27.001"	"28.78"	"29.74"	"27.496"	"25.939"	"24.974"	"26.01"	"26.578"	"25.614"	"22.998"
"1993"	"23.767"	"24.057"	"26.128"	"29.204"	"29.977"	"27.854"	"25.3"	"24.944"	"25.089"	"25.91"	"25.717"	"22.652"
"1994"	"23.489"	"24.088"	"28.133"	"28.312"	"29.839"	"26.134"	"24.727"	"25.23"	"25.959"	"25.977"	"24.773"	"22.627"
"1995"	"21.434"	"24.246"	"26.821"	"29.424"	"28.679"	"28.708"	"25.496"	"26.309"	"25.956"	"25.951"	"25.043"	"24.28"
"1996"	"24.249"	"25.398"	"28.428"	"29.222"	"30.113"	"27.744"	"25.49"	"25.194"	"25.405"	"25.458"	"24.889"	"23.679"
"1997"	"22.438"	"23.347"	"27.408"	"27.772"	"29.343"	"27.081"	"25.566"	"24.936"	"25.656"	"26.788"	"26.835"	"25.506"
"1998"	"24.247"	"24.436"	"27.597"	"30.186"	"30.715"	"28.104"	"25.723"	"25.738"	"25.72"	"26.074"	"25.239"	"22.828"
"1999"	"22.269"	"25.798"	"28.031"	"29.763"	"28.862"	"25.922"	"24.977"	"25.017"	"24.888"	"25.99"	"24.871"	"23.305"
"2000"	"23.987"	"24.12"	"26.562"	"29.886"	"28.826"	"26.15"	"24.68"	"25.254"	"25.803"	"26.721"	"25.197"	"23.051"
"2001"	"23.943"	"25.367"	"26.688"	"29.383"	"29.678"	"26.549"	"24.91"	"24.784"	"25.984"	"25.882"	"25.576"	"23.929"
"2002"	"22.718"	"25.771"	"28.162"	"30.174"	"30.046"	"26.801"	"25.604"	"24.736"	"25.72"	"26.974"	"25.25"	"24.181"
