
"Year"	"Jan"	"Feb"	"Mar"	"Apr"	"May"	"Jun"	"Jul"	"Aug"	"Sep"	"Oct"	"Nov"	"Dec"
"1901"	"14.461"	"18.243"	"23.935"	"30.108"	"32.716"	"34.654"	"30.908"	"29.395"	"28.822"	"27.663"	"21.918"	"17.2"
"1902"	"17.317"	"19.468"	"26.014"	"29.686"	"33.136"	"33.797"	"29.988"	"29.603"	"29.064"	"26.105"	"21.281"	"16.328"
"1903"	"16.185"	"18.006"	"23.487"	"30.22"	"33.543"	"33.556"	"31.507"	"29.333"	"29.538"	"26.641"	"21.179"	"16.592"
"1904"	"16.319"	"19.165"	"24.541"	"31.379"	"31.964"	"32.238"	"29.467"	"28.897"	"28.863"	"26.636"	"20.586"	"17.043"
"1905"	"14.495"	"14.639"	"21.56"	"27.182"	"32.269"	"34.804"	"30.105"	"28.729"	"28.896"	"26.762"	"21.682"	"16.598"
"1906"	"15.492"	"17.552"	"22.651"	"30.638"	"34.195"	"33.087"	"30.37"	"28.836"	"29.364"	"26.704"	"22.352"	"17.632"
"1907"	"17.68"	"17.65"	"21.321"	"27.678"	"31.745"	"33.008"	"30.986"	"29.661"	"29.659"	"27.538"	"21.519"	"16.561"
"1908"	"15.006"	"18.771"	"24.497"	"32.439"	"33.623"	"34.16"	"30.149"	"29.666"	"29.499"	"26.964"	"20.949"	"16.232"
"1909"	"17.171"	"17.906"	"25.455"	"28.31"	"33.323"	"31.265"	"29.877"	"29.192"	"29.655"	"27.254"	"21.719"	"17.298"
"1910"	"15.709"	"18.644"	"24.874"	"30.577"	"33.019"	"32.043"	"29.743"	"29.399"	"29.302"	"26.445"	"20.825"	"16.303"
"1911"	"17.232"	"18.368"	"22.584"	"30.045"	"34.351"	"31.803"	"31.549"	"29.434"	"28.765"	"26.605"	"20.225"	"15.934"
"1912"	"16.185"	"19.681"	"24.279"	"29.229"	"32.591"	"33.659"	"30.242"	"29.196"	"28.827"	"26.741"	"20.263"	"16.202"
"1913"	"15.877"	"18.288"	"22.241"	"30.943"	"31.52"	"30.506"	"30.074"	"29.528"	"29.556"	"26.342"	"20.222"	"16.247"
"1914"	"17.114"	"18.893"	"23.277"	"28.689"	"31.88"	"32.323"	"29.984"	"29.037"	"28.898"	"25.408"	"21.704"	"17.167"
"1915"	"16.715"	"18.04"	"23.714"	"30.149"	"33.833"	"32.996"	"31.108"	"29.393"	"29.298"	"28.306"	"22.984"	"16.934"
"1916"	"15.877"	"18.439"	"26.931"	"31.188"	"34.605"	"31.366"	"29.883"	"29.087"	"29.064"	"27.006"	"21.856"	"15.796"
"1917"	"15.615"	"18.276"	"23.278"	"27.851"	"29.585"	"31.706"	"29.875"	"29.397"	"28.566"	"26.481"	"21.344"	"16.598"
"1918"	"14.816"	"18.805"	"24.837"	"28.913"	"33.089"	"30.862"	"31.406"	"29.033"	"29.423"	"26.628"	"20.949"	"15.646"
"1919"	"16.053"	"17.274"	"24.64"	"28.681"	"32.016"	"32.303"	"29.828"	"29.397"	"28.863"	"26.468"	"21.429"	"16.504"
"1920"	"16.409"	"18.146"	"23.458"	"30.177"	"31.117"	"33.39"	"29.876"	"29.397"	"29.163"	"27.009"	"21.923"	"17.488"
"1921"	"16.529"	"19.06"	"26.806"	"31.653"	"35.753"	"32.734"	"30.313"	"28.865"	"28.37"	"25.704"	"20.549"	"16.643"
"1922"	"16.055"	"19.676"	"25.796"	"30.404"	"34.479"	"31.366"	"29.692"	"28.698"	"28.261"	"25.326"	"20.913"	"16.374"
"1923"	"16.117"	"18.051"	"24.335"	"31.274"	"33.624"	"34.857"	"29.871"	"29.499"	"29.03"	"25.768"	"21.189"	"17.041"
"1924"	"15.425"	"18.775"	"26.238"	"31.279"	"32.353"	"35.281"	"29.868"	"29.095"	"28.301"	"26.866"	"21.128"	"17.102"
"1925"	"14.488"	"17.299"	"24.371"	"30.583"	"32.481"	"31.578"	"29.331"	"29.24"	"28.939"	"26.345"	"20.832"	"16.23"
"1926"	"15.687"	"19.308"	"22.786"	"27.303"	"31.612"	"35.508"	"30.511"	"29.302"	"28.862"	"26.267"	"19.551"	"16.797"
"1927"	"14.978"	"17.945"	"23.069"	"29.899"	"31.821"	"33.587"	"30.308"	"29.039"	"29.498"	"26.704"	"21.187"	"17.438"
"1928"	"15.257"	"18.776"	"25.104"	"29.344"	"33.617"	"32.008"	"29.871"	"30.219"	"30.194"	"27.64"	"21.525"	"17.31"
"1929"	"15.886"	"17.834"	"25.408"	"30.257"	"34.284"	"33.277"	"29.871"	"28.762"	"29.242"	"25.903"	"21.417"	"16.58"
"1930"	"15.024"	"18.238"	"25.37"	"29.779"	"32.744"	"32.984"	"29.635"	"29.097"	"29.494"	"26.749"	"21.064"	"16.491"
"1931"	"17.12"	"17.951"	"24.171"	"31.374"	"33.26"	"34.281"	"30.109"	"29.997"	"29.168"	"26.808"	"21.323"	"17.539"
"1932"	"17.451"	"17.782"	"24.977"	"29.979"	"32.949"	"34.386"	"30.474"	"29.2"	"29.427"	"27.004"	"22.121"	"16.532"
"1933"	"14.418"	"19.447"	"24.975"	"27.979"	"30.943"	"32.008"	"29.809"	"29.134"	"29.062"	"26.503"	"21.483"	"17.097"
"1934"	"15.69"	"19.267"	"24.078"	"30.673"	"33.283"	"32.488"	"29.871"	"29.202"	"29.463"	"26.299"	"21.323"	"17.01"
"1935"	"14.798"	"19.044"	"24.638"	"27.513"	"33.913"	"33.981"	"30.337"	"28.696"	"28.865"	"26.305"	"21.193"	"16.506"
"1936"	"15.087"	"18.613"	"24.779"	"29.242"	"32.956"	"30.581"	"29.439"	"29.064"	"28.564"	"25.506"	"21.59"	"17.295"
"1937"	"14.684"	"18.453"	"23.375"	"28.211"	"32.284"	"33.251"	"30.333"	"28.459"	"29.265"	"25.802"	"20.732"	"15.859"
"1938"	"15.793"	"16.944"	"25.878"	"30.975"	"32.719"	"31.178"	"29.778"	"29.095"	"29.429"	"26.97"	"20.391"	"16.924"
"1939"	"16.623"	"18.849"	"22.685"	"29.669"	"34.153"	"32.219"	"29.875"	"29.067"	"28.867"	"26.54"	"21.483"	"17.162"
"1940"	"15.883"	"18.305"	"22.281"	"28.976"	"33.086"	"33.449"	"29.877"	"29.298"	"28.733"	"27.168"	"22.229"	"16.574"
"1941"	"15.789"	"19.34"	"26.573"	"32.31"	"33.152"	"32.469"	"31.01"	"29.432"	"29.268"	"26.977"	"21.585"	"18.092"
"1942"	"15.689"	"19.208"	"25.533"	"30.209"	"34.292"	"34.246"	"30.239"	"29.202"	"28.303"	"26.638"	"22.589"	"16.907"
"1943"	"17.6"	"18.604"	"25.31"	"28.153"	"33.92"	"33.294"	"30.175"	"28.76"	"29.298"	"26.9"	"22.246"	"17.907"
"1944"	"15.494"	"18.248"	"23.435"	"28.109"	"34.817"	"33.016"	"30.135"	"29.397"	"30.032"	"26.296"	"21.66"	"18.231"
"1945"	"14.757"	"17.679"	"24.874"	"28.38"	"32.917"	"34.042"	"30.882"	"29.838"	"28.909"	"25.598"	"21.222"	"15.735"
"1946"	"16.843"	"20.675"	"24.409"	"28.79"	"31.557"	"32.608"	"29.865"	"29.699"	"29.236"	"26.246"	"21.362"	"17.839"
"1947"	"15.494"	"19.276"	"25.376"	"31.416"	"33.351"	"34.351"	"30.072"	"29.697"	"29.202"	"26.31"	"21.861"	"17.436"
"1948"	"16.617"	"18.844"	"24.242"	"31.346"	"33.853"	"34.811"	"29.768"	"29.198"	"28.863"	"26.145"	"21.296"	"16.702"
"1949"	"17.313"	"18.783"	"24.607"	"29.485"	"31.692"	"33.415"	"29.947"	"29.2"	"29.068"	"27.304"	"20.649"	"15.809"
"1950"	"16.688"	"18.238"	"23.442"	"29.734"	"33.321"	"32.385"	"29.996"	"29.002"	"28.7"	"26.558"	"20.849"	"17.203"
"1951"	"15.293"	"18.969"	"24.701"	"29.15"	"33.189"	"33.347"	"30.504"	"29.591"	"29.133"	"28.502"	"22.628"	"16.769"
"1952"	"17.155"	"20.618"	"23.884"	"30.613"	"33.425"	"32.609"	"29.875"	"28.96"	"28.963"	"27.462"	"21.687"	"17.431"
"1953"	"15.43"	"20.407"	"27.711"	"30.976"	"33.984"	"33.349"	"29.331"	"28.857"	"28.899"	"26.262"	"21.022"	"18.54"
"1954"	"15.287"	"20.511"	"25.429"	"31.939"	"34.68"	"32.985"	"30.313"	"29.004"	"29.164"	"25.768"	"21.119"	"16.644"
"1955"	"16.081"	"19.201"	"26.468"	"29.283"	"33.025"	"32.85"	"29.464"	"29.095"	"28.765"	"26.634"	"21.884"	"17.306"
"1956"	"16.317"	"19.165"	"25.542"	"31.512"	"34.484"	"31.498"	"29.871"	"29.26"	"28.362"	"26.772"	"21.285"	"17.158"
"1957"	"16.495"	"18.272"	"23.579"	"29.985"	"33.851"	"33.356"	"30.436"	"29.697"	"29.429"	"26.772"	"22.486"	"17.846"
"1958"	"17.689"	"19.224"	"25.208"	"31.546"	"33.762"	"34.494"	"30.275"	"29.033"	"29.261"	"27.07"	"22.326"	"18.203"
"1959"	"16.424"	"18.344"	"25.201"	"30.715"	"33.216"	"33.386"	"30.281"	"29.203"	"29.095"	"26.904"	"21.929"	"17.733"
"1960"	"15.829"	"21.043"	"23.976"	"29.72"	"33.15"	"33.826"	"29.774"	"29.404"	"29.296"	"26.509"	"21.087"	"18.729"
"1961"	"16.593"	"17.81"	"25.21"	"30.348"	"33.426"	"32.879"	"30.469"	"29.2"	"29.16"	"26.466"	"20.69"	"14.299"
"1962"	"15.082"	"19.079"	"24.407"	"30.045"	"32.856"	"34.619"	"31.108"	"28.826"	"28.366"	"25.963"	"21.619"	"17.337"
"1963"	"15.408"	"20.004"	"24.11"	"29.417"	"31.817"	"32.312"	"30.062"	"29.296"	"28.597"	"27.198"	"22.764"	"17.544"
"1964"	"15.587"	"18.814"	"26.1"	"30.748"	"31.69"	"33.637"	"29.529"	"29.335"	"28.767"	"27.926"	"21.486"	"17.178"
"1965"	"16.955"	"18.986"	"23.51"	"28.777"	"33.018"	"34.521"	"30.306"	"29.075"	"28.496"	"26.807"	"22.362"	"16.762"
"1966"	"16.872"	"21.012"	"25.306"	"30.852"	"33.814"	"33.41"	"31.106"	"29.32"	"29.198"	"26.775"	"22.821"	"16.817"
"1967"	"15.706"	"20.305"	"23.274"	"29.204"	"32.443"	"33.531"	"29.882"	"28.412"	"28.86"	"26.047"	"20.492"	"17.452"
"1968"	"14.916"	"17.839"	"24.176"	"29.322"	"32.566"	"32.138"	"29.869"	"29.307"	"30.195"	"26.019"	"21.906"	"17.208"
"1969"	"16.092"	"20.253"	"27.004"	"30.828"	"32.095"	"34.052"	"29.684"	"28.7"	"28.759"	"27.059"	"23.481"	"17.413"
"1970"	"16.333"	"18.282"	"23.959"	"30.915"	"32.94"	"32.106"	"30.332"	"29.558"	"28.757"	"27.281"	"21.349"	"17.718"
"1971"	"15.684"	"18.344"	"23.948"	"28.488"	"30.42"	"30.686"	"28.961"	"27.997"	"28.892"	"26.307"	"21.058"	"17.606"
"1972"	"16.172"	"17.078"	"24.801"	"29.214"	"33.514"	"33.583"	"30.818"	"28.911"	"28.197"	"25.509"	"21.644"	"17.342"
"1973"	"16.519"	"19.788"	"23.911"	"31.227"	"32.994"	"32.535"	"30.358"	"29.025"	"28.796"	"26.529"	"21.022"	"16.055"
"1974"	"15.521"	"18.174"	"25.012"	"31.148"	"32.854"	"33.111"	"29.475"	"28.78"	"28.604"	"27.998"	"21.447"	"16.064"
"1975"	"15.444"	"18.604"	"24.178"	"30.84"	"33.583"	"32.459"	"28.967"	"28.796"	"28.598"	"27.636"	"20.517"	"16.527"
"1976"	"16.12"	"19.178"	"24.575"	"29.147"	"31.771"	"32.135"	"29.883"	"28.095"	"28.401"	"26.957"	"22.931"	"16.585"
"1977"	"15.429"	"19.375"	"25.615"	"29.204"	"30.831"	"32.376"	"29.536"	"29.103"	"29.097"	"26.484"	"23.43"	"17.54"
"1978"	"15.313"	"17.511"	"22.475"	"28.899"	"33.696"	"32.439"	"29.479"	"28.992"	"28.442"	"26.799"	"22.732"	"17.501"
"1979"	"17.017"	"17.878"	"23.836"	"29.882"	"33.085"	"32.349"	"29.744"	"29.351"	"29.43"	"27.552"	"24.244"	"17.823"
"1980"	"16.223"	"19.276"	"24.269"	"31.49"	"32.95"	"31.553"	"29.15"	"28.538"	"28.771"	"26.552"	"22.115"	"17.735"
"1981"	"16.072"	"19.761"	"23.876"	"28.834"	"31.63"	"32.853"	"29.047"	"29.17"	"28.873"	"26.505"	"20.928"	"16.836"
"1982"	"17.38"	"17.693"	"22.351"	"29.376"	"32.816"	"32.006"	"31.412"	"29.362"	"28.569"	"26.644"	"22.254"	"17.752"
"1983"	"15.179"	"19.28"	"23.609"	"28.566"	"31.343"	"33.18"	"30.394"	"29.607"	"29.73"	"26.668"	"21.179"	"17.634"
"1984"	"15.599"	"17.616"	"25.475"	"30.613"	"33.696"	"32.276"	"29.5"	"28.897"	"28.46"	"27.539"	"20.859"	"17.843"
"1985"	"16.619"	"18.88"	"26.742"	"30.816"	"33.156"	"33.676"	"29.177"	"29.3"	"28.842"	"26.075"	"21.863"	"18.571"
"1986"	"16.319"	"18.508"	"24.599"	"29.72"	"31.239"	"32.988"	"29.551"	"29.144"	"28.166"	"25.903"	"22.4"	"16.678"
"1987"	"15.718"	"20.011"	"24.229"	"29.982"	"32.274"	"34.458"	"30.699"	"29.594"	"29.69"	"27.096"	"22.135"	"16.891"
"1988"	"16.859"	"19.588"	"24.377"	"30.751"	"33.659"	"32.368"	"29.631"	"28.995"	"30.196"	"27.431"	"22.288"	"18.405"
"1989"	"15.484"	"18.38"	"24.171"	"29.808"	"33.587"	"32.079"	"29.859"	"28.494"	"29.427"	"27.537"	"21.935"	"16.839"
"1990"	"17.832"	"18.689"	"23.272"	"30.536"	"31.865"	"33.36"	"29.254"	"29.379"	"29.166"	"26.966"	"22.238"	"17.867"
"1991"	"15.729"	"20.256"	"25.033"	"29.637"	"33.382"	"32.404"	"30.84"	"28.662"	"29.456"	"26.565"	"21.305"	"17.526"
"1992"	"16.225"	"17.761"	"25.79"	"30.703"	"31.658"	"32.61"	"30.183"	"29.286"	"29.148"	"27.237"	"22.316"	"17.204"
"1993"	"16.686"	"20.246"	"22.951"	"29.016"	"32.504"	"32.334"	"30.846"	"29.512"	"28.639"	"27.393"	"22.538"	"18.2"
"1994"	"17.324"	"18.476"	"26.16"	"29.573"	"33.825"	"33.177"	"30.121"	"29.158"	"29.432"	"26.497"	"21.918"	"17.433"
"1995"	"15.396"	"19.215"	"24.349"	"30.331"	"34.723"	"33.803"	"30.276"	"28.987"	"29.182"	"27.402"	"22.441"	"18.429"
"1996"	"16.523"	"19.476"	"25.761"	"29.835"	"33.585"	"32.482"	"29.933"	"28.617"	"29.664"	"26.668"	"22.372"	"17.302"
"1997"	"15.748"	"18.073"	"24.741"	"29.939"	"31.788"	"33.23"	"32.204"	"29.36"	"28.498"	"25.422"	"21.895"	"17.51"
"1998"	"15.164"	"20.077"	"23.432"	"29.976"	"33.609"	"33.949"	"29.871"	"29.402"	"29.557"	"28.54"	"23.416"	"19.396"
"1999"	"16.342"	"20.996"	"25.688"	"32.888"	"33.214"	"32.447"	"29.864"	"29.131"	"28.761"	"27.705"	"23.957"	"18.774"
"2000"	"17.068"	"19.375"	"24.377"	"31.143"	"32.821"	"32.076"	"30.234"	"29.429"	"29.149"	"28.137"	"24.359"	"18.03"
"2001"	"16.444"	"19.941"	"25.008"	"29.747"	"33.388"	"31.806"	"29.859"	"29.792"	"30.16"	"28.102"	"24.559"	"19.435"
"2002"	"16.509"	"20.071"	"25.671"	"30.51"	"34.391"	"33.745"	"31.803"	"29.326"	"28.569"	"27.101"	"22.591"	"17.543"
