
"Year"	"Jan"	"Feb"	"Mar"	"Apr"	"May"	"Jun"	"Jul"	"Aug"	"Sep"	"Oct"	"Nov"	"Dec"
"1901"	"90.84"	"42.264"	"16.016"	"6.096"	"12.567"	"35.675"	"254.69"	"322.951"	"219.25"	"7.45"	"0.751"	"0"
"1902"	"22.016"	"5.082"	"0.426"	"2.44"	"5.178"	"27.091"	"335.458"	"191.29"	"251.612"	"5.166"	"3.754"	"1.871"
"1903"	"4.818"	"4.473"	"1.76"	"0.808"	"21.221"	"73.793"	"183.208"	"342.18"	"208.744"	"61.393"	"0"	"0"
"1904"	"7.403"	"11.543"	"34.177"	"0.079"	"37.06"	"67.051"	"273.105"	"480.446"	"113.852"	"57.545"	"5.109"	"16.076"
"1905"	"21.032"	"17.211"	"30.664"	"5.966"	"11.729"	"30.684"	"301.476"	"310.008"	"329.977"	"1.718"	"0"	"1.894"
"1906"	"9.459"	"54.13"	"25.899"	"0"	"5.717"	"134.429"	"452.254"	"269.717"	"173.215"	"17.363"	"0.385"	"5.143"
"1907"	"0.472"	"113.484"	"18.318"	"24.263"	"3.866"	"190.597"	"203.057"	"416.386"	"57.458"	"0.317"	"4.816"	"2.092"
"1908"	"25.379"	"45.726"	"8.819"	"2.019"	"0.342"	"43.567"	"320.014"	"427.736"	"84.531"	"30.393"	"0"	"2.699"
"1909"	"5.635"	"10.322"	"2.062"	"34.598"	"14.856"	"231.525"	"406.568"	"190.617"	"164.075"	"0.317"	"0"	"24.516"
"1910"	"15.746"	"4.678"	"11.324"	"1.859"	"7.07"	"154.499"	"178.514"	"324.951"	"250.238"	"39.681"	"57.961"	"0"
"1911"	"23.175"	"0.688"	"44.904"	"1.44"	"2.715"	"285.061"	"63.91"	"293.477"	"277.014"	"70.503"	"49.925"	"0"
"1912"	"1.867"	"19.084"	"5.358"	"3.906"	"8.472"	"45.771"	"302.061"	"341.866"	"102.208"	"1.351"	"29.6"	"1.693"
"1913"	"0.235"	"75.176"	"42.329"	"0"	"33.234"	"213.72"	"235.292"	"366.501"	"99.26"	"18.833"	"2.593"	"22.696"
"1914"	"7.735"	"17.825"	"29.497"	"21.681"	"27.973"	"79.399"	"343.384"	"339.063"	"113.109"	"5.134"	"0"	"8.067"
"1915"	"38.038"	"56.269"	"47.475"	"5.718"	"7.796"	"78.016"	"293.485"	"291.58"	"264.201"	"66.039"	"23.369"	"2.458"
"1916"	"0.235"	"33.108"	"0.014"	"1.301"	"10.777"	"172.63"	"278.795"	"435.56"	"187.817"	"58.709"	"7.895"	"0"
"1917"	"5.909"	"72.194"	"20.596"	"2.112"	"55.126"	"167.01"	"290.585"	"420.38"	"197.879"	"81.34"	"0"	"5.682"
"1918"	"12.457"	"4.167"	"4.183"	"1.544"	"27.475"	"317.22"	"83.599"	"389.702"	"103.479"	"0.859"	"2.467"	"5.295"
"1919"	"98.21"	"32.864"	"16.286"	"5.365"	"21.697"	"161.453"	"296.894"	"494.613"	"172.046"	"55.033"	"14.124"	"3.783"
"1920"	"3.545"	"17.579"	"39.145"	"0"	"10.201"	"49.819"	"591.098"	"318.392"	"90.011"	"0.514"	"0"	"0"
"1921"	"77.653"	"12"	"0.014"	"0.788"	"0.096"	"213.01"	"301.983"	"401.472"	"189.961"	"1.82"	"0"	"0"
"1922"	"35.49"	"2.59"	"0.014"	"3.6"	"0.096"	"164.309"	"346.629"	"378.635"	"298.744"	"18.381"	"24.005"	"7.793"
"1923"	"0.828"	"42.791"	"12.811"	"3.395"	"0.621"	"60.484"	"386.817"	"527.326"	"226.912"	"15.51"	"4.695"	"2.595"
"1924"	"40.332"	"20.085"	"7.407"	"5.886"	"2.971"	"30.443"	"374.209"	"298.997"	"178.615"	"31.748"	"16.254"	"5.783"
"1925"	"0.414"	"3.284"	"3.037"	"0"	"21.615"	"114.377"	"426.11"	"398.083"	"220.343"	"3.48"	"29.464"	"0"
"1926"	"7.87"	"2.814"	"81.903"	"10.538"	"44.067"	"25.779"	"295.007"	"378.782"	"275.837"	"52.944"	"4.646"	"10.133"
"1927"	"15.012"	"44.599"	"45.422"	"0.079"	"3.89"	"74.616"	"437.154"	"306.371"	"121.221"	"44.731"	"42.878"	"3.185"
"1928"	"21.878"	"49.351"	"2.785"	"9.654"	"10.742"	"87.697"	"399.078"	"141.603"	"89.52"	"89.743"	"0"	"25.651"
"1929"	"83.683"	"16.511"	"1.795"	"1.882"	"3.361"	"78.812"	"514.246"	"353.79"	"145.879"	"72.306"	"0"	"39.725"
"1930"	"5.899"	"12.276"	"2.585"	"9.036"	"7.173"	"83.577"	"368.207"	"234.136"	"162.884"	"24.062"	"25.399"	"16.147"
"1931"	"1.097"	"59.056"	"16.916"	"1.297"	"5.892"	"65.033"	"388.126"	"354.492"	"229.341"	"89.637"	"13.038"	"3.473"
"1932"	"0.235"	"23.803"	"5.021"	"0.93"	"13.713"	"74.414"	"394.048"	"336.886"	"161.908"	"18.746"	"13.679"	"1.266"
"1933"	"8.939"	"31.166"	"14.205"	"32.158"	"42.548"	"144.047"	"227.715"	"380.088"	"139.621"	"54.867"	"0.282"	"1.461"
"1934"	"23.619"	"2.541"	"16.122"	"3.093"	"0.096"	"128.882"	"259.753"	"428.942"	"224.203"	"19.483"	"32.339"	"3.622"
"1935"	"12.021"	"17.018"	"1.371"	"10.357"	"0.756"	"132.554"	"361.711"	"451.652"	"198.807"	"1.812"	"0"	"5.382"
"1936"	"5.819"	"50.911"	"21.013"	"2.299"	"22.435"	"223.429"	"338.158"	"325.975"	"259.256"	"59.614"	"7.195"	"20.054"
"1937"	"0.235"	"64.34"	"17.808"	"20.247"	"6.839"	"118.715"	"396.691"	"291.354"	"187.242"	"71.664"	"0"	"0"
"1938"	"60.538"	"18.669"	"0.182"	"5.132"	"17.562"	"231.453"	"292.658"	"356.024"	"232.646"	"54.389"	"0.009"	"0"
"1939"	"25.374"	"18.65"	"25.074"	"8.553"	"0.096"	"153.655"	"374.492"	"423.997"	"207.148"	"19.292"	"0"	"0"
"1940"	"1.571"	"35.225"	"63.225"	"9.121"	"9.201"	"67.824"	"331.496"	"426.486"	"129.648"	"18.672"	"5.043"	"9.267"
"1941"	"39.825"	"17.684"	"11.289"	"1.057"	"9.868"	"155.277"	"212.392"	"314.899"	"139.008"	"13.023"	"1.5"	"0"
"1942"	"75.889"	"76.419"	"13.076"	"7.86"	"0.215"	"103.172"	"366.355"	"390.963"	"250.799"	"8.241"	"0"	"7.526"
"1943"	"34.5"	"7.167"	"0.866"	"14.502"	"19.933"	"46.162"	"328.589"	"580.206"	"263.109"	"49.483"	"1.165"	"0"
"1944"	"28.17"	"68.122"	"82.295"	"3.715"	"2.869"	"68.349"	"456.94"	"572.041"	"116.34"	"54.438"	"0.309"	"1.515"
"1945"	"42.707"	"16.383"	"0.014"	"9.375"	"11.599"	"154.127"	"317.861"	"229.321"	"202.991"	"45.917"	"0.009"	"15.057"
"1946"	"0.235"	"35.972"	"9.167"	"9.173"	"14.491"	"206.543"	"341.375"	"423.659"	"163.055"	"32.98"	"23.281"	"4.839"
"1947"	"24.116"	"22.507"	"28.941"	"2.887"	"1.349"	"67.695"	"399.379"	"311.495"	"262.816"	"19.49"	"2.269"	"3.571"
"1948"	"21.109"	"14.62"	"11.861"	"2.551"	"6.628"	"233.909"	"341.483"	"418.962"	"248.378"	"27.231"	"56.911"	"1.266"
"1949"	"0.303"	"34.827"	"6.986"	"2.862"	"34.29"	"82.275"	"305.905"	"522.996"	"179.208"	"106.323"	"0.088"	"0"
"1950"	"23.963"	"34.959"	"62.953"	"0.815"	"2.507"	"110.723"	"365.59"	"373.224"	"109.036"	"3.336"	"0.631"	"18.06"
"1951"	"17.95"	"13.417"	"49.964"	"11.559"	"10.428"	"141.543"	"238.267"	"354.163"	"181.907"	"37.417"	"0"	"0"
"1952"	"1.293"	"26.48"	"41.905"	"2.566"	"8.183"	"162.985"	"141.489"	"294.871"	"164.415"	"12.661"	"0"	"2.529"
"1953"	"33.386"	"16.594"	"0.014"	"7.541"	"0.342"	"113.061"	"367.804"	"369.714"	"220.608"	"6.664"	"0"	"3.58"
"1954"	"19.058"	"18.382"	"5.989"	"0.286"	"3.489"	"109.093"	"231.349"	"309.828"	"244.823"	"8.63"	"0"	"0.63"
"1955"	"51.562"	"20.825"	"4.314"	"1.713"	"2.39"	"80.563"	"367.614"	"328.502"	"197.031"	"85.929"	"0.385"	"0.494"
"1956"	"40.076"	"21.003"	"9.87"	"0.199"	"39.537"	"228.866"	"354.796"	"361.264"	"344.875"	"48.491"	"51.376"	"11.45"
"1957"	"17.584"	"1.283"	"39.977"	"13.261"	"2.918"	"104.69"	"376.263"	"305.44"	"143.487"	"2.128"	"0"	"2.283"
"1958"	"33.093"	"17.425"	"38.229"	"7.759"	"0.1"	"53.454"	"377.279"	"298.523"	"197.726"	"67.259"	"12.365"	"1.515"
"1959"	"63.257"	"13.123"	"0.014"	"5.715"	"43.641"	"59.208"	"265.122"	"347.82"	"151.111"	"91.92"	"0"	"0"
"1960"	"16.117"	"0.201"	"22.895"	"7.475"	"9.351"	"98.976"	"413.998"	"449.261"	"97.977"	"49.4"	"0"	"0"
"1961"	"43.995"	"36.889"	"1.762"	"1.272"	"9.949"	"106.851"	"310.429"	"453.703"	"274.502"	"56.057"	"3.127"	"16.503"
"1962"	"21.898"	"26.246"	"15.364"	"8.07"	"8.762"	"75.351"	"277.954"	"314.112"	"296.293"	"7.112"	"5.773"	"22.193"
"1963"	"24.103"	"17.323"	"25.82"	"8.175"	"28.408"	"103.978"	"390.108"	"397.049"	"199.94"	"21.092"	"3.005"	"1.515"
"1964"	"0.334"	"24.8"	"7.265"	"7.944"	"9.572"	"123.489"	"334.01"	"430.496"	"193.915"	"22.158"	"16.023"	"0"
"1965"	"7.976"	"0.485"	"27.681"	"17.442"	"5.028"	"56.159"	"245.588"	"181.298"	"180.36"	"17.794"	"0"	"5.201"
"1966"	"40.721"	"5.775"	"5.113"	"1.743"	"17.688"	"261.489"	"151.529"	"173.236"	"53.772"	"3.181"	"35.327"	"23.258"
"1967"	"15.967"	"0.201"	"52.281"	"5.151"	"9.402"	"100.726"	"302.614"	"595.018"	"244.883"	"3.847"	"0"	"54.152"
"1968"	"37.028"	"15.124"	"9.169"	"5.24"	"0.096"	"88.906"	"227.59"	"288.143"	"143.055"	"13.961"	"0"	"5.587"
"1969"	"2.271"	"4.756"	"2.682"	"2.216"	"28.551"	"64.402"	"497.996"	"323.49"	"173.846"	"0.919"	"16.611"	"0.044"
"1970"	"43.201"	"52.41"	"14.188"	"0.047"	"34.386"	"162.397"	"338.741"	"347.481"	"436.738"	"21.254"	"0"	"0"
"1971"	"23.181"	"11.746"	"7.842"	"16.855"	"38.73"	"323.466"	"305.028"	"498.816"	"157.956"	"80.586"	"0"	"0"
"1972"	"29.381"	"60.38"	"0.52"	"9.931"	"0.096"	"38.153"	"200.788"	"408.998"	"107.456"	"72.214"	"25.486"	"1.835"
"1973"	"9.12"	"0.487"	"0.431"	"0.991"	"0.393"	"66.885"	"387.34"	"433.185"	"204.902"	"69.172"	"0.889"	"0.178"
"1974"	"0.429"	"4.253"	"0.9"	"0.222"	"6.581"	"66.391"	"409.746"	"277.145"	"91.728"	"67.695"	"3.059"	"0"
"1975"	"7.069"	"23.213"	"33.349"	"1.769"	"3.411"	"160.456"	"375.211"	"198.261"	"164.015"	"40.999"	"2.398"	"0"
"1976"	"35.69"	"3.612"	"3.372"	"19.682"	"12.636"	"40.167"	"284.316"	"252.775"	"389.777"	"0.317"	"13.014"	"0"
"1977"	"26.11"	"13.979"	"3.174"	"13.71"	"45.015"	"169.623"	"411.224"	"302.356"	"218.044"	"41.285"	"35.508"	"18.916"
"1978"	"39.833"	"91.103"	"36.792"	"21.611"	"5.299"	"256.002"	"185.984"	"337.085"	"280.906"	"20.813"	"2.178"	"29.162"
"1979"	"31.381"	"15.981"	"0.014"	"5.335"	"0.661"	"131.373"	"282.9"	"242.995"	"90.489"	"11.71"	"45.821"	"3.815"
"1980"	"15.852"	"9.524"	"5.92"	"0.862"	"2.725"	"242.189"	"343.707"	"468.406"	"100.858"	"8.619"	"0"	"15.152"
"1981"	"31.322"	"5.76"	"30.581"	"3.894"	"14.939"	"101.589"	"405.788"	"298.51"	"212.502"	"2.173"	"16.215"	"11.739"
"1982"	"75.237"	"19.488"	"46.412"	"5.276"	"32.74"	"117.128"	"242.705"	"440.709"	"391.894"	"3.531"	"40.178"	"8.102"
"1983"	"6.596"	"11.492"	"4.796"	"13.598"	"37.071"	"114.124"	"274.897"	"218.992"	"143.765"	"43.514"	"0.344"	"3.887"
"1984"	"47.795"	"47.756"	"0.619"	"10.688"	"1.333"	"199.207"	"260.584"	"256.944"	"171.625"	"24.968"	"0"	"0"
"1985"	"33"	"3.009"	"0.014"	"8.377"	"4.629"	"87.944"	"340.065"	"360.124"	"158.992"	"80.105"	"0"	"1.068"
"1986"	"40.515"	"55.544"	"1.01"	"2.232"	"38.355"	"102.907"	"251.961"	"403.655"	"155.24"	"4.176"	"6.033"	"28.192"
"1987"	"24.15"	"18.283"	"18.969"	"0.162"	"9.83"	"30.73"	"192.422"	"365.088"	"225.537"	"52.319"	"21.105"	"8.962"
"1988"	"12.82"	"11.217"	"31.42"	"6.323"	"12.334"	"187.051"	"219.763"	"272.432"	"147.315"	"14.637"	"4.515"	"14.725"
"1989"	"1.319"	"0.201"	"22.704"	"0.343"	"12.293"	"154.255"	"286.301"	"231.515"	"111.284"	"21.984"	"10.114"	"37.412"
"1990"	"1.332"	"43.043"	"12.429"	"5.684"	"28.55"	"330.963"	"420.109"	"347.252"	"192.66"	"25.765"	"0"	"5.7"
"1991"	"30.008"	"14.202"	"23.114"	"9.276"	"6.29"	"153.21"	"163.471"	"315.988"	"138.981"	"3.094"	"2.054"	"39.555"
"1992"	"39.081"	"9.962"	"0.014"	"4.284"	"8.75"	"37.945"	"96.306"	"156.311"	"165.081"	"52.547"	"3.254"	"0"
"1993"	"9.273"	"8.629"	"13.425"	"0.194"	"24.238"	"51.939"	"199.118"	"170.66"	"204.915"	"36.077"	"0.009"	"0.252"
"1994"	"80.002"	"40.404"	"42.147"	"8.149"	"2.524"	"287.778"	"406.827"	"345.511"	"157.196"	"53.834"	"0"	"0"
"1995"	"34.353"	"21.616"	"39.466"	"6.014"	"5.85"	"59.654"	"264.77"	"277.375"	"199.449"	"6.71"	"14.925"	"14.148"
"1996"	"51.158"	"23.68"	"1.631"	"2.505"	"1.32"	"206.823"	"257.934"	"368.985"	"124.337"	"74.84"	"4.187"	"0"
"1997"	"28.217"	"0.201"	"1.875"	"6.328"	"23.262"	"77.263"	"134.311"	"306.447"	"181.156"	"24.907"	"36.43"	"37.906"
"1998"	"5.342"	"22.847"	"25.737"	"3.989"	"36.701"	"82.871"	"256.344"	"368.915"	"181.586"	"48.087"	"28.43"	"0"
"1999"	"48.246"	"41.491"	"0.014"	"0"	"24.454"	"53.145"	"358.081"	"286.541"	"195.394"	"33.972"	"0"	"0.199"
"2000"	"9.736"	"16.162"	"0.014"	"2.81"	"16.612"	"142.089"	"234.083"	"148.199"	"244.456"	"1.986"	"0"	"0"
"2001"	"3.861"	"1.57"	"26.084"	"7.403"	"11.68"	"113.429"	"228.944"	"295.209"	"87.669"	"67.257"	"4.545"	"0"
"2002"	"64.322"	"22.47"	"2.682"	"2.364"	"9.435"	"84.319"	"121.272"	"327.849"	"156.616"	"63.302"	"16.104"	"3.198"
