
"Year"	"Jan"	"Feb"	"Mar"	"Apr"	"May"	"Jun"	"Jul"	"Aug"	"Sep"	"Oct"	"Nov"	"Dec"
"1901"	"49.827"	"4.354"	"5.147"	"13.918"	"28.775"	"182.617"	"158.892"	"286.719"	"219.883"	"36.136"	"7.246"	"0.219"
"1902"	"0.385"	"0.205"	"11.88"	"12.537"	"29.645"	"143.276"	"433.869"	"208.407"	"359.98"	"27.913"	"0.166"	"0.195"
"1903"	"5.33"	"2.098"	"6.923"	"10.53"	"69.308"	"324.422"	"158.534"	"224.194"	"180.299"	"121.43"	"0.243"	"0.096"
"1904"	"1.031"	"0.644"	"25.684"	"7.375"	"255.344"	"58.192"	"275.502"	"425.038"	"140.844"	"76.585"	"10.846"	"0.23"
"1905"	"5.373"	"24.407"	"26.902"	"13.22"	"39.524"	"29.707"	"599.662"	"325.622"	"395.652"	"25.655"	"0.096"	"0.329"
"1906"	"5.503"	"48.658"	"20.897"	"4.871"	"36.482"	"143.177"	"489.237"	"242.881"	"236.803"	"121.719"	"0.27"	"0.111"
"1907"	"0.654"	"29.198"	"22.237"	"46.506"	"35.964"	"217.997"	"213.306"	"297.836"	"162.752"	"39.33"	"0.096"	"0.258"
"1908"	"6.41"	"33.019"	"7.843"	"4.846"	"22.478"	"105.214"	"327.535"	"280.66"	"123.275"	"123.484"	"0.194"	"1.117"
"1909"	"2.683"	"4.77"	"0"	"50.412"	"20.827"	"235.073"	"424.15"	"377.771"	"184.628"	"20.631"	"0.183"	"2.575"
"1910"	"1.306"	"2.404"	"17.213"	"18.281"	"32.936"	"233.674"	"455.027"	"347.399"	"222.072"	"70.975"	"6.359"	"0.096"
"1911"	"8.889"	"0.377"	"20.803"	"8.118"	"38.517"	"288.084"	"325.083"	"289.295"	"272.218"	"122.493"	"20.393"	"0.096"
"1912"	"3.523"	"7.87"	"4.659"	"27.458"	"61.275"	"144.172"	"389.402"	"320.495"	"80.152"	"27.812"	"13.567"	"0.146"
"1913"	"0.266"	"41.619"	"31.039"	"3.067"	"82.417"	"444.074"	"243.87"	"342.988"	"178.639"	"105.485"	"0.475"	"13.252"
"1914"	"0.174"	"26.465"	"16.182"	"44.124"	"94.418"	"64.031"	"303.226"	"379.769"	"128.771"	"27.406"	"0.194"	"0.371"
"1915"	"1.229"	"52.647"	"11.777"	"12.483"	"46.935"	"213.096"	"353.146"	"284.783"	"253.133"	"74.534"	"9.69"	"0.146"
"1916"	"0.289"	"15.286"	"2.75"	"8.545"	"21.764"	"166.793"	"430.548"	"311.065"	"184.174"	"196.992"	"0.492"	"0"
"1917"	"1.835"	"16.226"	"7.311"	"10.079"	"117.455"	"198.604"	"320.971"	"346.154"	"170.253"	"243.336"	"0.513"	"0.201"
"1918"	"0.365"	"0.569"	"6.87"	"7.232"	"43.594"	"176.057"	"320.841"	"385.899"	"209.311"	"23.878"	"0.816"	"0.175"
"1919"	"23.32"	"1.151"	"8.863"	"18.55"	"101.468"	"81.397"	"359.408"	"436.441"	"196.631"	"161.351"	"0.646"	"0"
"1920"	"0.314"	"35.284"	"27.04"	"6.86"	"46.339"	"100.924"	"313.042"	"336.779"	"179.886"	"38.14"	"0.096"	"0"
"1921"	"16.064"	"0.793"	"1.982"	"6.218"	"24.07"	"151.688"	"311.263"	"413.647"	"133.628"	"23.863"	"0.144"	"0.144"
"1922"	"11.051"	"12.928"	"1.585"	"11.237"	"11.767"	"443.449"	"505.359"	"342.395"	"324.675"	"103.283"	"0.507"	"16.23"
"1923"	"0.389"	"52.331"	"2.711"	"4.8"	"16.069"	"116.436"	"256.285"	"474.548"	"199.996"	"55.844"	"0.978"	"0.378"
"1924"	"0.756"	"4.012"	"3.263"	"25.607"	"32.355"	"172.486"	"388.247"	"257.194"	"254.717"	"124.93"	"46.096"	"0.1"
"1925"	"9.28"	"0.581"	"5.992"	"12.824"	"50.617"	"76.865"	"316.007"	"461.316"	"173.578"	"44.3"	"4.005"	"0.096"
"1926"	"16.246"	"0.354"	"41.21"	"11.014"	"127.334"	"55.491"	"619.951"	"324.841"	"218.508"	"69.201"	"0.502"	"3.462"
"1927"	"19.027"	"25.189"	"32.058"	"5.248"	"43.936"	"86.467"	"257.832"	"419.637"	"159.671"	"78.973"	"37.129"	"0.096"
"1928"	"21.888"	"13.321"	"3.336"	"20.574"	"66.316"	"186.077"	"531.661"	"224.846"	"176.605"	"176.174"	"0.566"	"2.306"
"1929"	"17.028"	"0.447"	"4.402"	"8.362"	"43.145"	"236.501"	"407.953"	"304.223"	"78.171"	"288.832"	"0.096"	"10.688"
"1930"	"12.925"	"6.177"	"5.558"	"11.895"	"29.616"	"125.234"	"251.581"	"240.325"	"231.971"	"52.146"	"9.657"	"12.841"
"1931"	"1.727"	"22.348"	"15.703"	"3.806"	"28.247"	"83.609"	"678.475"	"353.415"	"293.716"	"85.166"	"4.786"	"1.227"
"1932"	"0.241"	"7.959"	"3.05"	"7.868"	"69.312"	"206.522"	"109.491"	"346.403"	"188.929"	"50.429"	"50.391"	"10.742"
"1933"	"21.615"	"15.725"	"3.754"	"36.552"	"69.946"	"137.374"	"666.364"	"404.257"	"181.031"	"104.996"	"0.096"	"0.096"
"1934"	"24.988"	"21.755"	"2.177"	"16.014"	"29.154"	"216.874"	"435.763"	"391.87"	"236.962"	"67.611"	"2.387"	"0.28"
"1935"	"2.743"	"20.258"	"2.909"	"20.524"	"27.615"	"173.35"	"226.849"	"472.63"	"199.678"	"38.155"	"0.275"	"0.257"
"1936"	"2.763"	"1.799"	"14.971"	"13.474"	"118.033"	"171.671"	"596.804"	"307.071"	"317.888"	"178.919"	"0.276"	"18.467"
"1937"	"0.171"	"43.539"	"2.809"	"34.099"	"39.478"	"90.719"	"171.556"	"336.384"	"225.266"	"143.382"	"0.05"	"0.1"
"1938"	"6.388"	"15.168"	"4.776"	"10.185"	"78.232"	"469.92"	"376.514"	"309.93"	"194.4"	"69.6"	"0.373"	"0.096"
"1939"	"1.614"	"35.223"	"10.932"	"11.139"	"28.539"	"190.947"	"381.248"	"283.021"	"258.784"	"73.791"	"0.155"	"0.096"
"1940"	"0.321"	"45.658"	"40.285"	"10.547"	"39.31"	"127.849"	"630.913"	"372.04"	"155.394"	"29.144"	"0.144"	"5.509"
"1941"	"6.459"	"6.663"	"10.494"	"7.272"	"53.212"	"137.487"	"297.55"	"380.673"	"219.332"	"69.075"	"0.945"	"0.196"
"1942"	"30.331"	"27.218"	"15.388"	"13.788"	"19.93"	"174.575"	"202.142"	"397.715"	"341.014"	"22.843"	"0.059"	"1.264"
"1943"	"13.176"	"15.083"	"5.942"	"42.189"	"54.482"	"133.329"	"275.577"	"510.199"	"231.081"	"43.362"	"0"	"0"
"1944"	"19.496"	"15.555"	"37.902"	"13.375"	"18.679"	"280.18"	"156.399"	"376.048"	"162.037"	"114.929"	"0.171"	"0"
"1945"	"52.117"	"19.93"	"2.62"	"5.852"	"62.307"	"123.998"	"290.288"	"166.666"	"278.939"	"166.215"	"0.096"	"2.098"
"1946"	"0.146"	"24.537"	"19.933"	"23.192"	"64.754"	"94.645"	"547.542"	"326.163"	"253.217"	"110.572"	"18.57"	"0.097"
"1947"	"22.095"	"7.869"	"17.284"	"4.305"	"39.111"	"76.472"	"566.371"	"251.591"	"316.964"	"93.856"	"0.193"	"0.109"
"1948"	"5.041"	"12"	"8.243"	"11.399"	"64.956"	"103.036"	"492.157"	"329.414"	"314.586"	"89.605"	"6.808"	"0"
"1949"	"4.352"	"61.502"	"11.062"	"11.448"	"110.822"	"360.901"	"481.626"	"422.114"	"174.937"	"147.037"	"0.266"	"0.096"
"1950"	"2.942"	"9.03"	"37.62"	"4.761"	"18.149"	"263.913"	"251.756"	"396.574"	"151.572"	"45.239"	"0.607"	"0.2"
"1951"	"3.694"	"1.082"	"33.247"	"30.103"	"19.705"	"113.233"	"604.686"	"300.061"	"235.79"	"95.915"	"26.489"	"0"
"1952"	"0.414"	"12.83"	"19.014"	"12.171"	"26.597"	"424.007"	"281.73"	"258.901"	"234.232"	"80.128"	"1.722"	"0.022"
"1953"	"51.016"	"1.639"	"2.763"	"8.829"	"18.161"	"209.709"	"488.845"	"303.565"	"256.868"	"21.351"	"0"	"0.115"
"1954"	"11.003"	"10.54"	"5.314"	"7.778"	"43.551"	"145.478"	"402.321"	"287.16"	"241.044"	"49.687"	"0.339"	"1.009"
"1955"	"5.736"	"13.868"	"2.947"	"13.168"	"15.645"	"208.164"	"767.112"	"175.815"	"145.662"	"123.137"	"0.553"	"3.175"
"1956"	"15.059"	"2.302"	"4.93"	"21.61"	"90.957"	"291.169"	"153.884"	"324.916"	"347.694"	"113.416"	"50.753"	"10.201"
"1957"	"34.273"	"2.345"	"14.648"	"1.38"	"5.458"	"179.42"	"419.371"	"222.037"	"102.979"	"0.868"	"0.15"	"4.924"
"1958"	"20.582"	"3.806"	"21.983"	"22.153"	"5.098"	"267.723"	"244.562"	"255.441"	"205.218"	"134.592"	"0.159"	"0.125"
"1959"	"68.975"	"0.187"	"0"	"0.146"	"49.024"	"160.004"	"210.523"	"324.348"	"411.147"	"192.868"	"0.525"	"0"
"1960"	"0.277"	"0.015"	"17.718"	"5.532"	"1.1"	"102.501"	"299.575"	"387.254"	"221.416"	"44.888"	"0.039"	"0"
"1961"	"9.66"	"34.351"	"0"	"0.146"	"11.717"	"192.962"	"297.549"	"300.858"	"251.536"	"76.574"	"8.253"	"3.684"
"1962"	"19.486"	"12.377"	"7.032"	"24.971"	"4.546"	"134.761"	"275.477"	"309.337"	"344.268"	"14.765"	"0.05"	"5.186"
"1963"	"4.664"	"0.51"	"51.448"	"5.735"	"126.286"	"180.557"	"438.994"	"326.491"	"171.262"	"137.748"	"19.486"	"0.05"
"1964"	"0.15"	"0.171"	"3.042"	"14.327"	"21.868"	"115.154"	"486.909"	"417.648"	"165.326"	"40.279"	"0.478"	"0.05"
"1965"	"0.087"	"0.601"	"7.605"	"43.577"	"13.556"	"65.217"	"399.141"	"164.361"	"108.031"	"42.187"	"6.971"	"0.192"
"1966"	"26.479"	"23.832"	"0"	"0.146"	"0.614"	"36.79"	"226.531"	"225.967"	"90.464"	"7.816"	"44.931"	"4.601"
"1967"	"0.424"	"0.065"	"25.659"	"15.151"	"22.131"	"36.395"	"378.621"	"414.984"	"142.111"	"19.727"	"0.756"	"1.64"
"1968"	"27.378"	"1.405"	"2.377"	"9.528"	"7.029"	"245.801"	"375.719"	"319.074"	"106.005"	"158.253"	"0.326"	"6.87"
"1969"	"5.38"	"21.378"	"4.216"	"19.534"	"77.445"	"250.339"	"348.222"	"315.778"	"202.164"	"18.948"	"20.59"	"0"
"1970"	"7.536"	"15.546"	"8.415"	"3.461"	"37.533"	"260.471"	"496.102"	"269.807"	"198.844"	"66.824"	"0.329"	"0"
"1971"	"6.901"	"14.353"	"6.708"	"34.048"	"103.894"	"400.588"	"306.714"	"342.45"	"124.311"	"150.169"	"0.934"	"0"
"1972"	"6.587"	"49.943"	"5.952"	"27.246"	"26.573"	"34.657"	"159.066"	"265.24"	"226.303"	"207.036"	"16.268"	"0.039"
"1973"	"51.823"	"5.908"	"6.306"	"4.134"	"41.2"	"226.223"	"397.929"	"368.28"	"250.939"	"264.995"	"6.648"	"0"
"1974"	"8.646"	"2.149"	"5.483"	"8.743"	"43.905"	"217.629"	"610.77"	"231.854"	"199.114"	"87.117"	"0.729"	"4.22"
"1975"	"60.589"	"9.019"	"13.658"	"6.042"	"52.405"	"89.869"	"302.978"	"228.561"	"374.044"	"53.068"	"0"	"0"
"1976"	"9.026"	"30.339"	"1.82"	"28.948"	"45.932"	"177.071"	"235.549"	"263.784"	"344.285"	"3.361"	"0.146"	"0"
"1977"	"2.258"	"4.771"	"1.993"	"45.918"	"167.567"	"63.469"	"298.716"	"219.159"	"159.737"	"89.498"	"4.939"	"21.546"
"1978"	"12.025"	"31.718"	"30.156"	"36.942"	"32.675"	"99.214"	"326.03"	"265.363"	"272.843"	"142.209"	"2.694"	"7.77"
"1979"	"16.287"	"12.58"	"2.365"	"18.684"	"15.713"	"70.114"	"603.024"	"268.293"	"94.269"	"62.917"	"57.933"	"15.276"
"1980"	"2.091"	"2.752"	"19.624"	"2.891"	"55.292"	"253.677"	"418.312"	"304.043"	"137.947"	"16.901"	"3.118"	"1.133"
"1981"	"16.791"	"5.368"	"20.293"	"16.813"	"69.755"	"92.5"	"423.698"	"286.864"	"238.899"	"2.061"	"14.879"	"1.682"
"1982"	"17.83"	"13.575"	"30.451"	"18.312"	"77.954"	"117.425"	"221.369"	"217.282"	"336.453"	"45.267"	"18.201"	"1.874"
"1983"	"20.202"	"1.819"	"5.406"	"25.074"	"117.577"	"148.258"	"519.034"	"193.71"	"170.818"	"129.098"	"0"	"8.18"
"1984"	"22.621"	"20.975"	"4.623"	"21.252"	"26.205"	"196.734"	"361.757"	"227.913"	"503.972"	"41.273"	"0.333"	"0.937"
"1985"	"10.478"	"4.802"	"1.509"	"7.626"	"44.876"	"133.977"	"393.397"	"209.549"	"277.236"	"127.926"	"0.719"	"18.066"
"1986"	"0.65"	"6.436"	"5.544"	"23.169"	"72.702"	"157.832"	"446.23"	"282.554"	"254.78"	"29.806"	"1.255"	"11.866"
"1987"	"1.34"	"11.519"	"8.544"	"17.537"	"70.79"	"278.379"	"362.654"	"508.053"	"392.955"	"210.983"	"0.918"	"3.409"
"1988"	"6.608"	"19.164"	"22.782"	"12.961"	"64.649"	"146.615"	"217.392"	"379.707"	"156.05"	"35.741"	"1.62"	"14.323"
"1989"	"10.734"	"20.548"	"6.317"	"6.957"	"138.619"	"145.004"	"350.776"	"266.731"	"226.15"	"46.008"	"2.074"	"1.014"
"1990"	"0.096"	"12.261"	"8.662"	"10.186"	"114.501"	"65.294"	"203.248"	"212.584"	"234.316"	"62.69"	"0"	"0.1"
"1991"	"17.724"	"0.67"	"23.256"	"13.764"	"51.208"	"67.654"	"140.92"	"472.471"	"158.784"	"23.909"	"2.51"	"1.219"
"1992"	"13.237"	"4.477"	"2.247"	"7.72"	"38.021"	"14.136"	"272.426"	"251.832"	"123.931"	"56.681"	"0.639"	"0.191"
"1993"	"9.614"	"0.224"	"10.576"	"18.148"	"65.928"	"66.392"	"81.708"	"185.67"	"292.265"	"63.05"	"1.717"	"0"
"1994"	"57.219"	"28.946"	"22.77"	"16.892"	"37.727"	"25.528"	"216.352"	"296.427"	"77.516"	"101.677"	"2.592"	"0"
"1995"	"16.444"	"18.904"	"11.701"	"3.364"	"46.686"	"35.615"	"202.269"	"309.532"	"171.175"	"9.901"	"25.11"	"1.757"
"1996"	"21.033"	"10.676"	"2.685"	"9.339"	"33.84"	"11.479"	"183.454"	"322.771"	"171.079"	"165.146"	"0"	"0"
"1997"	"13.151"	"12.61"	"5.308"	"9.064"	"143.436"	"138.733"	"199.024"	"337.093"	"153.782"	"60.258"	"25.761"	"9.387"
"1998"	"0.205"	"12.479"	"7.607"	"16.126"	"141.595"	"53.913"	"236.27"	"330.52"	"176.073"	"121.779"	"20.35"	"0"
"1999"	"19.465"	"8.207"	"2.165"	"0.146"	"84.106"	"116.609"	"301.254"	"266.887"	"188.739"	"46.638"	"1.561"	"0.606"
"2000"	"11.47"	"12.265"	"12.098"	"18.027"	"29.042"	"145.382"	"158.341"	"166.777"	"250.232"	"0.868"	"0"	"0.902"
"2001"	"1.921"	"2.606"	"18.301"	"16.794"	"37.919"	"55.473"	"288.849"	"287.845"	"72.776"	"109.851"	"0"	"0.779"
"2002"	"13.447"	"9.421"	"6.038"	"14.511"	"36.836"	"54.479"	"239.5"	"284.137"	"194.995"	"155.364"	"14.513"	"0.779"
