
"Year"	"Jan"	"Feb"	"Mar"	"Apr"	"May"	"Jun"	"Jul"	"Aug"	"Sep"	"Oct"	"Nov"	"Dec"
"1901"	"0"	"0"	"0.031"	"0.568"	"2.301"	"16.771"	"116.077"	"92.672"	"15.676"	"6.995"	"0.298"	"0.048"
"1902"	"0"	"0"	"0"	"5.498"	"0.487"	"18.305"	"48.705"	"261.626"	"239.377"	"1.635"	"0.298"	"2.907"
"1903"	"0.232"	"0"	"0.502"	"0"	"0.871"	"3.366"	"354.189"	"163.955"	"80.405"	"0.275"	"0.298"	"0"
"1904"	"0.315"	"7.81"	"37.653"	"0"	"0"	"7.943"	"194.151"	"3.934"	"44.561"	"0.259"	"0.316"	"0"
"1905"	"0.001"	"0.569"	"7.895"	"0.498"	"0"	"16.355"	"583.758"	"20.455"	"23.799"	"0.212"	"0.298"	"0"
"1906"	"0.34"	"9.679"	"15.632"	"0"	"0"	"164.761"	"149.159"	"144.602"	"87.862"	"24.847"	"0.298"	"0"
"1907"	"0.066"	"4.649"	"0.001"	"1.103"	"0"	"32.521"	"212.642"	"426.486"	"10.336"	"0.212"	"0.298"	"0"
"1908"	"2.359"	"0"	"0"	"0"	"0"	"62.15"	"179.637"	"322.023"	"20.178"	"0.741"	"0.298"	"0"
"1909"	"0.159"	"1.547"	"0"	"2.241"	"0.479"	"65.688"	"256.215"	"147.884"	"118.25"	"0.489"	"0.298"	"6.401"
"1910"	"0.108"	"0"	"0"	"13.571"	"0"	"239.807"	"140.354"	"355.746"	"34.094"	"11.583"	"0.435"	"0"
"1911"	"0.644"	"0"	"49.023"	"0"	"0.4"	"109.431"	"14.414"	"11.058"	"33.201"	"0.212"	"1.308"	"0"
"1912"	"0"	"0"	"0.092"	"1.1"	"0"	"88.215"	"358.83"	"185.127"	"24.036"	"3.156"	"8.692"	"0"
"1913"	"0"	"0"	"0.019"	"0"	"0.624"	"180.564"	"350.895"	"181.23"	"120.759"	"0.322"	"0.354"	"0"
"1914"	"0"	"2.526"	"0.092"	"0"	"0.836"	"239.818"	"251.449"	"53.318"	"197.938"	"8.872"	"4.73"	"0"
"1915"	"4.413"	"0.001"	"25.519"	"0.026"	"0.025"	"60.279"	"79.455"	"15.756"	"25.839"	"165.53"	"0.298"	"0"
"1916"	"0"	"0"	"0"	"0.087"	"0.167"	"90.457"	"131.302"	"384.245"	"100.514"	"55.549"	"0.298"	"0"
"1917"	"0.004"	"1.501"	"0"	"0.388"	"28.87"	"83.027"	"276.59"	"252.783"	"239.976"	"195.024"	"0.298"	"0.001"
"1918"	"0"	"0"	"0.012"	"0"	"6.414"	"8.914"	"60.458"	"143.677"	"26.176"	"0.547"	"0.298"	"0"
"1919"	"1.767"	"0"	"0"	"0.093"	"2.2"	"56.659"	"231.52"	"249.981"	"25.093"	"10.499"	"77.657"	"0"
"1920"	"0.433"	"0.953"	"0.002"	"0"	"25.489"	"247.029"	"235.553"	"64.783"	"18.541"	"0.212"	"0.298"	"0"
"1921"	"0"	"0"	"0"	"0"	"0"	"16.622"	"410.667"	"102.756"	"266.539"	"0.609"	"0.298"	"0"
"1922"	"0.415"	"0"	"0"	"0.19"	"0"	"32.372"	"234.874"	"31.077"	"248.396"	"8.269"	"0.37"	"0.152"
"1923"	"0"	"4.627"	"0"	"3.854"	"0.335"	"1.016"	"56.82"	"86.815"	"32.289"	"24.372"	"0.298"	"0"
"1924"	"0.002"	"0"	"0"	"0"	"5.459"	"98.156"	"243.384"	"147.609"	"162.928"	"3.521"	"0.298"	"0.107"
"1925"	"0"	"0"	"0"	"0"	"12.711"	"167.017"	"94.754"	"28.665"	"1.914"	"0.214"	"35.883"	"0"
"1926"	"0.097"	"0"	"0"	"10.425"	"21.388"	"21.522"	"207.715"	"280.782"	"244.495"	"0.219"	"0.298"	"0"
"1927"	"0"	"3.233"	"0"	"0"	"0.258"	"129.77"	"547.937"	"86.383"	"78.139"	"42.969"	"4.149"	"10.808"
"1928"	"0"	"0"	"0"	"0.96"	"0"	"49.881"	"224.517"	"144.352"	"365.4"	"18.4"	"31.073"	"0.107"
"1929"	"1.201"	"0"	"0"	"1.648"	"1.575"	"84.172"	"187.263"	"109.501"	"15.729"	"6.811"	"0.298"	"2.415"
"1930"	"0.988"	"0"	"0.139"	"0"	"3.492"	"72.383"	"281.89"	"94.298"	"53.721"	"44.023"	"0.298"	"0.362"
"1931"	"0"	"0.002"	"0"	"0.135"	"5.283"	"17.932"	"161.385"	"307.164"	"22.844"	"49.466"	"9.052"	"0.026"
"1932"	"0"	"0"	"0"	"0"	"0.149"	"86.106"	"387.454"	"102.27"	"14.563"	"17.004"	"0.298"	"0"
"1933"	"0"	"2.72"	"1.313"	"0.053"	"34.544"	"45.505"	"212.031"	"347.868"	"138.221"	"1.482"	"0.298"	"0.361"
"1934"	"0"	"0"	"0.106"	"0.217"	"0"	"159.158"	"124.01"	"166.03"	"23.057"	"0.607"	"10.523"	"0"
"1935"	"6.713"	"0"	"0"	"0.72"	"0"	"122.69"	"223.221"	"81.528"	"77.083"	"1.033"	"0.298"	"0"
"1936"	"0"	"0.041"	"0.865"	"0"	"0"	"154.298"	"62.221"	"21.301"	"168.878"	"0.212"	"81.801"	"0.005"
"1937"	"0"	"1.498"	"0.082"	"0"	"0"	"168.379"	"365.177"	"2.32"	"254.518"	"12.976"	"0.298"	"1.416"
"1938"	"0"	"0"	"0"	"0"	"14.901"	"145.317"	"213.221"	"59.911"	"10.313"	"8.291"	"0.298"	"0.126"
"1939"	"0"	"0.582"	"31.442"	"0"	"0"	"68.317"	"57.763"	"161.203"	"26.501"	"2.442"	"0.861"	"0"
"1940"	"4.884"	"0.145"	"28.98"	"3.694"	"0"	"166.385"	"92.522"	"103.779"	"20.483"	"8.216"	"81.591"	"0"
"1941"	"0"	"1.038"	"0.022"	"0.024"	"4.244"	"28.328"	"612.702"	"82.005"	"15.561"	"3.292"	"0.298"	"0.914"
"1942"	"0.297"	"5.584"	"0"	"0"	"8.593"	"24.604"	"166.078"	"262.285"	"45.886"	"0.212"	"0.298"	"0"
"1943"	"0"	"0"	"0"	"0"	"7.399"	"127.112"	"420.7"	"16.318"	"85.994"	"16.18"	"1.228"	"0"
"1944"	"0.011"	"0"	"1.52"	"0.024"	"10.884"	"121.952"	"362.788"	"285.285"	"54.988"	"7.71"	"0.298"	"0"
"1945"	"2.405"	"0"	"0.193"	"0.301"	"0.002"	"197.229"	"305.394"	"205.359"	"187.843"	"6.359"	"0.298"	"0"
"1946"	"0"	"0.869"	"0"	"0"	"0.378"	"155.795"	"143.532"	"278.737"	"65.279"	"2.324"	"23.152"	"1.354"
"1947"	"0.01"	"0"	"0"	"1.832"	"0"	"1.446"	"93.272"	"156.216"	"165.869"	"3.16"	"6.021"	"0"
"1948"	"3.473"	"0"	"0"	"0"	"0"	"67.203"	"68.803"	"54.679"	"101.668"	"34.157"	"4.749"	"0"
"1949"	"0"	"0.164"	"0"	"0"	"0"	"24.088"	"215.314"	"178.698"	"90.118"	"12.958"	"0.301"	"0"
"1950"	"0"	"0"	"0"	"0"	"0"	"17.424"	"534.33"	"23.485"	"118.621"	"0.212"	"0.298"	"0"
"1951"	"0"	"0"	"1.293"	"0.437"	"0.203"	"58.332"	"156.269"	"148.963"	"3.372"	"11.44"	"1.784"	"0"
"1952"	"0"	"0"	"0"	"0"	"0.53"	"78.38"	"333.27"	"40.832"	"21.176"	"1.542"	"0.311"	"0"
"1953"	"7.209"	"0"	"0"	"0"	"0.02"	"64.194"	"163.718"	"379.825"	"66.794"	"0.212"	"0.298"	"0"
"1954"	"0.002"	"0.005"	"20.565"	"0"	"0"	"64.773"	"202.717"	"214.68"	"247.488"	"4.98"	"0.611"	"0"
"1955"	"0"	"0"	"0.007"	"0"	"0.004"	"82.483"	"34.575"	"263.975"	"238.911"	"21.119"	"0.298"	"0"
"1956"	"0"	"0"	"0.003"	"0.258"	"0.453"	"77.451"	"374.7"	"348.351"	"135.732"	"132.497"	"1.453"	"0.005"
"1957"	"2.135"	"0"	"0"	"0.038"	"0.559"	"101.318"	"148.35"	"135.351"	"6.848"	"8.375"	"17.368"	"0.101"
"1958"	"0.116"	"0"	"0"	"7.522"	"0"	"65.11"	"226.024"	"171.147"	"314.219"	"102.29"	"3.825"	"0.005"
"1959"	"0.001"	"0"	"0"	"19.383"	"0.912"	"67.648"	"556.585"	"148.747"	"334.152"	"117.904"	"0.376"	"0"
"1960"	"0.011"	"0"	"1.776"	"0"	"16.921"	"133.221"	"103.799"	"76.802"	"72.797"	"0.218"	"0.298"	"0.221"
"1961"	"0.019"	"5.364"	"0"	"0"	"0.931"	"108.672"	"281.525"	"100.243"	"189.079"	"44.733"	"0.298"	"0"
"1962"	"0"	"0"	"6.05"	"0.235"	"0.765"	"24.121"	"167.093"	"148.74"	"104.028"	"0.212"	"40.568"	"0.303"
"1963"	"0.246"	"0"	"11.261"	"0.387"	"0.209"	"18.229"	"153.21"	"175.141"	"249.192"	"24.555"	"55.16"	"0.001"
"1964"	"0.001"	"0"	"0"	"0"	"11.143"	"77.981"	"274.359"	"248.408"	"118.858"	"0.212"	"0.298"	"0"
"1965"	"7.494"	"0"	"0"	"0.001"	"0.23"	"1.023"	"436.182"	"142.977"	"27.15"	"0.225"	"1.478"	"0"
"1966"	"1.339"	"0"	"0"	"0.075"	"0.044"	"76.525"	"247.915"	"19.266"	"135.002"	"0.222"	"0.298"	"0"
"1967"	"0"	"0"	"41.095"	"0.551"	"0"	"92.15"	"322.799"	"97.078"	"57.923"	"2.647"	"0.298"	"12.539"
"1968"	"0.434"	"0.142"	"0.01"	"0"	"0"	"10.24"	"114.525"	"216.624"	"39.533"	"5.529"	"0.298"	"0"
"1969"	"0"	"1.05"	"0"	"0"	"0"	"36.178"	"100.52"	"61.288"	"55.05"	"0.212"	"9.061"	"0.113"
"1970"	"0.009"	"0.035"	"0"	"0.001"	"0.582"	"159.546"	"80.266"	"361.137"	"280.866"	"54.111"	"0.306"	"0"
"1971"	"0"	"0"	"0"	"0"	"1.432"	"177.105"	"300.661"	"135.334"	"76.643"	"0.406"	"0.298"	"0"
"1972"	"0"	"2.296"	"0"	"0"	"0.29"	"38.397"	"147.621"	"196.889"	"5.987"	"0.225"	"0.298"	"0"
"1973"	"0.819"	"0.22"	"0"	"0"	"5.937"	"140.074"	"181.074"	"180.533"	"187.159"	"3.108"	"0.298"	"0"
"1974"	"0"	"0"	"0"	"0"	"18.391"	"15.15"	"43.663"	"49.482"	"39.754"	"23.693"	"0.298"	"0.29"
"1975"	"0.163"	"0"	"0"	"0"	"0"	"208.136"	"79.188"	"180.117"	"182.747"	"163.177"	"0.298"	"0"
"1976"	"0.814"	"0.001"	"1.427"	"0"	"0"	"106.667"	"130.463"	"255.027"	"111.231"	"1.241"	"83.301"	"0"
"1977"	"4.259"	"0.001"	"0"	"0.495"	"26.175"	"169.458"	"406.803"	"145.79"	"152.627"	"0.698"	"8.778"	"0"
"1978"	"0"	"0.15"	"0"	"3.346"	"0"	"231.465"	"135.592"	"199.641"	"12.187"	"8.098"	"25.266"	"0.645"
"1979"	"0"	"3.43"	"0"	"0.239"	"0.255"	"144.479"	"47.642"	"336.21"	"39.527"	"32.901"	"120.512"	"0"
"1980"	"0.578"	"0.494"	"0"	"0"	"0.123"	"359.373"	"266.62"	"108.185"	"22.086"	"1.425"	"5.439"	"2.558"
"1981"	"0.025"	"0"	"0.437"	"0"	"0.013"	"70.812"	"188.05"	"297.751"	"86.679"	"48.609"	"106.166"	"0"
"1982"	"0.41"	"0"	"0.003"	"0.993"	"38.686"	"19.566"	"200.621"	"85.143"	"12.203"	"1.403"	"111.684"	"0"
"1983"	"0.004"	"0.164"	"0"	"1.561"	"0.002"	"63.956"	"227.752"	"171.795"	"58.861"	"21.639"	"0.298"	"0"
"1984"	"0"	"0"	"0"	"0"	"0"	"41.822"	"150.31"	"329.476"	"78.751"	"0.611"	"0.298"	"0"
"1985"	"0"	"0"	"0"	"0.276"	"13.321"	"8.211"	"135.62"	"184.743"	"32.316"	"66.964"	"0.922"	"0"
"1986"	"0"	"0"	"0.486"	"0"	"3.642"	"270.445"	"28.901"	"83.55"	"4.091"	"0.212"	"0.299"	"0.44"
"1987"	"0.029"	"0.749"	"0.001"	"0"	"1.555"	"16.813"	"22.18"	"91.943"	"2.176"	"0.342"	"0.316"	"5.642"
"1988"	"0"	"0"	"0"	"3.468"	"0.001"	"29.572"	"356.71"	"120.303"	"125.093"	"1.752"	"0.298"	"0"
"1989"	"1.703"	"0"	"0.09"	"0.002"	"0.002"	"133.674"	"203.485"	"170.306"	"13.616"	"0.224"	"0.298"	"0"
"1990"	"0"	"1.769"	"0"	"0"	"16.694"	"25.312"	"104.851"	"368.85"	"107.004"	"20.552"	"0.485"	"7.172"
"1991"	"0"	"0.217"	"0.009"	"0.014"	"0"	"15.972"	"247.443"	"66.324"	"6.826"	"0.679"	"0.331"	"1.962"
"1992"	"0.347"	"0.107"	"0"	"0"	"0"	"28.807"	"291.767"	"102.785"	"180.001"	"6.417"	"4.851"	"0"
"1993"	"0.02"	"2.842"	"0.009"	"0"	"1.639"	"16.46"	"294.638"	"30.34"	"67.243"	"21.594"	"28.934"	"0.007"
"1994"	"2.698"	"0"	"2.549"	"0.001"	"0.012"	"66.924"	"254.125"	"182.748"	"415.672"	"0.307"	"0.32"	"0"
"1995"	"0.059"	"0"	"0.303"	"0.566"	"0.001"	"7.167"	"183.492"	"40.685"	"47.857"	"2.894"	"8.843"	"1.17"
"1996"	"0.129"	"0"	"0"	"0"	"0.241"	"114.547"	"296.542"	"120.98"	"54.718"	"72.575"	"0.301"	"0"
"1997"	"2.71"	"0"	"1.579"	"2.818"	"6.505"	"151.642"	"194.482"	"177.396"	"206.357"	"3.853"	"4.882"	"0.013"
"1998"	"0"	"0.989"	"4.429"	"0"	"0.001"	"141.95"	"401.357"	"153.738"	"127.063"	"159.788"	"0.55"	"0"
"1999"	"0"	"1.118"	"0"	"0"	"4.211"	"184.513"	"164.141"	"27.611"	"23.128"	"106.171"	"0.298"	"0"
"2000"	"0"	"0"	"0"	"0"	"5.782"	"41.951"	"373.734"	"109.259"	"3.34"	"2.721"	"0.348"	"0"
"2001"	"0"	"0"	"0"	"0.107"	"32.101"	"227.368"	"243.269"	"96.521"	"3.6"	"47.093"	"0.444"	"0"
"2002"	"0"	"0"	"0"	"0.028"	"0.001"	"132.57"	"33.933"	"122.634"	"36.173"	"0.22"	"0.347"	"1.209"
