
"Year"	"Jan"	"Feb"	"Mar"	"Apr"	"May"	"Jun"	"Jul"	"Aug"	"Sep"	"Oct"	"Nov"	"Dec"
"1901"	"18.237"	"19.603"	"26.267"	"29.84"	"32.318"	"32.512"	"30.109"	"28.12"	"28.112"	"28.009"	"25.048"	"21.837"
"1902"	"20.28"	"21.981"	"27.137"	"30.695"	"32.454"	"32.001"	"30.224"	"29.051"	"28.418"	"29.052"	"24.809"	"20.552"
"1903"	"19.027"	"20.355"	"24.382"	"28.226"	"32.037"	"32.433"	"30.008"	"28.593"	"28.668"	"28.043"	"22.844"	"20.025"
"1904"	"19.567"	"21.427"	"24.948"	"29.99"	"32.134"	"31.62"	"28.877"	"28.218"	"28.212"	"28.484"	"24.334"	"21.08"
"1905"	"18.392"	"18.531"	"23.656"	"27.927"	"32.732"	"32.022"	"29.427"	"28.827"	"29.035"	"28.99"	"25.432"	"20.78"
"1906"	"18.314"	"19.947"	"24.274"	"28.835"	"32.318"	"31.259"	"29.528"	"28.249"	"28.111"	"28.204"	"24.822"	"21.307"
"1907"	"20.449"	"21.22"	"25.568"	"29.292"	"31.447"	"31.535"	"30.74"	"27.385"	"28.091"	"27.77"	"25.276"	"19.87"
"1908"	"19.219"	"20.876"	"24.533"	"29.881"	"31.833"	"31.887"	"28.639"	"27.514"	"28.101"	"28.503"	"23.628"	"19.76"
"1909"	"18.747"	"21.221"	"26.236"	"29.135"	"31.818"	"31.465"	"28.662"	"27.612"	"27.59"	"27.439"	"24.083"	"20.003"
"1910"	"19.289"	"21.482"	"25.562"	"29.104"	"31.654"	"31.343"	"28.907"	"27.935"	"28.073"	"27.126"	"23.069"	"20.144"
"1911"	"19.835"	"20.888"	"24.338"	"28.539"	"32.178"	"30.697"	"29.496"	"27.879"	"27.612"	"27.569"	"23.625"	"21.352"
"1912"	"20.396"	"22.389"	"25.445"	"29.807"	"32.219"	"32.43"	"29.245"	"28.056"	"28.068"	"28.098"	"23.396"	"20.122"
"1913"	"19.349"	"21.185"	"23.418"	"29.595"	"31.687"	"31.346"	"29.074"	"27.699"	"27.797"	"28.36"	"24.24"	"20.414"
"1914"	"20.382"	"20.939"	"24.986"	"29.054"	"32.397"	"31.242"	"29.027"	"28.163"	"28.293"	"28.477"	"25.807"	"19.832"
"1915"	"19.067"	"20.132"	"25.951"	"28.926"	"32.202"	"32.467"	"30.237"	"28.464"	"28.596"	"28.971"	"24.802"	"20.992"
"1916"	"20.316"	"20.395"	"26.652"	"29.89"	"32.062"	"30.876"	"29.79"	"27.851"	"28.466"	"28.163"	"22.874"	"20.278"
"1917"	"20.317"	"21.605"	"25.685"	"28.715"	"30.911"	"30.992"	"28.769"	"27.802"	"27.488"	"27.464"	"23.244"	"19.946"
"1918"	"18.459"	"21.269"	"25.664"	"28.193"	"32.133"	"31.019"	"29.735"	"28.166"	"28"	"27.501"	"25.194"	"19.874"
"1919"	"19.271"	"21.032"	"25.574"	"28.971"	"32.033"	"31.308"	"28.878"	"27.421"	"27.943"	"28.052"	"24.888"	"20.256"
"1920"	"19.936"	"21.029"	"26.243"	"29.524"	"31.092"	"31.119"	"28.718"	"27.909"	"28.804"	"28.767"	"25.04"	"19.997"
"1921"	"19.766"	"21.157"	"26.93"	"30.453"	"32.323"	"32.205"	"30.125"	"28.289"	"27.646"	"27.827"	"24.333"	"21.714"
"1922"	"18.816"	"22.126"	"25.921"	"30.187"	"32.061"	"31.806"	"29.329"	"27.996"	"27.595"	"27.558"	"24.053"	"19.937"
"1923"	"19.64"	"20.722"	"26.19"	"29.569"	"31.434"	"32.137"	"29.158"	"27.583"	"28.395"	"26.962"	"23.182"	"20.607"
"1924"	"19.067"	"21.614"	"27.374"	"30.231"	"32.138"	"32.258"	"29.649"	"28.098"	"27.839"	"27.247"	"22.609"	"20.661"
"1925"	"17.914"	"19.704"	"26.218"	"30.764"	"32.178"	"30.985"	"28.745"	"28.371"	"28.168"	"29.054"	"24.786"	"21.146"
"1926"	"19.876"	"23.031"	"26.061"	"28.061"	"31.421"	"32.688"	"29.777"	"28.327"	"27.237"	"27.166"	"22.705"	"19.783"
"1927"	"17.768"	"20.322"	"24.606"	"28.444"	"31.252"	"31.565"	"28.475"	"27.434"	"28.209"	"27.809"	"22.586"	"20.861"
"1928"	"19.317"	"20.77"	"25.677"	"29.479"	"32.033"	"31.28"	"28.657"	"27.468"	"27.569"	"27.244"	"23.86"	"19.484"
"1929"	"18.397"	"20.438"	"26.613"	"29.965"	"32.456"	"31.647"	"29.271"	"27.362"	"27.798"	"27.953"	"25.678"	"19.402"
"1930"	"19.245"	"20.557"	"25.867"	"29.264"	"31.942"	"31.679"	"28.127"	"27.442"	"28.41"	"28.692"	"23.775"	"20.861"
"1931"	"20.188"	"20.321"	"25.161"	"30.109"	"32.434"	"32.745"	"29.932"	"28.356"	"27.911"	"27.084"	"24.503"	"21.209"
"1932"	"20.631"	"21.45"	"25.911"	"29.388"	"32.025"	"31.441"	"28.826"	"27.696"	"28.139"	"29.209"	"24.125"	"21.383"
"1933"	"19.132"	"21.721"	"25.911"	"29.163"	"31.27"	"31.327"	"28.877"	"27.306"	"27.83"	"28.27"	"24.555"	"20.712"
"1934"	"17.546"	"21.709"	"25.252"	"29.611"	"31.833"	"31.441"	"28.772"	"27.914"	"27.683"	"27.318"	"24.058"	"21.493"
"1935"	"17.801"	"21.21"	"25.439"	"28.383"	"31.554"	"31.813"	"28.576"	"27.342"	"27.33"	"27.726"	"24.371"	"20.959"
"1936"	"18.641"	"21.517"	"25.157"	"28.564"	"32.226"	"30.638"	"28.877"	"28.143"	"27.705"	"27.281"	"24.729"	"20.557"
"1937"	"18.762"	"21.912"	"25.006"	"28.515"	"31.464"	"31.586"	"28.275"	"27.754"	"27.65"	"27.523"	"24.539"	"19.764"
"1938"	"19.081"	"20.303"	"26.705"	"29.729"	"32.283"	"30.611"	"28.725"	"27.938"	"28.062"	"27.459"	"23.128"	"20.971"
"1939"	"19.875"	"21.826"	"24.547"	"28.471"	"31.434"	"31.579"	"28.985"	"28.216"	"27.785"	"27.765"	"24.53"	"21.404"
"1940"	"20.568"	"21.977"	"24.623"	"28.723"	"32.241"	"31.667"	"29.054"	"27.795"	"27.652"	"28.284"	"25.075"	"20.512"
"1941"	"19.138"	"22.631"	"26.328"	"30.172"	"32.219"	"31.974"	"27.985"	"27.958"	"28.236"	"29.016"	"24.534"	"21.561"
"1942"	"18.952"	"21.95"	"26.327"	"30.321"	"31.65"	"31.936"	"28.509"	"27.115"	"27.332"	"27.584"	"24.025"	"19.608"
"1943"	"18.807"	"21.927"	"26.261"	"29.221"	"32.631"	"30.716"	"28.203"	"27.196"	"26.954"	"27.811"	"25.049"	"21.309"
"1944"	"19.348"	"20.872"	"25.337"	"28.615"	"31.959"	"31.467"	"28.138"	"27.423"	"28.117"	"27.934"	"24.403"	"21.186"
"1945"	"17.565"	"21.022"	"26.209"	"28.719"	"31.226"	"31.622"	"27.884"	"27.834"	"27.456"	"27.063"	"23.212"	"19.424"
"1946"	"19.127"	"22.524"	"25.299"	"30.082"	"31.545"	"31.109"	"28.569"	"26.74"	"27.352"	"28.057"	"22.906"	"19.815"
"1947"	"18.962"	"21.788"	"25.792"	"29.21"	"32.035"	"32.079"	"29.23"	"28.498"	"27.14"	"26.305"	"23.787"	"20.379"
"1948"	"18.573"	"21.086"	"26.262"	"30.22"	"32.559"	"32.203"	"30.299"	"28.047"	"28.091"	"28.386"	"24.487"	"21.013"
"1949"	"20.935"	"21.783"	"26.724"	"30.408"	"32.562"	"32.119"	"29.378"	"28.162"	"27.97"	"28.089"	"23.477"	"20.025"
"1950"	"19.759"	"19.246"	"25.265"	"29.686"	"31.93"	"31.644"	"27.497"	"27.567"	"27.536"	"28.679"	"23.384"	"20.126"
"1951"	"18.135"	"21.032"	"26.294"	"28.107"	"31.544"	"31.749"	"30.151"	"27.752"	"28.969"	"29.601"	"25.651"	"21.012"
"1952"	"20.187"	"22.563"	"26.007"	"30.126"	"32.544"	"31.541"	"28.435"	"27.026"	"27.653"	"28.425"	"23.696"	"20.98"
"1953"	"19.155"	"23.553"	"27.68"	"29.726"	"31.533"	"31.535"	"29.069"	"27.066"	"27.617"	"28.047"	"23.849"	"21.765"
"1954"	"18.551"	"22.738"	"26.743"	"29.707"	"32.11"	"31.645"	"28.775"	"28.107"	"26.708"	"26.544"	"23.708"	"20.17"
"1955"	"19.821"	"22.421"	"27.42"	"28.516"	"31.787"	"31.229"	"29.722"	"27.33"	"27.312"	"27.614"	"22.957"	"20.533"
"1956"	"19.464"	"21.09"	"26.914"	"29.946"	"32.079"	"31.216"	"26.914"	"26.52"	"27.179"	"26.343"	"23.511"	"20.239"
"1957"	"18.965"	"19.774"	"24.447"	"28.879"	"30.978"	"31.417"	"29.384"	"28.036"	"28.085"	"28.393"	"26.036"	"21.542"
"1958"	"21.146"	"21.981"	"26.636"	"30.44"	"32.443"	"32.234"	"28.808"	"28.617"	"26.943"	"27.556"	"24.558"	"21.489"
"1959"	"19.155"	"21.574"	"26.939"	"30.431"	"32.806"	"31.655"	"27.644"	"27.086"	"26.785"	"27.455"	"24.058"	"20.867"
"1960"	"18.842"	"23.216"	"24.833"	"29.091"	"31.682"	"31.111"	"29.177"	"27.105"	"28.143"	"27.851"	"24.404"	"21.505"
"1961"	"19.699"	"20.513"	"26.967"	"29.255"	"31.833"	"30.698"	"27.98"	"27.942"	"27.095"	"27.192"	"24.345"	"19.752"
"1962"	"18.17"	"22.534"	"25.531"	"29.512"	"32.291"	"31.31"	"28.721"	"27.705"	"27.496"	"26.7"	"24.483"	"21.223"
"1963"	"20.214"	"23.453"	"26.424"	"29.37"	"31.549"	"31.679"	"29.083"	"27.551"	"27.269"	"28.057"	"25.282"	"21.825"
"1964"	"17.761"	"21.533"	"27.03"	"30.131"	"31.852"	"31.113"	"28.518"	"27.683"	"27.797"	"27.336"	"23.784"	"20.393"
"1965"	"21.238"	"22.309"	"25.723"	"28.985"	"31.135"	"31.824"	"28.775"	"28.042"	"28.055"	"28.693"	"25.301"	"21.345"
"1966"	"21.02"	"24.131"	"25.548"	"28.902"	"32.017"	"31.309"	"29.527"	"28.386"	"28.095"	"29.326"	"25.344"	"20.727"
"1967"	"18.288"	"23.103"	"26.017"	"29.333"	"32.056"	"30.743"	"28.428"	"27.575"	"27.894"	"28.517"	"25.092"	"21.698"
"1968"	"18.718"	"20.585"	"26.2"	"29.266"	"30.914"	"32.153"	"29.937"	"27.167"	"28.819"	"29.053"	"25.544"	"21.12"
"1969"	"19.902"	"22.057"	"27.651"	"30.424"	"32.284"	"32.101"	"29.842"	"27.641"	"27.925"	"28.542"	"26.234"	"22.137"
"1970"	"20.025"	"21.881"	"25.985"	"30.26"	"32.567"	"30.895"	"28.791"	"27.907"	"27.376"	"28.928"	"23.753"	"20.037"
"1971"	"18.803"	"21.652"	"26.22"	"31.045"	"31.273"	"29.979"	"27.913"	"26.986"	"28.095"	"26.37"	"23.974"	"20.665"
"1972"	"19.503"	"18.903"	"26.259"	"28.634"	"31.942"	"31.895"	"29.212"	"28.063"	"28.522"	"28.677"	"24.84"	"20.863"
"1973"	"18.118"	"22.754"	"26.364"	"31.151"	"32.524"	"31.679"	"28.207"	"27.487"	"26.499"	"27.551"	"23.93"	"20.373"
"1974"	"19.486"	"19.811"	"27.52"	"30.032"	"31.566"	"31.86"	"29.877"	"28.978"	"29.396"	"28.865"	"23.456"	"20.323"
"1975"	"18.549"	"21.215"	"24.934"	"28.572"	"32.121"	"31.361"	"29.04"	"27.617"	"27.51"	"27.893"	"22.809"	"20.731"
"1976"	"19.662"	"21.731"	"26.074"	"29.223"	"31.019"	"31.046"	"28.652"	"27.362"	"26.925"	"28.833"	"26.413"	"21.342"
"1977"	"19.252"	"22.019"	"28.376"	"30.788"	"32.367"	"30.418"	"28.313"	"28.191"	"27.533"	"29.404"	"26.534"	"21.865"
"1978"	"18.953"	"21.713"	"24.653"	"30.298"	"32.593"	"30.926"	"28.511"	"27.801"	"26.831"	"28.515"	"25.523"	"21.954"
"1979"	"19.952"	"20.662"	"24.481"	"29.549"	"31.224"	"32.325"	"29.614"	"26.939"	"28.67"	"27.461"	"25.974"	"21.619"
"1980"	"19.707"	"22.217"	"26.25"	"29.68"	"33.063"	"30.404"	"28.795"	"27.917"	"28.508"	"29.447"	"25.845"	"21.255"
"1981"	"20.48"	"22.346"	"26.671"	"30.299"	"32.047"	"32.302"	"28.925"	"27.267"	"28.504"	"28.38"	"22.693"	"21.016"
"1982"	"20.149"	"21.445"	"25.033"	"29.388"	"30.723"	"32.066"	"29.698"	"28.127"	"28.585"	"29.792"	"24.94"	"21.715"
"1983"	"19.142"	"20.406"	"24.664"	"27.932"	"32.115"	"31.658"	"29.3"	"27.968"	"28.618"	"27.342"	"23.271"	"20.169"
"1984"	"18.077"	"19.334"	"26.98"	"31.012"	"32.577"	"31.593"	"28.467"	"26.599"	"27.232"	"27.716"	"24.469"	"21.039"
"1985"	"18.849"	"21.321"	"27.506"	"29.573"	"32.137"	"31.639"	"28.925"	"27.514"	"28.417"	"28.024"	"25.437"	"21.777"
"1986"	"19.974"	"21.641"	"26.379"	"30.235"	"32.59"	"31.083"	"29.434"	"27.37"	"28.452"	"28.991"	"25.784"	"20.261"
"1987"	"20.338"	"22.827"	"26.634"	"30.227"	"32.244"	"32.517"	"30.863"	"30.342"	"30.623"	"31.146"	"26.872"	"22.246"
"1988"	"21.653"	"23.457"	"26.126"	"30.971"	"32.975"	"32.196"	"28.553"	"28.183"	"28.922"	"28.358"	"24.622"	"21.917"
"1989"	"18.461"	"21.107"	"25.5"	"29.789"	"32.574"	"30.689"	"28.321"	"27.447"	"28.521"	"28.495"	"26.346"	"21.373"
"1990"	"21.47"	"22.16"	"24.633"	"29.758"	"32.324"	"31.768"	"28.849"	"27.454"	"27.326"	"27.735"	"25.112"	"21.084"
"1991"	"18.971"	"21.463"	"26.546"	"29.876"	"32.32"	"32.726"	"29.004"	"27.55"	"27.553"	"27.908"	"25.176"	"21.368"
"1992"	"19.913"	"20.393"	"25.59"	"28.562"	"32.36"	"32.58"	"29.437"	"27.946"	"27.222"	"27.779"	"24.51"	"22.423"
"1993"	"20.682"	"23.114"	"25.699"	"29.638"	"32.533"	"32.433"	"29.097"	"29.484"	"28.566"	"28.988"	"26.2"	"22.695"
"1994"	"20.886"	"21.518"	"27.949"	"29.563"	"32.696"	"31.042"	"27.476"	"27.723"	"27.479"	"28.096"	"25.208"	"20.712"
"1995"	"19.032"	"21.977"	"24.921"	"29.274"	"32.894"	"33.15"	"29.608"	"28.696"	"28.799"	"29.613"	"24.618"	"21.958"
"1996"	"20.098"	"22.973"	"28.061"	"30.007"	"32.444"	"31.841"	"29.177"	"27.335"	"27.811"	"28.097"	"24.142"	"21.704"
"1997"	"19.344"	"21.379"	"26.6"	"28.73"	"31.338"	"31.06"	"29.263"	"27.705"	"28.091"	"27.792"	"25.675"	"20.453"
"1998"	"19.718"	"21.574"	"25.723"	"30.941"	"33.123"	"32.145"	"29.12"	"28.485"	"27.846"	"29.816"	"24.617"	"21.185"
"1999"	"19.202"	"22.835"	"26.247"	"30.239"	"31.647"	"30.782"	"28.877"	"27.778"	"28.539"	"27.851"	"25.004"	"21.144"
"2000"	"20.368"	"20.807"	"25.726"	"30.455"	"31.731"	"31.786"	"28.366"	"28.062"	"28.212"	"29.244"	"25.664"	"21.937"
"2001"	"19.429"	"21.433"	"26.272"	"30.044"	"32.17"	"29.855"	"27.697"	"27.92"	"28.819"	"29.056"	"25.529"	"21.827"
"2002"	"19.638"	"21.665"	"26.952"	"30.665"	"32.934"	"31.642"	"29.148"	"27.342"	"27.635"	"29.324"	"25.52"	"22.283"
