
"Year"	"Jan"	"Feb"	"Mar"	"Apr"	"May"	"Jun"	"Jul"	"Aug"	"Sep"	"Oct"	"Nov"	"Dec"
"1901"	"52.978"	"56.439"	"14.248"	"20.513"	"9.573"	"90.062"	"233.9"	"336.648"	"199.785"	"13.237"	"4.031"	"0"
"1902"	"15.568"	"5.457"	"0.746"	"4.714"	"2.032"	"37.604"	"292.313"	"220.139"	"291.918"	"8.486"	"2.723"	"8.911"
"1903"	"5.02"	"8.674"	"3.028"	"1.541"	"31.106"	"110.885"	"329.371"	"264.269"	"165.614"	"92.879"	"0.453"	"0.176"
"1904"	"3.526"	"8.84"	"42.301"	"0.007"	"64.427"	"154.589"	"302.064"	"571.025"	"113.141"	"50.956"	"1.262"	"2.484"
"1905"	"12.324"	"21.933"	"36.63"	"15.776"	"10.166"	"65.82"	"348.839"	"386.501"	"451.618"	"4.532"	"0"	"2.886"
"1906"	"7.48"	"69.239"	"31.334"	"0.007"	"6.779"	"241.493"	"565.944"	"333.18"	"199.18"	"45.065"	"1.139"	"4.72"
"1907"	"0.219"	"81.021"	"27.39"	"51.777"	"6.425"	"400.992"	"214.423"	"419.354"	"121.684"	"1.099"	"2.859"	"6.813"
"1908"	"18.809"	"55.701"	"10.961"	"0.926"	"2.926"	"136.612"	"334.683"	"451.142"	"124.044"	"73.734"	"0"	"1.115"
"1909"	"2.472"	"8.662"	"0.622"	"44.596"	"15.741"	"246.211"	"512.855"	"250.137"	"141.44"	"1.265"	"0"	"12.028"
"1910"	"14.169"	"6.187"	"18.772"	"6.275"	"5.319"	"197.045"	"260.349"	"396.673"	"246.813"	"64.203"	"27.373"	"0"
"1911"	"10.888"	"0.464"	"29.97"	"0.223"	"6.751"	"496.653"	"113.573"	"357.003"	"263.554"	"84.44"	"38.515"	"0.04"
"1912"	"0.897"	"29.654"	"2.892"	"10.342"	"13.331"	"49.097"	"382.538"	"402.937"	"107.159"	"7.661"	"15.215"	"0.85"
"1913"	"0.099"	"73.08"	"40.558"	"1.321"	"27.798"	"309.559"	"318.558"	"428.606"	"142.239"	"55.734"	"3.047"	"19.128"
"1914"	"3.548"	"18.206"	"29.675"	"36.996"	"21.84"	"126.442"	"247.528"	"441.908"	"155.15"	"7.473"	"0"	"11.191"
"1915"	"15.466"	"54.637"	"23.978"	"5.148"	"11.482"	"78.711"	"289.68"	"314.485"	"252.299"	"62.696"	"25.666"	"0.395"
"1916"	"0.099"	"28.279"	"0.064"	"3.404"	"8.992"	"238.1"	"330.731"	"414.608"	"171.756"	"98.092"	"3.419"	"0"
"1917"	"2.781"	"56.815"	"7.282"	"5.293"	"43.766"	"172.065"	"338.076"	"545.772"	"194.592"	"181.077"	"0.12"	"1.025"
"1918"	"3.239"	"3.04"	"7.891"	"2.591"	"24.684"	"379.345"	"161.724"	"491.015"	"158.385"	"2.313"	"1.29"	"5.559"
"1919"	"69.575"	"39.824"	"26.915"	"10.611"	"27.163"	"280.255"	"363.571"	"577.714"	"182.45"	"109.525"	"10.569"	"3.426"
"1920"	"0.886"	"19.453"	"40.913"	"2.044"	"10.044"	"72.782"	"630.937"	"429.855"	"101.039"	"4.474"	"0"	"0"
"1921"	"61.015"	"17.045"	"0.064"	"2.5"	"0.148"	"329.279"	"386.15"	"516.369"	"159.519"	"5.543"	"0"	"0"
"1922"	"19.951"	"0.631"	"0.064"	"5.85"	"2.213"	"289.935"	"441.948"	"381.257"	"324.343"	"53.75"	"18.95"	"1.034"
"1923"	"0.389"	"59.311"	"9.593"	"5.933"	"1.131"	"112.487"	"472.817"	"596.018"	"235.24"	"14.302"	"6.078"	"0.02"
"1924"	"26.395"	"25.958"	"5.689"	"15.53"	"5.661"	"61.576"	"415.254"	"276.395"	"230.111"	"67.794"	"20.15"	"2.637"
"1925"	"0.462"	"4.949"	"5.191"	"1.504"	"26.442"	"170.467"	"358.998"	"642.348"	"129.901"	"10.73"	"15.689"	"0.024"
"1926"	"5.361"	"2.331"	"69.4"	"13.249"	"46.025"	"64.013"	"392.729"	"503.977"	"258.139"	"71.099"	"4.744"	"15.109"
"1927"	"7.295"	"44.42"	"53.241"	"0.29"	"7.021"	"109.308"	"478.892"	"493.516"	"104.816"	"60.913"	"21.09"	"1.831"
"1928"	"10.951"	"23.924"	"4.081"	"12.281"	"14.633"	"141.962"	"549.248"	"221.237"	"161.55"	"134.706"	"0.002"	"6.151"
"1929"	"39.377"	"22.922"	"3.072"	"5.656"	"5.813"	"128.613"	"531.473"	"440.311"	"153.36"	"156.895"	"0"	"32.418"
"1930"	"3.311"	"1.331"	"7.907"	"15.65"	"5.102"	"94.122"	"333.281"	"250.464"	"213.707"	"33.636"	"28.754"	"12.502"
"1931"	"1.88"	"67.01"	"22.661"	"3.803"	"6.331"	"55.484"	"497.954"	"495.339"	"198.557"	"104.534"	"17.051"	"4.635"
"1932"	"0.099"	"30.324"	"3.48"	"2.487"	"17.059"	"96.72"	"629.91"	"392.303"	"186.413"	"23.198"	"15.16"	"1.993"
"1933"	"16.418"	"29.975"	"9.371"	"35.281"	"30.923"	"203.703"	"286.727"	"459.637"	"167.806"	"82.097"	"1.881"	"3.468"
"1934"	"11.928"	"3.797"	"1.793"	"7.496"	"0.164"	"174.799"	"377.098"	"595.817"	"239.02"	"50.631"	"27.911"	"2.144"
"1935"	"5.843"	"7.103"	"2.352"	"17.596"	"1.305"	"136.12"	"450.727"	"557.425"	"210.287"	"3.085"	"0"	"0.021"
"1936"	"4.843"	"41.214"	"24.283"	"3.163"	"33.667"	"355.704"	"413.935"	"387.478"	"262.446"	"129.606"	"5.802"	"14.273"
"1937"	"0.099"	"66.25"	"16.588"	"34.942"	"8.093"	"118.148"	"509.367"	"330.464"	"196.882"	"110.359"	"0"	"0"
"1938"	"31.001"	"24.627"	"4.224"	"6.379"	"25.027"	"233.594"	"297.442"	"386.417"	"184.523"	"88.762"	"1.76"	"0"
"1939"	"16.239"	"16.943"	"27.769"	"10.404"	"0.209"	"194.481"	"483.354"	"381.076"	"193.231"	"50.105"	"1.206"	"0.003"
"1940"	"0.71"	"45.55"	"70.314"	"11.904"	"10.534"	"86.335"	"397.827"	"498.742"	"115.235"	"31.909"	"4.054"	"8.255"
"1941"	"30.008"	"14.795"	"17.9"	"1.514"	"12.875"	"262.087"	"258.017"	"420.708"	"156.821"	"37.692"	"2.96"	"0"
"1942"	"36.548"	"79.839"	"21.958"	"13.369"	"2.877"	"144.168"	"497.161"	"493.725"	"285.532"	"12.25"	"0.26"	"0.545"
"1943"	"23.886"	"9.292"	"1.457"	"25.974"	"24.99"	"92.888"	"453.501"	"644.184"	"235.641"	"76.011"	"0.871"	"0"
"1944"	"23.195"	"75.209"	"85.957"	"7.331"	"7.675"	"101.887"	"539.819"	"592.836"	"166.805"	"100.184"	"0.673"	"0.006"
"1945"	"22.545"	"24.138"	"0.064"	"9.282"	"15.236"	"240.039"	"384.659"	"195.52"	"290.93"	"90.815"	"2.096"	"4.137"
"1946"	"0.099"	"20.048"	"15.9"	"19.608"	"19.427"	"277.959"	"444.847"	"508.673"	"277.282"	"64.592"	"17.865"	"2.207"
"1947"	"21.742"	"16.731"	"31.628"	"3.102"	"2.864"	"114.704"	"439.348"	"322.785"	"344.267"	"53.674"	"1.676"	"7.41"
"1948"	"17.964"	"14.22"	"15.21"	"4.549"	"10.872"	"227.454"	"350.031"	"345.148"	"299.425"	"47.038"	"40.457"	"1.993"
"1949"	"0.277"	"22.013"	"11.693"	"5.555"	"36.921"	"117.828"	"313.997"	"585.497"	"195.03"	"161.932"	"0"	"0"
"1950"	"11.059"	"36.561"	"55.578"	"1.587"	"2.488"	"151.636"	"429.443"	"431.693"	"117.905"	"10.376"	"4.879"	"12.796"
"1951"	"8.317"	"4.532"	"53.877"	"21.946"	"11.455"	"126.824"	"317.609"	"333.066"	"196.948"	"70.31"	"0.199"	"0"
"1952"	"0.915"	"18.786"	"32.132"	"6.632"	"7.95"	"193.934"	"187.876"	"288.737"	"233.898"	"37.353"	"0"	"7.876"
"1953"	"27.262"	"0.292"	"0.064"	"10.254"	"1.627"	"108.882"	"390.316"	"482.417"	"236.71"	"19.749"	"0.402"	"0.014"
"1954"	"9.183"	"16.783"	"5.435"	"2.299"	"6.107"	"131.655"	"244.294"	"353.374"	"278.646"	"22.817"	"0"	"1.018"
"1955"	"23.661"	"9.828"	"10.159"	"3.866"	"1.971"	"72.529"	"333.022"	"319.654"	"175.642"	"119.722"	"0.737"	"0.002"
"1956"	"19.086"	"14.29"	"5.084"	"0.37"	"49.444"	"264.52"	"431.159"	"460.931"	"349.315"	"44.989"	"13.643"	"10.813"
"1957"	"15.377"	"1.979"	"25.288"	"14.916"	"4.297"	"123.195"	"524.597"	"325.226"	"144.558"	"15.579"	"0"	"1.165"
"1958"	"26.094"	"16.53"	"23.244"	"15.811"	"3.701"	"71.637"	"533.471"	"319.735"	"262.322"	"142.294"	"7.289"	"0.006"
"1959"	"35.259"	"7.522"	"0.064"	"6.414"	"25.608"	"121.892"	"373.372"	"345.574"	"204.176"	"119.787"	"0"	"0.862"
"1960"	"7.157"	"0.209"	"32.267"	"12.14"	"11.579"	"142.859"	"420.419"	"453.005"	"136.928"	"69.97"	"0"	"0.004"
"1961"	"37.411"	"54.153"	"8.534"	"2.899"	"11.065"	"207.443"	"346.714"	"444.489"	"264.43"	"96.065"	"3.339"	"16.026"
"1962"	"10.372"	"24.291"	"10.046"	"6.22"	"6.98"	"140.238"	"320.753"	"320.356"	"268.101"	"17.989"	"3.39"	"22.415"
"1963"	"11.293"	"9.835"	"31.185"	"9.229"	"34.712"	"120.541"	"325.08"	"455.544"	"199.48"	"67.255"	"2.94"	"0.006"
"1964"	"0.452"	"22.475"	"8.477"	"17.195"	"13.025"	"201.592"	"359.289"	"549.297"	"210.422"	"55.656"	"18.498"	"0"
"1965"	"6.188"	"0.306"	"17.465"	"23.708"	"7.458"	"88.635"	"362.128"	"196.374"	"191.735"	"22.951"	"0"	"5"
"1966"	"42.141"	"2.51"	"3.963"	"3.533"	"13.107"	"231.178"	"165.678"	"222.231"	"87.606"	"5.998"	"8.535"	"28.117"
"1967"	"26.672"	"0.209"	"54.104"	"7.11"	"9.253"	"160.887"	"338.973"	"573.75"	"267.674"	"11.119"	"0"	"38.031"
"1968"	"23.388"	"14.577"	"10.286"	"9.836"	"2.184"	"112.4"	"291.739"	"364.777"	"167.962"	"34.773"	"1.199"	"4.403"
"1969"	"1.251"	"3.731"	"2.968"	"6.82"	"25.055"	"106.538"	"556.709"	"394.679"	"227.234"	"8.29"	"13.485"	"13.857"
"1970"	"20.355"	"26.117"	"22.53"	"3.174"	"18.903"	"250.99"	"358.654"	"418.657"	"318.976"	"27.747"	"0.003"	"0"
"1971"	"19.368"	"8.631"	"5.361"	"22.174"	"38.594"	"429.065"	"451.665"	"571.421"	"126.905"	"98.364"	"0"	"0"
"1972"	"13.728"	"66.816"	"0.855"	"23.048"	"1.386"	"72.442"	"339.939"	"448.465"	"123.597"	"114.819"	"21.336"	"2.369"
"1973"	"6.902"	"0.487"	"2.053"	"2.86"	"1.146"	"144.989"	"253.727"	"377.98"	"211.79"	"128.871"	"1.061"	"0.105"
"1974"	"0.512"	"5.659"	"1.516"	"1.03"	"10.009"	"108.563"	"492.815"	"278.878"	"108.214"	"117.22"	"4.372"	"0"
"1975"	"6.182"	"20.306"	"29.629"	"1.654"	"8.42"	"165.812"	"512.865"	"208.488"	"179.732"	"79.843"	"4.731"	"0"
"1976"	"16.631"	"5.38"	"3.731"	"31.662"	"11.66"	"65.98"	"405.746"	"313.066"	"416.701"	"0.563"	"8.378"	"0.646"
"1977"	"11.997"	"4.834"	"2.239"	"33.432"	"65.5"	"205.856"	"513.837"	"393.402"	"243.754"	"42.848"	"40.704"	"18.722"
"1978"	"17.269"	"80.949"	"39.321"	"43.416"	"6.374"	"371.068"	"269.308"	"408.821"	"319.601"	"42.365"	"3.526"	"35.435"
"1979"	"14.891"	"18.631"	"0.064"	"10.554"	"0.698"	"168.153"	"381.392"	"283.709"	"156.882"	"24.832"	"19.82"	"6.609"
"1980"	"29.94"	"18.862"	"13.001"	"2.193"	"5.623"	"317.511"	"375.811"	"353.517"	"83.134"	"17.665"	"0"	"5.156"
"1981"	"23.688"	"8.055"	"40.745"	"9.518"	"19.15"	"67.758"	"424.579"	"222.848"	"217.153"	"5.047"	"8.523"	"10.266"
"1982"	"35.073"	"19.143"	"54.742"	"12.522"	"26.113"	"149.091"	"293.816"	"489.091"	"325.523"	"6.053"	"21.055"	"5.956"
"1983"	"3.498"	"20.547"	"11.277"	"18.075"	"33.317"	"156.856"	"335.269"	"270.933"	"144.78"	"69.716"	"0.399"	"4.015"
"1984"	"31.109"	"36.267"	"0.97"	"16.071"	"5.003"	"315.932"	"355.706"	"322.732"	"153.18"	"39.282"	"0.002"	"0"
"1985"	"22.177"	"3.843"	"0.451"	"4.632"	"6.742"	"139.418"	"459.298"	"402.958"	"131.14"	"118.225"	"0"	"0.499"
"1986"	"29.07"	"48.934"	"1.887"	"7.805"	"13.208"	"176.36"	"355.796"	"432.167"	"134.904"	"4.281"	"8.718"	"20.979"
"1987"	"12.561"	"15.005"	"13.246"	"1.153"	"12.03"	"61.41"	"305.408"	"532.782"	"413.527"	"50.157"	"20.351"	"4.359"
"1988"	"6.349"	"18.473"	"33.731"	"12.657"	"16.958"	"244.151"	"301.629"	"247.193"	"165.958"	"35.024"	"3.336"	"1.706"
"1989"	"1.026"	"0.209"	"24.297"	"0.299"	"24.318"	"235.519"	"279.832"	"350.121"	"142.862"	"42.788"	"7.59"	"42.226"
"1990"	"0.386"	"59.021"	"23.284"	"1.92"	"28.981"	"356.612"	"580.189"	"391.232"	"174.96"	"75.669"	"0.97"	"3.806"
"1991"	"22.97"	"10.146"	"36.851"	"12.549"	"6.39"	"227.668"	"305.925"	"579.628"	"144.536"	"17.185"	"2.666"	"36.872"
"1992"	"22.821"	"6.193"	"0.064"	"5.031"	"4.016"	"69.159"	"206.539"	"222.507"	"124.587"	"69.694"	"2.518"	"0"
"1993"	"6.101"	"6.532"	"26.508"	"1.159"	"21.301"	"70.526"	"265.549"	"226.062"	"266.021"	"76.531"	"0.018"	"0.221"
"1994"	"46.151"	"26.507"	"32.214"	"13.087"	"7.492"	"332.486"	"471.131"	"414.98"	"101.314"	"122.005"	"0.593"	"0"
"1995"	"16.077"	"10.457"	"46.334"	"3.339"	"12.182"	"82.649"	"332.928"	"284.555"	"224.047"	"23.481"	"4.327"	"0.527"
"1996"	"26.312"	"13.933"	"3.099"	"4.787"	"1.9"	"237.555"	"324.179"	"382.295"	"124.897"	"112.668"	"3.866"	"0"
"1997"	"24.14"	"0.216"	"7.475"	"6.017"	"30.41"	"32.95"	"248.761"	"401.183"	"121.578"	"34.978"	"30.301"	"35.237"
"1998"	"9.566"	"30.427"	"13.592"	"9.219"	"36.641"	"45.404"	"220.282"	"293.529"	"166.511"	"134.167"	"30.419"	"0"
"1999"	"22.445"	"16.011"	"0.064"	"0.007"	"21.483"	"124.289"	"312.412"	"394.057"	"145.569"	"42.547"	"0.007"	"0"
"2000"	"6.657"	"32.486"	"0.064"	"9.239"	"12.721"	"227.882"	"210.418"	"159.516"	"196.282"	"10.784"	"0.003"	"0"
"2001"	"1.87"	"0.253"	"36.827"	"11.326"	"12.497"	"89.036"	"281.553"	"384.005"	"56.652"	"89.434"	"2.379"	"0"
"2002"	"49.872"	"13.337"	"5.938"	"6.458"	"11.913"	"107.96"	"170.682"	"390.01"	"142.33"	"82.27"	"10.492"	"0.124"
