
"Year"	"Jan"	"Feb"	"Mar"	"Apr"	"May"	"Jun"	"Jul"	"Aug"	"Sep"	"Oct"	"Nov"	"Dec"
"1901"	"19.574"	"20.76"	"27.034"	"31.094"	"33.864"	"32.95"	"28.635"	"26.225"	"27.36"	"27.738"	"22.901"	"20.989"
"1902"	"21.805"	"23.631"	"28.698"	"32.197"	"34.042"	"32.651"	"28.849"	"28.037"	"26.819"	"26.363"	"21.677"	"19.617"
"1903"	"20.729"	"20.975"	"25.353"	"30.241"	"32.767"	"32.848"	"28.603"	"27.079"	"26.565"	"25.717"	"20.523"	"19.263"
"1904"	"21.018"	"21.878"	"25.679"	"31.924"	"33.855"	"30.73"	"27.393"	"26.968"	"26.997"	"26.747"	"21.898"	"20.619"
"1905"	"19.641"	"19.281"	"25.124"	"29.19"	"35.178"	"32.517"	"27.429"	"27.422"	"26.858"	"26.413"	"23.282"	"19.848"
"1906"	"19.075"	"20.938"	"26.268"	"31.367"	"34.496"	"30.461"	"27.352"	"27.088"	"25.959"	"25.61"	"23.126"	"20.461"
"1907"	"20.927"	"21.957"	"25.912"	"29.495"	"32.261"	"31.828"	"29.353"	"25.739"	"27.045"	"27.789"	"23.821"	"19.1"
"1908"	"19.793"	"21.749"	"25.293"	"31.974"	"33.309"	"31.467"	"26.74"	"26.317"	"27.037"	"26.561"	"22.635"	"19.17"
"1909"	"21.103"	"22.625"	"27.919"	"30.075"	"33.66"	"30.644"	"27.166"	"26.701"	"26.359"	"25.761"	"22.578"	"20.498"
"1910"	"20.583"	"22.109"	"26.782"	"30.822"	"33.26"	"29.934"	"27.278"	"27.057"	"26.584"	"24.871"	"20.568"	"20.362"
"1911"	"21.972"	"21.693"	"25.025"	"30.656"	"34.36"	"30.094"	"28.633"	"26.974"	"26.52"	"27.419"	"23.605"	"21.886"
"1912"	"21.405"	"23.808"	"26.678"	"31.686"	"34.249"	"33.401"	"28.324"	"26.545"	"26.877"	"26.557"	"21.882"	"19.663"
"1913"	"19.916"	"23.036"	"25.505"	"32.353"	"32.917"	"30.135"	"27.44"	"26.289"	"27.256"	"27.394"	"23.192"	"21.017"
"1914"	"21.916"	"22.818"	"26.013"	"30.99"	"34.269"	"30.56"	"27.428"	"27.157"	"27.388"	"26.712"	"24.167"	"20.435"
"1915"	"20.934"	"21.632"	"26.798"	"30.814"	"34.367"	"33.905"	"29.433"	"27.105"	"28.018"	"27.147"	"23.883"	"20.445"
"1916"	"20.7"	"21.717"	"28.378"	"32.407"	"34.393"	"29.216"	"28.582"	"26.903"	"27.526"	"26.064"	"21.71"	"19.7"
"1917"	"21.182"	"21.904"	"26.421"	"29.685"	"31.509"	"29.93"	"27.041"	"27.188"	"26.595"	"25.383"	"20.793"	"20.305"
"1918"	"18.929"	"23.091"	"26.666"	"29.959"	"33.854"	"30.38"	"29.074"	"27.119"	"27.392"	"27.359"	"24.445"	"20.298"
"1919"	"21.61"	"22.565"	"27.751"	"31.068"	"33.677"	"30.399"	"27.308"	"26.707"	"27.197"	"25.805"	"23.965"	"20.224"
"1920"	"21.018"	"21.864"	"27.357"	"31.013"	"31.269"	"31.44"	"27.053"	"26.792"	"27.884"	"27.692"	"23.6"	"21.106"
"1921"	"21.383"	"22.316"	"28.783"	"32.837"	"34.306"	"31.111"	"29.28"	"26.963"	"25.98"	"25.993"	"21.684"	"21.542"
"1922"	"20.045"	"24.036"	"27.592"	"31.891"	"33.991"	"30.944"	"27.286"	"26.861"	"26.564"	"26.082"	"21.966"	"18.927"
"1923"	"20.831"	"21.505"	"27.426"	"31.223"	"33.038"	"33.588"	"27.783"	"26.194"	"27.046"	"25.535"	"22.426"	"21.807"
"1924"	"21.373"	"23.645"	"28.791"	"32.488"	"33.314"	"32.344"	"27.956"	"27.146"	"26.864"	"24.807"	"20.741"	"20.382"
"1925"	"18.41"	"21.033"	"27.151"	"32.826"	"32.638"	"29.618"	"27.116"	"27.339"	"27.744"	"28.122"	"23.783"	"20.298"
"1926"	"21.5"	"24.296"	"27.124"	"29.058"	"33.614"	"34.21"	"28.46"	"26.855"	"27.099"	"26.829"	"21.681"	"19.913"
"1927"	"20.224"	"21.778"	"26.25"	"31.039"	"33.122"	"31.18"	"27.033"	"26.327"	"27.018"	"26.095"	"19.999"	"20.673"
"1928"	"20.485"	"22.277"	"26.643"	"30.725"	"33.718"	"31.029"	"26.92"	"26.461"	"26.718"	"26.239"	"23.216"	"19.646"
"1929"	"19.512"	"21.502"	"28.007"	"31.178"	"34.021"	"30.642"	"27.338"	"26.54"	"27.211"	"26.101"	"23.491"	"20.036"
"1930"	"20.921"	"20.986"	"27.54"	"30.898"	"33.737"	"31.54"	"26.608"	"26.253"	"27.28"	"27.334"	"21.588"	"21.055"
"1931"	"22.088"	"22.725"	"26.389"	"32.286"	"34.108"	"33.147"	"27.986"	"26.72"	"26.598"	"25.426"	"22.089"	"20.259"
"1932"	"21.667"	"20.872"	"26.037"	"30.361"	"33.947"	"31.346"	"27.041"	"27.044"	"27.142"	"27.073"	"22.139"	"20.706"
"1933"	"20.52"	"23.191"	"27.423"	"30.748"	"31.562"	"30.088"	"27.773"	"26.489"	"26.359"	"25.603"	"22.779"	"19.996"
"1934"	"19.333"	"23.011"	"26.343"	"31.454"	"33.411"	"31.567"	"27.138"	"26.269"	"25.877"	"25.211"	"21.54"	"20.606"
"1935"	"18.968"	"22.292"	"25.947"	"28.953"	"33.659"	"31.463"	"26.931"	"26.346"	"26.095"	"26.031"	"22.567"	"20.799"
"1936"	"19.997"	"22.206"	"26.432"	"29.978"	"34.17"	"29.554"	"27.784"	"26.767"	"26.85"	"26.082"	"23.18"	"19.711"
"1937"	"18.912"	"23.185"	"25.62"	"30.132"	"33.347"	"31.441"	"26.631"	"26.599"	"26.659"	"25.696"	"23.497"	"19.814"
"1938"	"22.116"	"20.683"	"28.574"	"31.68"	"33.454"	"27.713"	"26.725"	"27.111"	"27.575"	"26.044"	"21.55"	"20.405"
"1939"	"21.516"	"23.547"	"25.337"	"30.326"	"33.221"	"31.167"	"27.462"	"27.451"	"26.371"	"26.55"	"21.779"	"19.491"
"1940"	"20.686"	"22.96"	"24.839"	"30.455"	"33.748"	"31.17"	"26.856"	"26.253"	"26.909"	"26.285"	"22.432"	"20.118"
"1941"	"19.896"	"22.777"	"27.792"	"32.012"	"34.007"	"32.398"	"27.211"	"26.789"	"27.371"	"27.458"	"23.098"	"21.694"
"1942"	"19.898"	"22.892"	"27.72"	"32.527"	"33.898"	"32.407"	"26.577"	"26.57"	"26.163"	"25.983"	"21.817"	"19.951"
"1943"	"21.427"	"21.432"	"27.124"	"30.687"	"34.223"	"29.837"	"26.636"	"25.889"	"26.612"	"25.396"	"23.179"	"19.09"
"1944"	"20.09"	"21.893"	"26.042"	"30.206"	"33.927"	"31.128"	"27.02"	"26.256"	"27.059"	"25.242"	"22.445"	"21.783"
"1945"	"19.283"	"20.996"	"26.537"	"30.057"	"33.322"	"31.869"	"26.729"	"27.027"	"26.544"	"25.956"	"21.209"	"18.675"
"1946"	"20.422"	"23.723"	"26.732"	"32.527"	"33.06"	"29.905"	"26.938"	"26.041"	"26.684"	"26.808"	"20.323"	"22.239"
"1947"	"19.942"	"22.815"	"27.073"	"30.524"	"33.872"	"31.837"	"27.395"	"27.687"	"26.474"	"25.08"	"22.932"	"21.169"
"1948"	"21.107"	"22.346"	"27.228"	"32.331"	"34.757"	"30.733"	"27.176"	"26.458"	"26.263"	"27.467"	"23.483"	"19.583"
"1949"	"21.881"	"22.207"	"27.62"	"31.895"	"34.081"	"30.333"	"27.844"	"27.523"	"26.671"	"26.578"	"22.122"	"20.173"
"1950"	"21.372"	"21.039"	"26.231"	"31.023"	"33.348"	"31.816"	"27.3"	"27.336"	"26.638"	"25.55"	"20.686"	"19.82"
"1951"	"19.594"	"21.953"	"27.166"	"29.823"	"33.716"	"31.424"	"28.573"	"26.499"	"28.252"	"28.585"	"24.255"	"19.697"
"1952"	"21.172"	"24.306"	"26.436"	"32.397"	"34.286"	"31.248"	"27.786"	"26.076"	"27.376"	"27.181"	"22.271"	"22.617"
"1953"	"20.365"	"25.146"	"29.551"	"31.799"	"33.642"	"31.738"	"27.747"	"26.438"	"27.305"	"26.057"	"22.381"	"21.255"
"1954"	"19.578"	"23.764"	"27.243"	"31.774"	"34.742"	"31.597"	"27.797"	"27.21"	"25.339"	"24.622"	"22.475"	"20.503"
"1955"	"21.528"	"23.286"	"28.744"	"29.426"	"33.434"	"30.618"	"28.114"	"26.426"	"26.392"	"25.441"	"21.008"	"20.012"
"1956"	"21.271"	"22.856"	"28.054"	"31.702"	"33.403"	"29.702"	"26.165"	"26.115"	"26.607"	"25.653"	"21.889"	"20.784"
"1957"	"20.562"	"21.054"	"25.871"	"30.98"	"32.995"	"31.923"	"27.83"	"26.839"	"26.727"	"26.896"	"24.746"	"22.545"
"1958"	"21.856"	"22.87"	"27.593"	"32.589"	"34.322"	"32.629"	"27.439"	"27.548"	"26.249"	"26.231"	"23.354"	"21.059"
"1959"	"21.152"	"22.841"	"28.084"	"31.61"	"34.088"	"31.472"	"26.597"	"26.106"	"26.359"	"26.485"	"23.138"	"21.264"
"1960"	"19.334"	"24.016"	"25.962"	"31.045"	"33.099"	"30.721"	"28.126"	"25.787"	"27.482"	"26.401"	"22.711"	"22.615"
"1961"	"21.271"	"21.052"	"28.536"	"31.575"	"33.758"	"30.495"	"27.158"	"26.828"	"25.457"	"25.179"	"23.056"	"19.408"
"1962"	"18.941"	"22.653"	"26.735"	"30.887"	"33.834"	"31.758"	"27.818"	"27.014"	"26.479"	"25.096"	"23.347"	"20.8"
"1963"	"19.884"	"24.147"	"26.898"	"30.202"	"33.103"	"31.073"	"27.943"	"26.352"	"26.619"	"26.353"	"24.553"	"21.071"
"1964"	"19.462"	"22.723"	"28.587"	"32.716"	"33.249"	"31.069"	"27.451"	"26.548"	"26.955"	"27.07"	"22.106"	"20.796"
"1965"	"21.748"	"22.656"	"26.702"	"30.796"	"34.678"	"32.083"	"28.25"	"27.592"	"26.958"	"27.657"	"23.934"	"20.962"
"1966"	"20.772"	"24.416"	"26.469"	"31.293"	"32.587"	"32.071"	"29.273"	"26.791"	"26.861"	"28.023"	"24.83"	"20.982"
"1967"	"19.787"	"24.509"	"26.801"	"30.527"	"33.456"	"30.68"	"27.846"	"26.341"	"26.382"	"27.021"	"24.156"	"22.365"
"1968"	"19.524"	"21.434"	"26.159"	"30.592"	"32.602"	"32.153"	"27.679"	"25.793"	"28.099"	"26.143"	"22.739"	"20.749"
"1969"	"20.921"	"23.757"	"29.339"	"32.138"	"34.003"	"31.817"	"27.757"	"26.219"	"26.398"	"27.138"	"24.968"	"20.967"
"1970"	"20.94"	"23.217"	"27.122"	"32.511"	"34.599"	"29.382"	"28.047"	"26.949"	"26.476"	"26.895"	"21.916"	"20.041"
"1971"	"20.034"	"22.734"	"26.901"	"32.797"	"32.808"	"29.416"	"26.846"	"26.651"	"27.299"	"25.877"	"22.299"	"19.385"
"1972"	"20.555"	"20.989"	"28.693"	"30.807"	"33.841"	"31.954"	"28.343"	"26.57"	"26.943"	"27.609"	"23.221"	"21.599"
"1973"	"20.863"	"23.926"	"27.847"	"33.751"	"35.229"	"31.472"	"26.378"	"26.34"	"25.888"	"26.11"	"22.625"	"21.261"
"1974"	"20.099"	"22.39"	"29.039"	"32.344"	"33.122"	"31.672"	"28.415"	"26.721"	"28.398"	"26.739"	"21.784"	"19.9"
"1975"	"19.077"	"22.256"	"26.444"	"32.352"	"33.787"	"30.832"	"27.364"	"26.65"	"26.588"	"26.927"	"21.349"	"19.945"
"1976"	"20.837"	"23.324"	"27.72"	"31.215"	"33.269"	"29.534"	"27.791"	"26.421"	"26.622"	"27.636"	"26.014"	"22.252"
"1977"	"20.391"	"23.887"	"29.579"	"31.517"	"32.795"	"31.074"	"27.773"	"26.546"	"26.366"	"27.726"	"25.032"	"21.174"
"1978"	"19.983"	"22.473"	"26.111"	"31.749"	"34.47"	"30.429"	"26.861"	"26.097"	"27.546"	"27.109"	"24.918"	"20.445"
"1979"	"22.255"	"21.622"	"26.248"	"31.732"	"32.835"	"32.434"	"28.208"	"26.369"	"28.46"	"28.152"	"25.285"	"21.529"
"1980"	"21.603"	"23.472"	"27.723"	"32.943"	"34.511"	"29.349"	"27.292"	"26.584"	"27.859"	"28.28"	"25.007"	"20.764"
"1981"	"19.554"	"23.901"	"27.179"	"31.851"	"33.701"	"32.544"	"27.254"	"26.303"	"27.641"	"27.048"	"22.233"	"20.488"
"1982"	"21.525"	"22.063"	"25.933"	"30.593"	"32.281"	"32.137"	"28.894"	"26.695"	"27.566"	"27.881"	"23.803"	"22.625"
"1983"	"20.584"	"21.716"	"26.772"	"29.744"	"33.991"	"32.331"	"28.652"	"27.476"	"27.407"	"25.688"	"21.598"	"20.068"
"1984"	"20.295"	"20.869"	"28.362"	"32.109"	"34.511"	"31.162"	"27.813"	"25.794"	"26.403"	"26.661"	"22.912"	"21.694"
"1985"	"21.329"	"22.653"	"29.287"	"31.514"	"34.291"	"31.378"	"28.393"	"26.494"	"27.745"	"25.257"	"23.221"	"22.182"
"1986"	"21.405"	"23.201"	"27.938"	"32.135"	"33.651"	"31.317"	"27.125"	"26.221"	"28.215"	"27.589"	"24.162"	"20.558"
"1987"	"21.593"	"23.933"	"27.988"	"31.9"	"32.896"	"32.288"	"29.417"	"28.074"	"28.529"	"27.764"	"24.357"	"20.963"
"1988"	"22.492"	"24.732"	"27.668"	"32.604"	"34.799"	"31.713"	"27.634"	"27.476"	"28.319"	"26.297"	"23.251"	"21.022"
"1989"	"20.475"	"23.178"	"26.622"	"30.998"	"34.24"	"30.279"	"27.977"	"26.354"	"27.678"	"27.216"	"24.954"	"20.964"
"1990"	"22.855"	"23.271"	"26.144"	"31.767"	"32.635"	"29.723"	"26.818"	"27"	"26.853"	"26.937"	"24.02"	"21.504"
"1991"	"19.981"	"23.752"	"27.791"	"31.089"	"34.547"	"31.597"	"27.813"	"26.767"	"27.318"	"27.22"	"23.979"	"21.004"
"1992"	"21.31"	"21.965"	"28.047"	"31.493"	"33.766"	"33.154"	"29.441"	"26.861"	"26.594"	"26.919"	"23.484"	"21.302"
"1993"	"21.895"	"23.11"	"26.656"	"31.172"	"34.597"	"32.569"	"27.788"	"27.253"	"27.069"	"27.652"	"24.171"	"21.064"
"1994"	"22.013"	"22.136"	"27.693"	"30.648"	"34.621"	"30.136"	"26.725"	"26.186"	"26.154"	"27.139"	"23.51"	"20.92"
"1995"	"19.056"	"22.951"	"26.832"	"31.414"	"33.874"	"34.009"	"28.576"	"27.694"	"28.126"	"28.191"	"24.108"	"22.563"
"1996"	"22.593"	"24.515"	"29.469"	"31.883"	"34.159"	"32.515"	"28.894"	"26.869"	"27.505"	"26.506"	"23.858"	"21.189"
"1997"	"20.352"	"22.302"	"28.146"	"30.137"	"32.664"	"30.344"	"27.781"	"27.073"	"27.289"	"27.015"	"25.99"	"21.582"
"1998"	"21.1"	"23.027"	"27.47"	"32.89"	"35.376"	"33.04"	"28.233"	"27.973"	"27.746"	"28.333"	"24.561"	"21.62"
"1999"	"20.844"	"24.267"	"28.556"	"33.008"	"33.946"	"30.481"	"27.883"	"27.038"	"27.193"	"26.891"	"23.448"	"20.697"
"2000"	"21.696"	"21.964"	"27.311"	"33.736"	"32.318"	"30.664"	"26.838"	"28.007"	"27.654"	"28.447"	"25.53"	"22.072"
"2001"	"21.072"	"24.61"	"27.888"	"31.323"	"33.24"	"29.464"	"26.702"	"26.822"	"28.426"	"27.309"	"24.135"	"22.491"
"2002"	"20.206"	"23.848"	"28.099"	"32.539"	"34.349"	"30.735"	"28.483"	"25.856"	"26.68"	"27.746"	"24.49"	"22.993"
