
"Year"	"Jan"	"Feb"	"Mar"	"Apr"	"May"	"Jun"	"Jul"	"Aug"	"Sep"	"Oct"	"Nov"	"Dec"
"1901"	"24.723"	"13.005"	"53.722"	"177.01"	"162.474"	"410.479"	"290.777"	"297.507"	"244.638"	"175.905"	"146.4"	"2.397"
"1902"	"9.441"	"15.664"	"47.906"	"210.873"	"232.861"	"452.338"	"495.402"	"378.304"	"366.188"	"57.106"	"10.624"	"1.212"
"1903"	"17.023"	"22.407"	"95.826"	"142.426"	"176.669"	"496.201"	"285.574"	"476.924"	"151.503"	"126.239"	"84.379"	"1.902"
"1904"	"17.563"	"53.844"	"93.384"	"362.912"	"243.033"	"214.809"	"278.216"	"411.39"	"141.648"	"52.593"	"55.409"	"2.297"
"1905"	"17.171"	"14.188"	"185.517"	"120.951"	"205.084"	"286.398"	"362.714"	"489.535"	"160.814"	"184.669"	"35.478"	"21.457"
"1906"	"13.592"	"73.653"	"84.77"	"304.813"	"147.428"	"318.363"	"408.542"	"456.283"	"156.683"	"87.642"	"38.372"	"0.002"
"1907"	"18.633"	"66.544"	"101.392"	"196.542"	"139.157"	"384.503"	"431.883"	"252.03"	"226.943"	"35.554"	"2.951"	"6.477"
"1908"	"13.878"	"24.317"	"24.875"	"204.434"	"258.565"	"509.139"	"460.829"	"174.425"	"282.046"	"94.109"	"5.934"	"1.328"
"1909"	"33.789"	"12.142"	"7.965"	"149.637"	"331.923"	"535.4"	"268.817"	"407.429"	"107.481"	"93.329"	"16.311"	"3.42"
"1910"	"8.344"	"38.978"	"170.379"	"145.36"	"169.097"	"669.209"	"451.613"	"354.787"	"127.099"	"231.37"	"35.802"	"17.308"
"1911"	"36.641"	"28.675"	"61.725"	"215.994"	"426.736"	"498.259"	"388.108"	"334.057"	"232.071"	"335.481"	"39.805"	"3.442"
"1912"	"11.265"	"65.135"	"84.698"	"133.465"	"144.648"	"333.708"	"402.316"	"325.336"	"230.172"	"213.497"	"77.802"	"18.24"
"1913"	"11.471"	"67.932"	"79.112"	"289.319"	"378.805"	"366.465"	"268.108"	"303.709"	"177.438"	"253.351"	"10.287"	"24.883"
"1914"	"2.4"	"53.714"	"76.866"	"108.644"	"222.233"	"366.258"	"335.138"	"435.428"	"128.296"	"73.37"	"8.965"	"15.08"
"1915"	"7.951"	"45.948"	"98.776"	"101.489"	"507.71"	"369.915"	"550.994"	"413.884"	"187.153"	"142.024"	"17.506"	"3.249"
"1916"	"12.504"	"20.264"	"116.975"	"192.725"	"450.909"	"357.8"	"343.555"	"333.538"	"175.57"	"223.201"	"81.694"	"7.784"
"1917"	"5.412"	"93.06"	"37.206"	"151.517"	"239.95"	"486.826"	"389.582"	"292.594"	"145.996"	"147.351"	"99.839"	"0.002"
"1918"	"6.304"	"8.803"	"105.98"	"92.761"	"255.927"	"644.482"	"412.745"	"366.23"	"226.243"	"83.57"	"2.3"	"0.402"
"1919"	"11.18"	"13.717"	"9.088"	"91.663"	"273.911"	"396.237"	"423.361"	"190.119"	"268.153"	"296.07"	"50.919"	"2.535"
"1920"	"4.005"	"36.939"	"174.233"	"95.201"	"233.838"	"358.491"	"260.312"	"414.704"	"237.27"	"72.444"	"1.075"	"5.445"
"1921"	"29.893"	"15.785"	"106.72"	"175.729"	"487.111"	"417.889"	"371.942"	"388.457"	"264.921"	"156.117"	"10.107"	"8.528"
"1922"	"14.406"	"4.94"	"80.004"	"196.881"	"179.58"	"437.899"	"389.579"	"327.856"	"145.394"	"207.799"	"17.515"	"7.095"
"1923"	"0.476"	"79.535"	"11.336"	"157.745"	"326.952"	"458.922"	"412.321"	"226.62"	"232.479"	"53.865"	"8.855"	"4.741"
"1924"	"8.702"	"19.773"	"27.456"	"149.65"	"257.211"	"448.283"	"549.687"	"401.749"	"256.309"	"132.419"	"120.325"	"0.204"
"1925"	"19.251"	"34.116"	"78.079"	"167.989"	"430.957"	"291.876"	"361.253"	"323.432"	"234.075"	"78.724"	"8.282"	"1.636"
"1926"	"19.945"	"23.34"	"87.168"	"101.244"	"204.038"	"436.026"	"488.717"	"228.977"	"150.355"	"220.697"	"40.091"	"16.738"
"1927"	"29.685"	"40.818"	"80.722"	"230.784"	"172.14"	"407.017"	"351.229"	"264.41"	"469.391"	"286.458"	"24.06"	"0.002"
"1928"	"5.728"	"20.598"	"81.602"	"73.511"	"328.197"	"404.541"	"402.961"	"318.072"	"290.601"	"263.17"	"25.418"	"2.676"
"1929"	"13.686"	"6.597"	"47.505"	"199.053"	"572.708"	"426.202"	"291.116"	"257.948"	"190.157"	"92.687"	"50.138"	"2.828"
"1930"	"15.06"	"21.635"	"62.123"	"190.662"	"120.695"	"490.141"	"160.397"	"388.886"	"314.288"	"252.42"	"133.674"	"4.717"
"1931"	"5.608"	"40.74"	"31.523"	"312.705"	"253.892"	"605.168"	"505.174"	"184.633"	"189.336"	"108.068"	"20.956"	"27.551"
"1932"	"17.03"	"30.557"	"43.109"	"89.116"	"531.665"	"498.387"	"317.911"	"473.896"	"189.706"	"94.914"	"135.718"	"14.416"
"1933"	"7.525"	"24.348"	"29.672"	"160.407"	"230.519"	"446.75"	"299.701"	"393.793"	"120.145"	"60.455"	"5.296"	"2.327"
"1934"	"18.772"	"60.078"	"21.723"	"231.873"	"302.761"	"628.747"	"415.875"	"241.913"	"204.149"	"234.194"	"42.772"	"5.615"
"1935"	"5.338"	"33.878"	"52.874"	"83.328"	"251.8"	"592.21"	"300.868"	"509.944"	"253.785"	"30.55"	"19.268"	"2.478"
"1936"	"21.184"	"56.463"	"49.827"	"142.783"	"287.584"	"402.281"	"388.161"	"252.125"	"260.509"	"173.334"	"30.765"	"22.101"
"1937"	"7.037"	"36.135"	"36.718"	"93.645"	"288.022"	"296.817"	"299.093"	"417.465"	"144.08"	"72.818"	"5.887"	"5.579"
"1938"	"39.855"	"23.307"	"107.059"	"141.93"	"211.528"	"533.166"	"408.915"	"427.042"	"333.435"	"180.816"	"82.344"	"3.91"
"1939"	"4.128"	"36.646"	"25.58"	"155.375"	"250.702"	"526.437"	"357.41"	"209.068"	"270.088"	"130.434"	"4.605"	"1.411"
"1940"	"1.868"	"52.754"	"185.729"	"42.739"	"304.154"	"393.904"	"282.377"	"211.298"	"274.714"	"104.872"	"14.044"	"27.257"
"1941"	"9.715"	"41.913"	"100.717"	"98.758"	"367.81"	"436.301"	"284.278"	"302.695"	"332.102"	"85.878"	"5.343"	"9.712"
"1942"	"13.078"	"23.557"	"134.871"	"126.836"	"405.83"	"539.98"	"238.737"	"279.431"	"263.702"	"10.129"	"13.974"	"0.002"
"1943"	"27.423"	"41.511"	"123.213"	"115.562"	"373.021"	"380.812"	"298.072"	"370.457"	"272.252"	"104.959"	"6.777"	"3.831"
"1944"	"30.459"	"24.583"	"54.019"	"82.654"	"432.466"	"424.867"	"299.035"	"263.709"	"271.99"	"141.034"	"17.341"	"24.665"
"1945"	"28.672"	"34.839"	"90.909"	"95.46"	"257.925"	"472.447"	"445.832"	"349.123"	"181.91"	"179.876"	"0.307"	"13.827"
"1946"	"1.116"	"19.398"	"61.598"	"94.846"	"209.181"	"466.038"	"414.451"	"330.424"	"206.44"	"248.407"	"7.553"	"0.393"
"1947"	"8.919"	"13.322"	"52.237"	"242.601"	"261.585"	"348.401"	"485.7"	"324.256"	"433.918"	"360.028"	"12.289"	"22.723"
"1948"	"10.585"	"58.17"	"76.433"	"269.115"	"553.132"	"480.784"	"704.801"	"311.806"	"165.535"	"144.564"	"23.506"	"6.131"
"1949"	"12.605"	"8.957"	"169.096"	"307.382"	"300.123"	"544.443"	"458.274"	"369.311"	"291.866"	"190.841"	"20.653"	"12.794"
"1950"	"9.627"	"47.235"	"85.238"	"90.074"	"210.914"	"485.445"	"310.906"	"386.115"	"205.562"	"234.409"	"56.272"	"6.702"
"1951"	"6.95"	"7.515"	"73.187"	"198.016"	"224.588"	"588.189"	"476.74"	"271.268"	"225.542"	"202.87"	"66.745"	"30.242"
"1952"	"17.316"	"3.308"	"94.069"	"237.358"	"241.449"	"492.853"	"406.896"	"381.242"	"436.546"	"227.583"	"72.826"	"2.047"
"1953"	"10.879"	"19.769"	"147.114"	"90.169"	"363.621"	"582.155"	"453.181"	"252.634"	"233.704"	"213.703"	"4.484"	"1.785"
"1954"	"16.787"	"80.082"	"74.787"	"203.537"	"314.797"	"606.887"	"401.257"	"366.98"	"298.268"	"204.033"	"0.819"	"26.995"
"1955"	"3.95"	"20.812"	"166.046"	"77.421"	"275.148"	"388.809"	"638.116"	"279.808"	"169.123"	"137.658"	"46.392"	"6.109"
"1956"	"28.733"	"5.319"	"159.536"	"126.714"	"345.103"	"531.042"	"278.475"	"239.523"	"202.462"	"157.177"	"65.164"	"6.795"
"1957"	"39.424"	"60.923"	"30.948"	"138.123"	"302.541"	"505.85"	"352.65"	"372.414"	"245.531"	"77.506"	"32.454"	"14.926"
"1958"	"11.219"	"75.292"	"31.871"	"90.225"	"470.272"	"313.057"	"425.803"	"510.388"	"224.177"	"300.547"	"1.252"	"10.354"
"1959"	"24.076"	"65.333"	"143.062"	"138.022"	"477.119"	"538.236"	"303.677"	"293.953"	"188.275"	"229.691"	"23.283"	"14.227"
"1960"	"0.005"	"10.43"	"37.808"	"77.629"	"240.695"	"392.594"	"517.895"	"333.938"	"258.612"	"43.199"	"26.141"	"11.216"
"1961"	"10.222"	"14.411"	"142.216"	"178.619"	"241.775"	"361.969"	"363.979"	"330.441"	"191.099"	"182.832"	"26.808"	"7.751"
"1962"	"17.835"	"32.106"	"20.038"	"87.963"	"214.383"	"386.477"	"302.91"	"381.979"	"77.067"	"100.358"	"15.803"	"8.672"
"1963"	"2.247"	"13.32"	"58.557"	"167.395"	"199.606"	"361.885"	"385.028"	"279.792"	"155.375"	"113.181"	"23.93"	"4.603"
"1964"	"28.369"	"45.967"	"109.995"	"184.079"	"178.864"	"532.998"	"558.718"	"322.679"	"257.824"	"258.687"	"12.469"	"23.904"
"1965"	"3.824"	"33.705"	"43.67"	"104.56"	"105.367"	"544.734"	"426.238"	"446.171"	"258.272"	"47.596"	"139.636"	"22.083"
"1966"	"12.798"	"12.803"	"35.099"	"103.682"	"247.977"	"587.802"	"341.316"	"469.039"	"264.03"	"141.243"	"46.378"	"35.636"
"1967"	"35.683"	"12.189"	"122.974"	"100.769"	"174.207"	"330.433"	"289.884"	"241.331"	"258.405"	"81.477"	"14.897"	"1.963"
"1968"	"23.736"	"31.024"	"72.786"	"153.509"	"407.293"	"335.386"	"489.111"	"415.335"	"245.636"	"76.427"	"9.183"	"0.013"
"1969"	"27.398"	"1.764"	"120.63"	"168.034"	"218.803"	"421.312"	"458.277"	"435.56"	"172.162"	"60.636"	"19.859"	"2.541"
"1970"	"36.502"	"42.565"	"136.191"	"168.431"	"355.701"	"246.949"	"439.712"	"341.618"	"190.077"	"185.05"	"22.141"	"0.104"
"1971"	"19.408"	"22.59"	"15.723"	"97.402"	"154.42"	"300.325"	"375.124"	"314.889"	"182.142"	"284.202"	"72.747"	"15.261"
"1972"	"19.979"	"43.219"	"72.99"	"209.891"	"240.852"	"314.706"	"361.138"	"228.491"	"78.655"	"47.617"	"1.268"	"6.456"
"1973"	"20.33"	"37.177"	"46.351"	"193.431"	"288.111"	"656.589"	"228.082"	"265.034"	"274.897"	"112.081"	"60.192"	"14.321"
"1974"	"21.064"	"11.041"	"93.453"	"255.357"	"198.606"	"395.328"	"559.51"	"278.399"	"309.308"	"144.6"	"33.056"	"2.057"
"1975"	"7.076"	"42.934"	"40.26"	"123.156"	"275.465"	"278.297"	"363.226"	"349.913"	"174.411"	"133.292"	"45.294"	"9.753"
"1976"	"0.782"	"40.031"	"128.114"	"135.243"	"180.538"	"491.776"	"513.389"	"267.441"	"56.213"	"54.844"	"21.4"	"3.714"
"1977"	"6.192"	"72.634"	"69.929"	"336.233"	"290.639"	"451.669"	"438.608"	"362.212"	"140.739"	"156.171"	"43.445"	"34.395"
"1978"	"3.321"	"23.345"	"38.217"	"109.874"	"249.724"	"419.222"	"346.171"	"123.827"	"153.527"	"73.03"	"70.479"	"0.215"
"1979"	"11.37"	"7.41"	"39.59"	"41.935"	"136.532"	"236.65"	"336.708"	"298.874"	"258.206"	"226.662"	"20.75"	"40.82"
"1980"	"6.675"	"29.723"	"122.601"	"227.415"	"252.031"	"245.639"	"409.813"	"419.913"	"207.977"	"164.95"	"0.307"	"2.465"
"1981"	"25.098"	"33.336"	"139.034"	"241.341"	"321.253"	"377.069"	"453.474"	"373.8"	"189.992"	"66.614"	"1.116"	"48.57"
"1982"	"0.975"	"35.811"	"44.841"	"228.157"	"176.822"	"406.125"	"271.257"	"380.043"	"192.278"	"14.043"	"86.678"	"20.657"
"1983"	"24.794"	"73.88"	"90.095"	"130.567"	"248.742"	"365.162"	"505.671"	"305.188"	"301.358"	"131.113"	"10.521"	"40.412"
"1984"	"13.771"	"9.46"	"43.557"	"192.126"	"395.516"	"343.468"	"391.218"	"262.903"	"315.731"	"143.749"	"0.832"	"33.699"
"1985"	"8.014"	"12.727"	"142.852"	"223.151"	"142.392"	"449.041"	"354.882"	"267.881"	"189.333"	"61.275"	"11.721"	"8.398"
"1986"	"7.254"	"14.708"	"37.255"	"225.142"	"74.301"	"204.291"	"372.303"	"250.5"	"279.799"	"172.755"	"59.855"	"3.779"
"1987"	"1.211"	"17.547"	"116.896"	"192.265"	"178.992"	"206.209"	"397.019"	"285.989"	"318.764"	"88.231"	"24.405"	"28.177"
"1988"	"6.015"	"23.441"	"101.916"	"107.979"	"396.73"	"259.414"	"479.789"	"487.278"	"226.367"	"233.019"	"35.698"	"8.683"
"1989"	"5.861"	"53.427"	"33.666"	"126.13"	"190.358"	"344.593"	"357.149"	"206.558"	"272.184"	"252.807"	"25.043"	"8.787"
"1990"	"8.824"	"52.171"	"100.407"	"229.874"	"193.531"	"488.687"	"412.673"	"190.643"	"412.465"	"97.903"	"13.036"	"8.865"
"1991"	"12.801"	"13.509"	"83.67"	"88.96"	"446.603"	"328.115"	"318.111"	"346.732"	"264.992"	"323.661"	"24.752"	"42.421"
"1992"	"15.92"	"66.075"	"80.329"	"136.9"	"228.725"	"359.382"	"447.463"	"421.604"	"239.961"	"137.572"	"8.182"	"21.014"
"1993"	"39.986"	"94.312"	"101.891"	"77.407"	"307.371"	"522.933"	"389.565"	"426.478"	"318.166"	"74.541"	"1.087"	"0.004"
"1994"	"17.738"	"49.777"	"151.675"	"146.25"	"206.999"	"390.915"	"240.153"	"354.895"	"184.941"	"145.815"	"21.977"	"3.658"
"1995"	"15.222"	"40.676"	"53.096"	"80.287"	"242.857"	"415.506"	"369.975"	"211.598"	"295.529"	"53.196"	"101.535"	"7.357"
"1996"	"9.265"	"27.552"	"175.59"	"151.131"	"497.57"	"206.389"	"448.195"	"259.842"	"114.915"	"126.546"	"4.217"	"1.628"
"1997"	"8.303"	"28.445"	"78.804"	"74.7"	"193.64"	"347.11"	"352.108"	"234.075"	"278.386"	"31.286"	"14.113"	"41.986"
"1998"	"15.844"	"71.329"	"148.327"	"92.666"	"348.78"	"290.335"	"429.097"	"335.734"	"108.567"	"68.492"	"78.838"	"0.002"
"1999"	"0.476"	"2.61"	"24.629"	"124.97"	"311.418"	"281.312"	"401.982"	"321.769"	"140.316"	"172.789"	"20.025"	"2.543"
"2000"	"26.191"	"23.185"	"83.577"	"246.996"	"341.83"	"197.78"	"299.868"	"422.017"	"228.417"	"71.986"	"6.109"	"3.419"
"2001"	"1.722"	"22.539"	"54.92"	"171.494"	"305.228"	"320.968"	"359.416"	"361.427"	"231.188"	"178.875"	"26.676"	"1.626"
"2002"	"34.675"	"8.582"	"78.265"	"265.224"	"294.878"	"437.47"	"454.687"	"273.042"	"182.543"	"54.75"	"37.624"	"1.942"
