
"Year"	"Jan"	"Feb"	"Mar"	"Apr"	"May"	"Jun"	"Jul"	"Aug"	"Sep"	"Oct"	"Nov"	"Dec"
"1901"	"6.725"	"10.488"	"23.288"	"35.56"	"23.119"	"115.546"	"294.119"	"276.865"	"181.615"	"47.31"	"1.339"	"0"
"1902"	"0.42"	"0"	"0.388"	"6.07"	"3.331"	"45.96"	"233.973"	"167.971"	"198.177"	"26.447"	"35.083"	"11.222"
"1903"	"6.643"	"1.956"	"0.173"	"4.551"	"33.348"	"132.078"	"436.611"	"334.544"	"226.037"	"138.818"	"14.095"	"8.823"
"1904"	"0.054"	"0.121"	"11.446"	"0.017"	"16.9"	"131.048"	"160.694"	"81.865"	"251.577"	"110.391"	"0.146"	"0.13"
"1905"	"0.589"	"2.293"	"8.252"	"35.02"	"17.569"	"79.937"	"96.331"	"313.522"	"361.697"	"4.95"	"0.146"	"0"
"1906"	"4.369"	"1.967"	"9.703"	"0.326"	"2.983"	"221.619"	"279.633"	"189.606"	"132.764"	"11.557"	"23.836"	"6.166"
"1907"	"0.921"	"2.758"	"2.275"	"27.166"	"0.537"	"141.804"	"221.362"	"301.701"	"83.428"	"0.735"	"4.585"	"3.344"
"1908"	"2.478"	"5.536"	"3.84"	"3.644"	"8.194"	"100.301"	"271.8"	"333.651"	"364.372"	"0.715"	"0.146"	"0.036"
"1909"	"0.265"	"2.163"	"3.161"	"42.729"	"4.311"	"134.261"	"284.987"	"174.845"	"121.895"	"1.791"	"0.146"	"7.174"
"1910"	"0"	"0"	"0.03"	"1.242"	"24.84"	"215.868"	"212.288"	"225.417"	"383.598"	"74.995"	"62.588"	"0"
"1911"	"0.384"	"0"	"7.253"	"0.017"	"6.938"	"143.352"	"177.642"	"214.626"	"262.616"	"43.712"	"6.724"	"0"
"1912"	"0"	"12.757"	"0"	"13.483"	"14.118"	"51.225"	"298.71"	"249.526"	"131.69"	"12.518"	"22.549"	"0.117"
"1913"	"0"	"19.719"	"0.846"	"13.408"	"24.167"	"112.689"	"368.18"	"182.685"	"116.238"	"44.792"	"0.453"	"12.007"
"1914"	"0"	"4.698"	"4.942"	"47.843"	"24.261"	"193.232"	"237.031"	"185.763"	"324.722"	"16.477"	"8.043"	"7.134"
"1915"	"41.834"	"2.188"	"48.975"	"19.721"	"4.954"	"185.404"	"131.003"	"205.219"	"270.738"	"89.574"	"16.947"	"1.016"
"1916"	"0"	"6.18"	"0.06"	"2.811"	"8.093"	"191.954"	"227.998"	"256.432"	"243.942"	"152.958"	"36.694"	"0"
"1917"	"0"	"32.747"	"19.892"	"22.906"	"45.447"	"183.003"	"319.525"	"171.593"	"369.323"	"139.869"	"3.44"	"0"
"1918"	"3.998"	"0.005"	"7.339"	"4.528"	"94.681"	"117.787"	"151.87"	"118.046"	"71.556"	"0.82"	"9.123"	"43.868"
"1919"	"26.816"	"11.332"	"22.117"	"7.55"	"28.194"	"161.742"	"179.868"	"142.895"	"173.931"	"121.027"	"41.184"	"0.609"
"1920"	"6.281"	"0"	"0.783"	"17.305"	"3.292"	"87.071"	"200.438"	"103.513"	"113.904"	"1.027"	"0.146"	"0"
"1921"	"4.121"	"0"	"0.008"	"8.69"	"1.934"	"281.92"	"224.204"	"185.798"	"168.14"	"23.806"	"13.815"	"0"
"1922"	"45.089"	"0"	"0"	"3.586"	"19.864"	"151.306"	"244.373"	"142.394"	"299.532"	"18.813"	"46.791"	"0"
"1923"	"1.504"	"2.574"	"20.753"	"11.738"	"1.883"	"18.972"	"280.769"	"107.552"	"300.59"	"20.954"	"0.273"	"0"
"1924"	"11.734"	"0"	"6.627"	"15.17"	"13.41"	"50.836"	"186.069"	"134.703"	"291.16"	"73.425"	"96.302"	"9.017"
"1925"	"0"	"0"	"0.009"	"20.59"	"53.174"	"158.17"	"262.432"	"216.214"	"124"	"115.531"	"26.468"	"5.266"
"1926"	"64.109"	"0.031"	"7.718"	"34.832"	"34.919"	"32.301"	"246.902"	"291.163"	"102.592"	"40.007"	"4.273"	"0.017"
"1927"	"7.209"	"4.365"	"12.248"	"14.475"	"15.235"	"272.109"	"273.435"	"152.358"	"126.814"	"99.428"	"71.344"	"0.04"
"1928"	"0"	"15.321"	"18.783"	"3.026"	"13.832"	"158.677"	"201.322"	"150.456"	"318.178"	"77.654"	"0.146"	"4.54"
"1929"	"0.072"	"29.367"	"0.397"	"18.096"	"0.403"	"141.326"	"183.271"	"148.599"	"232.224"	"16.814"	"0.146"	"6.067"
"1930"	"0"	"4.848"	"1.292"	"37.817"	"1.115"	"174.529"	"196.278"	"141.689"	"269.764"	"80.337"	"32.937"	"2.51"
"1931"	"0.039"	"0.745"	"9.415"	"4.742"	"7.585"	"160.54"	"356.941"	"197.916"	"262.975"	"223.673"	"52.427"	"2.899"
"1932"	"0"	"8.597"	"0.938"	"15.301"	"21.728"	"152.684"	"306.64"	"262.734"	"176.154"	"24.269"	"24.091"	"0"
"1933"	"23.08"	"27.739"	"7.544"	"23.231"	"58.905"	"244.349"	"259.601"	"253.321"	"313.995"	"61.632"	"8.173"	"12.784"
"1934"	"1.348"	"0"	"0.544"	"21.239"	"1.729"	"145.671"	"340.106"	"277.805"	"180.526"	"12.227"	"36.639"	"0"
"1935"	"20.592"	"6.978"	"0"	"39.311"	"0.496"	"147.798"	"352.643"	"188.715"	"216.69"	"36.841"	"0.146"	"2.706"
"1936"	"5.049"	"25.387"	"24.7"	"8.544"	"52.729"	"297.428"	"238.066"	"221.634"	"176.615"	"148.467"	"61.234"	"3.12"
"1937"	"0"	"21.767"	"23.787"	"75.923"	"0.564"	"102.631"	"299.667"	"99.831"	"173.616"	"78.703"	"0.722"	"8.775"
"1938"	"0.005"	"7.692"	"5.907"	"7.962"	"23.231"	"279.243"	"284.226"	"269.23"	"337.67"	"70.011"	"0.385"	"0.005"
"1939"	"0.182"	"0"	"20.087"	"17.715"	"0.202"	"111.06"	"136.253"	"277.528"	"94.283"	"68.594"	"4.864"	"0.006"
"1940"	"0"	"4.512"	"2.201"	"18.503"	"22.136"	"161.208"	"420.688"	"271.208"	"78.532"	"65.819"	"29.321"	"6.228"
"1941"	"5.048"	"1.21"	"10.956"	"1.002"	"21.382"	"90.082"	"117.745"	"185.314"	"203.176"	"18.221"	"0.66"	"0"
"1942"	"0.033"	"20.877"	"0.293"	"19.369"	"9.756"	"137.136"	"312.272"	"384.901"	"90.167"	"5.928"	"0.616"	"11.622"
"1943"	"48.777"	"0"	"5.699"	"12.867"	"24.464"	"165.467"	"198.88"	"157.07"	"307.787"	"50.069"	"1.041"	"0"
"1944"	"0.501"	"18.268"	"33.652"	"7.336"	"3.498"	"117.195"	"352.667"	"195.721"	"220.017"	"78.375"	"35.133"	"0"
"1945"	"16.172"	"0"	"0"	"48.077"	"3.084"	"159.671"	"292.212"	"240.152"	"228.947"	"81.949"	"3.881"	"0.092"
"1946"	"0"	"14.333"	"5.264"	"17.376"	"13.008"	"173.48"	"356.478"	"200.76"	"87.365"	"15.807"	"46.545"	"2.322"
"1947"	"11.155"	"22.58"	"4.464"	"2.512"	"7.168"	"80.638"	"332.642"	"310.702"	"315.989"	"13.953"	"5.59"	"0.842"
"1948"	"1.75"	"1.793"	"6.254"	"6.487"	"12.583"	"113.181"	"267.339"	"193.011"	"301.25"	"39.837"	"92.693"	"0"
"1949"	"10.226"	"0.83"	"0.187"	"16.487"	"40.099"	"140.796"	"405.755"	"212.796"	"370.827"	"140.464"	"0.146"	"0"
"1950"	"0"	"19.575"	"11.781"	"0.185"	"13.459"	"77.502"	"246.149"	"107.766"	"269.457"	"7.985"	"2.528"	"0.096"
"1951"	"0.051"	"0.154"	"30.619"	"40.037"	"47.399"	"139.491"	"316.086"	"142.238"	"155.348"	"126.755"	"0.171"	"0.724"
"1952"	"0"	"11.525"	"0.11"	"23.783"	"18.655"	"81.386"	"194.628"	"183.16"	"166.597"	"96.119"	"0.146"	"0.614"
"1953"	"5.133"	"1.09"	"0"	"22.184"	"0.357"	"218.647"	"232.706"	"344.44"	"278.901"	"93.666"	"0.166"	"0"
"1954"	"0"	"0"	"1.992"	"12.937"	"5.723"	"118.266"	"307.624"	"277.296"	"282.043"	"27.695"	"0.146"	"0.077"
"1955"	"3.797"	"0"	"3.144"	"18.277"	"11.976"	"217.699"	"263.698"	"376.547"	"216.444"	"136.879"	"2.217"	"0"
"1956"	"0"	"0.803"	"0.632"	"2.941"	"54.396"	"199.054"	"338.014"	"167.524"	"188.225"	"109.745"	"67.554"	"0.31"
"1957"	"1.287"	"4.048"	"27.795"	"42.938"	"23.374"	"148.607"	"240.822"	"295.135"	"86.216"	"76.013"	"0.146"	"0"
"1958"	"5.171"	"3.321"	"2.451"	"32.985"	"7.902"	"82.644"	"447.118"	"239.585"	"57.21"	"74.619"	"11.417"	"0"
"1959"	"2.95"	"0.24"	"0.318"	"19.234"	"17.082"	"213.22"	"392.253"	"344.178"	"485.177"	"78.791"	"6.896"	"0.037"
"1960"	"1.712"	"0"	"28.58"	"1.856"	"12.979"	"154.864"	"250.735"	"123.617"	"150.16"	"69.113"	"10.469"	"2.346"
"1961"	"0.011"	"0.399"	"7.411"	"12.51"	"24.887"	"132.995"	"351.38"	"275.655"	"160.514"	"177.854"	"3.59"	"0.057"
"1962"	"1.054"	"6.163"	"5.23"	"44.451"	"18.862"	"74.596"	"232.557"	"233.519"	"327.719"	"19.752"	"33.182"	"41.292"
"1963"	"0"	"2.12"	"5.005"	"16.835"	"27.748"	"181.479"	"211.63"	"446.41"	"144.521"	"117.906"	"0.146"	"0"
"1964"	"1.583"	"1.814"	"1.137"	"6.637"	"0.328"	"106.003"	"197.317"	"335.236"	"284.081"	"54.54"	"12.607"	"0"
"1965"	"3.482"	"0.89"	"1.881"	"9.182"	"4.539"	"148.084"	"349.99"	"209.304"	"260.655"	"2.302"	"0.147"	"1.874"
"1966"	"41.631"	"4.291"	"7.217"	"8.981"	"8.17"	"64.311"	"371.708"	"196.348"	"327.685"	"10.528"	"11.386"	"30.139"
"1967"	"1.945"	"1.767"	"37.598"	"4.498"	"3.961"	"169.658"	"305.227"	"170.728"	"115.084"	"15.762"	"4.51"	"25.758"
"1968"	"54.497"	"21.217"	"33.955"	"19.218"	"2.476"	"95.97"	"239.564"	"65.458"	"230.273"	"32.43"	"21.425"	"0.213"
"1969"	"1.517"	"0"	"1.104"	"15.146"	"34.518"	"113.915"	"298.37"	"179.59"	"288.939"	"19.734"	"29.769"	"2.64"
"1970"	"5.277"	"0.409"	"1.525"	"24.622"	"23.904"	"231.195"	"153.138"	"338.268"	"244.853"	"6.978"	"0.146"	"0"
"1971"	"6.036"	"0.847"	"14.736"	"5.652"	"50.255"	"160.641"	"109.936"	"217.039"	"154.852"	"134.649"	"0.146"	"0"
"1972"	"0"	"1.229"	"0.006"	"18.964"	"11.092"	"159.562"	"148.081"	"157.001"	"49.324"	"27.395"	"53.922"	"1.192"
"1973"	"0"	"0.965"	"0.382"	"14.655"	"0.288"	"84.572"	"239.378"	"403.891"	"102.807"	"317.531"	"0.501"	"0"
"1974"	"0"	"4.577"	"0.163"	"8.25"	"18.441"	"98.885"	"126.979"	"165.237"	"79.479"	"197.181"	"16.311"	"0"
"1975"	"14.578"	"16.939"	"16.144"	"2.756"	"9.072"	"177.384"	"334.601"	"222.964"	"407.029"	"124.515"	"1.11"	"0"
"1976"	"0.228"	"0"	"3.816"	"17.79"	"30.023"	"76.229"	"430.366"	"235.559"	"131.398"	"1.949"	"19.499"	"0.05"
"1977"	"0"	"0.149"	"0.679"	"20.129"	"61.668"	"57.994"	"295.67"	"262.846"	"110.115"	"34.409"	"76.8"	"2.13"
"1978"	"46.83"	"11.172"	"4.202"	"24.323"	"21.926"	"175.525"	"429.752"	"282.307"	"120.749"	"39.838"	"36.348"	"1.23"
"1979"	"18.62"	"22.152"	"0.231"	"14.507"	"56.651"	"218.528"	"191.589"	"180.267"	"251.867"	"8.771"	"47.768"	"3.723"
"1980"	"3.29"	"0.104"	"4.228"	"14.951"	"3.524"	"232.742"	"216.401"	"354.462"	"109.351"	"9.244"	"0.548"	"14.459"
"1981"	"17.671"	"0.074"	"23.619"	"11.393"	"54.252"	"187.334"	"291.05"	"278.454"	"276.386"	"25.139"	"5.214"	"4.777"
"1982"	"9.095"	"0.258"	"1.316"	"25.157"	"33.429"	"52.511"	"303.806"	"185.95"	"240.647"	"120.613"	"16.401"	"0"
"1983"	"0.008"	"1.298"	"0.281"	"0.092"	"23.175"	"189.499"	"319.78"	"414.723"	"365.865"	"132.747"	"4.704"	"7.352"
"1984"	"10.338"	"2.82"	"0.035"	"19.6"	"7.676"	"69.863"	"199.632"	"153.938"	"149.554"	"67.927"	"0.146"	"0.008"
"1985"	"16.471"	"0.316"	"12.862"	"10.583"	"7.167"	"179.203"	"291.469"	"159.119"	"68.591"	"187.658"	"0.388"	"4.071"
"1986"	"31.661"	"12.21"	"0.217"	"19.69"	"9.711"	"189.728"	"226.766"	"309.391"	"92.761"	"24.333"	"27.13"	"18.648"
"1987"	"16.54"	"1.608"	"22.233"	"3.064"	"23.31"	"122.897"	"217.284"	"239.404"	"67.091"	"85.011"	"50.066"	"3.625"
"1988"	"0"	"14.784"	"1.615"	"29.768"	"8.982"	"119.094"	"374.588"	"280.587"	"249.763"	"55.438"	"11.714"	"9.658"
"1989"	"0"	"0"	"36.416"	"0.672"	"8.794"	"148.909"	"416.564"	"223.304"	"163.158"	"41.308"	"1.617"	"7.406"
"1990"	"3.478"	"2.73"	"15.976"	"0.72"	"102.587"	"190.659"	"220.152"	"348.22"	"102.476"	"104.968"	"15.48"	"5.131"
"1991"	"9.255"	"1.116"	"0.587"	"15.39"	"7.853"	"203.241"	"262.688"	"264.027"	"109.073"	"21.043"	"16.358"	"0"
"1992"	"0.572"	"0.629"	"0"	"6.188"	"24.327"	"107.204"	"167.688"	"368.318"	"203.478"	"34.319"	"12.295"	"0"
"1993"	"0"	"2.505"	"16.409"	"6.48"	"15.415"	"121.31"	"314.96"	"233.108"	"213.794"	"154.753"	"0.149"	"5.624"
"1994"	"35.75"	"8.038"	"9.022"	"26.316"	"8.174"	"131.276"	"334.707"	"286.934"	"181.147"	"158.873"	"19.21"	"0"
"1995"	"42.022"	"0"	"42.484"	"2.135"	"32.042"	"155.584"	"366.158"	"216.432"	"238.689"	"144.959"	"15.056"	"0"
"1996"	"1.601"	"1.407"	"2.704"	"17.317"	"3.337"	"63.655"	"283.342"	"380.352"	"189.358"	"96.926"	"41.172"	"0"
"1997"	"21.571"	"0"	"7.297"	"30.171"	"10.509"	"55.983"	"242.445"	"228.663"	"136.047"	"76.299"	"73.937"	"22.796"
"1998"	"7.188"	"3.93"	"8.135"	"6.784"	"13.925"	"69.631"	"266.655"	"324.378"	"245.092"	"125.505"	"57.727"	"0"
"1999"	"0.25"	"6.468"	"0"	"2.91"	"56.529"	"90.531"	"229.461"	"263.669"	"210.297"	"81.359"	"0.154"	"0"
"2000"	"0"	"11.243"	"0"	"4.892"	"39.883"	"213.245"	"260.107"	"449.676"	"71.194"	"21.801"	"1.11"	"0.894"
"2001"	"27.877"	"0"	"29.505"	"19.383"	"18.654"	"238.726"	"137.05"	"296.14"	"92.442"	"119.916"	"5.925"	"0"
"2002"	"37.225"	"1.461"	"7.496"	"5.656"	"32.155"	"224.335"	"106.777"	"289.824"	"103.128"	"56.841"	"1.57"	"0"
