
"Year"	"Jan"	"Feb"	"Mar"	"Apr"	"May"	"Jun"	"Jul"	"Aug"	"Sep"	"Oct"	"Nov"	"Dec"
"1901"	"23.311"	"21.623"	"27.472"	"245.543"	"275.383"	"491.886"	"410.821"	"398.104"	"328.981"	"288.664"	"203.819"	"3.781"
"1902"	"3.55"	"9.239"	"32.902"	"220.03"	"296.784"	"677.39"	"595.348"	"502.508"	"301.216"	"68.049"	"17.856"	"9.527"
"1903"	"3.13"	"19.633"	"57.609"	"163.679"	"223.331"	"631.69"	"432.471"	"650.635"	"207.448"	"115.14"	"154.137"	"3.595"
"1904"	"5.72"	"65.374"	"38.803"	"435.378"	"332.209"	"387.773"	"414.583"	"431.353"	"188.622"	"107.277"	"74.029"	"3.257"
"1905"	"6.195"	"20.025"	"344.75"	"176.188"	"372.97"	"437.605"	"509.015"	"797.177"	"387.066"	"336.257"	"26.282"	"12.937"
"1906"	"9.161"	"85.18"	"37.906"	"183.637"	"186.32"	"372.687"	"663.482"	"600.057"	"292.682"	"159.636"	"57.945"	"0.011"
"1907"	"21.715"	"71.71"	"105.597"	"163.696"	"204.746"	"570.238"	"527.725"	"381.213"	"218.074"	"89.776"	"16.199"	"9.323"
"1908"	"8.705"	"15.487"	"8.174"	"140.352"	"265.132"	"447.001"	"441.162"	"283.766"	"350.727"	"109.424"	"16.178"	"3.859"
"1909"	"7.087"	"15.915"	"2.863"	"149.481"	"376.78"	"560.511"	"376.672"	"463.016"	"152.497"	"169.308"	"49.043"	"7.26"
"1910"	"7.649"	"27.428"	"144.386"	"172.292"	"309.155"	"580.646"	"659.922"	"507.61"	"239.2"	"186.16"	"62.25"	"3.194"
"1911"	"18.803"	"17.715"	"54.703"	"207.903"	"552.692"	"751.468"	"447.103"	"440.863"	"406.523"	"429.287"	"3.82"	"1.274"
"1912"	"4.046"	"62.527"	"75.514"	"165.348"	"263.346"	"520.98"	"400.887"	"456.003"	"261.231"	"312.103"	"160.146"	"17.285"
"1913"	"3.364"	"63.347"	"65.921"	"247.864"	"324.378"	"565.567"	"382.172"	"385.77"	"271.449"	"299.427"	"27.195"	"16.152"
"1914"	"2.835"	"47.351"	"38.057"	"90.031"	"440.14"	"567.377"	"392.407"	"607.595"	"166.672"	"52.001"	"21.621"	"12.533"
"1915"	"6.424"	"47.724"	"47.418"	"117.986"	"909.919"	"403.111"	"591.668"	"547.627"	"185.988"	"154.845"	"33.185"	"7.671"
"1916"	"8.554"	"13.497"	"82.124"	"205.425"	"565.405"	"485.28"	"403.104"	"549.159"	"301.944"	"451.396"	"171.563"	"1.998"
"1917"	"1.71"	"70.295"	"17.22"	"91.991"	"327.619"	"549.649"	"413.597"	"423.4"	"209.628"	"273.765"	"187.108"	"6.525"
"1918"	"1.163"	"7.508"	"79.25"	"83.221"	"414.809"	"761.007"	"598.515"	"540.661"	"312.027"	"81.148"	"7.145"	"2.547"
"1919"	"10.251"	"3.908"	"4.939"	"92.037"	"234.697"	"542.918"	"497.08"	"322.439"	"359.391"	"377.179"	"77.833"	"2.06"
"1920"	"0.795"	"30.106"	"123.119"	"109.082"	"345.437"	"375.343"	"295.454"	"585.599"	"412.97"	"120.454"	"9.341"	"1.972"
"1921"	"18.823"	"7.009"	"48.388"	"176.405"	"630.64"	"579.015"	"597.615"	"489.245"	"276.288"	"84.142"	"10.461"	"0.904"
"1922"	"6.89"	"1.407"	"66.566"	"256.391"	"171.912"	"704.37"	"393.944"	"372.408"	"229.398"	"359.115"	"13.316"	"10.894"
"1923"	"4.015"	"70.154"	"8.152"	"209.701"	"405.616"	"731.133"	"387.875"	"271.097"	"221.774"	"147.046"	"13.737"	"1.266"
"1924"	"5.419"	"8.549"	"8.885"	"226.076"	"294.319"	"602.041"	"650.521"	"511.556"	"345.3"	"155.032"	"227.959"	"0.172"
"1925"	"19.496"	"22.723"	"39.645"	"210.701"	"480.858"	"337.708"	"453.892"	"367.103"	"295.378"	"115.417"	"10.721"	"4.109"
"1926"	"15.003"	"12.209"	"79.717"	"81.393"	"158.864"	"666.568"	"521.322"	"346.682"	"223.597"	"312.596"	"9.827"	"23.759"
"1927"	"22.926"	"40.535"	"35.913"	"213.599"	"301.214"	"608.246"	"440.376"	"313.084"	"525.863"	"294.861"	"26.801"	"1.339"
"1928"	"4.405"	"21.977"	"42.814"	"83.274"	"365.025"	"583.61"	"551.065"	"344.907"	"308.452"	"300.563"	"19.582"	"0.011"
"1929"	"13.967"	"2.082"	"28.296"	"280.435"	"695.603"	"592.059"	"440.679"	"345.949"	"299.84"	"104.879"	"9.963"	"9.111"
"1930"	"12.94"	"24.859"	"51.802"	"105.199"	"334.598"	"711.433"	"295.008"	"565.399"	"237.096"	"137.928"	"219.454"	"2.145"
"1931"	"0.793"	"21.812"	"22.869"	"265.324"	"349.155"	"681.115"	"646.578"	"232.349"	"215.824"	"61.535"	"14.505"	"3.256"
"1932"	"4.568"	"24.791"	"15.895"	"89.272"	"679.23"	"538.423"	"505.055"	"693.822"	"265.573"	"99.519"	"180.23"	"3.517"
"1933"	"2.621"	"22.097"	"11.323"	"149.089"	"417.716"	"469.782"	"487.106"	"508.344"	"209.006"	"94.85"	"6.708"	"0.014"
"1934"	"15.012"	"50.94"	"9.095"	"257.187"	"263.67"	"870.463"	"616.861"	"404.961"	"264.378"	"401.433"	"27.303"	"5.877"
"1935"	"2.038"	"50.563"	"24.697"	"70.324"	"327.18"	"648.577"	"328.82"	"733.131"	"344.645"	"69.769"	"10.911"	"8.048"
"1936"	"11.194"	"36.885"	"30.286"	"118.215"	"471.484"	"516.222"	"542.26"	"326.616"	"336.004"	"274.6"	"7.626"	"17.219"
"1937"	"0.811"	"23.73"	"12.38"	"31.643"	"443.536"	"516.711"	"633.609"	"434.388"	"193.741"	"96.096"	"5.656"	"8.06"
"1938"	"25.736"	"8.204"	"75.444"	"159.204"	"543.744"	"788.976"	"599.974"	"613.325"	"504.638"	"120.266"	"63.152"	"0.019"
"1939"	"0.419"	"25.33"	"9.046"	"138.744"	"372.979"	"662.751"	"596.435"	"356.815"	"379.769"	"198.294"	"22.956"	"3.461"
"1940"	"0.003"	"66.332"	"206.145"	"21.717"	"447.826"	"468.61"	"475.325"	"392.087"	"488.505"	"131.639"	"8.551"	"3.003"
"1941"	"0.609"	"42.085"	"68.616"	"135.64"	"412.214"	"609.727"	"434.865"	"369.533"	"380.423"	"238.258"	"10.89"	"1.201"
"1942"	"18.477"	"16.021"	"128.526"	"136.857"	"423.152"	"868.691"	"268.07"	"455.787"	"403.789"	"52.828"	"25.608"	"0.32"
"1943"	"17.849"	"54.231"	"90.184"	"144.726"	"419.203"	"536.278"	"431.912"	"446.748"	"405.52"	"36.831"	"19.793"	"0.786"
"1944"	"35.546"	"8.379"	"40.986"	"62.29"	"608.657"	"455.631"	"333.828"	"345.064"	"332.448"	"155.036"	"13.507"	"4.561"
"1945"	"29.1"	"25.484"	"100.75"	"114.054"	"277.462"	"524.004"	"485.1"	"612.873"	"231.868"	"196.128"	"4.733"	"1.481"
"1946"	"2.567"	"39.988"	"76.417"	"137.276"	"325.156"	"463.619"	"500.337"	"398.647"	"307.107"	"490.094"	"20.267"	"0.904"
"1947"	"5.586"	"11.671"	"46.386"	"278.573"	"410.002"	"618.257"	"593.023"	"544.2"	"692.006"	"454.063"	"7.848"	"57.386"
"1948"	"4.756"	"93.956"	"56.562"	"328.025"	"490.736"	"378.972"	"438.418"	"447.018"	"303.975"	"179.221"	"29.385"	"2.396"
"1949"	"51.654"	"22.729"	"137.251"	"279.159"	"284.252"	"657.511"	"524.377"	"429.368"	"541.138"	"140.471"	"33"	"4.527"
"1950"	"2.699"	"60.741"	"47.305"	"92.101"	"179.116"	"471.154"	"430.681"	"493.141"	"294.091"	"245.479"	"96.869"	"3.01"
"1951"	"0.188"	"0.419"	"70.599"	"265.485"	"323.226"	"689.352"	"821.381"	"640.275"	"427.565"	"451.13"	"45.635"	"12.619"
"1952"	"10.879"	"4.875"	"52.829"	"486.817"	"314.844"	"837.566"	"676.802"	"444.757"	"515.1"	"429.165"	"121.044"	"0.239"
"1953"	"4.493"	"1.928"	"64.199"	"50.641"	"407.122"	"686.279"	"724.99"	"473.925"	"552.724"	"202.147"	"8.815"	"1.159"
"1954"	"14.222"	"57.324"	"108.483"	"102.165"	"306.95"	"1065.922"	"500.582"	"528.372"	"291.697"	"287.723"	"0.895"	"3.761"
"1955"	"1.213"	"1.403"	"175.491"	"79.864"	"277.369"	"380.821"	"852.194"	"397.257"	"289.221"	"221.325"	"179.397"	"2.329"
"1956"	"16.872"	"3.023"	"128.194"	"113.192"	"446.129"	"834.614"	"436.511"	"478.259"	"453.921"	"164.399"	"50.194"	"0.469"
"1957"	"30.379"	"61.081"	"15.227"	"73.058"	"310.929"	"464.111"	"517.248"	"682.886"	"366.399"	"104.984"	"1.942"	"2.681"
"1958"	"4.32"	"54.496"	"67.983"	"153.342"	"361.096"	"302.703"	"340.059"	"724.261"	"306.161"	"220.623"	"4.013"	"2.476"
"1959"	"32.621"	"89.905"	"260.046"	"111.075"	"409.487"	"723.731"	"500.412"	"647.382"	"296.568"	"364.051"	"1.52"	"9.95"
"1960"	"0.178"	"2.581"	"55.713"	"34.401"	"292.856"	"431.442"	"709.288"	"342.823"	"438.19"	"169.616"	"65.264"	"2.21"
"1961"	"2.929"	"21.882"	"55.867"	"138.47"	"145.428"	"752.418"	"573.015"	"677.555"	"172.897"	"189.717"	"7.808"	"3.027"
"1962"	"16.912"	"32.364"	"8.4"	"209.761"	"226.549"	"641.548"	"481.49"	"376.035"	"158.118"	"251.73"	"1.527"	"0.515"
"1963"	"0.279"	"6.17"	"70.764"	"147.423"	"315.686"	"553.074"	"556.093"	"422.996"	"191.072"	"204.05"	"6.748"	"1.157"
"1964"	"28.404"	"42.289"	"75.887"	"255.733"	"363.821"	"594.913"	"946.594"	"473.417"	"441.344"	"446.849"	"32.184"	"2.281"
"1965"	"0.57"	"17.627"	"27.304"	"32.903"	"147.496"	"748.311"	"649.224"	"751.995"	"278.569"	"116.845"	"76.255"	"43.099"
"1966"	"15.491"	"0.63"	"60.188"	"67.639"	"163.406"	"804.814"	"447.311"	"504.578"	"545.268"	"285.673"	"31.952"	"89.988"
"1967"	"36.435"	"1.767"	"120.047"	"177.654"	"161.257"	"345.898"	"430.219"	"354.655"	"424.903"	"194.289"	"2.707"	"0.654"
"1968"	"18.088"	"11.972"	"87.036"	"139.84"	"377.608"	"486.146"	"614.586"	"513.162"	"180.822"	"79.656"	"14.553"	"0.214"
"1969"	"2.897"	"0.233"	"92.435"	"263.562"	"283.438"	"891.289"	"615.748"	"615.128"	"343.232"	"54.823"	"26.47"	"0.36"
"1970"	"24.211"	"29.814"	"106.199"	"169.946"	"284.015"	"308.613"	"695.216"	"337.025"	"175.41"	"340.703"	"104.808"	"3.515"
"1971"	"7.728"	"11.868"	"4.504"	"46.256"	"90.588"	"373.292"	"474.408"	"433.649"	"230.521"	"190.31"	"86.502"	"3.928"
"1972"	"1.077"	"11.079"	"34.583"	"157.39"	"238.9"	"463.76"	"318.167"	"442.347"	"92.66"	"74.572"	"9.462"	"1.165"
"1973"	"11.864"	"32.524"	"82.34"	"130.138"	"489.472"	"604.294"	"418.146"	"258.073"	"224.342"	"174.071"	"212.771"	"22.85"
"1974"	"6.512"	"0.622"	"161.293"	"251.454"	"323.092"	"669.094"	"892.429"	"414.503"	"449.627"	"153.534"	"77.915"	"0.536"
"1975"	"1.206"	"45.669"	"15.615"	"123.183"	"250.801"	"317.608"	"651.099"	"221.944"	"334.608"	"200.532"	"145.334"	"0.641"
"1976"	"2.748"	"21.055"	"79.003"	"101.007"	"252.425"	"715.379"	"730.071"	"452.963"	"80.113"	"131.334"	"78.739"	"0.482"
"1977"	"4.89"	"95.467"	"21.398"	"492.122"	"362.653"	"530.34"	"519.53"	"243.712"	"211.207"	"120.701"	"29.541"	"14.072"
"1978"	"0.003"	"0.797"	"12.001"	"85.744"	"522.596"	"622.613"	"322.952"	"303.424"	"380.302"	"123.733"	"2.846"	"0.52"
"1979"	"7.504"	"10.294"	"67.225"	"42.062"	"145.28"	"345.15"	"313.291"	"493.485"	"373.703"	"158.144"	"37.881"	"48.93"
"1980"	"1.192"	"48.332"	"95.161"	"105.028"	"437.283"	"314.761"	"519.592"	"423.718"	"282.838"	"209.071"	"0.5"	"4.873"
"1981"	"33.077"	"16.955"	"165.138"	"450.707"	"506.633"	"506.184"	"601.366"	"377.147"	"169.741"	"13.017"	"13.553"	"60.835"
"1982"	"0.03"	"37.112"	"15.333"	"288.86"	"251.627"	"717.166"	"316.703"	"599.081"	"313.644"	"28.886"	"44.966"	"3.592"
"1983"	"20.636"	"49.993"	"173.462"	"231.681"	"261.703"	"369.041"	"522.272"	"789.974"	"375.948"	"277.868"	"39.223"	"45.329"
"1984"	"15.444"	"5.89"	"2.086"	"117.395"	"653.498"	"722.494"	"613.901"	"574.005"	"312.337"	"195.957"	"0.5"	"6.719"
"1985"	"3.575"	"13.528"	"126.942"	"204.264"	"184.013"	"499.788"	"429.231"	"396.691"	"295.135"	"51.006"	"6.093"	"2.515"
"1986"	"8.922"	"1.66"	"11.563"	"274.098"	"98.147"	"313.683"	"538.164"	"292.743"	"325.446"	"248.2"	"131.964"	"1.527"
"1987"	"3.535"	"14.187"	"78.396"	"284.022"	"106.25"	"252.408"	"677.311"	"449.258"	"447.892"	"116.183"	"57.777"	"34.666"
"1988"	"0.525"	"23.649"	"72.645"	"70.631"	"559.285"	"515.093"	"525.952"	"478.717"	"323.366"	"216.343"	"67.632"	"1.031"
"1989"	"0.433"	"25.467"	"38.672"	"137.656"	"280.131"	"428.437"	"515.9"	"149.18"	"318.352"	"304.916"	"6.018"	"3.492"
"1990"	"1.548"	"61.429"	"134.296"	"300.68"	"268.376"	"496.331"	"624.411"	"139.498"	"319.266"	"175.755"	"50.91"	"41.489"
"1991"	"11.764"	"27.944"	"120.375"	"135.686"	"439.837"	"406.728"	"404.789"	"457.868"	"263.813"	"445.508"	"16.221"	"42.696"
"1992"	"8.445"	"40.745"	"28.848"	"78.6"	"336.226"	"393.79"	"721.35"	"496.501"	"302.567"	"152.732"	"28.547"	"24.699"
"1993"	"44.885"	"45.576"	"98.317"	"100.091"	"342.964"	"701.195"	"626.29"	"474.642"	"370.579"	"85.013"	"14.162"	"0.011"
"1994"	"15.951"	"39.815"	"222.999"	"165.084"	"233.733"	"543.178"	"430.479"	"520.494"	"172.609"	"54.322"	"24.462"	"9.189"
"1995"	"16.979"	"26.788"	"11.521"	"95.178"	"316.956"	"500.38"	"582.015"	"530.421"	"271.517"	"62.74"	"120.903"	"1.288"
"1996"	"0.349"	"35.748"	"111.883"	"230.501"	"510.6"	"423.191"	"433.279"	"510.514"	"280.571"	"179.269"	"11.424"	"1.798"
"1997"	"6.526"	"7.815"	"100.63"	"128.284"	"171.898"	"335.097"	"780.175"	"383.457"	"446.051"	"55.822"	"14.905"	"35.913"
"1998"	"11.053"	"11.793"	"113.403"	"204.541"	"405.397"	"357.168"	"670.31"	"645.525"	"179.663"	"98.544"	"109.786"	"0.011"
"1999"	"9.126"	"6.638"	"29.345"	"47.026"	"445.252"	"340.953"	"504.622"	"382.472"	"139.144"	"220.979"	"16.681"	"5.524"
"2000"	"16.834"	"38.905"	"67.901"	"336.646"	"499.463"	"221.825"	"299.284"	"590.067"	"261.103"	"132.08"	"15.889"	"7.801"
"2001"	"4.061"	"12.945"	"106.118"	"153.697"	"401.628"	"458.399"	"419.017"	"639.512"	"248.79"	"232.459"	"38.539"	"3.153"
"2002"	"25.914"	"7.491"	"62.02"	"277.633"	"316.552"	"740.277"	"610.055"	"388.97"	"264.143"	"113.449"	"48.733"	"3.664"
