
"Year"	"Jan"	"Feb"	"Mar"	"Apr"	"May"	"Jun"	"Jul"	"Aug"	"Sep"	"Oct"	"Nov"	"Dec"
"1901"	"21.667"	"77.21"	"8.627"	"11.353"	"58.44"	"97.475"	"182.688"	"196.583"	"246.267"	"45.819"	"84.211"	"0"
"1902"	"11.585"	"1.13"	"8.026"	"25.82"	"50.82"	"154.125"	"278.929"	"328.323"	"220.706"	"26.027"	"1.759"	"15.269"
"1903"	"5.755"	"42.777"	"5.892"	"6.632"	"27.621"	"147.456"	"441.616"	"208.012"	"212.407"	"98.807"	"11.759"	"0.679"
"1904"	"0.186"	"6.563"	"35.594"	"1.042"	"147.346"	"234.489"	"280.819"	"459.117"	"152.721"	"77.808"	"0.495"	"3.439"
"1905"	"5.601"	"18.674"	"59.524"	"112.25"	"104.578"	"69.932"	"343.736"	"316.099"	"397.34"	"27.563"	"0.183"	"0.119"
"1906"	"5.68"	"80.321"	"28.304"	"0.286"	"13.495"	"205.232"	"357.304"	"201.68"	"173.818"	"79.511"	"19.451"	"1.047"
"1907"	"0.022"	"29.504"	"56.071"	"128.688"	"41.082"	"231.351"	"149.319"	"283.224"	"79.924"	"15.048"	"2.915"	"12.319"
"1908"	"15.791"	"11.936"	"4.569"	"9.937"	"47.957"	"361.589"	"267.684"	"371.302"	"187.415"	"55.892"	"0.183"	"0.121"
"1909"	"0.377"	"31.793"	"0.292"	"92.686"	"14.579"	"203.922"	"267.525"	"255.04"	"163.723"	"15.332"	"0.183"	"3.697"
"1910"	"11.765"	"1.921"	"16.584"	"14.55"	"19.155"	"232.59"	"354.87"	"508.376"	"164.048"	"91.882"	"13.583"	"0"
"1911"	"1.027"	"2.466"	"33.739"	"6.505"	"27.034"	"377.01"	"97.117"	"262.061"	"309.368"	"54.019"	"24.219"	"0"
"1912"	"0.065"	"50.094"	"22.658"	"22.403"	"33.497"	"140.951"	"246.336"	"291.078"	"162.528"	"49.833"	"81.158"	"0"
"1913"	"0"	"57.115"	"30.326"	"4.855"	"47.088"	"177.725"	"344.054"	"231.937"	"113.204"	"112.611"	"15.69"	"2.695"
"1914"	"0.296"	"54.083"	"19.007"	"89.951"	"59.497"	"219.586"	"231.009"	"238.423"	"261.122"	"7.242"	"0.183"	"6.008"
"1915"	"7.499"	"45.865"	"61.981"	"40.843"	"27.741"	"172.556"	"206.852"	"446.9"	"258.77"	"100.725"	"66.37"	"0"
"1916"	"0"	"7.241"	"0.292"	"7.527"	"15.019"	"388.694"	"251.867"	"313.555"	"149.255"	"148.5"	"65.9"	"0"
"1917"	"0.241"	"129.948"	"20.378"	"17.443"	"77.552"	"260.806"	"180.561"	"504.392"	"135.277"	"220.123"	"7.6"	"0.034"
"1918"	"3.386"	"0.295"	"18.842"	"15.767"	"61.034"	"300.556"	"197.656"	"344.703"	"208.976"	"8.331"	"0.645"	"1.427"
"1919"	"53.736"	"29.33"	"14.787"	"22.756"	"47.703"	"254.284"	"395.175"	"493.083"	"105.598"	"98.258"	"48.434"	"0.545"
"1920"	"0.884"	"19.274"	"74.277"	"0.286"	"32.65"	"129.036"	"305.166"	"369.804"	"140.413"	"66.455"	"0.183"	"0"
"1921"	"46.381"	"5.894"	"3.667"	"28.768"	"6.629"	"247.626"	"295.485"	"331.066"	"201.487"	"54.564"	"0.183"	"0"
"1922"	"7.247"	"6.779"	"0.292"	"9.015"	"14.344"	"280.314"	"231.635"	"356.424"	"296.95"	"51.693"	"26.082"	"0.034"
"1923"	"0"	"111.729"	"5.815"	"20.255"	"5.51"	"107.448"	"265.914"	"329.453"	"229.132"	"77.422"	"40.782"	"4.455"
"1924"	"22.728"	"15.18"	"0.514"	"14.407"	"28.043"	"56.74"	"214.284"	"284.537"	"263.207"	"83.56"	"67.345"	"0"
"1925"	"0.101"	"1.53"	"5.957"	"56.454"	"116.678"	"441.838"	"339.882"	"361.582"	"106.896"	"170.182"	"7.911"	"11.157"
"1926"	"4.317"	"5.328"	"98.348"	"38.301"	"55.006"	"126.933"	"300.748"	"339.7"	"256.708"	"61.497"	"2.517"	"1.396"
"1927"	"1.28"	"13.417"	"150.63"	"7.604"	"24.356"	"131.077"	"344.065"	"423.962"	"178.54"	"34.256"	"13.905"	"0"
"1928"	"1.136"	"4.239"	"1.171"	"71.7"	"79.82"	"228.879"	"344.273"	"303.845"	"222.241"	"197.169"	"3.629"	"0.263"
"1929"	"4.03"	"36.715"	"15.119"	"35.226"	"41.223"	"145.005"	"195.284"	"449.786"	"98.185"	"216.12"	"0.183"	"5.622"
"1930"	"0.42"	"10.211"	"3.173"	"40.067"	"88.76"	"184.113"	"455.576"	"280.055"	"203.618"	"47.214"	"67.041"	"1.321"
"1931"	"2.287"	"24.193"	"20.948"	"7.686"	"26.759"	"107.128"	"233.433"	"349.156"	"231.123"	"158.765"	"38.483"	"3.179"
"1932"	"0"	"25.048"	"3.467"	"73.782"	"62.409"	"67.222"	"283.34"	"306.748"	"182.836"	"44.45"	"79.679"	"0.2"
"1933"	"19.075"	"12.428"	"1.827"	"42.458"	"51.771"	"283.132"	"340.573"	"313.947"	"219.187"	"115.586"	"7.483"	"1.092"
"1934"	"1.289"	"10.184"	"4.313"	"11.455"	"7.391"	"228.986"	"287.145"	"411.4"	"171.22"	"60.113"	"16.922"	"0.034"
"1935"	"1.146"	"8.932"	"6.514"	"40.605"	"5.737"	"134.989"	"234.01"	"294.047"	"155.876"	"40.192"	"0.183"	"0"
"1936"	"3.596"	"71.32"	"13.318"	"10.879"	"123.656"	"451.745"	"418.764"	"328.704"	"200.631"	"127.653"	"17.525"	"1.899"
"1937"	"0"	"101.738"	"6.775"	"69.207"	"34.872"	"178.795"	"303.545"	"278.285"	"155.916"	"126.088"	"0.183"	"0"
"1938"	"7.511"	"16.03"	"2.617"	"1.803"	"148.95"	"196.514"	"151.012"	"257.784"	"348.466"	"79.803"	"6.709"	"0"
"1939"	"9.085"	"7.013"	"28.608"	"9.108"	"17.015"	"135.429"	"292.031"	"342.072"	"267.112"	"100.44"	"7.549"	"1.103"
"1940"	"0"	"39.652"	"166.57"	"26.918"	"64.879"	"257.649"	"280.487"	"429.273"	"218.282"	"50.239"	"5.261"	"1.96"
"1941"	"20.621"	"2.243"	"7.664"	"3.031"	"52.786"	"242.472"	"196.482"	"324.67"	"207.203"	"151.518"	"25.269"	"0"
"1942"	"3.969"	"39.699"	"17.514"	"54.23"	"9.872"	"114.747"	"312.891"	"377.954"	"266.036"	"60.267"	"28.091"	"0"
"1943"	"22.027"	"2.828"	"5.86"	"105.671"	"17.594"	"160.866"	"350.681"	"421.962"	"141.078"	"113.598"	"7.269"	"0"
"1944"	"19.101"	"107.258"	"143.22"	"64.813"	"25.499"	"154.654"	"293.171"	"353.015"	"156.412"	"94.121"	"2.805"	"0"
"1945"	"8.163"	"7.343"	"2.699"	"114.707"	"36.441"	"111.176"	"337.559"	"157.273"	"247.523"	"161.589"	"5.421"	"9.107"
"1946"	"0"	"4.904"	"12.338"	"33.823"	"51.461"	"302.294"	"373.501"	"434.021"	"200.87"	"125.52"	"71.913"	"0.2"
"1947"	"22.237"	"61.406"	"20.28"	"11.574"	"15.364"	"243.361"	"373.865"	"285.1"	"273.648"	"58.374"	"4.33"	"8.076"
"1948"	"14.227"	"97.247"	"29.397"	"85.223"	"27.748"	"170.206"	"249.693"	"321.588"	"234.972"	"53.845"	"74.05"	"0.2"
"1949"	"0.065"	"11.649"	"14.605"	"35.925"	"63.497"	"126.404"	"216.442"	"330.158"	"274.887"	"140.281"	"0.183"	"0"
"1950"	"0.985"	"20.427"	"64.869"	"36.724"	"20.124"	"182.223"	"245.241"	"210.595"	"67.325"	"63.817"	"49.775"	"1.134"
"1951"	"0.717"	"0.919"	"49.063"	"68.164"	"19.41"	"151.046"	"357.816"	"368.465"	"249.028"	"51.464"	"41.844"	"0"
"1952"	"0.593"	"5.859"	"40.293"	"79.016"	"22.363"	"227.315"	"262.93"	"256.738"	"172.603"	"124.722"	"0.183"	"2.036"
"1953"	"21.53"	"0.301"	"0.292"	"3.873"	"5.594"	"127.826"	"137.562"	"446.41"	"257.55"	"49.818"	"66.99"	"0"
"1954"	"0.898"	"33.008"	"1.016"	"1.254"	"47.398"	"269.534"	"50.054"	"122.539"	"282.602"	"87.694"	"0.183"	"5.675"
"1955"	"2.071"	"3.36"	"31.406"	"35.22"	"78.109"	"157.629"	"157.73"	"315.079"	"321.829"	"199.571"	"43.243"	"0"
"1956"	"1.794"	"53.838"	"12.28"	"30.687"	"97.502"	"375.632"	"609.673"	"532.286"	"295.161"	"115.058"	"20.359"	"0.848"
"1957"	"8.329"	"17.678"	"23.136"	"10.823"	"5.871"	"105.514"	"330.096"	"384.284"	"94.214"	"50.571"	"0.183"	"0"
"1958"	"17.793"	"59.355"	"14.423"	"99.87"	"10.169"	"146.053"	"522.046"	"257.353"	"219.934"	"149.188"	"69.886"	"0"
"1959"	"10.82"	"13.695"	"1.99"	"10.77"	"73.127"	"204.46"	"309.757"	"155.486"	"158.719"	"178.884"	"0.183"	"3.166"
"1960"	"0.614"	"0.292"	"28.677"	"5.81"	"35.947"	"174.041"	"461.39"	"344.026"	"111.661"	"63.894"	"0.19"	"2.236"
"1961"	"29.649"	"99.312"	"1.005"	"5.306"	"55.58"	"189.76"	"160.097"	"408.377"	"324.983"	"98.069"	"6.04"	"1.031"
"1962"	"1.696"	"20.721"	"2.916"	"7.312"	"5.687"	"161.895"	"434.827"	"178.47"	"237.47"	"192.707"	"1.234"	"3.228"
"1963"	"1.018"	"1.31"	"22.692"	"112.126"	"100.112"	"131.129"	"196.103"	"257.247"	"194.713"	"162.998"	"8.006"	"0"
"1964"	"0.561"	"41.688"	"16.316"	"55.118"	"53.476"	"94.229"	"292.89"	"465.34"	"232.899"	"65.904"	"11.01"	"0"
"1965"	"5.912"	"17.55"	"40.935"	"40.866"	"9.86"	"93.982"	"524.97"	"292.559"	"212.797"	"58.7"	"0.183"	"0.468"
"1966"	"49.477"	"21.273"	"1.19"	"1.015"	"5.913"	"193.914"	"122.507"	"215.046"	"219.841"	"58.624"	"64.025"	"2.977"
"1967"	"31.861"	"0.292"	"132.239"	"12.597"	"5.612"	"233.579"	"265.382"	"325.44"	"286.963"	"44.16"	"0.183"	"5.817"
"1968"	"13.886"	"49.585"	"6.17"	"2.675"	"10.577"	"234.189"	"378.219"	"247.156"	"246.007"	"104.811"	"35.731"	"0.531"
"1969"	"0.095"	"1.141"	"35.428"	"23.507"	"38.584"	"81.401"	"404.371"	"230.999"	"197.661"	"29.105"	"42.061"	"6.463"
"1970"	"3.275"	"59.143"	"83.779"	"7.185"	"59.154"	"332.249"	"224.103"	"316.168"	"78.955"	"70.908"	"8.693"	"0"
"1971"	"18.894"	"101.619"	"1.617"	"88.144"	"75.567"	"482.439"	"262.539"	"385.635"	"144.092"	"94.713"	"0.189"	"0"
"1972"	"1.227"	"35.431"	"0.773"	"31.429"	"5.065"	"77.16"	"197.451"	"335.06"	"268.862"	"125.019"	"27.312"	"0.2"
"1973"	"1.162"	"0.466"	"14.039"	"16.598"	"41.825"	"98.105"	"222.451"	"361.581"	"129.226"	"144.007"	"15.378"	"19.249"
"1974"	"0.129"	"1.569"	"95.9"	"1.608"	"28.57"	"133.691"	"267.406"	"261.507"	"138.208"	"151.203"	"17.528"	"0"
"1975"	"1.388"	"8.564"	"17.323"	"1.543"	"23.033"	"285.345"	"381.092"	"275.844"	"223.674"	"156.905"	"28.826"	"0"
"1976"	"1.503"	"1.637"	"3.205"	"97.534"	"40.561"	"88.066"	"445.072"	"355.413"	"257.985"	"36.991"	"34.36"	"0.25"
"1977"	"1.014"	"1.223"	"0.292"	"58.641"	"111.795"	"197.922"	"351.881"	"336.135"	"221.616"	"67.6"	"62.405"	"2.253"
"1978"	"3.323"	"35.963"	"42.137"	"42.704"	"50.879"	"187.626"	"387.904"	"384.074"	"196.322"	"71.888"	"15.199"	"24.673"
"1979"	"1.443"	"31.985"	"3.443"	"29.725"	"3.363"	"147.952"	"245.393"	"162.697"	"146.865"	"27.21"	"9.992"	"4.033"
"1980"	"36.928"	"46.55"	"41.496"	"11.85"	"32.073"	"300.056"	"335.191"	"343.687"	"225.263"	"68.579"	"0.183"	"8.649"
"1981"	"20.091"	"17.894"	"87.635"	"24.158"	"42.031"	"112.104"	"276.116"	"320.264"	"310.638"	"18.842"	"2.031"	"2.299"
"1982"	"1.987"	"13.101"	"42.841"	"47.774"	"24.293"	"135.958"	"265.228"	"399.904"	"155.818"	"16.48"	"29.807"	"0.16"
"1983"	"0.732"	"56.224"	"40.421"	"13.752"	"60.755"	"164.037"	"288.706"	"280.288"	"144.192"	"100.326"	"2.474"	"1.737"
"1984"	"15.42"	"18.382"	"3.613"	"24.146"	"54.285"	"388.924"	"267.638"	"325.482"	"99.344"	"53.427"	"1.633"	"0"
"1985"	"25.621"	"3.06"	"3.646"	"11.054"	"26.374"	"226.656"	"339.95"	"291.018"	"179.264"	"154.375"	"0.323"	"0.299"
"1986"	"24.619"	"39.403"	"2.482"	"25.104"	"33.862"	"178.497"	"341.45"	"292.807"	"285.24"	"55.049"	"82.109"	"2.323"
"1987"	"3.942"	"3.572"	"17.564"	"27.678"	"45.688"	"66.773"	"293.078"	"369.327"	"155.441"	"61.886"	"54.625"	"2.523"
"1988"	"0.645"	"25.596"	"12.08"	"26.746"	"64.426"	"86.77"	"350.671"	"282.001"	"233.927"	"56.574"	"1.258"	"0.141"
"1989"	"0.132"	"0.292"	"39.579"	"4.361"	"128.39"	"277.227"	"267.958"	"276.378"	"136.476"	"86.877"	"4.294"	"3.646"
"1990"	"0.334"	"72.025"	"80.227"	"13.8"	"94.737"	"249.825"	"508.696"	"350.197"	"161.475"	"190.538"	"26.8"	"1.556"
"1991"	"13.362"	"6.164"	"36.204"	"15.437"	"16.015"	"155.956"	"345.601"	"351.448"	"145.27"	"79.84"	"14.95"	"8.182"
"1992"	"9.017"	"7.053"	"0.292"	"6.505"	"142.64"	"151.044"	"370.983"	"241.663"	"162.035"	"42.717"	"15.653"	"0"
"1993"	"0.39"	"0.434"	"42.938"	"32.816"	"43.365"	"294.948"	"334.128"	"252.74"	"191.238"	"158.122"	"10.023"	"0"
"1994"	"3.119"	"29.083"	"44.548"	"21.922"	"23.264"	"211.843"	"378.986"	"326.234"	"207.15"	"160.07"	"11.144"	"0"
"1995"	"9.234"	"14.172"	"60.565"	"12.664"	"66.29"	"125.339"	"378.995"	"222.639"	"186.44"	"143.148"	"32.473"	"0"
"1996"	"6.873"	"10.188"	"13.379"	"32.327"	"21.661"	"190.502"	"238.717"	"331.869"	"72.783"	"82.41"	"15.213"	"0.031"
"1997"	"21.193"	"9.119"	"79.363"	"46.088"	"23.762"	"166.343"	"320.797"	"273.521"	"227.601"	"27.396"	"48.994"	"12.553"
"1998"	"10.739"	"72.224"	"12.497"	"21.899"	"50.266"	"196.589"	"244.009"	"162.701"	"238.676"	"206.842"	"83.018"	"0"
"1999"	"0.921"	"1.191"	"0.292"	"0.286"	"112.855"	"201.591"	"205.783"	"541.301"	"133.272"	"71.102"	"14.691"	"0"
"2000"	"0.696"	"96.477"	"0.292"	"32.475"	"55.934"	"327.405"	"209.8"	"274.221"	"102.152"	"38.668"	"9.04"	"0.251"
"2001"	"0.349"	"2.71"	"39.59"	"23.089"	"63.756"	"371.889"	"272.329"	"336.652"	"126.711"	"93.17"	"44.037"	"0"
"2002"	"47.366"	"10.247"	"8.244"	"34.99"	"74.464"	"181.775"	"254.313"	"381.123"	"165.352"	"39.38"	"24.003"	"0"
