
"Year"	"Jan"	"Feb"	"Mar"	"Apr"	"May"	"Jun"	"Jul"	"Aug"	"Sep"	"Oct"	"Nov"	"Dec"
"1901"	"63.852"	"57.542"	"5.333"	"17.85"	"24.25"	"71.055"	"233.417"	"299.617"	"287.648"	"23.166"	"10.109"	"0"
"1902"	"11.326"	"6.375"	"6.594"	"24.636"	"19.898"	"60.973"	"286.888"	"200.278"	"365.236"	"12.468"	"1.085"	"4.522"
"1903"	"9.526"	"19.681"	"6.949"	"7.926"	"41.416"	"104.308"	"146.132"	"202.227"	"206.604"	"118.002"	"0.339"	"0.088"
"1904"	"0.912"	"9.643"	"52.555"	"0.856"	"189.041"	"213.105"	"362.583"	"495.651"	"95.178"	"59.443"	"2.064"	"1.124"
"1905"	"10.232"	"41.883"	"57.49"	"25.486"	"33.49"	"30.546"	"400.003"	"293.851"	"437.917"	"20.979"	"0"	"2.146"
"1906"	"11.833"	"122.605"	"41.958"	"0.228"	"15.234"	"178.912"	"493.865"	"236.121"	"242.098"	"83.955"	"1.808"	"2.194"
"1907"	"0.2"	"89.208"	"48.698"	"79.767"	"25.403"	"373.704"	"188.963"	"304.366"	"141.634"	"4.64"	"0"	"5.9"
"1908"	"20.356"	"81.789"	"9.005"	"0.931"	"13.407"	"162.197"	"352.397"	"394.02"	"104.883"	"111.558"	"0.05"	"0.024"
"1909"	"2.92"	"13.351"	"0.2"	"82.542"	"11.179"	"281.392"	"393.941"	"266.922"	"180.947"	"11.549"	"0.488"	"7.629"
"1910"	"13.022"	"26.719"	"28.461"	"14.658"	"19.806"	"181.965"	"210.923"	"373.856"	"245.177"	"55.871"	"19.773"	"0"
"1911"	"7.03"	"0.587"	"41.697"	"4.717"	"20.454"	"576.629"	"74.351"	"289.901"	"278.863"	"97.917"	"39.005"	"0"
"1912"	"2.547"	"15.971"	"17.838"	"22.709"	"41.341"	"108.112"	"305.595"	"338.34"	"64.187"	"20.012"	"20.143"	"0"
"1913"	"0.2"	"86.491"	"53.953"	"3.555"	"68.137"	"381.199"	"299.675"	"373.281"	"147.244"	"94.072"	"5.036"	"13.893"
"1914"	"0.379"	"41.604"	"30.273"	"62.284"	"71.414"	"102.661"	"208.745"	"411.16"	"132.467"	"3.893"	"0"	"10.117"
"1915"	"4.067"	"59.372"	"31.65"	"6.805"	"28.878"	"104.9"	"242.978"	"298.114"	"287.505"	"50.521"	"33.449"	"0"
"1916"	"0.2"	"29.383"	"0.33"	"8.665"	"9.779"	"337.742"	"306.011"	"383.323"	"199.711"	"182.45"	"4.835"	"0"
"1917"	"1.636"	"73.045"	"12.173"	"11.784"	"89.374"	"173.68"	"284.211"	"550.322"	"133.121"	"238.904"	"1.181"	"0.72"
"1918"	"0.387"	"0.717"	"11.298"	"13.5"	"32.249"	"345.107"	"137.536"	"445.675"	"221.217"	"1.762"	"0.05"	"2.218"
"1919"	"68.874"	"24.992"	"25.637"	"30.938"	"67.837"	"273.076"	"327.598"	"546.584"	"172.881"	"119.959"	"6.364"	"0"
"1920"	"0.2"	"37.364"	"68.788"	"0.46"	"27.644"	"82.466"	"604.064"	"428.09"	"148.61"	"18.896"	"0"	"0"
"1921"	"61.121"	"20.343"	"2.792"	"10.431"	"6.418"	"319.686"	"323.711"	"526.404"	"105.235"	"4.818"	"0"	"0"
"1922"	"15.997"	"4.331"	"0.2"	"14.207"	"5.73"	"339.384"	"411.424"	"395.892"	"419.227"	"74.048"	"9.07"	"1.332"
"1923"	"0.2"	"103.19"	"3.821"	"4.089"	"2.71"	"135.864"	"436.145"	"581.472"	"237.339"	"29.819"	"8.274"	"1.477"
"1924"	"20.406"	"32.864"	"0.997"	"30.249"	"13.558"	"115.388"	"384.519"	"261.586"	"258.806"	"90.626"	"34.313"	"0"
"1925"	"10.945"	"12.178"	"8.607"	"12.286"	"33.096"	"246.402"	"338.573"	"481.297"	"150.379"	"39.344"	"12.846"	"1.61"
"1926"	"17.904"	"2.512"	"88.768"	"13.071"	"88.986"	"53.813"	"415.018"	"397.759"	"217.221"	"57.994"	"4.784"	"13.794"
"1927"	"16.654"	"94.139"	"63.828"	"4.9"	"25.379"	"100.534"	"354.225"	"405.925"	"150.263"	"43.462"	"16.521"	"0"
"1928"	"21.403"	"15.365"	"1.439"	"35.285"	"49.911"	"241.055"	"455.785"	"239.201"	"164.232"	"155.954"	"0.088"	"2.248"
"1929"	"18.792"	"15.404"	"12.888"	"10.691"	"20.307"	"116.257"	"341.146"	"339.162"	"125.239"	"268.848"	"0"	"17.202"
"1930"	"10.052"	"9.624"	"3.645"	"20.957"	"14.384"	"88.52"	"357.017"	"260.964"	"235.981"	"19.367"	"33.658"	"9.006"
"1931"	"4.717"	"108.096"	"28.601"	"2.746"	"20.89"	"88.473"	"436.102"	"401.259"	"241.938"	"85.479"	"14.905"	"3.355"
"1932"	"0.2"	"47.407"	"2.481"	"7.818"	"61.823"	"66.84"	"522.205"	"353.975"	"185.902"	"40.389"	"21.015"	"1.836"
"1933"	"39.902"	"40.462"	"3.192"	"54.257"	"51.969"	"234.828"	"251.502"	"420.441"	"181.662"	"108.701"	"0.085"	"0"
"1934"	"20.791"	"22.09"	"1.626"	"17.259"	"5.987"	"164.494"	"280.965"	"491.295"	"255.13"	"59.702"	"24.2"	"2.067"
"1935"	"3.944"	"12.761"	"6.507"	"31.673"	"1.64"	"143.32"	"340.09"	"559.916"	"224.903"	"4.746"	"0"	"0.897"
"1936"	"6.248"	"27.376"	"23.467"	"3.652"	"96.28"	"362.116"	"342.424"	"311.731"	"350.701"	"170.365"	"1.774"	"16.301"
"1937"	"0.2"	"78.744"	"7.398"	"42.348"	"31.691"	"127.249"	"402.866"	"361.94"	"249.107"	"149.55"	"0.363"	"0.381"
"1938"	"12.04"	"31.278"	"2.056"	"3.87"	"89.104"	"225.421"	"223.851"	"327.62"	"183.571"	"54.789"	"0.336"	"0"
"1939"	"10.704"	"21.77"	"16.924"	"11.559"	"6.764"	"213.455"	"467.476"	"363.167"	"267.835"	"67.569"	"0.982"	"0.278"
"1940"	"0.2"	"57.646"	"114.748"	"13.872"	"30.429"	"100.553"	"277.236"	"445.562"	"200.674"	"18.667"	"0"	"5.144"
"1941"	"28.625"	"8.444"	"15.123"	"2.712"	"32.303"	"286.696"	"285.395"	"472.254"	"217.734"	"91.913"	"11.031"	"0"
"1942"	"26.837"	"93.903"	"29.912"	"17.394"	"2.392"	"139.513"	"412.228"	"475.138"	"406.197"	"29.848"	"1.345"	"0.024"
"1943"	"31.476"	"17.137"	"4.75"	"68.347"	"40.926"	"114.742"	"467.602"	"624.677"	"227.691"	"58.588"	"0.137"	"0"
"1944"	"34.426"	"78.982"	"94.943"	"15.523"	"20.177"	"124.779"	"407.667"	"574.861"	"142.142"	"106.134"	"0"	"0"
"1945"	"48.315"	"41.212"	"1.959"	"18.429"	"43.275"	"218.837"	"251.177"	"161.861"	"306.626"	"150.003"	"0"	"3.427"
"1946"	"0.2"	"14.671"	"22.348"	"30.61"	"49.652"	"280.229"	"352.969"	"474.973"	"388.703"	"114.551"	"25.954"	"1.438"
"1947"	"37.887"	"26.803"	"31.535"	"1.702"	"18.431"	"162.662"	"330.535"	"279.229"	"377.735"	"79.211"	"0"	"8.717"
"1948"	"18.941"	"34.279"	"25.158"	"9.918"	"34.84"	"206.818"	"338.512"	"320.036"	"299.201"	"75.82"	"36.105"	"1.438"
"1949"	"3.143"	"27.097"	"20.423"	"21.882"	"83.599"	"135.08"	"305.985"	"502.012"	"193.889"	"141.878"	"0"	"0"
"1950"	"2.779"	"22.754"	"70.326"	"6.681"	"9.016"	"243.85"	"345.438"	"420.031"	"142.374"	"35.215"	"11.824"	"8.527"
"1951"	"3.758"	"3.511"	"69.441"	"46.572"	"10.393"	"147.889"	"243.791"	"323.599"	"271.013"	"79.247"	"6.566"	"0"
"1952"	"0.618"	"16.829"	"45.342"	"23.432"	"15.288"	"244.239"	"168.041"	"266.795"	"246.235"	"67.897"	"1.5"	"2.826"
"1953"	"63.088"	"7.097"	"2.79"	"7.824"	"6.535"	"136.188"	"316.663"	"411.288"	"298.398"	"14.069"	"2.991"	"0"
"1954"	"9.761"	"26.909"	"2.021"	"0.911"	"26.55"	"192.131"	"119.557"	"278.764"	"297.3"	"35.485"	"0"	"4.965"
"1955"	"8.708"	"14.951"	"4.182"	"3.848"	"7.975"	"94.997"	"252.13"	"184.617"	"171.523"	"143.404"	"9.5"	"0"
"1956"	"14.366"	"46.33"	"13.638"	"4.666"	"103.836"	"318.644"	"313.662"	"423.899"	"437.814"	"79.471"	"3.794"	"6.798"
"1957"	"57.942"	"11.622"	"19.783"	"5.348"	"2.583"	"90.978"	"451.936"	"266.357"	"203.705"	"19.509"	"0"	"0"
"1958"	"35.084"	"37.353"	"26.559"	"30.061"	"4.601"	"93.577"	"491.913"	"272.585"	"286.569"	"180.029"	"3.986"	"0"
"1959"	"65.782"	"5.059"	"1.991"	"7.991"	"29.193"	"109.528"	"318.142"	"281.236"	"214.018"	"206.099"	"0"	"0.709"
"1960"	"0.676"	"0.299"	"45.787"	"12.554"	"9.746"	"119.556"	"408.942"	"437.531"	"174.608"	"60.484"	"0.463"	"0.32"
"1961"	"33.493"	"102.454"	"0.663"	"0.684"	"19.894"	"241.765"	"214.621"	"416.643"	"292.509"	"107.013"	"0.102"	"8.156"
"1962"	"16.303"	"13.885"	"5.241"	"4.133"	"8.778"	"154.371"	"286.415"	"246.263"	"273.818"	"53.445"	"0"	"3.041"
"1963"	"4.67"	"6.576"	"40.19"	"16.671"	"101.078"	"162.122"	"282.541"	"376.64"	"227.266"	"144.809"	"11.323"	"0"
"1964"	"0.598"	"16.524"	"13.353"	"38.153"	"37.409"	"203.735"	"383.894"	"464.805"	"249.724"	"70.281"	"23.271"	"0"
"1965"	"5.536"	"11.454"	"15.571"	"51.495"	"13.665"	"68.398"	"351.08"	"228.909"	"227.345"	"49.612"	"0.183"	"3.931"
"1966"	"65.819"	"7.928"	"0.762"	"1"	"2.124"	"220.823"	"77.972"	"199.092"	"118.958"	"12.497"	"9.213"	"21.828"
"1967"	"34.495"	"0.545"	"59.497"	"14.173"	"18.217"	"156.072"	"275.561"	"472.744"	"219.899"	"22.066"	"0"	"2.965"
"1968"	"33.983"	"18.358"	"4.311"	"2.315"	"2.209"	"193.191"	"290.597"	"400.202"	"107.241"	"45.662"	"4.982"	"3.109"
"1969"	"3.934"	"6.988"	"7.448"	"26.176"	"65.619"	"116.171"	"415.845"	"372.28"	"229.34"	"18.044"	"17.794"	"0.088"
"1970"	"9.596"	"35.768"	"27.589"	"2.758"	"34.35"	"263.596"	"288.682"	"279.143"	"349.873"	"72.619"	"2.804"	"0"
"1971"	"36.813"	"35.51"	"3.477"	"62.14"	"109.387"	"467.346"	"513.681"	"568.165"	"191.412"	"115.653"	"1.97"	"0"
"1972"	"6.307"	"82.793"	"1.364"	"46.957"	"1.78"	"55.824"	"285.026"	"440.476"	"152.517"	"179.902"	"18.355"	"1.471"
"1973"	"45.056"	"5.514"	"10.46"	"4.432"	"28.347"	"209.218"	"166.582"	"345.121"	"336.521"	"191.738"	"6.436"	"13.342"
"1974"	"6.167"	"5.816"	"24.003"	"1.799"	"28.546"	"61.749"	"478.516"	"264.527"	"211.426"	"133.281"	"3.921"	"0.049"
"1975"	"51.726"	"12.638"	"32.931"	"1.463"	"24.697"	"124.077"	"508.504"	"163.957"	"208.733"	"94.846"	"5.3"	"0"
"1976"	"6.279"	"12.03"	"2.168"	"47.681"	"20.888"	"59.634"	"398.027"	"252.665"	"489.292"	"4.28"	"1.246"	"0"
"1977"	"1.984"	"17.642"	"0.225"	"68.719"	"182.975"	"230.715"	"531.348"	"341.601"	"268.136"	"61.747"	"33.147"	"16.132"
"1978"	"9.943"	"105.05"	"52.551"	"76.044"	"21.4"	"363.69"	"279.153"	"354.312"	"468.495"	"76.324"	"4.499"	"25.471"
"1979"	"17.317"	"31.392"	"1.88"	"28.716"	"6.264"	"131.414"	"351.637"	"191.509"	"170.685"	"18.837"	"18.086"	"14.379"
"1980"	"42.103"	"24.651"	"35.543"	"1.038"	"37.086"	"297.939"	"349.792"	"324.504"	"89.313"	"41.499"	"0.239"	"2.651"
"1981"	"23.918"	"25.093"	"52.489"	"24.288"	"57.886"	"55.322"	"403.59"	"188.752"	"218.211"	"0.782"	"6.879"	"7.209"
"1982"	"31.265"	"26.613"	"72.913"	"36.831"	"52.332"	"124.937"	"210.468"	"427.146"	"295.09"	"6.712"	"11.136"	"3.043"
"1983"	"6.156"	"33.009"	"24.124"	"34.29"	"83.286"	"166.32"	"294.529"	"255.702"	"138.551"	"108.068"	"0.228"	"3.028"
"1984"	"48.458"	"33.734"	"0.653"	"35.154"	"15.365"	"445.161"	"310.39"	"333.363"	"182.095"	"56.624"	"0"	"0"
"1985"	"32.654"	"5.578"	"0.277"	"8.894"	"15.19"	"124.125"	"443.034"	"324.508"	"155.485"	"127.117"	"0.036"	"1.023"
"1986"	"23.838"	"46.187"	"2.15"	"19.815"	"34.399"	"168.651"	"375.27"	"329.228"	"296.185"	"18.465"	"16.17"	"8.721"
"1987"	"3.927"	"14.511"	"11.167"	"12.46"	"28.27"	"44.99"	"317.512"	"499.78"	"444.442"	"62.273"	"18.048"	"3.56"
"1988"	"8.781"	"32.541"	"42.786"	"12.763"	"50.609"	"207.343"	"276.627"	"242.5"	"168.914"	"55.233"	"6.903"	"0.935"
"1989"	"7.272"	"0.299"	"9.626"	"0.545"	"79.087"	"248.779"	"257.283"	"294.513"	"195.531"	"93.309"	"8.554"	"27.326"
"1990"	"0.2"	"60.44"	"29.377"	"7.212"	"87.126"	"339.338"	"658.984"	"268.757"	"240.687"	"98.622"	"3.423"	"0.502"
"1991"	"16.573"	"14.276"	"52.814"	"17.387"	"25.558"	"240.059"	"247.847"	"564.406"	"217.042"	"43.592"	"2.698"	"31.959"
"1992"	"28.134"	"7.054"	"0.313"	"7.45"	"19.809"	"103.695"	"223.467"	"132.915"	"124.045"	"84.944"	"0.784"	"0"
"1993"	"7.819"	"0.331"	"24.886"	"14.177"	"40.539"	"126.894"	"216.098"	"238.48"	"309.228"	"107.35"	"3.008"	"0"
"1994"	"47.732"	"28.841"	"25.83"	"28.822"	"20.709"	"343.823"	"337.747"	"357.068"	"62.171"	"162.913"	"0.822"	"0"
"1995"	"18.09"	"21.833"	"31.511"	"3.195"	"35.63"	"48.978"	"275.609"	"242.351"	"294.616"	"40.225"	"8.633"	"0"
"1996"	"23.19"	"18.398"	"2.947"	"8.619"	"9.966"	"302.02"	"265.26"	"401.555"	"133.109"	"166.575"	"0.342"	"0"
"1997"	"36.02"	"6.024"	"10.678"	"17.348"	"92.521"	"33.398"	"298.482"	"405.399"	"152.501"	"33.96"	"21.943"	"18.283"
"1998"	"27.978"	"43.038"	"11.217"	"18.812"	"92.694"	"68.095"	"203.098"	"238.212"	"203.581"	"223.959"	"24.286"	"0"
"1999"	"21.13"	"11.432"	"0.212"	"0.228"	"56.73"	"141.298"	"298.193"	"348.691"	"224.446"	"34.154"	"3.505"	"0"
"2000"	"10.336"	"43.444"	"0.33"	"28.463"	"28.79"	"178.191"	"138.366"	"152.888"	"243.266"	"9.503"	"2.129"	"0.538"
"2001"	"1.69"	"1.961"	"50.292"	"19.524"	"26.156"	"87.663"	"221.06"	"307.208"	"61.477"	"104.495"	"3.53"	"0"
"2002"	"37.66"	"15.636"	"7.368"	"17.976"	"20.018"	"83.964"	"201.703"	"347.711"	"197.11"	"105.913"	"13.566"	"0"
