
"Year"	"Jan"	"Feb"	"Mar"	"Apr"	"May"	"Jun"	"Jul"	"Aug"	"Sep"	"Oct"	"Nov"	"Dec"
"1901"	"17.196"	"19.126"	"26.885"	"30.99"	"34.059"	"34.176"	"31.659"	"29.493"	"29.79"	"29.168"	"24.59"	"21.023"
"1902"	"19.706"	"21.633"	"28.027"	"32.099"	"33.779"	"33.049"	"31.969"	"30.586"	"29.688"	"29.391"	"24.406"	"19.655"
"1903"	"18.388"	"19.921"	"24.329"	"29.376"	"33.67"	"34.141"	"31.526"	"29.679"	"30.074"	"28.814"	"22.328"	"18.942"
"1904"	"18.494"	"21.386"	"25.194"	"31.282"	"33.621"	"33.033"	"30.118"	"29.474"	"29.815"	"28.947"	"24.051"	"19.847"
"1905"	"17.218"	"17.138"	"23.647"	"29.039"	"34.7"	"33.232"	"30.848"	"30.281"	"30.393"	"29.418"	"25.24"	"19.968"
"1906"	"17.319"	"19.041"	"24.529"	"29.88"	"34.099"	"32.894"	"30.944"	"29.621"	"29.087"	"28.817"	"24.513"	"20.284"
"1907"	"19.904"	"20.433"	"25.538"	"30.277"	"32.563"	"33.006"	"32.362"	"28.222"	"28.732"	"27.873"	"24.7"	"18.942"
"1908"	"18.523"	"20.484"	"24.954"	"30.917"	"33.217"	"33.41"	"29.44"	"28.215"	"28.626"	"28.194"	"22.869"	"18.584"
"1909"	"17.641"	"20.313"	"26.234"	"29.959"	"32.608"	"32.957"	"29.541"	"28.114"	"28.103"	"27.67"	"23.452"	"18.574"
"1910"	"18.18"	"21.117"	"25.753"	"29.689"	"32.919"	"32.839"	"29.527"	"28.661"	"29.312"	"27.511"	"22.365"	"18.902"
"1911"	"18.909"	"20.846"	"24.239"	"29.775"	"33.842"	"32.295"	"31.147"	"29.435"	"29.017"	"28.222"	"22.619"	"20.206"
"1912"	"19.74"	"22.277"	"25.501"	"30.941"	"33.919"	"33.843"	"30.478"	"28.881"	"28.636"	"28.318"	"22.778"	"19.304"
"1913"	"18.824"	"20.667"	"23.667"	"31.052"	"33.027"	"33.011"	"30.357"	"28.753"	"28.799"	"28.822"	"23.771"	"19.165"
"1914"	"19.954"	"20.115"	"25.127"	"30.506"	"34.351"	"32.896"	"30.303"	"29.073"	"29.661"	"28.903"	"25.215"	"18.566"
"1915"	"18.056"	"19.709"	"26.478"	"30.074"	"33.79"	"33.924"	"31.663"	"30.139"	"30.734"	"29.753"	"24.291"	"20.099"
"1916"	"19.765"	"19.711"	"27.334"	"30.937"	"33.312"	"32.517"	"31.323"	"29.047"	"29.341"	"27.894"	"22.012"	"18.89"
"1917"	"19.504"	"21.295"	"25.792"	"29.118"	"31.856"	"32.072"	"29.458"	"28.516"	"28.228"	"27.078"	"22.736"	"18.741"
"1918"	"17.616"	"20.992"	"25.699"	"28.982"	"33.441"	"32.309"	"30.965"	"29.73"	"29.036"	"28.048"	"24.553"	"18.716"
"1919"	"18.277"	"20.625"	"25.705"	"29.816"	"33.436"	"33.148"	"30.16"	"28.632"	"28.63"	"28.279"	"24.037"	"19.092"
"1920"	"19.104"	"20.477"	"26.553"	"30.395"	"31.815"	"31.607"	"29.687"	"28.717"	"30.277"	"29.307"	"24.637"	"18.958"
"1921"	"19.091"	"20.838"	"27.521"	"31.887"	"33.785"	"33.834"	"31.557"	"29.163"	"28.904"	"28.338"	"24.004"	"20.625"
"1922"	"18.003"	"21.907"	"26.31"	"31.491"	"33.259"	"33.262"	"30.846"	"29.011"	"28.654"	"27.95"	"23.66"	"19.046"
"1923"	"18.909"	"20.113"	"26.847"	"30.653"	"32.743"	"33.345"	"30.525"	"28.464"	"29.642"	"27.666"	"22.56"	"19.418"
"1924"	"18.121"	"21.175"	"27.812"	"31.256"	"32.861"	"33.724"	"31.265"	"29.418"	"28.587"	"27.434"	"22.168"	"19.544"
"1925"	"16.733"	"19.013"	"26.881"	"32.374"	"33.629"	"32.427"	"29.754"	"29.879"	"29.925"	"29.92"	"24.197"	"20.208"
"1926"	"19.121"	"23.037"	"26.022"	"28.819"	"32.501"	"34.198"	"31.094"	"29.341"	"28.395"	"27.441"	"22.086"	"18.8"
"1927"	"16.751"	"19.523"	"24.716"	"29.518"	"32.639"	"33.241"	"29.719"	"28.127"	"29.008"	"28.165"	"22.314"	"19.819"
"1928"	"18.502"	"20.814"	"26.415"	"30.819"	"33.529"	"32.936"	"30.419"	"28.835"	"28.45"	"27.922"	"23.464"	"18.503"
"1929"	"17.701"	"20.011"	"27.384"	"31.28"	"33.943"	"33.273"	"30.365"	"28.327"	"29.034"	"28.202"	"24.944"	"17.892"
"1930"	"18.186"	"20.396"	"26.125"	"30.16"	"33.416"	"33.22"	"29.297"	"28.618"	"30.463"	"29.366"	"23.358"	"19.958"
"1931"	"19.599"	"19.344"	"25.604"	"31.533"	"33.737"	"34.299"	"31.406"	"29.458"	"29.191"	"27.673"	"23.897"	"20.174"
"1932"	"20.652"	"21.123"	"26.425"	"30.425"	"33.501"	"32.253"	"30.261"	"28.303"	"29.396"	"29.392"	"23.433"	"20.437"
"1933"	"18.084"	"21.23"	"25.999"	"30.123"	"32.474"	"32.687"	"30.112"	"27.875"	"28.794"	"28.568"	"23.933"	"19.659"
"1934"	"16.429"	"21.749"	"25.359"	"30.797"	"33.252"	"33.143"	"29.965"	"28.821"	"28.714"	"27.722"	"23.466"	"20.54"
"1935"	"16.735"	"20.839"	"25.859"	"29.055"	"33.146"	"33.754"	"29.821"	"28.624"	"28.548"	"28.101"	"24.01"	"20.008"
"1936"	"17.755"	"21.242"	"25.265"	"30.06"	"34.226"	"31.993"	"30.222"	"29.331"	"29.222"	"28.425"	"24.205"	"19.471"
"1937"	"18.155"	"21.418"	"25.104"	"30.003"	"33.153"	"33.499"	"29.659"	"29.151"	"29.276"	"28.048"	"24.149"	"18.906"
"1938"	"18.006"	"19.786"	"27.129"	"31.179"	"33.801"	"32.372"	"30.147"	"29.253"	"29.692"	"28.753"	"22.659"	"19.963"
"1939"	"19.302"	"21.281"	"24.383"	"29.257"	"32.919"	"32.814"	"30.609"	"30.011"	"29.308"	"28.681"	"24.289"	"21.024"
"1940"	"19.86"	"21.441"	"24.697"	"29.83"	"33.959"	"33.139"	"30.758"	"28.977"	"28.949"	"28.975"	"24.762"	"19.376"
"1941"	"18.136"	"22.655"	"27.22"	"31.346"	"33.467"	"33.261"	"29.29"	"29.159"	"29.399"	"30.01"	"24.287"	"20.948"
"1942"	"18"	"21.335"	"26.918"	"31.867"	"32.941"	"33.871"	"29.747"	"28.324"	"28.528"	"28.31"	"24.102"	"18.606"
"1943"	"17.99"	"21.514"	"26.726"	"30.254"	"34.525"	"32.077"	"29.349"	"28.273"	"28.298"	"27.986"	"24.17"	"20.715"
"1944"	"18.491"	"20.371"	"25.454"	"29.665"	"33.337"	"32.82"	"29.39"	"28.173"	"29.052"	"27.784"	"24.033"	"20.202"
"1945"	"16.616"	"20.497"	"26.649"	"29.855"	"32.681"	"33.059"	"28.968"	"28.789"	"28.587"	"27.556"	"22.883"	"18.349"
"1946"	"18.413"	"22.242"	"25.457"	"31.779"	"32.705"	"32.622"	"29.818"	"27.782"	"28.498"	"28.553"	"22.164"	"18.518"
"1947"	"17.936"	"21.288"	"26.457"	"30.414"	"33.669"	"33.413"	"30.752"	"29.937"	"28.219"	"26.656"	"23.821"	"19.439"
"1948"	"17.714"	"20.466"	"26.593"	"31.511"	"34.285"	"33.536"	"31.686"	"29.107"	"29.474"	"29.26"	"23.69"	"20.213"
"1949"	"20.265"	"21.205"	"26.998"	"31.939"	"34.518"	"33.237"	"30.473"	"28.971"	"29.696"	"28.091"	"22.803"	"19.026"
"1950"	"18.944"	"18.54"	"25.653"	"30.421"	"33.337"	"33.118"	"28.925"	"28.517"	"28.625"	"29.214"	"22.93"	"18.91"
"1951"	"17.575"	"20.519"	"26.192"	"29.029"	"33.242"	"33.246"	"31.702"	"28.951"	"30.46"	"30.818"	"25.377"	"20.108"
"1952"	"19.612"	"22.497"	"26.349"	"31.588"	"34.192"	"33.098"	"29.837"	"28.126"	"28.781"	"28.944"	"23.455"	"19.858"
"1953"	"18.39"	"23.513"	"28.51"	"31.07"	"32.807"	"33.22"	"30.279"	"27.97"	"28.56"	"27.791"	"23.369"	"21.213"
"1954"	"17.694"	"22.355"	"26.63"	"31.004"	"33.717"	"33.221"	"30.253"	"29.399"	"28.144"	"26.481"	"23.499"	"19.124"
"1955"	"18.861"	"22.268"	"28.062"	"28.836"	"33.033"	"32.79"	"30.911"	"28.585"	"28.417"	"27.458"	"22.01"	"19.47"
"1956"	"18.509"	"20.67"	"27.143"	"30.98"	"33.754"	"32.551"	"27.945"	"27.693"	"28.68"	"26.183"	"22.508"	"19.319"
"1957"	"17.81"	"19.234"	"24.876"	"29.347"	"32.159"	"32.929"	"30.897"	"29.436"	"29.218"	"28.747"	"25.598"	"20.48"
"1958"	"20.632"	"21.602"	"27.356"	"32.166"	"33.99"	"33.973"	"29.965"	"30.164"	"28.05"	"27.834"	"23.887"	"20.658"
"1959"	"18.384"	"21.192"	"27.62"	"31.324"	"34.046"	"33.193"	"28.987"	"27.916"	"27.853"	"28.189"	"23.584"	"19.725"
"1960"	"18.252"	"23.083"	"24.859"	"29.739"	"32.715"	"32.546"	"30.498"	"28.461"	"29.841"	"28.736"	"23.485"	"20.554"
"1961"	"18.639"	"19.765"	"27.532"	"29.929"	"33.425"	"32.042"	"29.43"	"29.096"	"27.914"	"27.232"	"23.52"	"18.648"
"1962"	"17.445"	"22.101"	"26.117"	"30.827"	"33.89"	"32.715"	"30.107"	"29.025"	"28.661"	"26.539"	"23.853"	"20.099"
"1963"	"19.268"	"23.166"	"26.503"	"30.311"	"32.777"	"33.188"	"30.733"	"28.804"	"28.143"	"28.434"	"24.856"	"20.883"
"1964"	"16.616"	"21.376"	"27.892"	"31.815"	"33.322"	"32.291"	"29.749"	"28.738"	"29.03"	"27.668"	"22.833"	"19.354"
"1965"	"20.866"	"21.718"	"25.78"	"29.264"	"32.411"	"33.293"	"30.017"	"28.972"	"28.935"	"29.262"	"25.086"	"19.892"
"1966"	"20.17"	"23.705"	"25.497"	"29.88"	"33.123"	"32.952"	"30.856"	"29.247"	"29.094"	"29.568"	"24.636"	"19.471"
"1967"	"17.025"	"23.006"	"25.786"	"29.799"	"33.296"	"32.261"	"29.807"	"28.404"	"28.557"	"28.524"	"24.922"	"20.692"
"1968"	"17.779"	"19.779"	"26.302"	"30.542"	"32.285"	"33.828"	"31.246"	"28.471"	"29.973"	"29.328"	"24.914"	"20.142"
"1969"	"19.126"	"21.738"	"28.606"	"31.758"	"33.593"	"33.397"	"31.314"	"28.785"	"29.575"	"29.278"	"26.149"	"21.411"
"1970"	"19.394"	"21.71"	"26.362"	"31.831"	"34.474"	"32.286"	"29.865"	"28.751"	"28.371"	"28.997"	"23.101"	"19.382"
"1971"	"18.134"	"21.365"	"26.42"	"32.363"	"33.011"	"31.425"	"29.124"	"28.458"	"29.185"	"27.58"	"23.59"	"19.637"
"1972"	"18.984"	"18.291"	"27.202"	"30.061"	"33.427"	"33.589"	"30.3"	"29.403"	"29.528"	"29.085"	"24.35"	"20.076"
"1973"	"17.427"	"22.684"	"26.608"	"32.212"	"33.997"	"32.942"	"29.319"	"28.472"	"27.629"	"27.745"	"23.017"	"19.042"
"1974"	"18.214"	"19.098"	"27.769"	"31.233"	"32.51"	"32.893"	"30.968"	"30.045"	"30.711"	"29.248"	"22.847"	"19.312"
"1975"	"17.33"	"20.8"	"25.006"	"28.866"	"33.764"	"32.261"	"30.242"	"28.81"	"28.355"	"27.929"	"22.517"	"19.923"
"1976"	"19.019"	"21.013"	"25.991"	"30.737"	"33.035"	"32.479"	"29.896"	"28.188"	"27.841"	"28.916"	"26.042"	"20.366"
"1977"	"18.078"	"21.81"	"28.324"	"32.067"	"33.723"	"32.366"	"29.687"	"28.919"	"28.972"	"29.837"	"26.517"	"21.242"
"1978"	"18.033"	"21.245"	"25.206"	"32.002"	"34.336"	"32.925"	"29.557"	"28.944"	"28.441"	"28.848"	"25.566"	"20.87"
"1979"	"19.053"	"20.121"	"25.251"	"30.503"	"32.872"	"34.28"	"30.579"	"28.481"	"30.002"	"28.994"	"25.749"	"21.027"
"1980"	"18.767"	"21.995"	"26.573"	"29.96"	"34.276"	"32.277"	"30.467"	"29.291"	"29.816"	"30.012"	"25.33"	"20.146"
"1981"	"19.474"	"21.656"	"26.661"	"32.15"	"33.846"	"34.091"	"29.828"	"28.609"	"29.999"	"28.804"	"22.409"	"20.167"
"1982"	"19.111"	"20.472"	"24.811"	"30.557"	"31.615"	"33.047"	"30.956"	"29.074"	"29.647"	"29.758"	"24.494"	"20.499"
"1983"	"17.892"	"19.692"	"25.001"	"29.132"	"33.602"	"33.411"	"30.525"	"28.845"	"29.602"	"27.442"	"22.169"	"19.012"
"1984"	"17.114"	"18.364"	"27.305"	"31.973"	"34.117"	"32.913"	"29.734"	"27.686"	"27.899"	"27.329"	"23.61"	"19.914"
"1985"	"17.883"	"20.576"	"28.029"	"30.934"	"33.813"	"32.798"	"30.205"	"28.565"	"29.61"	"27.971"	"24.982"	"21.165"
"1986"	"19.059"	"21.078"	"26.471"	"31.623"	"33.621"	"32.859"	"30.409"	"28.165"	"29.779"	"29.334"	"25.316"	"19.196"
"1987"	"19.712"	"22.321"	"27.163"	"31.495"	"33.129"	"33.975"	"32.104"	"31.594"	"31.385"	"31.06"	"26.198"	"21.285"
"1988"	"20.73"	"23.373"	"26.652"	"32.37"	"34.498"	"33.923"	"29.927"	"29.167"	"30.407"	"28.89"	"24.334"	"21.216"
"1989"	"17.83"	"20.8"	"25.961"	"30.682"	"33.678"	"32.338"	"29.907"	"28.25"	"29.48"	"28.834"	"25.744"	"20.31"
"1990"	"20.853"	"21.373"	"25.048"	"31.239"	"33.847"	"33.025"	"30.017"	"28.436"	"28.524"	"28.167"	"24.658"	"20.373"
"1991"	"18.236"	"20.844"	"26.703"	"31.064"	"33.546"	"34.373"	"30.631"	"28.896"	"28.765"	"27.68"	"24.626"	"20.626"
"1992"	"19.086"	"19.413"	"25.691"	"29.455"	"33.656"	"34.298"	"30.697"	"28.753"	"27.88"	"28.352"	"24.063"	"21.593"
"1993"	"19.745"	"22.467"	"25.619"	"31.067"	"34.096"	"33.944"	"30.242"	"30.142"	"29.919"	"29.817"	"25.721"	"21.837"
"1994"	"20.367"	"20.851"	"28.34"	"30.699"	"34.229"	"32.636"	"28.607"	"29.042"	"28.918"	"27.862"	"24.712"	"20.19"
"1995"	"18.235"	"21.635"	"25.254"	"30.16"	"34.11"	"34.485"	"30.773"	"29.392"	"29.834"	"29.934"	"24.324"	"21.204"
"1996"	"19.326"	"22.323"	"28.519"	"31.125"	"33.185"	"32.636"	"30.406"	"28.302"	"28.823"	"28.451"	"23.779"	"20.577"
"1997"	"18.411"	"21.106"	"26.61"	"29.439"	"32.233"	"32.176"	"30.463"	"28.712"	"29.038"	"27.521"	"25.149"	"19.445"
"1998"	"18.895"	"21.008"	"25.909"	"32.043"	"34.637"	"33.698"	"30.258"	"30.044"	"29.613"	"30.156"	"23.917"	"20.098"
"1999"	"18.263"	"22.471"	"26.387"	"31.611"	"32.75"	"31.875"	"30.12"	"28.757"	"30.085"	"28.389"	"24.872"	"20.161"
"2000"	"19.501"	"20.095"	"25.791"	"32.337"	"33.129"	"33.407"	"29.8"	"29.665"	"29.738"	"29.8"	"25.13"	"21.077"
"2001"	"18.4"	"21.344"	"26.808"	"31.06"	"33.504"	"31.052"	"28.619"	"28.863"	"30.252"	"29.983"	"25.014"	"20.963"
"2002"	"19.157"	"20.757"	"27.222"	"31.972"	"34.409"	"33.432"	"30.392"	"29.054"	"29.864"	"29.897"	"24.922"	"21.242"
