
"Year"	"Jan"	"Feb"	"Mar"	"Apr"	"May"	"Jun"	"Jul"	"Aug"	"Sep"	"Oct"	"Nov"	"Dec"
"1901"	"0.743"	"0"	"0.892"	"0"	"20.105"	"7.864"	"69.045"	"80.739"	"3.408"	"7.379"	"0.029"	"0.927"
"1902"	"0.004"	"0"	"0"	"0"	"5.699"	"24.744"	"28.738"	"132.928"	"155.71"	"0.01"	"0.029"	"0.117"
"1903"	"0.533"	"0.394"	"2.632"	"0"	"6.14"	"0.949"	"285.909"	"87.928"	"60.86"	"0.027"	"0.029"	"0"
"1904"	"4.597"	"0.614"	"6.041"	"0"	"0.153"	"12.998"	"115.946"	"12.627"	"10.958"	"0.691"	"0.029"	"0.114"
"1905"	"0.637"	"0.455"	"4.994"	"0.249"	"0"	"2.603"	"348.821"	"5.137"	"29.975"	"0.01"	"0.029"	"0.339"
"1906"	"0.002"	"22.809"	"14.784"	"0"	"0"	"85.001"	"132.165"	"138.595"	"156.124"	"6.821"	"0.029"	"0.565"
"1907"	"0.469"	"6.821"	"2.746"	"5.415"	"0.011"	"60.473"	"141.775"	"376.432"	"21.226"	"0.01"	"0.029"	"0"
"1908"	"5.329"	"0.225"	"0"	"0"	"0.217"	"6.936"	"485.713"	"274.325"	"11.369"	"0.12"	"0.1"	"0"
"1909"	"0.258"	"0.006"	"0"	"3.806"	"1.217"	"31.374"	"209.89"	"240.598"	"121.106"	"0.559"	"0.029"	"3.354"
"1910"	"2.004"	"0"	"0"	"1.625"	"0.516"	"245.5"	"130.694"	"228.008"	"3.552"	"1.229"	"0.029"	"0"
"1911"	"2.686"	"0"	"60.279"	"0"	"0"	"89.78"	"6.666"	"6.598"	"26.272"	"0.01"	"1.295"	"0"
"1912"	"0"	"0"	"0"	"0.016"	"0"	"47.218"	"222.467"	"173.987"	"38.107"	"36.918"	"5.978"	"0"
"1913"	"0"	"0"	"0.425"	"0"	"8.361"	"168.806"	"370.093"	"224.91"	"95.601"	"0.01"	"0.348"	"0.814"
"1914"	"0"	"4.141"	"0.713"	"0.011"	"2.608"	"99.948"	"312.56"	"72.538"	"86.668"	"5.289"	"1.907"	"0"
"1915"	"4.412"	"2.901"	"14.197"	"0"	"0"	"31.705"	"66.269"	"5.08"	"16.34"	"49.306"	"0.029"	"0"
"1916"	"0"	"0"	"0"	"0"	"4.588"	"69.393"	"34.566"	"402.662"	"134.568"	"18.917"	"0.029"	"0"
"1917"	"0"	"14.89"	"0.332"	"1.272"	"45.145"	"67.901"	"222.641"	"386.458"	"304.257"	"29.096"	"0.029"	"0.662"
"1918"	"0"	"0"	"0.303"	"0"	"6.28"	"48.356"	"19.324"	"234.136"	"30.288"	"0.01"	"0.067"	"1.173"
"1919"	"5.24"	"0"	"0"	"2.373"	"4.758"	"40.769"	"259.849"	"485.686"	"26.86"	"0.01"	"2.376"	"0.272"
"1920"	"0.191"	"0.8"	"0"	"0"	"40.579"	"176.893"	"158.253"	"42.251"	"3.832"	"0.01"	"0.029"	"0"
"1921"	"0"	"0"	"0"	"0"	"0"	"3.133"	"434.744"	"108.246"	"217.456"	"0.299"	"0.029"	"0"
"1922"	"0"	"0.045"	"0"	"0.076"	"0"	"27.022"	"170.83"	"161.94"	"208.55"	"0.01"	"0.892"	"0"
"1923"	"0.01"	"3.374"	"0"	"12.973"	"2.365"	"0.728"	"73.55"	"75.553"	"8.989"	"5.139"	"0.029"	"0"
"1924"	"3.146"	"0"	"0"	"0"	"8.104"	"44.99"	"269.053"	"127.389"	"225.406"	"0.03"	"0.029"	"0.176"
"1925"	"0"	"0"	"0"	"0"	"1.05"	"184.576"	"78.684"	"34.661"	"0.883"	"0.021"	"0.891"	"0"
"1926"	"2.516"	"0"	"4.616"	"1.049"	"31.112"	"1.63"	"210.041"	"256.205"	"422.596"	"0.01"	"0.029"	"0"
"1927"	"0"	"7.544"	"0"	"0"	"1.304"	"64.094"	"630.369"	"158.139"	"40.474"	"5.011"	"0.055"	"15.997"
"1928"	"0"	"0"	"0"	"0"	"0"	"3.724"	"198.573"	"78.198"	"106.59"	"25.691"	"35.418"	"0"
"1929"	"4.212"	"0"	"0"	"1.415"	"2.442"	"60.267"	"203.388"	"168.651"	"0.924"	"0.01"	"10.981"	"4.221"
"1930"	"10.391"	"0"	"0"	"0.404"	"0.586"	"56.027"	"193.356"	"53.179"	"5.736"	"38.586"	"0.029"	"0.002"
"1931"	"0"	"0.996"	"0.033"	"0.002"	"4.365"	"1.44"	"55.802"	"422.445"	"19.056"	"26.74"	"0.049"	"0.188"
"1932"	"0"	"0"	"0.926"	"0.045"	"0.207"	"7.137"	"261.396"	"91.788"	"35.294"	"4.267"	"0.029"	"0"
"1933"	"0"	"1.255"	"1.149"	"0.987"	"44.073"	"26.359"	"174.925"	"470.875"	"77.671"	"0.506"	"0.952"	"0"
"1934"	"0"	"0"	"4.638"	"0"	"0"	"176.152"	"214.033"	"291.718"	"20.79"	"0.339"	"0.029"	"0"
"1935"	"11.187"	"0.006"	"0.033"	"4.364"	"0.258"	"20.225"	"235.049"	"37.399"	"110.662"	"8.504"	"0.029"	"0"
"1936"	"0"	"2.235"	"2.043"	"0.096"	"0"	"34.973"	"80.03"	"6.974"	"135.064"	"0.01"	"21.066"	"1.44"
"1937"	"0"	"4.312"	"0"	"0"	"0"	"136.427"	"453.98"	"2.553"	"218.948"	"1.604"	"0.029"	"5.419"
"1938"	"0.004"	"0"	"0.001"	"0"	"4.984"	"115.573"	"203.557"	"105.501"	"5.139"	"0.085"	"0.029"	"0"
"1939"	"0"	"3.981"	"13.59"	"0.045"	"0"	"5.02"	"36.27"	"118.221"	"50.612"	"0.127"	"0.029"	"0"
"1940"	"8.413"	"1.538"	"4.217"	"1.325"	"0"	"121.603"	"92.428"	"114.078"	"9.048"	"0.434"	"24.551"	"0"
"1941"	"0.037"	"16.81"	"0.242"	"0"	"1.779"	"8.625"	"421.823"	"126.661"	"13.336"	"0.316"	"0.029"	"1.937"
"1942"	"0.886"	"7.005"	"0"	"0.583"	"23.483"	"81.079"	"145.583"	"149.273"	"25.812"	"0.01"	"0.029"	"0.02"
"1943"	"0.033"	"0"	"0"	"0.436"	"0.204"	"89.221"	"390.945"	"41.113"	"65.171"	"0.459"	"0.104"	"0"
"1944"	"1.997"	"0.048"	"0.19"	"0.033"	"2.486"	"70.875"	"456.089"	"361.166"	"5.001"	"0.735"	"0.029"	"0"
"1945"	"5.052"	"0"	"0"	"0.35"	"4.987"	"112.131"	"308.713"	"166.987"	"163.075"	"0.428"	"0.029"	"0"
"1946"	"0"	"3.299"	"0"	"0.705"	"2.343"	"100.394"	"160.996"	"321.956"	"71.295"	"0.444"	"11.01"	"3.913"
"1947"	"0.434"	"0"	"0"	"0.095"	"0"	"2.627"	"123.719"	"177.894"	"178.966"	"5.927"	"1.353"	"0"
"1948"	"3.85"	"0.221"	"0.306"	"0"	"0.009"	"17.74"	"164.877"	"27.115"	"36.356"	"3.147"	"12.385"	"0.403"
"1949"	"0.025"	"0"	"0"	"0"	"0"	"28.677"	"144.884"	"168.114"	"49.001"	"1.027"	"0.059"	"0"
"1950"	"0"	"0"	"0"	"0"	"0"	"10.097"	"474.699"	"39.474"	"176.277"	"0.01"	"0.029"	"0"
"1951"	"0"	"0"	"0.039"	"0.284"	"0.206"	"15.343"	"142.585"	"117.262"	"1.874"	"3.545"	"8.428"	"0"
"1952"	"0"	"0.202"	"0"	"0"	"0"	"65.088"	"338.987"	"86.329"	"0.883"	"0.539"	"0.029"	"0"
"1953"	"4.209"	"0"	"0"	"0"	"0.016"	"87.737"	"95.056"	"304.679"	"9.909"	"0.01"	"0.029"	"0.519"
"1954"	"1.35"	"0.5"	"5.133"	"0"	"0"	"64.572"	"203.453"	"159.771"	"199.809"	"0.154"	"0.188"	"0"
"1955"	"0.249"	"0"	"0.922"	"0"	"0.026"	"25.415"	"13.092"	"207.537"	"251.838"	"7.123"	"0.029"	"0.041"
"1956"	"0.025"	"0.014"	"0.087"	"0"	"0.008"	"146.9"	"440.89"	"227.676"	"67.288"	"43.776"	"0.055"	"1.582"
"1957"	"4.903"	"0"	"0.752"	"0.887"	"4.712"	"102.966"	"66.629"	"142.469"	"0.897"	"2.19"	"5.576"	"0.108"
"1958"	"1.954"	"0"	"0"	"0.433"	"0"	"19.835"	"179.025"	"95.706"	"170.864"	"52.44"	"4.482"	"0.223"
"1959"	"0.249"	"0.024"	"0"	"1.7"	"0.017"	"33.693"	"400.964"	"142.552"	"317.159"	"28.189"	"7.341"	"0"
"1960"	"1.034"	"0"	"0"	"0.006"	"0.923"	"52.788"	"127.642"	"79.702"	"6.005"	"0.087"	"0.029"	"0.985"
"1961"	"0.02"	"1.502"	"0"	"0.469"	"0.102"	"126.23"	"250.088"	"80.307"	"278.448"	"6.182"	"0.029"	"0"
"1962"	"0"	"0"	"14.416"	"0"	"0.821"	"16.296"	"108.615"	"105.715"	"74.067"	"0.01"	"0.083"	"0.411"
"1963"	"0"	"0"	"0.202"	"0.042"	"0.135"	"10.626"	"95.62"	"141.746"	"221.132"	"7.496"	"31.62"	"2.052"
"1964"	"0"	"0"	"0"	"0"	"1.651"	"50.739"	"240.237"	"209.956"	"42.586"	"0.041"	"0.029"	"0.041"
"1965"	"11.992"	"0"	"2.135"	"0.678"	"1.994"	"0.863"	"275.887"	"94.555"	"17.884"	"0.01"	"0.039"	"0"
"1966"	"0.032"	"0.298"	"0"	"0"	"2.139"	"62.545"	"126.773"	"14.616"	"190.381"	"0.01"	"0.029"	"0"
"1967"	"0"	"0"	"49.35"	"0.006"	"0.021"	"65.035"	"311.454"	"125.705"	"86.181"	"11.189"	"0.029"	"6.814"
"1968"	"0.77"	"0"	"1.681"	"0"	"0.016"	"0.736"	"150.611"	"100.839"	"5.419"	"0.01"	"0.029"	"0"
"1969"	"0.025"	"1.624"	"0"	"0"	"0"	"22.613"	"127.308"	"38.451"	"8.067"	"0.01"	"5.193"	"0.017"
"1970"	"0.006"	"0.093"	"1.462"	"2.16"	"0.016"	"27.547"	"54.353"	"171.792"	"226.397"	"51.378"	"14.32"	"0"
"1971"	"0"	"0.011"	"0"	"0.01"	"3.093"	"86.593"	"227.848"	"66.761"	"69.348"	"0.718"	"0.029"	"0"
"1972"	"0"	"2.71"	"0"	"0.084"	"0.422"	"35.185"	"120.058"	"126.463"	"0.945"	"0.01"	"0.029"	"0"
"1973"	"4.107"	"0.262"	"0"	"0"	"3.35"	"115.319"	"145.841"	"317.186"	"205.893"	"14.124"	"0.029"	"0.245"
"1974"	"0"	"0"	"0"	"0"	"32.246"	"5.235"	"25.563"	"30.699"	"13.058"	"6.884"	"0.029"	"1.829"
"1975"	"0.516"	"0"	"0"	"0"	"0.016"	"161.507"	"238.777"	"244.493"	"184.798"	"83.551"	"0.029"	"0"
"1976"	"8.008"	"0.6"	"0.075"	"0.011"	"0"	"80.263"	"146.822"	"235.69"	"72.605"	"0.01"	"31.551"	"0"
"1977"	"13.669"	"0.989"	"0"	"0.235"	"36.206"	"194.336"	"445.604"	"95.977"	"90.443"	"0.01"	"0.046"	"0"
"1978"	"0"	"2.96"	"0.002"	"0.074"	"0"	"110.815"	"228.3"	"199.748"	"15.493"	"1.057"	"49.277"	"0.291"
"1979"	"0"	"12.14"	"0"	"0"	"3.037"	"21.733"	"92.949"	"171.866"	"12.68"	"28.91"	"49.767"	"0.16"
"1980"	"0"	"0.723"	"0"	"0"	"0.016"	"177.444"	"120.423"	"113.112"	"8.471"	"0.01"	"2.021"	"21.044"
"1981"	"0.316"	"0.24"	"8.174"	"0.001"	"7.787"	"18.232"	"163.175"	"220.077"	"105.322"	"1.007"	"57.561"	"0"
"1982"	"0.193"	"0.302"	"0.495"	"0.06"	"44.913"	"19.196"	"251.953"	"92.393"	"0.886"	"0.335"	"82.859"	"0.046"
"1983"	"0.114"	"0.225"	"0"	"4.625"	"6.607"	"29.675"	"128.551"	"159.656"	"81.302"	"28.749"	"0.029"	"0"
"1984"	"0"	"0"	"0.002"	"0.01"	"0"	"8.721"	"117.352"	"386.127"	"25.369"	"0.01"	"0.029"	"0.015"
"1985"	"0"	"0"	"0.005"	"0.69"	"6.767"	"56.293"	"137.292"	"145.801"	"7.431"	"20.558"	"0.029"	"0"
"1986"	"0"	"0.206"	"0.57"	"0.695"	"11.824"	"140.71"	"72.574"	"117.859"	"0.906"	"1.002"	"0.029"	"0.095"
"1987"	"1.023"	"1.207"	"11.302"	"0"	"9.134"	"20.235"	"19.949"	"95.905"	"0.896"	"0.02"	"0.035"	"12.529"
"1988"	"1.022"	"0"	"1.847"	"4.59"	"0"	"28.161"	"286.817"	"175.538"	"71.063"	"0.763"	"0.029"	"0"
"1989"	"2.067"	"0"	"0.512"	"0"	"0.008"	"47.554"	"146.228"	"227.491"	"10.649"	"0.01"	"0.029"	"0"
"1990"	"0"	"3.372"	"0"	"0"	"21.394"	"10.327"	"124.829"	"319.211"	"132.544"	"8.192"	"0.031"	"16.381"
"1991"	"0.256"	"0.002"	"0"	"0"	"0.911"	"18.436"	"215.679"	"48.791"	"33.316"	"6.076"	"0.042"	"1.392"
"1992"	"1.048"	"3.807"	"0.212"	"0"	"0.364"	"19.939"	"146.519"	"108.686"	"130.96"	"0.289"	"2.3"	"0"
"1993"	"0"	"4.14"	"0.001"	"0.054"	"2.409"	"24.832"	"335.788"	"37.832"	"60.117"	"7.789"	"16.61"	"0.058"
"1994"	"7.428"	"0"	"2.471"	"0.037"	"0.141"	"49.538"	"282.958"	"242.693"	"366.213"	"0.01"	"0.029"	"0"
"1995"	"2.249"	"0.138"	"0.213"	"0.761"	"0.233"	"9.397"	"220.127"	"53.723"	"36.425"	"20.76"	"2.3"	"2.567"
"1996"	"0.837"	"0.041"	"0.006"	"0.357"	"3.691"	"149.192"	"224.801"	"191.708"	"44.752"	"37.227"	"0.029"	"0"
"1997"	"8.661"	"0"	"3.862"	"3.543"	"14.59"	"114.831"	"84.345"	"239.772"	"72.729"	"17.853"	"9.145"	"0.006"
"1998"	"0.002"	"1.547"	"11.62"	"1.47"	"0.009"	"96.793"	"219.616"	"132.811"	"305.067"	"55.467"	"0.031"	"0"
"1999"	"0.849"	"3.316"	"0"	"0"	"10.905"	"107.578"	"150.12"	"49.433"	"7.539"	"37.257"	"0.029"	"0"
"2000"	"0"	"0.35"	"0"	"0.068"	"12.802"	"31.84"	"287.656"	"71.506"	"2.452"	"0.01"	"0.797"	"0"
"2001"	"0"	"0"	"0.002"	"1.615"	"35.941"	"189.157"	"178.953"	"103.421"	"2.766"	"18.143"	"1.475"	"0"
"2002"	"0"	"0.003"	"0"	"0.008"	"0.16"	"83.285"	"47.623"	"51.875"	"35.23"	"0.01"	"2.45"	"1.984"
