
"Year"	"Jan"	"Feb"	"Mar"	"Apr"	"May"	"Jun"	"Jul"	"Aug"	"Sep"	"Oct"	"Nov"	"Dec"
"1901"	"66.296"	"57.932"	"6.906"	"14.959"	"10.148"	"68.999"	"212.018"	"287.899"	"222.919"	"17.667"	"5.496"	"0"
"1902"	"14.154"	"8.232"	"1.402"	"9.216"	"3.262"	"31.162"	"267.214"	"177.083"	"339.116"	"5.322"	"1.81"	"4.194"
"1903"	"7.36"	"12.496"	"4.165"	"2.615"	"26.05"	"83.876"	"188.574"	"194.883"	"161.884"	"98.13"	"0.552"	"0.139"
"1904"	"2.783"	"10.331"	"45.692"	"0.139"	"105.408"	"130.99"	"321.432"	"564.728"	"85.246"	"61.668"	"2.106"	"1.993"
"1905"	"11.781"	"25.57"	"47.452"	"17.529"	"12.019"	"28.032"	"349.11"	"326.002"	"429.192"	"7.454"	"0"	"2.886"
"1906"	"8.869"	"97.882"	"36.015"	"0.12"	"5.228"	"171.214"	"554.019"	"252.176"	"220.952"	"63.954"	"1.592"	"3.298"
"1907"	"0.202"	"97.022"	"36.45"	"73.344"	"10.138"	"414.201"	"188.196"	"342.237"	"120.575"	"1.441"	"0.724"	"5.8"
"1908"	"19.87"	"81.352"	"9.512"	"0.975"	"4.101"	"80.43"	"295.539"	"412.808"	"86.291"	"105.848"	"0"	"0.148"
"1909"	"2.238"	"9.878"	"0.189"	"63.999"	"4.249"	"257.123"	"450.767"	"226.493"	"148.085"	"1.445"	"0"	"7.196"
"1910"	"14.65"	"9.77"	"25.795"	"10.051"	"7.418"	"166.34"	"206.895"	"395.436"	"211.401"	"46.194"	"30.22"	"0"
"1911"	"10.92"	"0.351"	"36.839"	"0.522"	"9.613"	"542.208"	"70.241"	"314.765"	"266.446"	"90.787"	"54.413"	"0"
"1912"	"2.095"	"21.012"	"5.138"	"15.138"	"20.382"	"55.226"	"323.569"	"359.886"	"62.984"	"8.807"	"17.923"	"0.046"
"1913"	"0.202"	"92.36"	"51.174"	"0.838"	"33.044"	"327.33"	"301.499"	"380.412"	"132.032"	"77.381"	"5.17"	"17.363"
"1914"	"2.36"	"24.625"	"30.523"	"51.376"	"35.097"	"86.693"	"158.527"	"444.646"	"125.091"	"2.939"	"0"	"7.657"
"1915"	"8.831"	"70.128"	"21.441"	"4.451"	"12.244"	"46.52"	"246.792"	"282.809"	"259.063"	"46.882"	"39.296"	"0.049"
"1916"	"0.202"	"35.713"	"0.117"	"4.181"	"3.182"	"258.458"	"333.493"	"370.732"	"132.239"	"134.611"	"3.301"	"0"
"1917"	"2.567"	"61.974"	"8.217"	"7.01"	"48.764"	"152.993"	"286.263"	"599.164"	"116.671"	"211.83"	"0.263"	"1.077"
"1918"	"0.202"	"1.261"	"9.219"	"2.555"	"13.89"	"362.202"	"139.249"	"476.058"	"188.888"	"1.102"	"0.263"	"1.055"
"1919"	"72.992"	"22.499"	"25.988"	"19.741"	"37.395"	"276.924"	"346.178"	"543.239"	"172.017"	"122.479"	"4.455"	"0.589"
"1920"	"0.202"	"30.53"	"50.119"	"0.877"	"14.315"	"63.22"	"630.078"	"422.371"	"101.053"	"5.272"	"0"	"0"
"1921"	"64.497"	"25.367"	"0.272"	"4.143"	"0.468"	"347.266"	"349.32"	"539.523"	"94.193"	"4.889"	"0"	"0"
"1922"	"20.372"	"1.536"	"0.117"	"10.341"	"1.501"	"290.268"	"435.875"	"380.287"	"347.852"	"69.691"	"15.097"	"1.14"
"1923"	"0.284"	"89.932"	"1.525"	"3.493"	"0.585"	"125.118"	"453.464"	"614.217"	"232.625"	"15.539"	"9.647"	"0.684"
"1924"	"22.942"	"35.696"	"1.593"	"26.125"	"7.652"	"63.229"	"410.677"	"235.795"	"234.623"	"83.35"	"35.81"	"0.251"
"1925"	"3.608"	"7.611"	"7.062"	"3.549"	"20.661"	"176.354"	"321.515"	"560.783"	"124.589"	"17.864"	"17.931"	"1.573"
"1926"	"11.299"	"2.39"	"77.427"	"10.94"	"51.607"	"47.837"	"365.051"	"391.239"	"215.222"	"52.741"	"6.841"	"14.972"
"1927"	"13.031"	"62.762"	"66.216"	"0.572"	"10.41"	"51.085"	"411.788"	"471.989"	"128.095"	"42.648"	"22.948"	"0.153"
"1928"	"16.489"	"21.591"	"1.724"	"25.602"	"23.133"	"141.241"	"454.926"	"207.187"	"141.721"	"152.143"	"0.096"	"3.422"
"1929"	"33.31"	"17.85"	"4.697"	"6.445"	"10.541"	"103.998"	"387.064"	"383.001"	"99.216"	"228.783"	"0"	"23.604"
"1930"	"8.12"	"2.975"	"4.119"	"19.556"	"4.739"	"51.59"	"322.952"	"237.148"	"223.36"	"19.363"	"40.877"	"12.177"
"1931"	"2.584"	"94.895"	"24.966"	"1.651"	"5.173"	"55.174"	"456.866"	"461.631"	"191.2"	"81.217"	"20.453"	"4.416"
"1932"	"0.202"	"33.35"	"0.645"	"5.462"	"25.506"	"72.829"	"599.663"	"392.094"	"154.695"	"29.797"	"19.647"	"1.973"
"1933"	"28.243"	"44.79"	"4.191"	"43.649"	"26.769"	"201.541"	"223.745"	"427.182"	"153.519"	"86.337"	"0.944"	"0.853"
"1934"	"19.399"	"6.674"	"1.483"	"10.933"	"0.473"	"145.072"	"316.523"	"539.878"	"217.502"	"49.407"	"32.875"	"1.141"
"1935"	"4.802"	"8.705"	"3.268"	"24.747"	"0.631"	"127.933"	"402.442"	"594.897"	"202.976"	"2.887"	"0"	"0.084"
"1936"	"5.795"	"34.895"	"23.223"	"3.078"	"49.999"	"374.68"	"383.312"	"359.7"	"271.281"	"159.218"	"3.629"	"14.308"
"1937"	"0.202"	"74.555"	"8.51"	"39.352"	"13.191"	"77.71"	"462.686"	"348.856"	"199.403"	"128.394"	"0"	"0"
"1938"	"25.288"	"28.444"	"1.406"	"4.635"	"40.068"	"199.251"	"254.317"	"350.951"	"194.795"	"57.778"	"0.891"	"0"
"1939"	"14.357"	"21.079"	"19.418"	"8.67"	"0.884"	"217.951"	"482.33"	"326.018"	"227.472"	"45.797"	"0.72"	"0.148"
"1940"	"0.473"	"61.306"	"97.537"	"13.349"	"13.035"	"65.871"	"298.581"	"483.42"	"143.781"	"13.714"	"1.09"	"6.368"
"1941"	"30.428"	"12.21"	"16.349"	"0.52"	"17.881"	"264.785"	"253.237"	"430.018"	"186.521"	"58.675"	"4.096"	"0"
"1942"	"38.477"	"87.779"	"29.766"	"14.831"	"1.5"	"147.293"	"432.344"	"496.691"	"330.577"	"9.502"	"0.946"	"0.124"
"1943"	"26.276"	"14.209"	"2.244"	"49.487"	"25.116"	"82.677"	"453.798"	"682.276"	"211.641"	"57.37"	"0.412"	"0"
"1944"	"30.916"	"84.393"	"95.22"	"12.196"	"9.911"	"88.925"	"453.681"	"580.872"	"134.46"	"101.576"	"0.281"	"0.015"
"1945"	"39.384"	"36.787"	"0.232"	"10.221"	"22.054"	"232.677"	"289.391"	"154.073"	"281.655"	"118.055"	"1.01"	"4.662"
"1946"	"0.202"	"20.54"	"21.043"	"25.406"	"24.637"	"289.16"	"407.098"	"529.714"	"321.516"	"82.747"	"29.78"	"2.045"
"1947"	"31.637"	"19.55"	"29.111"	"1.419"	"4.784"	"124.024"	"340.926"	"263.092"	"338.173"	"71.252"	"0.841"	"6.658"
"1948"	"20.043"	"23.389"	"12.624"	"6.436"	"16.925"	"214.714"	"352.749"	"313.396"	"299.96"	"55.964"	"42.671"	"1.956"
"1949"	"2.016"	"27.07"	"16.191"	"7.995"	"41.214"	"67.31"	"292.465"	"567.28"	"158.217"	"146.932"	"0"	"0"
"1950"	"8.411"	"30.383"	"70.06"	"2.383"	"1.47"	"165.93"	"371.234"	"466.081"	"108.516"	"16.633"	"3.899"	"12.087"
"1951"	"6.948"	"5.041"	"60.566"	"39.619"	"5.072"	"120.052"	"232.819"	"322.007"	"220.376"	"70.523"	"1.369"	"0"
"1952"	"0.876"	"18.627"	"41.202"	"10.66"	"7.006"	"225.567"	"124.002"	"265.653"	"231.522"	"50.546"	"0"	"5.107"
"1953"	"48.063"	"0.685"	"0.117"	"8.094"	"1.679"	"108.484"	"353.598"	"455.551"	"241.842"	"10.945"	"1.978"	"0.052"
"1954"	"10.524"	"27.534"	"2.929"	"0.953"	"8.663"	"136.974"	"130.334"	"295.333"	"253.511"	"26.601"	"0"	"1.867"
"1955"	"17.477"	"14.718"	"5.124"	"2.987"	"3.696"	"54.599"	"267.144"	"193.399"	"111.986"	"114.387"	"2.153"	"0.009"
"1956"	"19.636"	"24.487"	"7.496"	"1.685"	"62.826"	"277.667"	"351.448"	"470.576"	"402.576"	"56.969"	"5.203"	"9.145"
"1957"	"43.704"	"3.588"	"21.389"	"4.276"	"2.268"	"89.862"	"491.022"	"294.431"	"150.63"	"7.717"	"0"	"0.131"
"1958"	"34.007"	"21.424"	"27.127"	"25.689"	"1.969"	"74.551"	"538.791"	"278.052"	"260.196"	"173.822"	"3.311"	"0.015"
"1959"	"59.245"	"4.586"	"0.181"	"1.769"	"16.061"	"87.175"	"361.604"	"291.546"	"176.324"	"161.593"	"0"	"0.612"
"1960"	"4.757"	"0.258"	"40.971"	"12.372"	"4.574"	"110.435"	"388.143"	"461.264"	"140.898"	"55.301"	"0"	"0.286"
"1961"	"37.87"	"69.457"	"2.442"	"1.115"	"8.358"	"244.316"	"262.245"	"417.71"	"228.299"	"99.254"	"1.3"	"11.375"
"1962"	"14.954"	"15.699"	"5.797"	"2.44"	"2.546"	"144.412"	"310.909"	"257.447"	"275.874"	"33.736"	"0.688"	"7.039"
"1963"	"9.656"	"7.442"	"38.45"	"10.189"	"56.459"	"116.637"	"290.047"	"432.858"	"192.908"	"91.169"	"9.171"	"0.015"
"1964"	"0.578"	"17.663"	"10.281"	"25.073"	"18.071"	"214.795"	"338.767"	"521.297"	"232.521"	"63.675"	"29.139"	"0"
"1965"	"5.908"	"1.589"	"14.68"	"41.619"	"7.426"	"56.851"	"366.404"	"180.244"	"188.015"	"36.485"	"0.015"	"4.995"
"1966"	"52.734"	"5.398"	"0.597"	"1.062"	"2.255"	"232.537"	"83.146"	"182.961"	"72.324"	"4.693"	"7.439"	"26.383"
"1967"	"31.416"	"0.258"	"58.181"	"8.139"	"8.574"	"139.142"	"301.048"	"510.051"	"221.839"	"14.359"	"0"	"14.738"
"1968"	"31.315"	"15.118"	"2.709"	"2.828"	"1.359"	"100.563"	"252.074"	"349.806"	"91.819"	"33.5"	"1.558"	"4.157"
"1969"	"3.061"	"5.799"	"2.358"	"12.464"	"37.93"	"102.062"	"477.917"	"355.792"	"214.746"	"7.083"	"18.755"	"4.177"
"1970"	"16.637"	"33.389"	"21.274"	"1.656"	"20.34"	"260.825"	"302.162"	"306.016"	"345.909"	"43.411"	"0.272"	"0"
"1971"	"30.127"	"12.731"	"3.534"	"38.639"	"62.012"	"468.851"	"495.744"	"574.536"	"113.701"	"97.043"	"0.054"	"0"
"1972"	"11.741"	"93.449"	"1.197"	"41.014"	"0.794"	"52.55"	"304.883"	"415.931"	"111.35"	"168.6"	"27.469"	"1.997"
"1973"	"31.305"	"3.007"	"2.146"	"3.083"	"3.325"	"145.584"	"160.931"	"351.957"	"217.962"	"171.529"	"2.138"	"3.027"
"1974"	"3.956"	"7.773"	"5.338"	"0.465"	"12.211"	"62.589"	"511.943"	"249.06"	"109.309"	"108.887"	"5.702"	"0.006"
"1975"	"34.594"	"15.057"	"33.853"	"0.839"	"11.632"	"112.451"	"558.59"	"143.763"	"167.842"	"79.131"	"5.334"	"0"
"1976"	"13.973"	"8.237"	"0.869"	"41.052"	"5.821"	"57.005"	"397.228"	"243.677"	"470.519"	"2.254"	"2.777"	"0.154"
"1977"	"8.291"	"6.602"	"0.373"	"58.377"	"105.122"	"177.896"	"529.995"	"361.689"	"258.543"	"53.442"	"45.575"	"10.811"
"1978"	"15.432"	"103.955"	"44.169"	"63.61"	"5.43"	"401.474"	"248.821"	"370.905"	"389.415"	"56.187"	"1.661"	"33.156"
"1979"	"17.568"	"24.243"	"0.234"	"20.142"	"2.017"	"158.312"	"355.699"	"188.818"	"133.835"	"13.297"	"26.138"	"10.589"
"1980"	"36.478"	"21.219"	"21.854"	"1.186"	"13.023"	"294.107"	"371.155"	"323.901"	"77.999"	"25.406"	"0"	"3.6"
"1981"	"23.915"	"13.516"	"45.175"	"10.484"	"25.218"	"42.828"	"400.155"	"187.118"	"186.11"	"1.634"	"10.273"	"6.66"
"1982"	"40.853"	"24.319"	"69.655"	"22.229"	"33.189"	"130.142"	"234.854"	"440.705"	"301.551"	"4.701"	"20.252"	"4.494"
"1983"	"4.828"	"25.066"	"15.755"	"28.053"	"45.412"	"153.494"	"294.951"	"244.609"	"126.756"	"86.962"	"0.264"	"2.872"
"1984"	"44.884"	"38.445"	"0.291"	"26.021"	"6.501"	"368.488"	"306.961"	"311.378"	"147.946"	"47.727"	"0.011"	"0"
"1985"	"25.236"	"4.106"	"0.347"	"4.496"	"6.774"	"116.014"	"435.632"	"355.164"	"133.476"	"122.83"	"0"	"0.069"
"1986"	"26.605"	"53.94"	"2.138"	"13.726"	"15.462"	"161.113"	"359.033"	"388.511"	"152.515"	"4.593"	"10.737"	"13.864"
"1987"	"9.371"	"18.346"	"10.781"	"2.87"	"14.117"	"38.891"	"292.142"	"510.17"	"515.463"	"54.594"	"20.491"	"3.495"
"1988"	"8.896"	"27.715"	"41.494"	"10.74"	"27.784"	"246.201"	"278.499"	"198.385"	"143.328"	"40.282"	"0.812"	"1.32"
"1989"	"4.752"	"0.303"	"12.942"	"0.396"	"42.421"	"248.201"	"259.225"	"317.935"	"144.649"	"62.544"	"11.641"	"37.342"
"1990"	"0.202"	"73.903"	"24.365"	"3.369"	"40.18"	"354.862"	"612.408"	"315.372"	"190.774"	"81.378"	"1.292"	"0.67"
"1991"	"24.794"	"12.898"	"47.731"	"16.128"	"11.331"	"231.183"	"241.219"	"575.814"	"165.66"	"24.51"	"2.79"	"35.909"
"1992"	"29.152"	"6.448"	"0.128"	"6.182"	"8.068"	"59.575"	"173.285"	"136.764"	"96.146"	"82.06"	"1.893"	"0"
"1993"	"9.074"	"0.98"	"16.95"	"2.152"	"24.26"	"47.08"	"184.738"	"197.143"	"250.272"	"90.728"	"0.876"	"0"
"1994"	"56.373"	"17.059"	"29.542"	"20.124"	"7.896"	"365.052"	"352.132"	"364.075"	"46.083"	"138.192"	"0.626"	"0"
"1995"	"16.245"	"15.542"	"34.637"	"1.571"	"17.839"	"46.379"	"274.033"	"241.78"	"207.747"	"22.32"	"6.516"	"0.261"
"1996"	"28.511"	"15.613"	"2.239"	"4.035"	"3.854"	"284.887"	"297.326"	"366.543"	"115.007"	"145.836"	"1.378"	"0"
"1997"	"31.562"	"0.863"	"7.014"	"8.21"	"49.949"	"25.502"	"236.357"	"396.965"	"93.754"	"26.098"	"31.89"	"22.913"
"1998"	"20.855"	"27.474"	"7.65"	"12.696"	"54.984"	"32.378"	"194.224"	"246.589"	"160.449"	"179.564"	"29.521"	"0"
"1999"	"26.463"	"13.692"	"0.117"	"0.116"	"25.9"	"121.685"	"295.629"	"330.313"	"113.046"	"28.149"	"0.506"	"0.007"
"2000"	"10.145"	"36.893"	"0.123"	"17.244"	"8.297"	"179.441"	"130.026"	"132.564"	"219.917"	"6.093"	"0.271"	"0.047"
"2001"	"2.036"	"0.395"	"43.775"	"15.424"	"9.191"	"48.831"	"240.492"	"337.337"	"42.666"	"84.986"	"2.562"	"0"
"2002"	"41.56"	"12.885"	"7.314"	"9.179"	"9.66"	"52.387"	"164.387"	"343.304"	"149.886"	"98.781"	"16.406"	"0.047"
