
"Year"	"Jan"	"Feb"	"Mar"	"Apr"	"May"	"Jun"	"Jul"	"Aug"	"Sep"	"Oct"	"Nov"	"Dec"
"1901"	"18.108"	"21.879"	"26.913"	"31.968"	"31.934"	"31.693"	"29.278"	"28.685"	"28.547"	"27.7"	"22.426"	"18.644"
"1902"	"19.59"	"21.914"	"28.382"	"29.988"	"31.349"	"31.093"	"28.766"	"29.073"	"28.813"	"26.906"	"22.187"	"18.408"
"1903"	"19.279"	"21.173"	"27.199"	"31.734"	"33.381"	"30.74"	"29.782"	"28.576"	"28.489"	"26.911"	"21.785"	"17.821"
"1904"	"18.688"	"21.559"	"27.543"	"32.04"	"31.017"	"29.98"	"28.284"	"28.653"	"28.659"	"26.817"	"22.116"	"19.218"
"1905"	"18.449"	"19.32"	"25.304"	"28.662"	"30.427"	"32.679"	"28.766"	"28.656"	"28.336"	"26.972"	"22.37"	"18.62"
"1906"	"18.515"	"21.205"	"25.116"	"32.028"	"32.723"	"31.193"	"29.193"	"28.502"	"28.822"	"26.878"	"22.428"	"19.121"
"1907"	"19.79"	"21.409"	"25.116"	"29.065"	"31.464"	"30.536"	"28.936"	"28.524"	"28.7"	"27.112"	"22.504"	"18.224"
"1908"	"17.702"	"21.738"	"27.399"	"33.35"	"32.326"	"30.646"	"28.694"	"28.323"	"28.602"	"27.172"	"21.844"	"17.788"
"1909"	"20.292"	"21.817"	"28.302"	"29.06"	"32.238"	"29.436"	"28.698"	"27.886"	"28.532"	"26.786"	"23.151"	"18.891"
"1910"	"18.519"	"21.296"	"27.067"	"31.279"	"31.963"	"30"	"28.661"	"28.402"	"28.549"	"26.695"	"21.692"	"17.651"
"1911"	"20.524"	"21.102"	"26.241"	"30.832"	"32.312"	"29.694"	"29.492"	"28.477"	"28.264"	"26.777"	"22.521"	"17.388"
"1912"	"19.271"	"22.701"	"27.126"	"29.639"	"31.431"	"30.937"	"28.669"	"28.473"	"28.743"	"26.783"	"21.667"	"17.945"
"1913"	"18.603"	"21.646"	"25.677"	"32.212"	"30.874"	"28.563"	"28.844"	"28.107"	"28.64"	"26.264"	"21.38"	"18.053"
"1914"	"18.87"	"22.394"	"26.708"	"29.001"	"30.77"	"29.807"	"28.51"	"28.371"	"28.393"	"26.223"	"22.398"	"18.909"
"1915"	"19.307"	"21.769"	"26.143"	"30.981"	"31.724"	"30.167"	"29.583"	"29.137"	"28.43"	"28.18"	"24.09"	"18.652"
"1916"	"18.6"	"21.999"	"28.313"	"31.251"	"34.05"	"29.452"	"28.911"	"28.523"	"28.554"	"27.158"	"22.425"	"17.917"
"1917"	"18.272"	"21.564"	"26.144"	"30.605"	"30.109"	"29.757"	"28.818"	"28.331"	"28.17"	"26.848"	"22.149"	"18.118"
"1918"	"17.7"	"21.59"	"27.675"	"29.914"	"30.748"	"28.692"	"29.942"	"28.144"	"28.788"	"27.141"	"22.664"	"18.333"
"1919"	"19.881"	"20.995"	"27.881"	"30.634"	"32.063"	"29.971"	"28.849"	"28.561"	"28.387"	"26.827"	"22.569"	"18.386"
"1920"	"19.276"	"21.593"	"26.564"	"30.941"	"31.998"	"32.057"	"29.043"	"28.541"	"28.464"	"27.261"	"22.685"	"18.37"
"1921"	"19.528"	"21.577"	"28.048"	"31.34"	"33.852"	"30.861"	"29.158"	"28.242"	"28.428"	"25.975"	"21.642"	"19.23"
"1922"	"19.165"	"22.158"	"28.105"	"31.895"	"33.058"	"29.26"	"28.766"	"28.21"	"27.934"	"25.852"	"22.179"	"18.526"
"1923"	"18.901"	"21.463"	"26.515"	"31.323"	"32.7"	"31.898"	"28.82"	"28.114"	"28.788"	"26.445"	"22.254"	"19.17"
"1924"	"19.225"	"22.014"	"28.655"	"32.294"	"32.88"	"32.577"	"28.856"	"28.527"	"27.92"	"27.084"	"22.059"	"18.269"
"1925"	"17.744"	"20.487"	"26.771"	"30.083"	"31.728"	"30.489"	"28.323"	"28.741"	"28.421"	"26.176"	"22.15"	"18.156"
"1926"	"18.529"	"22.316"	"25.877"	"29.837"	"31.947"	"33.096"	"28.827"	"28.344"	"28.312"	"26.506"	"21.282"	"19.086"
"1927"	"19.11"	"21.501"	"25.425"	"31.595"	"31.359"	"31.262"	"28.873"	"28.43"	"28.679"	"27.182"	"22.553"	"19.248"
"1928"	"19.36"	"22.287"	"28.297"	"30.761"	"31.86"	"29.632"	"28.604"	"28.813"	"29.099"	"27.344"	"22.611"	"19.102"
"1929"	"19.314"	"20.814"	"27.177"	"30.904"	"33.191"	"31.592"	"28.43"	"28.278"	"28.562"	"26.189"	"21.953"	"18.078"
"1930"	"18.021"	"21.326"	"27.433"	"30.965"	"32.029"	"30.965"	"28.59"	"28.325"	"28.583"	"27.349"	"21.866"	"17.927"
"1931"	"20.165"	"21.643"	"26.31"	"32.134"	"31.746"	"32.349"	"28.685"	"28.873"	"28.524"	"26.915"	"21.932"	"18.952"
"1932"	"19.962"	"21.062"	"27.877"	"31.098"	"32.364"	"31.112"	"28.662"	"28.492"	"28.589"	"27.54"	"22.354"	"19.161"
"1933"	"17.647"	"22.105"	"27.286"	"29.634"	"31.733"	"30.107"	"28.535"	"27.965"	"28.393"	"26.714"	"22.123"	"18.685"
"1934"	"18.302"	"21.261"	"27.183"	"31.239"	"32.609"	"30.338"	"29.007"	"28.407"	"28.581"	"26.511"	"21.546"	"19.03"
"1935"	"18.277"	"21.991"	"27.655"	"30.184"	"33.997"	"32.099"	"29.138"	"28.041"	"28.464"	"26.827"	"22.26"	"18.801"
"1936"	"18.58"	"21.734"	"28.096"	"31.703"	"30.786"	"29.256"	"28.655"	"28.732"	"28.142"	"26.446"	"22.829"	"19.34"
"1937"	"17.598"	"21.293"	"26.264"	"30.47"	"31.323"	"30.231"	"29.025"	"28.431"	"28.494"	"26.454"	"22.1"	"18.002"
"1938"	"20.276"	"20.412"	"29.151"	"32.675"	"30.225"	"29.659"	"28.772"	"28.306"	"29.106"	"27.379"	"21.814"	"18.278"
"1939"	"19.875"	"22.731"	"26.719"	"32.17"	"32.666"	"30.982"	"28.491"	"27.899"	"28.385"	"27.102"	"22.252"	"19.184"
"1940"	"18.56"	"21.795"	"25.633"	"31.258"	"32.133"	"31.367"	"28.597"	"28.507"	"28.715"	"27.519"	"24.429"	"19.436"
"1941"	"19.497"	"22.268"	"28.907"	"32.36"	"32.301"	"30.474"	"28.844"	"28.78"	"28.865"	"26.557"	"22.281"	"20.155"
"1942"	"19.261"	"21.937"	"28.077"	"30.933"	"33.952"	"32.349"	"28.826"	"27.874"	"27.874"	"26.909"	"23.512"	"19.009"
"1943"	"20.236"	"20.418"	"27.308"	"29.443"	"32.647"	"30.363"	"28.582"	"28.176"	"28.685"	"27.704"	"22.855"	"20.18"
"1944"	"19.611"	"21.701"	"26.665"	"29.249"	"34.025"	"32.013"	"28.549"	"28.391"	"28.862"	"26.722"	"22.57"	"20.313"
"1945"	"18.474"	"21.142"	"28.103"	"29.759"	"31.853"	"31.409"	"29.167"	"29.056"	"28.796"	"26.285"	"22.244"	"18.15"
"1946"	"19.307"	"23.788"	"27.743"	"28.151"	"31.244"	"30.424"	"28.561"	"28.483"	"28.396"	"26.604"	"23.35"	"19.813"
"1947"	"19.806"	"22.045"	"27.784"	"32.931"	"32.979"	"31.698"	"29.077"	"28.518"	"28.671"	"26.858"	"23.131"	"19.507"
"1948"	"20.681"	"22.379"	"26.428"	"31.427"	"31.837"	"31.217"	"28.335"	"28.115"	"28.649"	"26.968"	"23.228"	"18.033"
"1949"	"19.646"	"21.607"	"27.603"	"29.173"	"29.849"	"31.015"	"28.822"	"28.89"	"28.499"	"27.561"	"21.469"	"18.188"
"1950"	"19.865"	"21.925"	"26.714"	"31.46"	"32.471"	"30.486"	"28.655"	"28.132"	"28.497"	"26.445"	"21.892"	"19.068"
"1951"	"18.787"	"22.323"	"27.329"	"31.334"	"32.94"	"31.248"	"28.833"	"29.336"	"29.357"	"28.237"	"23.059"	"20.242"
"1952"	"20.253"	"23.761"	"27.472"	"29.128"	"31.837"	"31.158"	"28.522"	"28.37"	"28.529"	"27.049"	"22.761"	"19.659"
"1953"	"19.159"	"23.277"	"29.607"	"32.166"	"32.961"	"30.505"	"28.558"	"28.387"	"28.439"	"27.227"	"22.572"	"20.822"
"1954"	"18.428"	"23.981"	"27.543"	"33.337"	"32.831"	"29.836"	"28.852"	"28.449"	"28.425"	"26.007"	"20.985"	"19.2"
"1955"	"19.284"	"22.229"	"28.813"	"30.967"	"33.49"	"31.143"	"28.594"	"28.307"	"28.924"	"26.955"	"22.985"	"18.945"
"1956"	"19.94"	"21.201"	"27.983"	"31.864"	"32.377"	"28.555"	"28.453"	"28.437"	"28.253"	"26.87"	"22.24"	"19.832"
"1957"	"19.93"	"21.26"	"26.376"	"31.699"	"35.058"	"31.93"	"28.732"	"28.886"	"28.859"	"27.452"	"22.704"	"20.185"
"1958"	"21.148"	"22.425"	"28.121"	"32.262"	"34.43"	"33.274"	"29.62"	"28.553"	"28.682"	"28.128"	"23.399"	"20.448"
"1959"	"19.929"	"21.534"	"27.31"	"31.798"	"33.348"	"30.653"	"29.154"	"28.556"	"28.212"	"27.329"	"22.19"	"19.05"
"1960"	"19.162"	"23.637"	"26.278"	"32.412"	"32.961"	"31.371"	"28.366"	"28.655"	"28.514"	"27.184"	"21.879"	"19.436"
"1961"	"19.949"	"20.249"	"28.561"	"32.188"	"32.992"	"30.404"	"28.605"	"28.776"	"28.393"	"26.676"	"21.691"	"17.06"
"1962"	"17.954"	"22.15"	"27.195"	"31.238"	"32.121"	"30.638"	"29.65"	"28.588"	"28.662"	"26.425"	"22.498"	"19.531"
"1963"	"18.351"	"23.487"	"27.356"	"30.463"	"30.751"	"30.48"	"29.034"	"28.826"	"28.947"	"27.415"	"23.894"	"19.884"
"1964"	"19.895"	"22.921"	"28.7"	"31.316"	"31.383"	"31.829"	"28.256"	"28.598"	"28.722"	"27.334"	"22.915"	"19.726"
"1965"	"20.099"	"22.319"	"26.014"	"30.594"	"33.055"	"32.252"	"28.741"	"28.459"	"28.582"	"27.126"	"23.449"	"18.894"
"1966"	"19.1"	"23.799"	"27.911"	"32.321"	"33.927"	"31.368"	"29.36"	"28.766"	"28.554"	"26.692"	"23.723"	"18.842"
"1967"	"19.835"	"23.578"	"26.164"	"29.605"	"32.42"	"31.721"	"29.105"	"28.382"	"28.459"	"27.052"	"22.396"	"20.843"
"1968"	"19.424"	"21.752"	"27.696"	"31.027"	"33.344"	"29.046"	"28.561"	"28.38"	"29.361"	"26.483"	"22.368"	"21.032"
"1969"	"19.036"	"23.194"	"28.967"	"31.577"	"31.354"	"31.283"	"28.839"	"27.969"	"28.256"	"27.038"	"23.625"	"19.235"
"1970"	"19.647"	"22.449"	"27.224"	"31.78"	"33.021"	"30.044"	"28.816"	"28.693"	"28.173"	"26.927"	"22.057"	"18.263"
"1971"	"19.002"	"21.469"	"26.054"	"27.802"	"28.949"	"29.177"	"27.467"	"27.281"	"28.264"	"26.777"	"21.771"	"18.84"
"1972"	"18.702"	"19.509"	"27.11"	"31.036"	"33.456"	"31.42"	"28.908"	"28.142"	"27.608"	"26.61"	"22.296"	"19.157"
"1973"	"19.812"	"22.649"	"25.829"	"31.568"	"30.843"	"29.468"	"28.823"	"28.41"	"27.926"	"26.79"	"22.458"	"18.626"
"1974"	"18.042"	"21.437"	"27.086"	"30.662"	"31.089"	"30.997"	"28.432"	"28.675"	"28.379"	"27.353"	"22.848"	"17.462"
"1975"	"18.707"	"21.935"	"27.25"	"30.94"	"32.174"	"30.641"	"27.741"	"28.313"	"28.024"	"27.785"	"22.396"	"18.478"
"1976"	"19.201"	"22.824"	"27.946"	"30.59"	"30.512"	"30.926"	"29.123"	"28.306"	"28.2"	"27.731"	"24.733"	"19.414"
"1977"	"18.987"	"22.01"	"28.712"	"30.214"	"29.211"	"29.541"	"28.662"	"28.942"	"28.846"	"26.896"	"24.072"	"18.006"
"1978"	"18.152"	"21.633"	"26.04"	"29.696"	"31.591"	"29.925"	"28.668"	"28.662"	"28.028"	"27.045"	"23.984"	"19.444"
"1979"	"20.191"	"20.451"	"26.806"	"30.854"	"33.343"	"31.136"	"29.806"	"29.349"	"27.549"	"27.65"	"25.42"	"19.617"
"1980"	"19.409"	"22.36"	"26.597"	"32.164"	"31.351"	"29.113"	"28.035"	"27.811"	"29.062"	"26.681"	"23.156"	"19.833"
"1981"	"18.808"	"22.091"	"26.349"	"28.386"	"29.309"	"30.66"	"28.17"	"28.429"	"28.263"	"27.084"	"22.912"	"18.922"
"1982"	"20.353"	"21.859"	"25.382"	"30.225"	"33.482"	"30.634"	"30.712"	"28.522"	"29.412"	"27.57"	"23.029"	"19.212"
"1983"	"19.032"	"21.62"	"27.386"	"30.159"	"31.233"	"32.312"	"29.634"	"28.907"	"28.993"	"26.955"	"23.083"	"18.944"
"1984"	"19.116"	"20.793"	"27.648"	"31.507"	"32.806"	"29.297"	"28.813"	"28.531"	"28.497"	"27.616"	"22.005"	"19.555"
"1985"	"19.935"	"21.656"	"28.288"	"31.707"	"30.933"	"31.096"	"28.177"	"28.59"	"28.428"	"26.741"	"23.127"	"20.634"
"1986"	"19.409"	"22.326"	"27.125"	"30.473"	"30.288"	"31.399"	"28.647"	"28.441"	"28.313"	"26.149"	"23.184"	"19.859"
"1987"	"19.26"	"22.82"	"26.969"	"30.404"	"31.574"	"31.755"	"28.801"	"28.312"	"28.792"	"27.814"	"23.661"	"20.521"
"1988"	"20.102"	"22.68"	"27.051"	"31.268"	"31.929"	"29.798"	"29.038"	"29.216"	"29.681"	"28.415"	"23.83"	"21.366"
"1989"	"18.836"	"23.318"	"27.518"	"32.465"	"32.089"	"29.964"	"29.07"	"28.848"	"28.793"	"27.845"	"23.499"	"19.349"
"1990"	"19.95"	"22.701"	"25.406"	"30.084"	"30.734"	"30.707"	"28.717"	"29.532"	"29.012"	"26.199"	"24.091"	"20.055"
"1991"	"18.563"	"23.915"	"27.905"	"30.835"	"32.666"	"30.145"	"29.673"	"28.811"	"28.942"	"27.248"	"23.097"	"18.879"
"1992"	"18.43"	"21.15"	"28.014"	"31.76"	"31.157"	"31.137"	"29.135"	"28.949"	"28.883"	"27.448"	"23.621"	"19.148"
"1993"	"19.632"	"23.332"	"26.319"	"29.814"	"31.307"	"30.968"	"29.469"	"28.532"	"28.484"	"27.45"	"23.157"	"19.834"
"1994"	"20.14"	"21.688"	"27.71"	"30.166"	"32.595"	"30.503"	"29.144"	"28.658"	"28.7"	"27.45"	"23.41"	"19.59"
"1995"	"18.22"	"21.947"	"26.952"	"31.463"	"32.412"	"31.392"	"28.788"	"28.79"	"28.512"	"27.283"	"23.464"	"20.06"
"1996"	"19.748"	"21.754"	"28.207"	"30.29"	"32.959"	"29.834"	"29.34"	"28.045"	"29.284"	"26.915"	"23.232"	"19.255"
"1997"	"18.8"	"21.487"	"27.683"	"29.448"	"32.063"	"31.552"	"28.804"	"28.742"	"28.15"	"27.043"	"24.202"	"19.425"
"1998"	"18.238"	"22.506"	"25.511"	"30.722"	"32.379"	"32.659"	"29.197"	"29.142"	"29.052"	"28.747"	"24.187"	"20.387"
"1999"	"19.422"	"23.608"	"28.452"	"33.033"	"31.942"	"30.628"	"28.726"	"28.547"	"28.302"	"27.604"	"23.585"	"20.789"
"2000"	"20.084"	"21.673"	"27.263"	"31.578"	"31.7"	"30.36"	"29.089"	"29.17"	"28.472"	"27.61"	"24.381"	"19.347"
"2001"	"19.127"	"22.784"	"27.458"	"31.817"	"32.148"	"29.687"	"28.578"	"29.344"	"29.459"	"28.202"	"24.844"	"20.287"
"2002"	"19.891"	"23.333"	"28.147"	"30.949"	"32.503"	"30.836"	"29.693"	"28.547"	"28.568"	"27.294"	"23.383"	"20.117"
