
"Year"	"Jan"	"Feb"	"Mar"	"Apr"	"May"	"Jun"	"Jul"	"Aug"	"Sep"	"Oct"	"Nov"	"Dec"
"1901"	"67.546"	"25.008"	"4.104"	"6.882"	"7.835"	"85.436"	"156.901"	"270.358"	"209.831"	"17.374"	"4.12"	"0"
"1902"	"6.328"	"3.771"	"3.962"	"5.392"	"3.616"	"59.736"	"322.614"	"151.081"	"323.86"	"8.571"	"1.006"	"0"
"1903"	"5.811"	"3.884"	"3.591"	"2.501"	"21.041"	"143.653"	"114.044"	"197.956"	"148.295"	"93.433"	"0"	"0"
"1904"	"2.454"	"3.662"	"27.347"	"0.577"	"89.68"	"56.763"	"268.541"	"482.484"	"86.71"	"70.245"	"8.246"	"2.853"
"1905"	"8.825"	"25"	"28.47"	"5.171"	"6.641"	"15.523"	"400.722"	"277.784"	"374.975"	"9.243"	"0"	"0.858"
"1906"	"6.494"	"67.928"	"21.672"	"0.805"	"7.699"	"110.132"	"442.836"	"231.264"	"215.456"	"65.572"	"0.397"	"0.858"
"1907"	"0.201"	"68.382"	"22.633"	"29.91"	"9.035"	"229.134"	"174.221"	"301.364"	"119.018"	"9.94"	"0"	"0.858"
"1908"	"12.006"	"55.213"	"6.023"	"0.805"	"2.824"	"45.347"	"277.398"	"312.603"	"79.724"	"92.446"	"0"	"0.5"
"1909"	"2.463"	"5.994"	"0"	"29.914"	"2.569"	"201.17"	"410.957"	"313.731"	"145.713"	"4.76"	"0"	"5.033"
"1910"	"6.632"	"4.608"	"16.692"	"5.659"	"8.485"	"147.764"	"252.91"	"330.551"	"197.638"	"38.335"	"30.384"	"0"
"1911"	"12.047"	"0.201"	"23.135"	"2.134"	"8.49"	"302.08"	"148.557"	"275.972"	"243.243"	"94.752"	"47.401"	"0"
"1912"	"3.174"	"9"	"3.291"	"10.08"	"18.47"	"72.934"	"301.185"	"313.823"	"51.307"	"11.282"	"19.261"	"0.03"
"1913"	"0.201"	"67.596"	"32.206"	"0.614"	"28.194"	"292.825"	"225.288"	"328.63"	"127.095"	"69.74"	"2.823"	"10.529"
"1914"	"1.724"	"25.291"	"18.659"	"23.749"	"31.413"	"47.343"	"227.763"	"394.746"	"113.626"	"6.731"	"0"	"1.745"
"1915"	"5.991"	"67.371"	"15.404"	"2.505"	"10.069"	"94.032"	"269.957"	"236.599"	"238.938"	"57.06"	"26.731"	"0.35"
"1916"	"0.201"	"27.016"	"0.809"	"2.552"	"4.255"	"173.992"	"333.149"	"323.244"	"125.087"	"137.163"	"1.938"	"0"
"1917"	"2.704"	"37.391"	"5.995"	"3.542"	"41.073"	"146.038"	"261.993"	"497.092"	"108.897"	"185.945"	"0"	"1.336"
"1918"	"0.201"	"0.371"	"5.825"	"2.417"	"8.89"	"222.753"	"169.165"	"393.263"	"172.257"	"5.154"	"0.139"	"0"
"1919"	"46.58"	"8.028"	"13.478"	"10.074"	"32.326"	"125.419"	"300.089"	"447.988"	"169.661"	"112.17"	"0.397"	"0.083"
"1920"	"0.201"	"36.106"	"28.936"	"1.023"	"13.122"	"55.534"	"521.242"	"333.686"	"100.863"	"10.323"	"0"	"0"
"1921"	"37.669"	"10.135"	"0.676"	"1.758"	"2.41"	"191.321"	"270.469"	"440.262"	"85.427"	"6.142"	"0"	"0"
"1922"	"17.945"	"9.498"	"0.606"	"5.797"	"1.261"	"258.225"	"418.385"	"345.147"	"321.315"	"67.496"	"7.247"	"7.578"
"1923"	"0.227"	"67.185"	"0.809"	"1.105"	"1.672"	"85.66"	"315.114"	"533.128"	"209.629"	"27.148"	"4.92"	"0.504"
"1924"	"9.626"	"15.757"	"1.676"	"13.224"	"7.196"	"83.391"	"363.781"	"203.278"	"235.329"	"89.77"	"44.201"	"0.35"
"1925"	"6.314"	"2.941"	"4.903"	"0.991"	"16.724"	"87.424"	"332.036"	"482.053"	"149.118"	"15.356"	"16.162"	"0"
"1926"	"14.873"	"0.893"	"46.336"	"5.037"	"42.703"	"30.391"	"401.054"	"310.914"	"181.594"	"46.721"	"4.028"	"5.623"
"1927"	"18.906"	"42.852"	"35.742"	"0.976"	"9.808"	"41.002"	"316.68"	"399.107"	"124.96"	"55.649"	"38.89"	"0.03"
"1928"	"22.26"	"20.219"	"1.547"	"12.303"	"17.881"	"111.591"	"403.189"	"175.295"	"118.648"	"128.774"	"0"	"2.391"
"1929"	"31.871"	"4.823"	"3.266"	"2.949"	"9.266"	"120.858"	"373.325"	"313.592"	"68.392"	"214.425"	"0"	"12.664"
"1930"	"12.441"	"8.353"	"3.098"	"6.996"	"3.696"	"61.322"	"273.662"	"213.609"	"201.836"	"22.193"	"28.35"	"9.893"
"1931"	"1.397"	"53.443"	"15.675"	"0.746"	"4.766"	"57.057"	"467.356"	"379.206"	"189.085"	"70.706"	"12.526"	"1.57"
"1932"	"0.201"	"16.124"	"1.33"	"1.49"	"21.368"	"101.841"	"299.965"	"339.466"	"139.117"	"30.746"	"36.173"	"4.422"
"1933"	"23.379"	"31.03"	"2.583"	"21.46"	"21.822"	"128.495"	"343.723"	"379.153"	"137.665"	"76.907"	"0"	"0"
"1934"	"26.795"	"16.113"	"1.412"	"5.836"	"2.469"	"132.459"	"302.448"	"413.248"	"198.71"	"43.886"	"19.977"	"0.562"
"1935"	"4.105"	"19.935"	"2.569"	"11.544"	"3.314"	"125.506"	"281.709"	"509.287"	"183.704"	"9.94"	"0"	"1.095"
"1936"	"4.129"	"18.911"	"14.675"	"3.386"	"37.272"	"203.476"	"419.444"	"306.394"	"255.932"	"138.488"	"1.444"	"12.9"
"1937"	"0.201"	"58.919"	"3.443"	"18.112"	"12.069"	"62.561"	"288.724"	"312.777"	"190.089"	"112.794"	"0"	"0"
"1938"	"19.303"	"20.902"	"1.653"	"3.7"	"28.177"	"268.961"	"280.406"	"306.862"	"161.619"	"42.91"	"0"	"0"
"1939"	"7.761"	"32.766"	"10.736"	"4.572"	"3.24"	"167.948"	"376.4"	"263.834"	"208.949"	"37.432"	"0"	"0"
"1940"	"0.339"	"53.369"	"52.331"	"6.271"	"9.638"	"67.67"	"365.486"	"395.357"	"138.49"	"9.896"	"0"	"4.286"
"1941"	"17.061"	"9.101"	"9.985"	"0.952"	"14.834"	"145.759"	"233.193"	"378.616"	"177.468"	"49.351"	"1.618"	"0"
"1942"	"43.407"	"55.914"	"16.303"	"6.219"	"2.643"	"122.662"	"266.249"	"404.195"	"301.552"	"8.372"	"0"	"1.777"
"1943"	"17.923"	"15.641"	"2.248"	"23.44"	"19.218"	"68.768"	"307.019"	"590.738"	"204.971"	"38.859"	"0"	"0"
"1944"	"25.603"	"45.187"	"49.04"	"4.887"	"6.625"	"128.643"	"279.766"	"457.478"	"123.011"	"82.723"	"0"	"0.309"
"1945"	"53.647"	"26.995"	"0.936"	"2.373"	"17.576"	"131.33"	"229.181"	"138.093"	"240.644"	"115.461"	"0"	"4.372"
"1946"	"0.201"	"29.683"	"15.032"	"12.444"	"18.248"	"152.239"	"404.449"	"409.078"	"275.257"	"74.19"	"28.918"	"1.265"
"1947"	"26.897"	"12.306"	"17.802"	"0.705"	"6.674"	"70.009"	"385.118"	"232.573"	"304.41"	"68.606"	"0.961"	"1.464"
"1948"	"11.727"	"15.61"	"6.565"	"1.878"	"15.699"	"149.665"	"380.927"	"301.344"	"272.61"	"56.87"	"30.317"	"0.577"
"1949"	"3.494"	"56.664"	"10.61"	"4.401"	"34.876"	"146.812"	"338.844"	"464.889"	"144.822"	"124.02"	"0"	"0"
"1950"	"7.406"	"16.341"	"41.354"	"0.708"	"2.598"	"160.442"	"277.789"	"424.285"	"116.918"	"18.119"	"0.397"	"5.414"
"1951"	"6.75"	"5.17"	"35.033"	"19.373"	"3.708"	"105.266"	"322.762"	"290.493"	"199.924"	"59.999"	"12.852"	"0"
"1952"	"0.398"	"17.561"	"23.697"	"3.672"	"6.612"	"256.077"	"159.325"	"240.933"	"200.337"	"43.616"	"0"	"1.155"
"1953"	"53.558"	"6.668"	"0.85"	"4.098"	"2.583"	"135.245"	"372.853"	"354.273"	"219.064"	"7.283"	"0"	"0.701"
"1954"	"12.575"	"18.822"	"3.366"	"1.393"	"7.896"	"106.32"	"222.042"	"272.195"	"214.745"	"23.94"	"0"	"0.283"
"1955"	"14.856"	"19.883"	"1.598"	"2.538"	"1.735"	"101.451"	"454.698"	"150.235"	"95.955"	"101.798"	"0.397"	"1.288"
"1956"	"22.077"	"12.909"	"6.161"	"3.751"	"37.901"	"230.432"	"203.758"	"360.848"	"354.754"	"77.788"	"39.181"	"6.721"
"1957"	"16.827"	"2.305"	"18.037"	"0.838"	"1.28"	"104.937"	"387.568"	"245.433"	"121.583"	"0.559"	"0"	"1.633"
"1958"	"28.941"	"9.322"	"23.767"	"9.823"	"0.623"	"127.024"	"325.903"	"247.398"	"200.827"	"123.692"	"0"	"0.309"
"1959"	"78.289"	"2.291"	"0"	"0"	"18.143"	"81.693"	"232.895"	"296.007"	"220.856"	"162.457"	"0"	"0"
"1960"	"3.449"	"0.201"	"21.436"	"4.466"	"0.329"	"76.217"	"315.391"	"414.294"	"147.957"	"44.056"	"0"	"0"
"1961"	"20.49"	"44.768"	"0"	"0"	"3.888"	"165.955"	"243.05"	"347.439"	"205.173"	"77.078"	"4.299"	"4.98"
"1962"	"20.292"	"12.817"	"5.411"	"7.182"	"1.619"	"99.213"	"255.624"	"264.564"	"287.501"	"15.856"	"0"	"3.54"
"1963"	"9.493"	"4.726"	"32.464"	"3.411"	"43.11"	"119.318"	"359.641"	"361.256"	"171.542"	"71.69"	"16.626"	"0.309"
"1964"	"0.201"	"5.953"	"4.645"	"9.515"	"10.545"	"126.701"	"356.011"	"413.131"	"190.273"	"42.226"	"17.315"	"0"
"1965"	"2.28"	"0.242"	"10.708"	"23.15"	"4.861"	"39.601"	"305.693"	"151.629"	"137.374"	"35.416"	"3.703"	"1.884"
"1966"	"31.414"	"18.957"	"0"	"0"	"0.148"	"138.04"	"120.549"	"164.466"	"52.086"	"0.978"	"36.214"	"10.304"
"1967"	"10.389"	"0.201"	"29.822"	"4.596"	"8.14"	"57.73"	"297.341"	"470.096"	"158.083"	"10.96"	"0"	"7.039"
"1968"	"32.08"	"5.707"	"0.99"	"1.553"	"1.864"	"125.467"	"249.749"	"303.186"	"65.039"	"52.72"	"0"	"4.525"
"1969"	"4.662"	"18.313"	"1.195"	"7.1"	"31.347"	"135.294"	"380.419"	"301.35"	"184.218"	"4.401"	"22.78"	"0"
"1970"	"14.984"	"29.443"	"8.953"	"0.646"	"17.625"	"199.555"	"349.748"	"250.974"	"308.927"	"40.812"	"0"	"0"
"1971"	"22.153"	"12.665"	"3.695"	"18.086"	"49.473"	"350.946"	"343.762"	"458.821"	"107.038"	"98.199"	"0"	"0"
"1972"	"11.527"	"76.058"	"3.197"	"18.596"	"3.096"	"22.296"	"179.431"	"340.557"	"112.867"	"171.526"	"25.957"	"0.577"
"1973"	"52.197"	"4.285"	"2.497"	"0.659"	"5.419"	"131.497"	"271.765"	"333.508"	"220.103"	"160.857"	"2.938"	"0"
"1974"	"6.873"	"4.291"	"0.981"	"1.093"	"9.671"	"102.035"	"505.562"	"209.285"	"127.538"	"76.107"	"2.935"	"1.55"
"1975"	"58.849"	"10.666"	"20.464"	"1.385"	"10.346"	"78.264"	"371.753"	"169.595"	"201.878"	"54.993"	"1.652"	"0"
"1976"	"13.469"	"24.843"	"0.863"	"16.624"	"5.717"	"84.557"	"262.119"	"188.132"	"421.103"	"1.126"	"0.324"	"0"
"1977"	"6.482"	"7.978"	"0.761"	"27.183"	"77.639"	"89.052"	"368.179"	"265.749"	"205.944"	"55.571"	"24.293"	"11.397"
"1978"	"16.974"	"69.545"	"28.737"	"27.224"	"3.435"	"202.917"	"224.122"	"295.497"	"331.873"	"73.077"	"0.591"	"12.135"
"1979"	"21.304"	"16.65"	"1.121"	"9.888"	"2.678"	"96.129"	"404.712"	"180.687"	"98.455"	"10.996"	"58.257"	"8.372"
"1980"	"12.67"	"5.959"	"13.871"	"0.285"	"13.224"	"202.89"	"358.049"	"320.368"	"86.802"	"18.084"	"0.236"	"2.217"
"1981"	"17.83"	"9.648"	"22.614"	"5.304"	"20.798"	"50.607"	"365.292"	"225.105"	"188.149"	"0.559"	"11.802"	"3.025"
"1982"	"35.112"	"20.443"	"42.335"	"9.117"	"28.694"	"94.002"	"197.771"	"266.327"	"321.137"	"18.312"	"27.294"	"2.417"
"1983"	"17.633"	"5.262"	"4.196"	"13.794"	"39.94"	"114.385"	"363.9"	"176.04"	"120.003"	"80.299"	"0"	"4.481"
"1984"	"35.839"	"34.253"	"2.338"	"12.597"	"3.643"	"210.52"	"256.887"	"209.741"	"330.159"	"35.748"	"0.245"	"0"
"1985"	"15.66"	"3.812"	"0.473"	"3.826"	"7.147"	"88.78"	"351.012"	"278.051"	"181.586"	"92.092"	"0"	"6.682"
"1986"	"11.157"	"27.463"	"3.394"	"7.613"	"20.638"	"117.328"	"339.27"	"324.322"	"184.587"	"5.605"	"4.028"	"9.968"
"1987"	"5.711"	"16.083"	"6.711"	"3.73"	"15.383"	"119.759"	"256.038"	"416.012"	"435.284"	"83.807"	"10.463"	"2.288"
"1988"	"9.966"	"22.793"	"25.597"	"4.497"	"22.393"	"157.878"	"249.598"	"217.276"	"120.111"	"33.301"	"0"	"7.051"
"1989"	"7.944"	"13.235"	"6.019"	"1.591"	"38.619"	"146.949"	"271.018"	"257.44"	"148.188"	"49.396"	"9.52"	"13.804"
"1990"	"0.201"	"33.98"	"10.483"	"2.963"	"36.795"	"172.757"	"351.015"	"225.508"	"196.292"	"53.493"	"0"	"0.309"
"1991"	"22.288"	"6.757"	"25.425"	"8.156"	"12.361"	"111.479"	"143.278"	"457.136"	"145.449"	"14.536"	"1.12"	"13.128"
"1992"	"23.593"	"5.88"	"0.918"	"3.598"	"6.952"	"20.357"	"158.979"	"123.169"	"97.344"	"66.728"	"3.914"	"0"
"1993"	"10.92"	"0.201"	"9.201"	"2.428"	"21.509"	"32.498"	"107.31"	"183.865"	"248.946"	"64.232"	"0.554"	"0"
"1994"	"69.59"	"17.806"	"23.164"	"10.618"	"6.598"	"170.559"	"242.993"	"290.038"	"48.684"	"99.121"	"0"	"0"
"1995"	"16.286"	"21.477"	"17.35"	"2.1"	"13.371"	"23.161"	"194.862"	"259.871"	"193.808"	"8.606"	"18.377"	"2.093"
"1996"	"32.433"	"15.365"	"1.53"	"1.975"	"5.595"	"136.69"	"210.082"	"316.938"	"125.449"	"136.572"	"0"	"0"
"1997"	"19.181"	"3.956"	"2.003"	"4.393"	"46.661"	"66.204"	"180.578"	"331.643"	"109.076"	"30.625"	"33.248"	"10.463"
"1998"	"4.975"	"14.185"	"6.524"	"6.824"	"49.101"	"18.938"	"173.042"	"262.691"	"142.067"	"118.853"	"26.112"	"0"
"1999"	"29.475"	"15.419"	"0.765"	"0"	"20.994"	"80.779"	"253.249"	"241.067"	"121.941"	"26.288"	"0.653"	"0.356"
"2000"	"11.65"	"20.594"	"3.694"	"8.547"	"5.727"	"116.481"	"108.185"	"113.319"	"214.902"	"0.559"	"0"	"0.274"
"2001"	"3.041"	"1.811"	"23.909"	"8.01"	"7.031"	"30.232"	"217.919"	"270.007"	"39.668"	"81.965"	"0"	"0.344"
"2002"	"25.229"	"13.176"	"5.872"	"4.881"	"6.641"	"28.58"	"152.391"	"276.045"	"153.11"	"107.299"	"19.136"	"0.303"
