
"Year"	"Jan"	"Feb"	"Mar"	"Apr"	"May"	"Jun"	"Jul"	"Aug"	"Sep"	"Oct"	"Nov"	"Dec"
"1901"	"68.171"	"30.142"	"30.821"	"7.837"	"66.203"	"53.562"	"366.998"	"488.013"	"148.045"	"5.483"	"0.417"	"17.094"
"1902"	"3.912"	"10.724"	"12.498"	"52.646"	"37.821"	"74.039"	"404.01"	"255.3"	"145.831"	"30.551"	"0.751"	"1.166"
"1903"	"43.24"	"15.91"	"44.973"	"14.022"	"28.251"	"61.752"	"186.325"	"251.307"	"78.545"	"90.615"	"0.286"	"3.292"
"1904"	"22.381"	"6.694"	"47.707"	"10.576"	"51.12"	"152.998"	"281.965"	"410.497"	"215.559"	"18.071"	"22.238"	"17.685"
"1905"	"130.201"	"82.78"	"25.384"	"26.476"	"39.404"	"52.351"	"198.441"	"261.154"	"95.447"	"1.926"	"0.464"	"17.394"
"1906"	"31.081"	"120.135"	"23.448"	"13.748"	"25.406"	"159.933"	"191.657"	"405.738"	"177.5"	"12.187"	"0.336"	"3.296"
"1907"	"23.58"	"61.178"	"95.121"	"64.29"	"33.716"	"89.874"	"348.397"	"185.307"	"22.279"	"3.244"	"0.303"	"1.044"
"1908"	"49.939"	"49.839"	"8.335"	"13.572"	"53.027"	"84.466"	"211.55"	"287.722"	"94.188"	"3.841"	"1.637"	"3.327"
"1909"	"55.228"	"24.953"	"3.602"	"68.694"	"18.315"	"332.148"	"515.535"	"316.145"	"105.269"	"9.497"	"1.674"	"43.704"
"1910"	"28.171"	"31.701"	"8.817"	"18.884"	"58.598"	"247.23"	"407.731"	"324.417"	"206.718"	"22.453"	"2.725"	"6.781"
"1911"	"87.939"	"5.91"	"113.436"	"26.094"	"6.93"	"143.024"	"106.364"	"303.103"	"256.485"	"13.718"	"42.743"	"2.406"
"1912"	"42.905"	"30.06"	"25.475"	"42.105"	"56.859"	"113.391"	"267.093"	"275.888"	"240.624"	"4.623"	"33.352"	"12.453"
"1913"	"11.614"	"64.247"	"53.616"	"23.247"	"77.206"	"312.306"	"184.615"	"203.446"	"50.269"	"7.371"	"11.299"	"30.352"
"1914"	"8.478"	"76.686"	"73.289"	"46.03"	"37.798"	"155.022"	"406.034"	"272.284"	"455.332"	"19.224"	"13.696"	"3.128"
"1915"	"14.703"	"99.369"	"49.292"	"32.001"	"39.141"	"132.284"	"217.198"	"603.525"	"118.306"	"23.486"	"0.611"	"9.392"
"1916"	"4.043"	"20.027"	"3.757"	"21.368"	"66.105"	"319.689"	"437.244"	"243.092"	"232.359"	"46.5"	"0.342"	"1.281"
"1917"	"15.96"	"50.909"	"55.949"	"62.968"	"118.427"	"278.744"	"316.769"	"332.159"	"284.658"	"83.057"	"0.611"	"15.413"
"1918"	"8.806"	"3.795"	"28.912"	"61.355"	"20.802"	"163.026"	"124.679"	"168.473"	"49"	"6.19"	"29.835"	"8.806"
"1919"	"102.912"	"22.68"	"30.124"	"65.449"	"47.479"	"129.408"	"269.693"	"235.06"	"170.447"	"28.875"	"3.696"	"4.502"
"1920"	"12.626"	"27.874"	"51.161"	"7.986"	"68.951"	"308.392"	"293.691"	"139.104"	"87.872"	"7.722"	"0.417"	"2.43"
"1921"	"64.933"	"8.247"	"8.696"	"8.304"	"18.959"	"85.668"	"251.911"	"420.084"	"172.843"	"79.691"	"0.415"	"9.785"
"1922"	"54.553"	"39.287"	"7.312"	"15.323"	"19.471"	"81.969"	"427.96"	"478.073"	"228.545"	"35.839"	"6.985"	"61.526"
"1923"	"20.55"	"94.149"	"5.605"	"2.889"	"34.72"	"59.664"	"309.18"	"276.777"	"229.863"	"91.962"	"28.053"	"23.491"
"1924"	"29.457"	"52.428"	"18.586"	"13.708"	"42.628"	"54.951"	"271.914"	"266.574"	"456.306"	"113.918"	"3.835"	"34.072"
"1925"	"38.386"	"5.253"	"11.608"	"24.005"	"52.392"	"319.864"	"403.395"	"405.998"	"95.228"	"9.544"	"18.028"	"1.043"
"1926"	"18.549"	"17.872"	"81.678"	"52.981"	"52.769"	"46.701"	"362.54"	"315.252"	"100.693"	"13.224"	"15.638"	"7.081"
"1927"	"6.579"	"65.056"	"20.189"	"20.226"	"95.629"	"80.485"	"157.392"	"518.429"	"109.911"	"162.782"	"2.34"	"4.479"
"1928"	"63.217"	"107.31"	"24.796"	"46.93"	"10.041"	"91.879"	"312.075"	"171.97"	"105.461"	"3.508"	"17.452"	"34.679"
"1929"	"91.422"	"6.43"	"19.208"	"34.868"	"24.709"	"177.676"	"219.5"	"359.754"	"60.697"	"65.466"	"0.242"	"59.593"
"1930"	"34.139"	"28.026"	"20.861"	"26.296"	"28.03"	"122.977"	"327.503"	"280.702"	"67.875"	"50.843"	"17.973"	"24.075"
"1931"	"10.9"	"72.229"	"29.294"	"14.534"	"42.777"	"60.364"	"340.676"	"220.918"	"365.952"	"137.205"	"2.728"	"1.236"
"1932"	"9.524"	"14.748"	"33.25"	"13.568"	"29.991"	"124.917"	"174.824"	"274.901"	"299.043"	"13.363"	"1.57"	"21.153"
"1933"	"34.497"	"61.191"	"17.279"	"40.373"	"76.779"	"185.825"	"388.704"	"337.951"	"196.578"	"160.003"	"1.325"	"2.194"
"1934"	"37.449"	"11.758"	"27.736"	"6.294"	"28.785"	"120.657"	"289.633"	"506.548"	"87.442"	"1.976"	"0.452"	"32.655"
"1935"	"68.245"	"28.3"	"20.71"	"45.264"	"11.636"	"23.997"	"304.152"	"195.214"	"144.206"	"4.911"	"16.732"	"26.273"
"1936"	"5.506"	"44.751"	"46.532"	"44.511"	"62.759"	"487.475"	"705.64"	"413.729"	"180.873"	"18.717"	"5.997"	"65.965"
"1937"	"9.874"	"105.779"	"2.533"	"59.959"	"52.065"	"152.201"	"370.249"	"213.688"	"195.96"	"29.851"	"1.875"	"25.623"
"1938"	"75.665"	"44.66"	"6.504"	"7.346"	"13.983"	"285.543"	"337.366"	"340.52"	"68.491"	"18.983"	"2.98"	"2.063"
"1939"	"24.334"	"41.536"	"30.837"	"36.079"	"19.16"	"168.433"	"248.286"	"184.749"	"79.695"	"41.775"	"0.588"	"1.129"
"1940"	"38.894"	"98.388"	"48.089"	"32.115"	"34.839"	"100.527"	"257.921"	"275.165"	"79.258"	"9.457"	"0.438"	"19.557"
"1941"	"35.377"	"28.472"	"11.704"	"9.882"	"62.268"	"104.847"	"123.436"	"209.999"	"204.441"	"13.481"	"3.318"	"21.176"
"1942"	"66.306"	"65.677"	"9.137"	"42.972"	"55.943"	"150.881"	"497.568"	"188.837"	"137.481"	"0.999"	"0.233"	"38.899"
"1943"	"36.354"	"9.502"	"24.499"	"68.888"	"8.253"	"177.623"	"243.15"	"499.899"	"143.136"	"0.859"	"0.137"	"0.412"
"1944"	"50.576"	"34.299"	"30.606"	"25.836"	"4.237"	"205.27"	"195.76"	"147.58"	"100.097"	"7.039"	"2.938"	"1.265"
"1945"	"39.163"	"3.286"	"27.627"	"47.406"	"19.611"	"65.86"	"443.977"	"255.98"	"351.144"	"90.888"	"0.08"	"1.63"
"1946"	"2.277"	"36.536"	"13.997"	"60.47"	"81.975"	"140.452"	"318.088"	"154.848"	"51.567"	"39.985"	"20.267"	"19.765"
"1947"	"29.94"	"45.788"	"54.842"	"5.451"	"32.239"	"65.541"	"263.769"	"364.335"	"204.62"	"5.527"	"2.348"	"6.652"
"1948"	"2.705"	"50.507"	"81.012"	"5.898"	"22.556"	"61.555"	"328.735"	"492.756"	"101.263"	"38.948"	"0.137"	"5.432"
"1949"	"6.256"	"64.86"	"15.128"	"47.982"	"51.844"	"78.732"	"429.446"	"306.192"	"224.475"	"49.979"	"1.313"	"3.179"
"1950"	"74.143"	"58.302"	"49.861"	"3.464"	"48.372"	"243.026"	"327.27"	"263.667"	"147.376"	"1.824"	"5.252"	"2.44"
"1951"	"29.221"	"39.594"	"42.928"	"22.978"	"36.995"	"114.989"	"129.204"	"400.598"	"169.536"	"27.876"	"45.743"	"0.155"
"1952"	"22.638"	"36.108"	"45.979"	"23.279"	"66.804"	"152.21"	"173.191"	"325.753"	"55.526"	"19.436"	"17.14"	"3.304"
"1953"	"73.674"	"5.823"	"26.497"	"28.155"	"9.435"	"107.984"	"465.709"	"243.405"	"68.338"	"25.636"	"7.18"	"8.734"
"1954"	"58.778"	"135.55"	"17.931"	"2.437"	"6.078"	"105.268"	"347.255"	"271.595"	"174.581"	"64.547"	"0.679"	"8.724"
"1955"	"47.987"	"5.141"	"29.271"	"48.845"	"19.431"	"153.199"	"320.395"	"325.749"	"160.419"	"121.784"	"0"	"1.534"
"1956"	"35.097"	"16.231"	"33.337"	"5.376"	"106.336"	"111.316"	"265.083"	"189.77"	"79.649"	"117.382"	"0"	"15.806"
"1957"	"102.296"	"6.408"	"41.587"	"38.179"	"26.68"	"113.039"	"250.417"	"295.945"	"263.815"	"24.021"	"7.566"	"55.905"
"1958"	"24.384"	"16.17"	"24.657"	"25.891"	"14.765"	"109.971"	"262.621"	"415.136"	"179.627"	"141.911"	"4.606"	"34.819"
"1959"	"34.476"	"27.773"	"27.143"	"29.013"	"83.694"	"60.608"	"406.762"	"214.396"	"99.682"	"65.468"	"24.38"	"1.991"
"1960"	"38.285"	"1.971"	"38.385"	"26.985"	"22.583"	"84.606"	"307.758"	"254.878"	"152.255"	"126.578"	"0.611"	"3.585"
"1961"	"102.153"	"75.907"	"14.059"	"19.182"	"29.121"	"93.399"	"377.12"	"308.104"	"113.517"	"89.67"	"2.337"	"38.108"
"1962"	"70.546"	"25.823"	"45.45"	"12.985"	"28.194"	"120.609"	"239.268"	"216.338"	"271.225"	"1.344"	"8.383"	"27.917"
"1963"	"13.988"	"47.465"	"130.036"	"32.111"	"47.908"	"101.332"	"196.758"	"305.737"	"255.736"	"14.482"	"16.058"	"17.292"
"1964"	"22.79"	"13.196"	"31.711"	"9.13"	"60.019"	"63.173"	"435.353"	"160.882"	"163.974"	"0.325"	"0.17"	"19.345"
"1965"	"14.734"	"65.178"	"43.342"	"39.644"	"22.07"	"34.2"	"223.043"	"279.115"	"35.903"	"68.537"	"1.651"	"0.148"
"1966"	"12.385"	"53.507"	"45.149"	"29.663"	"38.261"	"167.542"	"282.786"	"434.43"	"108.553"	"47.76"	"27.729"	"4.6"
"1967"	"1.379"	"26.206"	"84.485"	"10.469"	"3.97"	"70.062"	"242.103"	"409.092"	"65.737"	"5.274"	"3.527"	"36.452"
"1968"	"73.65"	"48.536"	"20.982"	"22.246"	"4.438"	"133.144"	"279.249"	"218.496"	"64.227"	"16.551"	"0"	"5.683"
"1969"	"31.676"	"18.385"	"33.291"	"98.921"	"61.055"	"56.632"	"278.382"	"405.289"	"473.475"	"14.337"	"1.737"	"0.148"
"1970"	"47.803"	"22.295"	"9.023"	"1.238"	"70.213"	"133.887"	"165.174"	"303.104"	"101.352"	"42.235"	"0"	"0.355"
"1971"	"25.04"	"31.525"	"22.924"	"31.82"	"160.825"	"190.175"	"401.425"	"299.087"	"233.696"	"142.826"	"15.199"	"0.325"
"1972"	"19.914"	"43.808"	"11.74"	"34.976"	"20.407"	"75.793"	"287.793"	"239.041"	"436.168"	"85.141"	"11.083"	"2.99"
"1973"	"35.483"	"23.74"	"31.434"	"0.385"	"35.394"	"317.629"	"208.823"	"403.736"	"108.012"	"105.751"	"0.011"	"1.707"
"1974"	"27.101"	"30.746"	"7.831"	"3.673"	"59.88"	"111.442"	"236.139"	"177.505"	"74.386"	"13.62"	"0.004"	"25.744"
"1975"	"83.231"	"35.452"	"49.742"	"4.934"	"9.924"	"137.886"	"307.19"	"334.838"	"283.578"	"35.456"	"0"	"0.148"
"1976"	"4.34"	"74.549"	"14.9"	"36.315"	"26.747"	"361.945"	"219.967"	"545.626"	"63.939"	"9.246"	"0"	"0.836"
"1977"	"58.156"	"7.734"	"2.513"	"85.993"	"101.606"	"321.788"	"332.434"	"177.703"	"133.225"	"15.629"	"0.068"	"19.652"
"1978"	"6.349"	"15.204"	"83.54"	"27.221"	"5.85"	"150.485"	"308.663"	"415.908"	"302.543"	"8.876"	"7.744"	"8.423"
"1979"	"27.402"	"73.032"	"38.984"	"17.64"	"62.038"	"63.939"	"261.126"	"131.552"	"109.783"	"8.313"	"20.839"	"7.67"
"1980"	"9.663"	"49.044"	"56.178"	"8.255"	"37.784"	"178.723"	"579.523"	"371.712"	"263.537"	"34.407"	"2.369"	"8.373"
"1981"	"48.187"	"21.603"	"74.599"	"27.971"	"83.491"	"94.983"	"392.054"	"147.335"	"65.403"	"2.487"	"38.936"	"2.787"
"1982"	"31.395"	"11.777"	"106.084"	"53.342"	"64.836"	"31.383"	"157.361"	"345.119"	"49.36"	"15.545"	"4.341"	"19.878"
"1983"	"67.664"	"18.013"	"65.641"	"102.122"	"76.283"	"263.1"	"308.722"	"167.647"	"296.868"	"42.619"	"0"	"10.049"
"1984"	"11.054"	"125.513"	"8.735"	"32.953"	"1.092"	"141.811"	"311.592"	"229.404"	"163.554"	"2.075"	"0"	"12.923"
"1985"	"44.321"	"2.018"	"12.522"	"53.47"	"43.734"	"194.677"	"538.028"	"299.214"	"134.025"	"99.279"	"0.114"	"45.578"
"1986"	"4.032"	"35.061"	"31.581"	"37.638"	"90.263"	"65.998"	"426.064"	"181.113"	"250.6"	"36.963"	"11.255"	"83.178"
"1987"	"47.906"	"39.158"	"12.153"	"21.139"	"83.347"	"11.441"	"64.497"	"250.566"	"51.727"	"5.42"	"0"	"28.428"
"1988"	"9.514"	"37.941"	"49.418"	"39.852"	"25.175"	"156.932"	"521.034"	"355.913"	"104.969"	"0.822"	"0.878"	"28.463"
"1989"	"85.836"	"17.335"	"26.523"	"3.831"	"28.902"	"127.926"	"297.723"	"193.278"	"97.783"	"8.104"	"5.45"	"10.98"
"1990"	"3.752"	"99.344"	"68.854"	"13.842"	"151.801"	"88.57"	"363.247"	"317.957"	"122.307"	"17.136"	"15.644"	"47.603"
"1991"	"6.405"	"29.644"	"30.293"	"42.958"	"82.776"	"63.892"	"19.936"	"268.764"	"103.088"	"0.332"	"7.379"	"9.039"
"1992"	"39.288"	"77.59"	"38.445"	"13.318"	"37.988"	"104.969"	"243.878"	"216.998"	"70.266"	"16.647"	"43.462"	"0.149"
"1993"	"24.13"	"26.472"	"40.174"	"13.575"	"43.05"	"302.02"	"228.582"	"74.551"	"241.307"	"0.325"	"0"	"0.148"
"1994"	"18.124"	"12.374"	"36.162"	"18.066"	"55.626"	"63.827"	"352.418"	"323.609"	"56.022"	"0.786"	"0"	"1.862"
"1995"	"63.018"	"90.672"	"82.539"	"21.448"	"5.478"	"127.959"	"259.198"	"446.313"	"196.099"	"2.643"	"35.248"	"1.148"
"1996"	"66.876"	"54.559"	"30.384"	"26.66"	"51.367"	"184.953"	"319.13"	"290.211"	"215.897"	"39.804"	"0"	"3.394"
"1997"	"24.02"	"13.679"	"27.532"	"8.007"	"55.272"	"203.233"	"85.798"	"223.485"	"59.871"	"36.66"	"19.668"	"12.665"
"1998"	"19.083"	"38.295"	"70.508"	"58.324"	"29.241"	"27.273"	"296.569"	"429.276"	"81.948"	"36.766"	"7.988"	"3.111"
"1999"	"17.356"	"11.831"	"1.496"	"8.96"	"36.758"	"132.902"	"135.966"	"156.968"	"159.595"	"36.21"	"0.439"	"11.781"
"2000"	"14.458"	"75.175"	"17.486"	"11.84"	"64.315"	"217.097"	"172.865"	"260.673"	"82.317"	"0.859"	"0.032"	"0.356"
"2001"	"11.377"	"16.836"	"6.119"	"49.387"	"101.409"	"89.02"	"222.451"	"106.09"	"45.56"	"18.452"	"0.183"	"13.85"
"2002"	"61.607"	"68.302"	"76.043"	"28.734"	"5"	"46.713"	"250.522"	"154.248"	"280.493"	"5.596"	"1.26"	"1.87"
