
"Year"	"Jan"	"Feb"	"Mar"	"Apr"	"May"	"Jun"	"Jul"	"Aug"	"Sep"	"Oct"	"Nov"	"Dec"
"1901"	"23.483"	"24.58"	"25.634"	"28.728"	"29.157"	"28.276"	"26.903"	"26.406"	"26.711"	"25.416"	"23.421"	"21.529"
"1902"	"21.921"	"22.961"	"26.464"	"28.748"	"30.076"	"28.582"	"27.427"	"27.002"	"25.841"	"24.75"	"23.212"	"22.456"
"1903"	"22.631"	"24.236"	"26.528"	"28.703"	"28.512"	"27.811"	"26.613"	"26.189"	"25.514"	"24.769"	"22.437"	"21.425"
"1904"	"21.735"	"22.781"	"25.936"	"28.93"	"28.442"	"27.573"	"26.488"	"26.792"	"26.577"	"25.229"	"23.009"	"21.706"
"1905"	"21.482"	"24.022"	"26.731"	"28.189"	"29.1"	"28.848"	"28.012"	"26.796"	"26.781"	"25.033"	"23.634"	"21.632"
"1906"	"22.887"	"24.932"	"25.581"	"29.704"	"30.637"	"27.808"	"27.199"	"26.004"	"25.687"	"25.128"	"23.528"	"22.076"
"1907"	"21.787"	"23.519"	"26.212"	"27.991"	"29.651"	"27.999"	"26.946"	"26.596"	"26.629"	"25.343"	"23.387"	"21.987"
"1908"	"22.153"	"23.314"	"25.562"	"29.494"	"29.692"	"28.82"	"26.787"	"26.506"	"25.718"	"25.234"	"22.561"	"21.522"
"1909"	"22.255"	"23.84"	"26.598"	"28.147"	"28.841"	"27.72"	"26.372"	"26.16"	"25.38"	"25.667"	"24.155"	"22.849"
"1910"	"22.387"	"23.696"	"26.158"	"29.27"	"30.022"	"27.773"	"26.894"	"25.877"	"25.393"	"25.021"	"22.365"	"21.22"
"1911"	"22.379"	"22.352"	"26.162"	"28.878"	"29.482"	"28.167"	"27.307"	"26.915"	"26.815"	"25.316"	"23.726"	"22.284"
"1912"	"21.539"	"24.572"	"27.024"	"28.844"	"30.463"	"28.847"	"27.069"	"26.688"	"26.595"	"25.17"	"23.061"	"21.447"
"1913"	"21.604"	"24.165"	"26.747"	"29.358"	"29.605"	"28.342"	"26.72"	"27.278"	"26.995"	"24.806"	"23.156"	"22.531"
"1914"	"21.68"	"23.848"	"26.744"	"28.468"	"29.94"	"28.921"	"27.066"	"26.206"	"25.964"	"24.887"	"23.446"	"22.764"
"1915"	"22.639"	"24.269"	"26.38"	"28.783"	"30.146"	"28.469"	"27.017"	"27.332"	"26.284"	"25.868"	"23.775"	"21.692"
"1916"	"21.701"	"24.06"	"26.101"	"29.193"	"29.136"	"27.434"	"26.576"	"26.4"	"26.114"	"25.127"	"23.272"	"21.501"
"1917"	"21.604"	"23.03"	"25.441"	"28.443"	"28.652"	"26.507"	"27.047"	"26.198"	"25.362"	"24.624"	"23.41"	"21.717"
"1918"	"21.609"	"22.48"	"25.274"	"28.333"	"28.135"	"27.423"	"27.958"	"27.211"	"26.565"	"25.932"	"24.004"	"22.381"
"1919"	"23.49"	"24.664"	"26.015"	"29.339"	"29.439"	"27.645"	"26.829"	"27.062"	"26.127"	"25.311"	"23.678"	"22.35"
"1920"	"22.054"	"24.24"	"26.675"	"28.565"	"29.75"	"28.292"	"27.819"	"27.019"	"26.769"	"25.601"	"23.569"	"21.874"
"1921"	"23.042"	"23.212"	"26.601"	"28.429"	"30.925"	"28.362"	"26.603"	"26.529"	"25.872"	"24.621"	"22.414"	"21.72"
"1922"	"22.106"	"23.132"	"26.62"	"29.291"	"29.352"	"28.167"	"26.986"	"26.954"	"26.484"	"24.731"	"23.177"	"21.143"
"1923"	"21.241"	"23.163"	"25.468"	"28.589"	"29.403"	"29.125"	"27.117"	"27.255"	"25.949"	"25.044"	"23.552"	"22.267"
"1924"	"22.186"	"23.936"	"26.132"	"29.572"	"29.904"	"28.436"	"26.86"	"26.965"	"25.567"	"25.185"	"22.806"	"21.417"
"1925"	"21.847"	"23.092"	"25.673"	"28.973"	"28.643"	"28.069"	"27.045"	"26.403"	"26.554"	"24.696"	"22.906"	"21.515"
"1926"	"22.489"	"23.635"	"26.908"	"28.851"	"29.789"	"29.194"	"27.611"	"26.913"	"26.207"	"25.175"	"22.945"	"22.058"
"1927"	"22.863"	"24.413"	"27.264"	"29.577"	"29.887"	"28.082"	"26.968"	"27.049"	"26.306"	"25.434"	"22.727"	"22.205"
"1928"	"22.792"	"23.911"	"25.872"	"29.066"	"30.582"	"28.661"	"27.258"	"26.487"	"26.5"	"25.072"	"23.463"	"22.023"
"1929"	"22.596"	"23.48"	"25.763"	"28.171"	"29.703"	"28.122"	"27.57"	"26.91"	"26.464"	"25.22"	"23.225"	"22.524"
"1930"	"22.331"	"23.423"	"26.254"	"28.578"	"28.635"	"27.682"	"27.464"	"26.929"	"26.307"	"24.666"	"22.745"	"22.3"
"1931"	"22.211"	"23.755"	"26.488"	"29.186"	"29.991"	"28.562"	"26.947"	"26.918"	"25.998"	"25.585"	"23.239"	"21.972"
"1932"	"21.411"	"23.438"	"25.906"	"28.682"	"28.512"	"28.229"	"26.968"	"26.647"	"26.13"	"25.16"	"23.464"	"21.86"
"1933"	"22.181"	"23.65"	"25.908"	"28.508"	"28.248"	"27.596"	"26.84"	"26.357"	"26.261"	"24.479"	"23.395"	"21.66"
"1934"	"22.054"	"22.744"	"25.66"	"28.706"	"29.817"	"27.948"	"26.999"	"26.333"	"26.744"	"25.288"	"22.612"	"21.308"
"1935"	"22.244"	"23.661"	"26.239"	"28.812"	"30.447"	"28.416"	"27.034"	"26.241"	"25.802"	"25.13"	"22.762"	"22.162"
"1936"	"22.849"	"24.379"	"25.767"	"29.161"	"29.321"	"27.07"	"26.804"	"26.303"	"26.439"	"25.32"	"23.346"	"22.557"
"1937"	"22.056"	"24.443"	"26.554"	"28.382"	"29.765"	"28.533"	"26.581"	"26.821"	"26.563"	"24.775"	"22.862"	"21.533"
"1938"	"22.456"	"24.481"	"26.963"	"28.916"	"30.24"	"26.927"	"26.789"	"26.202"	"25.687"	"25.106"	"22.879"	"21.948"
"1939"	"21.741"	"22.859"	"25.765"	"28.227"	"30.074"	"28.392"	"26.807"	"27.097"	"26.227"	"25.259"	"22.76"	"21.746"
"1940"	"21.048"	"23.114"	"26.97"	"28.283"	"29.351"	"27.894"	"26.79"	"26.609"	"26.415"	"25.214"	"23.125"	"22.161"
"1941"	"22.72"	"24.017"	"26.871"	"29.493"	"30.159"	"28.06"	"28.039"	"27.564"	"26.063"	"25.293"	"23.523"	"22.251"
"1942"	"22.255"	"23.998"	"26.116"	"28.925"	"30.082"	"28.355"	"27.29"	"26.45"	"26.426"	"25.151"	"23.094"	"22.448"
"1943"	"22.584"	"23.076"	"26.278"	"28.501"	"28.324"	"27.302"	"26.383"	"26.458"	"25.477"	"23.92"	"23.215"	"21.668"
"1944"	"22.518"	"23.874"	"25.123"	"28.351"	"29.435"	"27.891"	"26.245"	"26.69"	"25.896"	"25.278"	"23.352"	"21.91"
"1945"	"22.214"	"24.351"	"26.468"	"28.535"	"29.787"	"28.458"	"26.819"	"26.36"	"25.682"	"25.124"	"22.552"	"21.769"
"1946"	"21.258"	"23.205"	"26.722"	"28.611"	"29.635"	"27.646"	"26.971"	"26.297"	"25.788"	"25.305"	"23.601"	"22.118"
"1947"	"22.811"	"23.18"	"26.453"	"28.737"	"29.774"	"28.554"	"26.585"	"26.343"	"25.501"	"24.55"	"23.042"	"22.038"
"1948"	"22.54"	"24.417"	"26.309"	"28.772"	"29.829"	"28.721"	"27.015"	"26.411"	"26.074"	"25.267"	"24.162"	"21.654"
"1949"	"21.674"	"23.344"	"26.684"	"29.091"	"28.692"	"27.087"	"26.209"	"26.125"	"25.299"	"25.632"	"22.782"	"21.457"
"1950"	"21.647"	"23.804"	"26.321"	"28.878"	"29.71"	"27.999"	"26.515"	"26.392"	"25.342"	"24.523"	"22.768"	"21.681"
"1951"	"22.017"	"23.137"	"26.747"	"28.69"	"29.398"	"27.689"	"26.609"	"27.058"	"26.499"	"25.769"	"24.038"	"21.805"
"1952"	"22.52"	"24.325"	"26.908"	"29.618"	"29.413"	"28.147"	"27.36"	"26.565"	"26.629"	"24.984"	"23.241"	"22.176"
"1953"	"22.437"	"23.511"	"27.753"	"28.928"	"31.32"	"28.843"	"27.027"	"27.036"	"25.963"	"25.019"	"22.982"	"21.768"
"1954"	"22.405"	"24.538"	"26.628"	"29.748"	"30.165"	"28.394"	"26.021"	"25.969"	"25.768"	"24.574"	"22.266"	"22.05"
"1955"	"22.089"	"24.009"	"26.532"	"28.69"	"28.159"	"27.338"	"26.311"	"25.184"	"25.87"	"25.249"	"22.499"	"21.045"
"1956"	"21.886"	"23.114"	"26.873"	"29.586"	"29.599"	"26.947"	"25.568"	"25.986"	"25.521"	"24.348"	"23.175"	"21.56"
"1957"	"22.064"	"23.856"	"25.808"	"28.628"	"29.565"	"27.587"	"26.335"	"25.853"	"26.191"	"25.346"	"23.441"	"22.508"
"1958"	"22.648"	"24.915"	"27.328"	"29.307"	"29.227"	"29.331"	"26.927"	"26.24"	"26.419"	"25.115"	"23.765"	"22.209"
"1959"	"22.841"	"24.888"	"26.833"	"29.382"	"29.953"	"27.252"	"26.105"	"26.738"	"26.318"	"25.467"	"23.352"	"22.132"
"1960"	"22.639"	"23.79"	"26.835"	"29.331"	"29.692"	"28.069"	"26.956"	"27.453"	"25.732"	"25.413"	"22.57"	"22.174"
"1961"	"22.604"	"24.653"	"27.623"	"29.614"	"29.453"	"27.248"	"25.982"	"25.962"	"25.766"	"25.081"	"22.953"	"21.755"
"1962"	"21.867"	"23.948"	"26.483"	"28.744"	"28.736"	"27.599"	"26.813"	"26.11"	"25.822"	"24.606"	"23.137"	"22.172"
"1963"	"21.62"	"22.92"	"26.473"	"28.223"	"29.537"	"27.82"	"27.244"	"26.261"	"26.345"	"25.378"	"23.553"	"22.205"
"1964"	"22.258"	"24.455"	"27.487"	"30.013"	"31.11"	"28.289"	"27.081"	"26.058"	"25.377"	"25.824"	"22.45"	"21.668"
"1965"	"21.959"	"23.974"	"26.754"	"28.302"	"29.991"	"28.437"	"26.778"	"25.939"	"26.378"	"26.085"	"23.82"	"22.701"
"1966"	"23.155"	"24.708"	"27.618"	"29.497"	"30.245"	"27.89"	"27.046"	"26.937"	"25.822"	"24.83"	"23.825"	"22.206"
"1967"	"22.282"	"23.616"	"26.274"	"29.382"	"29.887"	"27.883"	"26.161"	"25.722"	"25.841"	"24.295"	"22.79"	"22.699"
"1968"	"22.059"	"24.425"	"26.644"	"28.491"	"29.933"	"28.336"	"27.235"	"27.562"	"26.174"	"25.011"	"23.421"	"22.352"
"1969"	"22.113"	"24.635"	"27.716"	"29.875"	"29.767"	"28.57"	"26.92"	"26.866"	"26.366"	"24.867"	"23.915"	"21.94"
"1970"	"22.64"	"24.305"	"27.418"	"29.532"	"29.759"	"27.547"	"26.71"	"25.748"	"25.953"	"24.977"	"22.977"	"20.949"
"1971"	"22.305"	"24.335"	"26.156"	"28.989"	"29.317"	"26.742"	"26.727"	"26.278"	"26.124"	"24.731"	"22.767"	"21.24"
"1972"	"21.32"	"24.115"	"26.068"	"29.047"	"28.996"	"28.802"	"27.264"	"27.597"	"26.974"	"25.189"	"23.718"	"22.709"
"1973"	"22.91"	"24.799"	"27.154"	"30.121"	"30.768"	"28.112"	"27.661"	"25.767"	"26.322"	"25.246"	"23.043"	"21.641"
"1974"	"21.761"	"23.535"	"26.797"	"29.634"	"29.262"	"27.848"	"26.721"	"26.466"	"25.719"	"24.921"	"23.198"	"21.616"
"1975"	"21.976"	"24.775"	"27.207"	"29.738"	"30.161"	"27.806"	"25.951"	"26.361"	"25.263"	"24.739"	"22.614"	"21.287"
"1976"	"21.169"	"23.259"	"26.852"	"28.917"	"30.266"	"28.252"	"26.634"	"25.907"	"26.62"	"25.567"	"23.936"	"22.849"
"1977"	"22.182"	"24.457"	"26.926"	"29.304"	"28.909"	"27.708"	"27.141"	"26.125"	"26.668"	"24.715"	"23.891"	"22.207"
"1978"	"22.635"	"24.392"	"26.693"	"29.288"	"29.745"	"27.418"	"26.419"	"26.306"	"26.044"	"25.715"	"24.091"	"22.352"
"1979"	"22.812"	"25.092"	"27.078"	"29.827"	"29.412"	"28.282"	"26.786"	"27.137"	"25.837"	"25.416"	"23.653"	"22.959"
"1980"	"22.628"	"24.617"	"27.191"	"29.461"	"30.669"	"27.679"	"27.06"	"26.111"	"27.108"	"25.945"	"23.738"	"22.757"
"1981"	"22.823"	"24.374"	"26.765"	"29.716"	"29.767"	"27.985"	"27.206"	"25.986"	"25.477"	"25.269"	"23.512"	"21.865"
"1982"	"22.334"	"24.744"	"27.288"	"29.627"	"29.639"	"27.93"	"27.181"	"26.997"	"26.749"	"26.052"	"24.022"	"22.285"
"1983"	"22.343"	"25.979"	"28.186"	"29.893"	"30.335"	"28.686"	"27.597"	"26.441"	"25.465"	"25.369"	"23.473"	"22.287"
"1984"	"23.111"	"23.658"	"26.278"	"28.953"	"30.663"	"28.131"	"26.079"	"27.15"	"26.278"	"25.226"	"23.389"	"22.683"
"1985"	"22.939"	"24.911"	"27.639"	"30.003"	"30.435"	"27.5"	"26.308"	"26.543"	"26.483"	"25.201"	"22.889"	"22.741"
"1986"	"21.98"	"24.079"	"27.266"	"29.673"	"30.529"	"28.242"	"27.914"	"26.997"	"26.962"	"25.467"	"23.888"	"23.147"
"1987"	"22.933"	"23.716"	"26.598"	"29.764"	"29.802"	"28.644"	"28.207"	"26.931"	"27.534"	"25.721"	"24.306"	"22.613"
"1988"	"22.611"	"25.305"	"28.218"	"29.047"	"30.623"	"28.924"	"26.675"	"26.159"	"25.775"	"26.048"	"23.368"	"22.394"
"1989"	"22.434"	"23.858"	"26.415"	"29.372"	"30.436"	"27.728"	"26.16"	"26.877"	"26.223"	"25.992"	"23.672"	"22.471"
"1990"	"22.623"	"25.09"	"27.862"	"30.094"	"28.252"	"27.582"	"26.962"	"26.562"	"26.911"	"25.237"	"23.976"	"22.614"
"1991"	"23.446"	"24.933"	"27.825"	"29.732"	"30.414"	"27.231"	"26.919"	"26.595"	"26.977"	"25.704"	"23.288"	"22.336"
"1992"	"21.79"	"24.813"	"26.908"	"29.521"	"29.822"	"28.475"	"27.573"	"26.63"	"26.704"	"25.554"	"24.018"	"21.91"
"1993"	"22.356"	"24.134"	"27.372"	"29.662"	"30.277"	"28.324"	"27.459"	"26.784"	"26.312"	"25.258"	"23.696"	"21.993"
"1994"	"22.907"	"24.82"	"27.421"	"29.44"	"30.571"	"28.46"	"26.805"	"26.922"	"27.179"	"25.273"	"22.997"	"21.738"
"1995"	"22.449"	"24.935"	"27.114"	"29.732"	"28.875"	"29.089"	"26.975"	"26.711"	"26.551"	"25.568"	"24.743"	"22.518"
"1996"	"23.202"	"24.59"	"27.317"	"29.236"	"31.081"	"27.69"	"27.105"	"26.739"	"26.072"	"25.199"	"24.264"	"22.218"
"1997"	"22.568"	"24.39"	"27.413"	"28.649"	"30.253"	"29.017"	"27.956"	"27.205"	"26.852"	"25.778"	"24.392"	"23.004"
"1998"	"24.248"	"25.901"	"28.42"	"30.139"	"30.763"	"29.562"	"27.576"	"26.912"	"26.668"	"25.503"	"24.281"	"22.515"
"1999"	"22.668"	"24.823"	"28.175"	"29.672"	"28.931"	"27.764"	"26.503"	"26.861"	"26.62"	"25.619"	"23.973"	"22.391"
"2000"	"23.465"	"25.257"	"26.975"	"29.813"	"29.788"	"27.379"	"26.765"	"26.458"	"26.68"	"25.465"	"24.164"	"22.283"
"2001"	"23.488"	"25.647"	"28.223"	"29.434"	"30.563"	"28.17"	"27.808"	"26.874"	"27.047"	"25.187"	"24.301"	"22.449"
"2002"	"23.523"	"24.308"	"27.721"	"29.955"	"30.612"	"28.184"	"28.223"	"27.056"	"27.571"	"25.88"	"23.808"	"22.758"
