
"Year"	"Jan"	"Feb"	"Mar"	"Apr"	"May"	"Jun"	"Jul"	"Aug"	"Sep"	"Oct"	"Nov"	"Dec"
"1901"	"34.461"	"8.79"	"4.962"	"30.663"	"54.927"	"165.121"	"321.776"	"330.432"	"172.104"	"71.126"	"35.932"	"0"
"1902"	"0"	"0"	"23.016"	"84.051"	"81.696"	"180.844"	"396.458"	"258.565"	"383.876"	"41.195"	"0.198"	"2.749"
"1903"	"6.126"	"10.843"	"15.295"	"58.965"	"114.745"	"256.4"	"173.283"	"353.134"	"217.498"	"146.895"	"21.461"	"0"
"1904"	"0.304"	"9.172"	"19.695"	"27.508"	"339.028"	"454.31"	"421.342"	"279.675"	"117.892"	"36.999"	"14.126"	"0.58"
"1905"	"16.59"	"20.142"	"29.559"	"42.085"	"175.993"	"90.185"	"389.602"	"471.593"	"249.901"	"27.959"	"0.479"	"3.18"
"1906"	"24.833"	"41.624"	"20.614"	"11.336"	"96.041"	"252.367"	"306.651"	"226.309"	"168.155"	"188.462"	"7.275"	"0"
"1907"	"12.17"	"21.292"	"38.68"	"54.561"	"92.82"	"317.426"	"302.477"	"220.915"	"275.293"	"25.769"	"0"	"3.613"
"1908"	"10.31"	"18.29"	"4.11"	"16.059"	"108.828"	"349.293"	"346.18"	"277.174"	"152.821"	"8.859"	"0.198"	"0.59"
"1909"	"10.898"	"3.191"	"0"	"104.66"	"90.147"	"401.391"	"253.828"	"397.591"	"209.507"	"55.396"	"2.729"	"4.911"
"1910"	"2.44"	"17.882"	"21.173"	"69.642"	"83.908"	"237.555"	"435.061"	"313.59"	"146.049"	"98.144"	"9.777"	"0"
"1911"	"14.002"	"0.506"	"18.02"	"14.678"	"101.637"	"590.139"	"236.445"	"333.838"	"314.246"	"149.385"	"11.435"	"0"
"1912"	"0.039"	"10.526"	"16.423"	"83.546"	"116.848"	"285.061"	"407.228"	"331.243"	"67.195"	"46.375"	"20.851"	"4.63"
"1913"	"0.003"	"27.426"	"26.266"	"14.714"	"163.927"	"539.749"	"223.258"	"331.9"	"223.432"	"102.712"	"2.365"	"26.564"
"1914"	"0"	"22.612"	"11.633"	"46.94"	"148.035"	"174.36"	"582.991"	"382.355"	"155.912"	"36.91"	"0"	"6.942"
"1915"	"1.987"	"17.276"	"23.367"	"28.146"	"175.298"	"326.878"	"350.024"	"325.009"	"199.285"	"40.784"	"13.612"	"0"
"1916"	"0.393"	"4.687"	"6.389"	"37.513"	"56.618"	"390.73"	"350.704"	"296.796"	"279.737"	"295.349"	"24.158"	"0"
"1917"	"1.299"	"19.103"	"7.413"	"32.854"	"144.556"	"247.742"	"500.941"	"204.621"	"398.615"	"262.303"	"26.521"	"0"
"1918"	"1.873"	"3.474"	"9.546"	"51.401"	"162.288"	"318.189"	"242.144"	"570.734"	"235.482"	"35.516"	"0"	"2.165"
"1919"	"15.666"	"10.562"	"9.466"	"22.62"	"128.809"	"269.98"	"351.403"	"346.749"	"250.516"	"108.118"	"15.337"	"0"
"1920"	"5.834"	"14.806"	"36.123"	"26.124"	"85.164"	"171.079"	"516.584"	"235.226"	"377.103"	"25.327"	"0"	"0"
"1921"	"35.728"	"4.58"	"12.749"	"49.595"	"75.43"	"263.253"	"434.6"	"412.733"	"188.191"	"54.432"	"0"	"0"
"1922"	"8.95"	"2.852"	"0.002"	"7.065"	"60.784"	"529.068"	"373.625"	"366.984"	"255.464"	"37.16"	"0"	"9.037"
"1923"	"0.599"	"27.503"	"1.645"	"19.407"	"67.669"	"251.873"	"237.202"	"319.679"	"132.015"	"82.104"	"2.661"	"0.794"
"1924"	"5.414"	"7.376"	"0.423"	"35.412"	"87.724"	"310.236"	"437.547"	"365.972"	"295.691"	"64.861"	"56.618"	"0"
"1925"	"38.667"	"5.7"	"5.565"	"98.961"	"145.943"	"287.558"	"570.138"	"224.295"	"260.187"	"32.507"	"3.568"	"0"
"1926"	"26.792"	"0.504"	"51.428"	"29.808"	"163.736"	"93.517"	"476.874"	"291.1"	"198.879"	"72.077"	"0"	"8.011"
"1927"	"27.958"	"52.187"	"30.097"	"13.845"	"104.277"	"299.961"	"376.827"	"354.082"	"152.689"	"50.04"	"22.869"	"0"
"1928"	"41.193"	"2.719"	"1.401"	"22.986"	"171.412"	"427.758"	"435.886"	"251.773"	"209.95"	"139.548"	"1.256"	"1.001"
"1929"	"32.207"	"0.817"	"15.495"	"44.398"	"135.277"	"241.931"	"405.875"	"253.415"	"87.463"	"262.265"	"1.157"	"5.415"
"1930"	"2.945"	"10.491"	"9.388"	"30.538"	"99.626"	"231.892"	"443.561"	"320.556"	"205.318"	"74.124"	"38.632"	"6.286"
"1931"	"11.79"	"31.614"	"17.917"	"16.235"	"112.804"	"183.888"	"578.67"	"262.483"	"406.8"	"61.239"	"10.996"	"1.08"
"1932"	"0.002"	"23.059"	"6.961"	"41.583"	"149.097"	"138.606"	"394.855"	"221.1"	"258.043"	"58.285"	"43.008"	"5.475"
"1933"	"39.09"	"9.018"	"1.044"	"56.25"	"138.388"	"257.379"	"393.861"	"388.579"	"127.541"	"124.048"	"0"	"0"
"1934"	"17.194"	"25.839"	"0.599"	"59.604"	"121.74"	"304.75"	"361.417"	"299.051"	"254.599"	"115.016"	"6.001"	"2.051"
"1935"	"11.992"	"13.024"	"10.269"	"5.292"	"83.23"	"231.381"	"236.655"	"524.798"	"330.247"	"9.516"	"0.289"	"0.883"
"1936"	"5.937"	"14.247"	"11.941"	"14.951"	"206.817"	"260.072"	"358.452"	"275.431"	"440.565"	"91.131"	"0.579"	"17.951"
"1937"	"0"	"18.582"	"5.143"	"75.318"	"135.321"	"254.332"	"217.43"	"480.26"	"340.06"	"121.873"	"0.496"	"0.678"
"1938"	"2.027"	"16.502"	"13.7"	"20.824"	"177.915"	"324.388"	"290.818"	"312.304"	"150.413"	"62.668"	"7.459"	"0"
"1939"	"6.238"	"7.938"	"5.293"	"14.288"	"92.904"	"236.695"	"551.422"	"242.893"	"354.636"	"148.311"	"1.192"	"0.177"
"1940"	"0.291"	"22.589"	"36.596"	"14.995"	"114.573"	"224.689"	"328.671"	"312.199"	"209.172"	"46.574"	"0.389"	"2.593"
"1941"	"24.289"	"2.258"	"9.682"	"39.096"	"112.313"	"384.225"	"346.642"	"320.936"	"259.087"	"171.471"	"12.57"	"0.29"
"1942"	"1.846"	"30.165"	"10.712"	"26.618"	"55.417"	"157.332"	"442.969"	"562.494"	"493.906"	"55.132"	"2.439"	"0.502"
"1943"	"31.997"	"7.632"	"22.978"	"126.143"	"136.54"	"202.534"	"697.276"	"298.818"	"299.822"	"61.51"	"0"	"0.179"
"1944"	"20.947"	"21.498"	"35.463"	"44.847"	"116.54"	"208.47"	"394.523"	"412.32"	"157.577"	"44.757"	"0.177"	"0"
"1945"	"39.083"	"13.87"	"6.473"	"88.101"	"106.552"	"265.441"	"328.8"	"385.376"	"295.926"	"163.051"	"0"	"1.001"
"1946"	"0"	"5.129"	"17.834"	"48.858"	"134.856"	"227.441"	"351.653"	"242.887"	"221.757"	"246.558"	"15.562"	"0"
"1947"	"0.994"	"3.013"	"20.952"	"15.941"	"100.903"	"249.528"	"462.146"	"299.565"	"318.8"	"62.259"	"0.498"	"2.897"
"1948"	"4.596"	"4.976"	"4.522"	"93.534"	"167.743"	"169.6"	"315.269"	"269.919"	"128.055"	"142.408"	"15.928"	"0"
"1949"	"5.187"	"8.512"	"10.565"	"61.119"	"200.542"	"454.247"	"328.639"	"491.645"	"278.582"	"59.264"	"0.182"	"0"
"1950"	"0.513"	"17.343"	"31.338"	"12.197"	"50.046"	"452.217"	"184.66"	"315.544"	"135.598"	"98.616"	"11.6"	"0"
"1951"	"8.026"	"0"	"23.391"	"17.451"	"62.181"	"246.578"	"382.271"	"343.682"	"156.122"	"82.379"	"26.007"	"0"
"1952"	"0"	"3.016"	"19.355"	"125.779"	"61.137"	"413.472"	"296.248"	"339.198"	"356.127"	"148.598"	"39.447"	"0"
"1953"	"43.732"	"6.31"	"25.463"	"8.07"	"72.18"	"195.805"	"485.669"	"216.245"	"325.276"	"10.628"	"1.073"	"1.495"
"1954"	"28.324"	"1.025"	"0.33"	"1.449"	"102.832"	"489.992"	"445.995"	"231.688"	"198.267"	"75.426"	"0"	"2.59"
"1955"	"34.834"	"3.899"	"5.095"	"42.684"	"49.349"	"313.554"	"621.618"	"352.285"	"155.136"	"41.864"	"16.094"	"0.83"
"1956"	"17.884"	"11.098"	"5.964"	"42.415"	"155.594"	"432.491"	"339.412"	"381.602"	"206.851"	"264.518"	"33.4"	"7.256"
"1957"	"5.54"	"3.464"	"5.044"	"2.741"	"35.975"	"204.911"	"279.911"	"190.526"	"141.73"	"46.857"	"0"	"1.141"
"1958"	"7.394"	"6.877"	"8.144"	"29.978"	"59.593"	"113.601"	"362.307"	"527.238"	"235.578"	"86.401"	"3.207"	"0"
"1959"	"32.035"	"0"	"7.82"	"40.829"	"137.429"	"289.079"	"312.453"	"277.893"	"172.979"	"394.26"	"0"	"0"
"1960"	"0.321"	"0"	"28.941"	"3.13"	"88.259"	"203.832"	"347.686"	"155.913"	"323.221"	"65.291"	"2.211"	"0"
"1961"	"3.564"	"35.694"	"3.722"	"21.342"	"97.689"	"266.418"	"206.675"	"208.762"	"190.827"	"219.033"	"1.448"	"4.793"
"1962"	"11.98"	"9.089"	"3.384"	"2.684"	"143.051"	"252.871"	"205.319"	"487.804"	"127.396"	"59.915"	"0"	"1.448"
"1963"	"0.321"	"0.76"	"31.189"	"70.289"	"123.385"	"274.903"	"392.978"	"192.446"	"231.02"	"143.296"	"14.299"	"0.496"
"1964"	"4.108"	"3.596"	"5.234"	"58.3"	"95.337"	"297.8"	"344.778"	"170.273"	"147.039"	"123.143"	"0"	"0"
"1965"	"0"	"5.529"	"15.807"	"37.747"	"120.726"	"143.71"	"261.991"	"423.754"	"143.727"	"19.776"	"14.824"	"1.001"
"1966"	"26.979"	"0.478"	"0.401"	"9.682"	"89.179"	"139.993"	"201.865"	"288.49"	"113.553"	"36.414"	"36.166"	"13.358"
"1967"	"4.291"	"0.219"	"62.086"	"94.313"	"34.779"	"170.584"	"336.65"	"234.559"	"203.109"	"87.755"	"0.002"	"0.309"
"1968"	"13.737"	"1.183"	"10.741"	"31.527"	"52.341"	"369.116"	"433.049"	"288.076"	"136.326"	"206.897"	"7.524"	"2.15"
"1969"	"20.23"	"1.788"	"23.726"	"46.864"	"134.644"	"226.146"	"434.128"	"370.397"	"227.462"	"53.752"	"23.557"	"0"
"1970"	"34.812"	"7.337"	"4.632"	"15.62"	"73.224"	"288.735"	"365.323"	"313.114"	"249.738"	"87.475"	"4.942"	"0"
"1971"	"21.338"	"5.977"	"8.647"	"91.703"	"143.102"	"202.05"	"358.945"	"452.563"	"314.452"	"158.954"	"22.301"	"0"
"1972"	"7.261"	"27.157"	"6.737"	"21.358"	"71.304"	"131.449"	"228.975"	"273.758"	"175.652"	"75.64"	"0.007"	"0"
"1973"	"10.899"	"4.729"	"9.296"	"10.465"	"130.798"	"480.675"	"228.255"	"141.962"	"455.825"	"194.158"	"36.89"	"19.549"
"1974"	"5.744"	"0"	"39.293"	"62.671"	"146.851"	"194.269"	"434.963"	"269.585"	"227.875"	"68.421"	"4.178"	"3.465"
"1975"	"5.054"	"4.281"	"10.441"	"57.271"	"145.06"	"146.588"	"406.397"	"138.307"	"246.521"	"87.178"	"0.918"	"0"
"1976"	"1.006"	"5.595"	"9.738"	"52.087"	"122.042"	"211.567"	"381.213"	"324.363"	"206.049"	"41.61"	"2.004"	"0"
"1977"	"1.458"	"6.234"	"0.973"	"72.224"	"111.987"	"361.312"	"503.202"	"231.149"	"110.447"	"131.663"	"33.995"	"28.487"
"1978"	"1.152"	"14.075"	"31.167"	"84.645"	"189.455"	"288.091"	"401.237"	"234.839"	"431.845"	"100.129"	"15.644"	"0.042"
"1979"	"14.616"	"16.907"	"4.447"	"36.831"	"28.444"	"155.119"	"433.416"	"357.039"	"186.23"	"98.231"	"17.543"	"27.295"
"1980"	"10.715"	"8.851"	"21.463"	"34.322"	"158.019"	"290.023"	"254.876"	"221.247"	"190.77"	"66.622"	"6.739"	"0"
"1981"	"39.861"	"11.047"	"21.908"	"102.21"	"136.899"	"180.81"	"388.037"	"253.775"	"223.93"	"1.088"	"1.037"	"32.558"
"1982"	"0"	"5.604"	"17.987"	"52.49"	"59.502"	"170.828"	"281.118"	"185.302"	"187.417"	"34.304"	"10.63"	"0.67"
"1983"	"17.415"	"2.11"	"15.881"	"28.316"	"190.683"	"148.899"	"403.78"	"231.962"	"238.787"	"224.665"	"2.438"	"24.076"
"1984"	"19.803"	"13.599"	"6.371"	"44.74"	"177.665"	"411.126"	"464.414"	"236.164"	"552.519"	"94.507"	"0"	"0.003"
"1985"	"1.349"	"5.281"	"1.675"	"30.283"	"148.062"	"258.387"	"324.044"	"123.82"	"304.752"	"69.686"	"2.563"	"20.926"
"1986"	"3.525"	"2.418"	"0.006"	"99.74"	"145.271"	"175.899"	"345.456"	"226.7"	"335.817"	"247.367"	"19.972"	"14.399"
"1987"	"0.32"	"10.485"	"17.116"	"45.758"	"106.829"	"218.629"	"697.781"	"313.082"	"218.364"	"125.475"	"11.913"	"3.216"
"1988"	"2.073"	"23.067"	"21.913"	"65.217"	"127.006"	"200.535"	"353.977"	"512.191"	"267.998"	"27.601"	"53.577"	"4.514"
"1989"	"12.143"	"11.36"	"3.141"	"0.717"	"224.878"	"227.782"	"424.487"	"182.769"	"324.184"	"51.875"	"6.849"	"3.127"
"1990"	"0.936"	"31.707"	"13.839"	"61.827"	"228.815"	"291.459"	"367.962"	"307.804"	"322.108"	"275.49"	"3.555"	"0.021"
"1991"	"21.364"	"9.87"	"12.523"	"38.833"	"64.129"	"287.019"	"321.632"	"437.905"	"352.008"	"67.065"	"1.957"	"17.564"
"1992"	"9.686"	"4.029"	"7.234"	"38.632"	"146.15"	"128.222"	"458.693"	"276.179"	"202.202"	"28.487"	"1.762"	"0.872"
"1993"	"36.112"	"6.679"	"27.864"	"80.508"	"146.476"	"327.077"	"306.804"	"364.218"	"322.29"	"74.834"	"7.607"	"0"
"1994"	"39.746"	"14.837"	"21.364"	"73.123"	"99.113"	"227.184"	"310.151"	"359.178"	"150.032"	"110.214"	"25.622"	"0.769"
"1995"	"36.498"	"15.587"	"6.826"	"34.732"	"101.986"	"289.63"	"338.056"	"231.94"	"376.412"	"68.096"	"40.614"	"3.759"
"1996"	"11.161"	"9.223"	"5.782"	"58.995"	"136.341"	"121.276"	"281.949"	"359.071"	"152.841"	"112.678"	"0"	"0"
"1997"	"18.111"	"6.741"	"17.943"	"48.214"	"182.217"	"105.589"	"279.347"	"309.52"	"310.191"	"61.246"	"15.714"	"20.404"
"1998"	"8.464"	"12.361"	"16.186"	"45.277"	"164.084"	"114.6"	"246.513"	"282.413"	"256.736"	"270.802"	"19.697"	"0"
"1999"	"5.434"	"1.806"	"1.791"	"4.294"	"157.236"	"212.616"	"344.446"	"392.995"	"264.62"	"104.273"	"13.799"	"0.391"
"2000"	"11.59"	"13.076"	"6.093"	"36.553"	"146.3"	"255.908"	"181.002"	"300.042"	"232.962"	"36.278"	"2.389"	"1.716"
"2001"	"1.595"	"4.842"	"19.891"	"39.888"	"168.275"	"194.309"	"264.959"	"245.335"	"173.957"	"134.898"	"6.194"	"0"
"2002"	"17.373"	"2.309"	"13.862"	"70.912"	"84.058"	"219.657"	"257.493"	"271.503"	"179.735"	"93.735"	"18.924"	"0"
