
"Year"	"Jan"	"Feb"	"Mar"	"Apr"	"May"	"Jun"	"Jul"	"Aug"	"Sep"	"Oct"	"Nov"	"Dec"
"1901"	"23.578"	"24.587"	"27.809"	"31.008"	"32.686"	"31.298"	"27.751"	"26.842"	"28.159"	"27.021"	"24.09"	"21.721"
"1902"	"23.259"	"24.908"	"28.783"	"31.486"	"34.012"	"32.31"	"28.176"	"28.073"	"27.324"	"27.032"	"23.581"	"21.915"
"1903"	"22.958"	"24.519"	"28.201"	"31.299"	"31.986"	"31.706"	"27.421"	"27.239"	"27.272"	"26.127"	"22.74"	"21.007"
"1904"	"22.678"	"24.215"	"27.846"	"31.846"	"32.674"	"30.303"	"27.874"	"27.561"	"27.208"	"26.583"	"23.42"	"21.523"
"1905"	"22.483"	"23.684"	"27.864"	"30.378"	"32.919"	"32.219"	"28.177"	"27.262"	"26.89"	"26.644"	"24.247"	"21.423"
"1906"	"23.304"	"25.259"	"27.36"	"31.9"	"34.257"	"30.279"	"27.624"	"27.15"	"27.434"	"26.684"	"23.985"	"22.44"
"1907"	"22.628"	"24.895"	"27.564"	"29.461"	"32.515"	"30.67"	"27.964"	"26.036"	"27.827"	"27.304"	"24.734"	"21.357"
"1908"	"21.584"	"24.805"	"27.613"	"31.911"	"33.645"	"32.114"	"27.552"	"26.579"	"27.246"	"26.586"	"23.205"	"20.477"
"1909"	"23.267"	"25.137"	"28.336"	"29.53"	"32.797"	"29.895"	"27.052"	"27.169"	"27.137"	"26.286"	"23.579"	"22.613"
"1910"	"22.526"	"24.222"	"28.355"	"32.13"	"33.712"	"31.041"	"28.367"	"27.692"	"27.376"	"26.721"	"22.032"	"19.927"
"1911"	"22.561"	"23.951"	"27.951"	"31.723"	"34.016"	"30.337"	"28.303"	"26.662"	"27.843"	"27.066"	"24.477"	"21.361"
"1912"	"22.446"	"25.498"	"29.085"	"30.922"	"33.87"	"33.483"	"27.651"	"27.044"	"27.605"	"26.979"	"23.511"	"20.591"
"1913"	"21.258"	"25.536"	"28.156"	"32.215"	"33.057"	"30.462"	"27.729"	"27.541"	"27.925"	"26.643"	"23.47"	"22.266"
"1914"	"21.636"	"25.726"	"28.409"	"29.6"	"32.536"	"30.602"	"27.46"	"27.04"	"27.112"	"26.559"	"23.982"	"22.005"
"1915"	"22.13"	"24.615"	"27.152"	"31.029"	"33.448"	"32.545"	"28.555"	"27.618"	"27.525"	"27.351"	"25.455"	"21.159"
"1916"	"22.208"	"25.119"	"28.165"	"31.592"	"33.039"	"29.304"	"28.174"	"27.556"	"27.575"	"26.985"	"24.248"	"20.466"
"1917"	"21.588"	"23.609"	"26.686"	"30.031"	"31.601"	"28.951"	"27.44"	"27.513"	"26.923"	"26.395"	"23.419"	"20.815"
"1918"	"21.351"	"23.858"	"27.5"	"30.654"	"31.282"	"29.418"	"28.885"	"27.153"	"27.932"	"26.682"	"25.15"	"22.349"
"1919"	"23.936"	"25.733"	"28.401"	"31.162"	"32.566"	"29.58"	"28.212"	"27.426"	"27.854"	"26.474"	"24.195"	"21.191"
"1920"	"22.388"	"24.727"	"28.598"	"30.852"	"32.51"	"31.9"	"28.129"	"28.134"	"28.261"	"27.62"	"24.149"	"21.228"
"1921"	"23.087"	"24.604"	"29.338"	"31.593"	"36.076"	"31.324"	"28.173"	"27.468"	"27.325"	"26.02"	"21.728"	"21.164"
"1922"	"22.404"	"24.419"	"28.796"	"32.078"	"33.803"	"31.231"	"27.686"	"28.079"	"27.225"	"26.332"	"24.167"	"20.34"
"1923"	"21.815"	"24.466"	"27.282"	"31.429"	"33.848"	"34.158"	"27.66"	"27.314"	"27.466"	"26.06"	"23.658"	"21.563"
"1924"	"22.703"	"25.74"	"28.73"	"32.388"	"34.006"	"32.88"	"28.427"	"27.966"	"27.257"	"26.261"	"23.064"	"20.78"
"1925"	"21.806"	"24.049"	"27.83"	"31.784"	"31.629"	"30.479"	"27.432"	"27.088"	"27.879"	"26.484"	"24.301"	"20.96"
"1926"	"23.199"	"25.226"	"28.379"	"30.154"	"32.341"	"34.085"	"28.393"	"27.36"	"27.679"	"26.6"	"23.245"	"21.673"
"1927"	"24.519"	"25.944"	"29.126"	"32.511"	"33.893"	"31.381"	"27.421"	"27.238"	"27.915"	"26.418"	"22.899"	"21.699"
"1928"	"22.816"	"24.909"	"28.145"	"31.142"	"34.245"	"31.295"	"27.775"	"28.021"	"27.652"	"27.172"	"23.702"	"22.078"
"1929"	"23.567"	"23.798"	"27.999"	"29.976"	"34.222"	"30.851"	"27.864"	"27.583"	"27.714"	"26.294"	"23.278"	"22.752"
"1930"	"22.761"	"23.652"	"28.239"	"30.659"	"33.43"	"31.706"	"28.082"	"27.633"	"27.544"	"26.836"	"22.932"	"22.011"
"1931"	"21.875"	"25.744"	"28.159"	"31.764"	"33.833"	"32.376"	"27.715"	"27.585"	"27.766"	"26.749"	"23.183"	"21.242"
"1932"	"21.48"	"23.62"	"27.642"	"30.986"	"32.781"	"31.852"	"27.315"	"27.819"	"27.459"	"27.542"	"24.628"	"21.321"
"1933"	"22.599"	"25.959"	"27.74"	"30.58"	"31.196"	"29.483"	"27.544"	"27.148"	"27.521"	"26.225"	"23.767"	"21.604"
"1934"	"21.763"	"24.312"	"27.974"	"31.557"	"34.424"	"31.541"	"27.662"	"27.207"	"27.324"	"26.316"	"22.615"	"21.012"
"1935"	"22.694"	"25.184"	"28.032"	"30.097"	"34.83"	"32.634"	"27.319"	"27.615"	"27.22"	"26.997"	"23.141"	"22.378"
"1936"	"24.764"	"24.538"	"27.97"	"31.128"	"33.088"	"29.162"	"28.235"	"27.121"	"27.939"	"26.876"	"24.746"	"22.095"
"1937"	"21.681"	"25.495"	"27.767"	"30.858"	"33.794"	"32.246"	"27.552"	"27.879"	"27.758"	"26.462"	"23.826"	"21.539"
"1938"	"24.438"	"24.932"	"29.317"	"31.424"	"33.476"	"28.602"	"27.437"	"27.585"	"27.252"	"26.043"	"22.467"	"20.741"
"1939"	"22.452"	"24.838"	"27.451"	"31.285"	"34.677"	"32.097"	"27.473"	"27.624"	"27.501"	"27.142"	"22.656"	"20.832"
"1940"	"20.615"	"24.706"	"27.402"	"30.706"	"32.632"	"30.772"	"26.785"	"27.086"	"27.944"	"26.945"	"24.85"	"22.433"
"1941"	"23.693"	"25.523"	"29.581"	"33.021"	"34.144"	"30.791"	"28.682"	"28.016"	"28.032"	"26.873"	"22.959"	"22.806"
"1942"	"22.748"	"25.049"	"28.787"	"31.415"	"34.401"	"32.401"	"27.369"	"27.385"	"27.912"	"25.892"	"23.332"	"22.461"
"1943"	"24.067"	"23.534"	"28.077"	"30.469"	"32.299"	"29.944"	"27.59"	"27.222"	"27.212"	"26.569"	"23.783"	"20.067"
"1944"	"22.827"	"24.544"	"26.361"	"29.943"	"33.785"	"32.02"	"27.228"	"27.504"	"27.48"	"26.524"	"23.124"	"21.606"
"1945"	"22.127"	"24.203"	"28.228"	"30.295"	"34.192"	"31.508"	"27.415"	"27.208"	"26.767"	"25.753"	"22.186"	"19.841"
"1946"	"20.385"	"23.599"	"28.928"	"30.103"	"33.421"	"29.934"	"27.806"	"27.223"	"27.936"	"27.669"	"25.526"	"23.744"
"1947"	"24.242"	"24.46"	"29.199"	"32.807"	"34.827"	"32.281"	"27.197"	"27.707"	"27.434"	"25.968"	"23.238"	"21.776"
"1948"	"23.297"	"25.798"	"27.594"	"31.72"	"34.703"	"32.564"	"28.572"	"27.607"	"27.435"	"27.257"	"25.658"	"20.363"
"1949"	"22.061"	"24.061"	"28.703"	"31.574"	"33.09"	"30.632"	"27.566"	"27.748"	"27.562"	"27.141"	"23.666"	"20.211"
"1950"	"22.112"	"24.593"	"27.324"	"31.742"	"34.101"	"31.163"	"27.32"	"28.147"	"27.658"	"26.281"	"23.009"	"20.945"
"1951"	"22.158"	"24.905"	"28.459"	"31.171"	"33.052"	"31.1"	"28.304"	"27.379"	"28.459"	"28.077"	"24.77"	"22.057"
"1952"	"23.052"	"25.769"	"28.114"	"32.028"	"33.922"	"32.801"	"28.796"	"27.667"	"27.691"	"26.958"	"23.049"	"23.248"
"1953"	"22.625"	"25.544"	"29.999"	"31.74"	"35.985"	"33.397"	"28.356"	"27.207"	"28.02"	"27.257"	"23.494"	"21.097"
"1954"	"22.087"	"25.765"	"28.34"	"32.473"	"34.61"	"32.001"	"27.943"	"27.943"	"27.126"	"25.881"	"22.225"	"22.333"
"1955"	"22.516"	"25.874"	"28.998"	"31.172"	"32.921"	"31.748"	"27.86"	"27.349"	"27.495"	"26.638"	"22.417"	"20.798"
"1956"	"22.764"	"23.778"	"29.22"	"32.377"	"33.334"	"30.126"	"26.898"	"27.318"	"27.365"	"26.1"	"24.229"	"22.051"
"1957"	"23.338"	"24.867"	"27.195"	"30.783"	"33.393"	"31.911"	"27.485"	"27.172"	"28.107"	"27.796"	"24.288"	"22.644"
"1958"	"23.023"	"25.552"	"28.611"	"31.753"	"33.795"	"34.058"	"27.269"	"27.805"	"27.668"	"26.868"	"24.934"	"22.087"
"1959"	"23.004"	"25.807"	"28.682"	"31.789"	"34.278"	"31.133"	"27.572"	"27.076"	"27.53"	"27.115"	"23.684"	"21.899"
"1960"	"22.994"	"24.726"	"27.843"	"31.556"	"33.652"	"31.417"	"28.171"	"27.914"	"28.061"	"26.509"	"23.804"	"22.856"
"1961"	"23.114"	"24.538"	"29.84"	"32.167"	"33.294"	"30.749"	"27.342"	"27.615"	"26.982"	"26.329"	"22.956"	"21.07"
"1962"	"20.785"	"24.19"	"28.012"	"30.597"	"32.984"	"30.708"	"27.591"	"27.346"	"27.512"	"26.805"	"23.453"	"21.695"
"1963"	"21.153"	"24.173"	"28.223"	"29.689"	"33.294"	"30.792"	"27.962"	"27.161"	"27.797"	"26.945"	"24.357"	"22.006"
"1964"	"23.592"	"25.891"	"29.397"	"32.175"	"34.742"	"31.473"	"28.028"	"26.732"	"27.352"	"26.953"	"23.632"	"21.453"
"1965"	"22.631"	"24.958"	"28.116"	"30.884"	"33.697"	"32.002"	"27.729"	"28.24"	"27.859"	"27.546"	"24.694"	"23.26"
"1966"	"23.015"	"25.902"	"29.345"	"32.077"	"34.971"	"31.95"	"29.058"	"28.201"	"27.755"	"26.99"	"25.542"	"21.828"
"1967"	"22.966"	"25.305"	"27.552"	"31.536"	"34.613"	"32.275"	"28.271"	"27.333"	"27.554"	"26.366"	"23.751"	"23.649"
"1968"	"22.047"	"25.415"	"27.332"	"29.952"	"33.419"	"32.042"	"28.225"	"27.717"	"27.549"	"26.131"	"24.181"	"22.619"
"1969"	"22.636"	"26.448"	"30.201"	"32.945"	"32.932"	"31.987"	"27.638"	"27.779"	"27.221"	"26.801"	"24.986"	"21.326"
"1970"	"22.738"	"26.448"	"29.253"	"31.469"	"34.197"	"29.72"	"27.939"	"27.167"	"27.653"	"26.748"	"22.902"	"20.074"
"1971"	"22.704"	"25.812"	"27.579"	"30.874"	"32.124"	"29.13"	"28.34"	"27.871"	"27.987"	"26.581"	"22.191"	"20.45"
"1972"	"21.552"	"24.7"	"29.178"	"31.77"	"34.636"	"34.001"	"28.722"	"28.143"	"28.225"	"26.595"	"24.162"	"23.46"
"1973"	"24.161"	"26.681"	"29.593"	"33.776"	"35.902"	"32.288"	"27.952"	"27.501"	"28.058"	"26.955"	"23.268"	"21.748"
"1974"	"21.926"	"25.997"	"29.538"	"32.817"	"33.211"	"31.364"	"28.977"	"27.812"	"28.202"	"26.882"	"23.363"	"20.902"
"1975"	"21.578"	"25.554"	"29.118"	"32.637"	"35.195"	"30.796"	"27.843"	"27.879"	"27.206"	"27.364"	"22.896"	"20.397"
"1976"	"21.204"	"25.072"	"28.821"	"31.68"	"33.388"	"31.638"	"27.178"	"27.572"	"27.583"	"27.285"	"26.128"	"23.195"
"1977"	"22.321"	"26.255"	"29.815"	"31.095"	"31.86"	"32.107"	"28.448"	"27.206"	"27.834"	"26.877"	"25.94"	"21.638"
"1978"	"22.698"	"25.066"	"28.489"	"31.454"	"34.593"	"30.665"	"27.217"	"26.458"	"27.938"	"27.673"	"25.971"	"22.648"
"1979"	"24.016"	"25.673"	"28.691"	"31.702"	"32.384"	"32.272"	"28.763"	"27.934"	"28.022"	"27.979"	"26.324"	"22.991"
"1980"	"24.428"	"26.701"	"29.465"	"32.305"	"34.59"	"29.444"	"27.865"	"27.193"	"27.687"	"27.252"	"25.776"	"23.125"
"1981"	"22.146"	"26.008"	"28.187"	"31.797"	"32.474"	"31.606"	"27.394"	"27.056"	"27.742"	"27.361"	"23.907"	"22.836"
"1982"	"24.282"	"26.815"	"29.678"	"31.86"	"33.089"	"32.34"	"29.325"	"27.318"	"28.126"	"27.239"	"25.108"	"22.984"
"1983"	"23.34"	"26.384"	"29.889"	"32.382"	"33.774"	"33.341"	"29.014"	"28.098"	"27.862"	"26.914"	"23.479"	"21.889"
"1984"	"24.435"	"25.545"	"28.805"	"31.387"	"35.066"	"30.993"	"28.005"	"27.97"	"28.167"	"27.394"	"23.089"	"23.519"
"1985"	"24.63"	"25.698"	"30.037"	"32.789"	"34.504"	"30.701"	"28.097"	"27.689"	"28.298"	"26.257"	"24.004"	"23.229"
"1986"	"22.209"	"25.341"	"29.001"	"32.251"	"34.727"	"31.226"	"28.934"	"28.018"	"28.852"	"27.678"	"24.556"	"23.605"
"1987"	"23.371"	"24.696"	"28.073"	"32.248"	"32.284"	"33.088"	"28.7"	"28.224"	"29.344"	"27.633"	"24.962"	"22.917"
"1988"	"23.484"	"26.386"	"29.602"	"31.601"	"35.233"	"32.25"	"27.466"	"27.845"	"28.134"	"26.652"	"23.871"	"22.856"
"1989"	"23.102"	"24.905"	"27.798"	"32.128"	"34.929"	"30.621"	"28.241"	"27.46"	"28.203"	"27.292"	"24.431"	"22.324"
"1990"	"23.523"	"25.602"	"28.309"	"31.979"	"30.212"	"29.328"	"28"	"27.71"	"28.392"	"26.628"	"25.733"	"23.405"
"1991"	"23.824"	"26.595"	"29.633"	"31.769"	"34.15"	"30.695"	"28.217"	"27.713"	"28.581"	"27.259"	"24.052"	"22.219"
"1992"	"21.847"	"24.975"	"29.35"	"31.814"	"34.391"	"32.002"	"29.367"	"27.316"	"28.264"	"26.889"	"25.249"	"21.1"
"1993"	"23.165"	"24.568"	"29.011"	"31.884"	"34.217"	"32.442"	"28.819"	"28.222"	"28.144"	"27.726"	"24.187"	"21.051"
"1994"	"23.46"	"25.494"	"29.708"	"31.733"	"34.579"	"30.9"	"27.419"	"27.023"	"27.901"	"27.374"	"23.942"	"21.445"
"1995"	"21.43"	"25.031"	"28.73"	"31.483"	"31.602"	"33.281"	"28.34"	"28.787"	"28.469"	"26.929"	"24.823"	"23.007"
"1996"	"24.365"	"25.312"	"29.329"	"31.244"	"35.181"	"32.502"	"28.768"	"27.896"	"28.664"	"26.951"	"24.983"	"21.896"
"1997"	"22.012"	"24.734"	"28.959"	"30.1"	"33.405"	"32.89"	"29.104"	"28.54"	"28.317"	"27.374"	"26.706"	"24.736"
"1998"	"24.693"	"26.386"	"29.363"	"32.36"	"34.73"	"33.313"	"29.357"	"28.456"	"28.599"	"28.032"	"25.567"	"21.389"
"1999"	"21.672"	"26.442"	"29.5"	"33.429"	"32.836"	"30.9"	"28.434"	"27.573"	"27.581"	"27.579"	"24.392"	"22.022"
"2000"	"24.406"	"25.868"	"28.48"	"33.006"	"33.372"	"30.017"	"28.068"	"27.751"	"28.407"	"28.25"	"25.154"	"22.009"
"2001"	"23.348"	"26.4"	"29.499"	"31.068"	"34.412"	"30.103"	"28.392"	"27.455"	"28.936"	"27.518"	"26.057"	"22.533"
"2002"	"23.229"	"25.979"	"29.582"	"32.58"	"34.95"	"31.076"	"29.359"	"27.214"	"28.391"	"27.755"	"24.349"	"23.326"
