
"Year"	"Jan"	"Feb"	"Mar"	"Apr"	"May"	"Jun"	"Jul"	"Aug"	"Sep"	"Oct"	"Nov"	"Dec"
"1901"	"14.058"	"16.913"	"21.394"	"25.806"	"26.155"	"27.683"	"27.101"	"27.11"	"26.292"	"25.361"	"20.268"	"16.324"
"1902"	"16.107"	"17.191"	"22.605"	"23.926"	"26.493"	"26.985"	"26.862"	"27.44"	"26.292"	"23.853"	"19.88"	"16.035"
"1903"	"14.281"	"16.292"	"20.428"	"25.029"	"26.212"	"26.572"	"27.582"	"26.78"	"26.632"	"25.38"	"20.775"	"16.394"
"1904"	"15.058"	"16.842"	"21.706"	"24.799"	"25.056"	"26.891"	"26.549"	"27.061"	"26.363"	"24.531"	"19.658"	"16.548"
"1905"	"13.743"	"13.442"	"19.138"	"22.425"	"25.432"	"27.297"	"26.91"	"26.194"	"26.331"	"24.93"	"20.897"	"16.636"
"1906"	"14.529"	"16.091"	"19.883"	"25.217"	"26.487"	"26.886"	"27.349"	"26.412"	"27.13"	"24.611"	"21.133"	"17.155"
"1907"	"16.01"	"16.261"	"18.887"	"23.024"	"25.497"	"26.634"	"26.801"	"27.66"	"26.423"	"25.029"	"20.548"	"16.556"
"1908"	"13.958"	"16.471"	"21.475"	"26.819"	"26.07"	"27.463"	"27.061"	"27.54"	"26.491"	"24.941"	"20.028"	"16.034"
"1909"	"15.111"	"16.381"	"23.044"	"24.082"	"25.95"	"26.341"	"27.149"	"26.79"	"27.368"	"25.568"	"21.269"	"17.236"
"1910"	"14.74"	"16.73"	"21.176"	"24.621"	"25.587"	"26.454"	"25.973"	"27.2"	"26.831"	"24.52"	"20.317"	"16.534"
"1911"	"15.942"	"16.111"	"20.307"	"24.688"	"25.918"	"26.781"	"27.041"	"26.812"	"26.131"	"24.071"	"19.3"	"15.776"
"1912"	"15.229"	"17.383"	"20.337"	"22.857"	"25.796"	"26.886"	"26.511"	"26.922"	"26.363"	"24.591"	"19.829"	"16.465"
"1913"	"14.839"	"16.473"	"19.306"	"25.03"	"24.859"	"25.952"	"26.891"	"27.058"	"26.612"	"24.53"	"19.31"	"16.156"
"1914"	"15.129"	"16.762"	"20.756"	"22.925"	"25.945"	"27.208"	"27.147"	"26.692"	"26.071"	"23.351"	"20.1"	"17.216"
"1915"	"15.841"	"16.532"	"20.743"	"24.476"	"25.828"	"26.444"	"27.022"	"27.18"	"26.403"	"26.708"	"22.199"	"16.906"
"1916"	"14.84"	"16.671"	"23.116"	"24.76"	"26.704"	"27.009"	"26.273"	"26.892"	"26.491"	"24.592"	"21.035"	"16.176"
"1917"	"14.48"	"16.451"	"20.206"	"23.778"	"25.493"	"26.573"	"26.792"	"27.29"	"26.191"	"24.391"	"20.986"	"16.686"
"1918"	"13.94"	"16.172"	"21.457"	"24.025"	"27.07"	"26.11"	"26.685"	"26.292"	"26.591"	"24.691"	"20.06"	"15.778"
"1919"	"15.442"	"15.892"	"22.306"	"23.9"	"25.579"	"27.362"	"26.911"	"27.52"	"26.041"	"24.82"	"21.068"	"16.916"
"1920"	"15.442"	"16.36"	"20.308"	"24.119"	"24.92"	"26.738"	"27.41"	"26.971"	"26.28"	"25.191"	"20.897"	"17.825"
"1921"	"15.372"	"16.501"	"22.714"	"25.019"	"26.98"	"26.098"	"26.722"	"27.191"	"26.383"	"23.69"	"20.238"	"16.187"
"1922"	"15.442"	"17.441"	"22.865"	"26.637"	"27.189"	"26.381"	"26.712"	"26.922"	"26.262"	"24.328"	"20.598"	"16.835"
"1923"	"15.2"	"16.352"	"22.096"	"25.457"	"25.797"	"27.115"	"26.812"	"27.609"	"26.343"	"24.291"	"20.759"	"16.937"
"1924"	"14.793"	"16.641"	"23.205"	"26.076"	"25.302"	"27.647"	"26.812"	"26.862"	"25.691"	"25.458"	"20.348"	"17.305"
"1925"	"13.609"	"15.152"	"21.543"	"24.806"	"24.95"	"26.635"	"26.661"	"27.061"	"25.753"	"23.871"	"19.959"	"15.746"
"1926"	"14.781"	"16.762"	"19.867"	"23.319"	"25.519"	"27.351"	"26.661"	"26.991"	"26.631"	"24.84"	"19.24"	"17.037"
"1927"	"14.343"	"15.903"	"19.625"	"24.399"	"25.137"	"26.716"	"27.011"	"26.812"	"25.923"	"24.653"	"20.021"	"16.837"
"1928"	"14.223"	"17.093"	"21.819"	"25.038"	"25.988"	"26.792"	"26.95"	"26.971"	"27.331"	"24.721"	"19.761"	"16.877"
"1929"	"14.393"	"15.972"	"22.066"	"24.456"	"26.08"	"26.659"	"26.751"	"26.892"	"26.403"	"24.229"	"20.239"	"16.416"
"1930"	"13.683"	"16.312"	"21.376"	"24.387"	"26.185"	"25.899"	"27.029"	"27.061"	"26.58"	"24.201"	"19.998"	"16.196"
"1931"	"15.662"	"16.742"	"21.424"	"25.33"	"25.489"	"27.428"	"26.661"	"27.691"	"25.694"	"24.953"	"19.859"	"17.027"
"1932"	"15.185"	"15.172"	"21.698"	"24.949"	"25.449"	"26.975"	"27.122"	"27.141"	"26.805"	"25.052"	"21.477"	"16.577"
"1933"	"13.58"	"17.203"	"22.343"	"23.645"	"24.971"	"26.893"	"26.95"	"26.79"	"26.491"	"24.94"	"20.437"	"16.905"
"1934"	"14.701"	"16.9"	"21.343"	"25.276"	"25.4"	"25.965"	"26.792"	"27.191"	"27.229"	"24.23"	"20.017"	"16.866"
"1935"	"15.106"	"17.571"	"22.475"	"24.996"	"27.657"	"27.483"	"27.472"	"26.529"	"26.949"	"24.82"	"20.897"	"16.815"
"1936"	"14.458"	"16.473"	"22.145"	"25.357"	"26.396"	"26.596"	"27.091"	"27.591"	"26.42"	"24.17"	"21.428"	"17.287"
"1937"	"14.537"	"16.753"	"21.311"	"26.047"	"26.367"	"28.134"	"28.03"	"26.855"	"26.702"	"24.298"	"20.527"	"16.805"
"1938"	"15.792"	"15.683"	"23.044"	"26.548"	"25.995"	"27.271"	"26.672"	"27.56"	"26.764"	"25.191"	"18.963"	"16.877"
"1939"	"15.482"	"17.231"	"20.884"	"26.639"	"26.59"	"26.646"	"26.816"	"27.291"	"26.414"	"24.292"	"20.76"	"17.267"
"1940"	"15.067"	"16.782"	"18.999"	"24.906"	"26.224"	"27.046"	"26.933"	"27.293"	"26.255"	"25.052"	"20.781"	"17.225"
"1941"	"14.494"	"17.013"	"23.085"	"25.848"	"25.967"	"26.198"	"27.192"	"27.152"	"26.774"	"24.071"	"20.399"	"17.777"
"1942"	"15.101"	"17.261"	"21.889"	"24.594"	"27.702"	"27.965"	"27.463"	"27.11"	"26.022"	"24.752"	"21.261"	"16.643"
"1943"	"16.181"	"16.289"	"21.237"	"23.234"	"26.574"	"27.459"	"26.434"	"27.076"	"26.921"	"25.029"	"21.446"	"17.47"
"1944"	"14.443"	"16.212"	"21.272"	"23.117"	"27.249"	"28.042"	"27.122"	"27.409"	"27.416"	"24.86"	"20.597"	"17.913"
"1945"	"14.692"	"15.312"	"22.006"	"24.587"	"25.626"	"27.833"	"27.681"	"27.429"	"27.021"	"24.079"	"19.99"	"15.738"
"1946"	"15.414"	"18.083"	"21.634"	"23.3"	"25.686"	"27.344"	"27.002"	"27.611"	"27.12"	"24.391"	"20.931"	"17.687"
"1947"	"15.083"	"17.144"	"22.076"	"26.465"	"26.17"	"28.272"	"27.092"	"27.402"	"26.491"	"24.941"	"20.659"	"17.994"
"1948"	"15.335"	"16.953"	"21.656"	"25.353"	"26.434"	"28.331"	"26.812"	"27.491"	"27.14"	"24.282"	"21.375"	"16.546"
"1949"	"15.828"	"16.772"	"21.796"	"23.502"	"25.502"	"26.404"	"26.812"	"27.061"	"26.383"	"25.701"	"20.192"	"15.617"
"1950"	"15.492"	"16.591"	"21.095"	"24.985"	"27.019"	"26.765"	"27.374"	"26.601"	"26.854"	"24.511"	"19.986"	"17.335"
"1951"	"14.573"	"17.343"	"22.604"	"24.947"	"26.978"	"27.384"	"27.3"	"27.642"	"27.075"	"26.268"	"21.069"	"16.53"
"1952"	"15.305"	"17.541"	"19.935"	"24.704"	"25.675"	"27.065"	"26.581"	"27.062"	"26.071"	"25.699"	"20.74"	"16.405"
"1953"	"14.181"	"17.505"	"23.242"	"25.554"	"26.954"	"26.813"	"26.38"	"27.732"	"26.332"	"24.691"	"20.39"	"17.948"
"1954"	"14.401"	"18.68"	"22.692"	"27.14"	"27.466"	"26.35"	"26.211"	"26.723"	"26.992"	"24.307"	"20.037"	"16.436"
"1955"	"15.062"	"17.157"	"22.673"	"24.466"	"27.144"	"26.674"	"26.358"	"26.421"	"26.663"	"25.958"	"21.46"	"16.147"
"1956"	"14.963"	"16.823"	"22.427"	"26.401"	"28.17"	"27.111"	"26.335"	"26.762"	"25.854"	"25.276"	"21.193"	"16.03"
"1957"	"14.871"	"16.345"	"20.548"	"25.159"	"27.454"	"26.774"	"27.291"	"26.812"	"26.8"	"24.096"	"20.765"	"17.726"
"1958"	"16.232"	"16.614"	"21.398"	"26.25"	"26.964"	"27.879"	"27.514"	"26.891"	"26.904"	"26.159"	"22.118"	"17.807"
"1959"	"15.372"	"16.381"	"21.883"	"26.264"	"26.727"	"27.122"	"27.103"	"27.383"	"26.394"	"25.176"	"21.136"	"17.814"
"1960"	"14.323"	"18.696"	"20.745"	"25.971"	"27.821"	"27.263"	"26.813"	"27.583"	"26.06"	"25.182"	"20.487"	"18.484"
"1961"	"16.423"	"16.709"	"22.696"	"26.128"	"27.478"	"27.393"	"27.304"	"27.773"	"27.112"	"25.21"	"19.383"	"14.352"
"1962"	"14.739"	"16.48"	"21.02"	"25.712"	"26.058"	"27.133"	"27.122"	"26.442"	"26.653"	"24.062"	"20.798"	"16.558"
"1963"	"14.512"	"17.375"	"20.756"	"24.057"	"25.664"	"27.194"	"27.081"	"27.27"	"26.494"	"24.702"	"20.29"	"17.209"
"1964"	"15.208"	"17.103"	"22.537"	"26.155"	"25.386"	"27.376"	"26.411"	"27.103"	"26.793"	"26.028"	"21.241"	"16.917"
"1965"	"15.484"	"16.286"	"20.099"	"24.967"	"26.778"	"26.967"	"26.283"	"26.31"	"25.744"	"23.865"	"19.791"	"16.657"
"1966"	"13.414"	"18.145"	"22.555"	"25.753"	"27.436"	"27.127"	"27.141"	"27.191"	"25.604"	"23.282"	"21.305"	"17.167"
"1967"	"15.79"	"18.081"	"20.753"	"23.891"	"25.967"	"26.995"	"27.042"	"27.023"	"26.434"	"23.294"	"18.635"	"16.937"
"1968"	"13.934"	"16.177"	"21.966"	"24.76"	"26.661"	"26.404"	"26.593"	"27.122"	"27.021"	"23.006"	"19.216"	"15.4"
"1969"	"14.263"	"17.812"	"23.037"	"25.089"	"26.264"	"27.235"	"26.812"	"26.829"	"26.331"	"24.261"	"22.038"	"17.296"
"1970"	"14.792"	"16.103"	"20.796"	"25.737"	"27.537"	"26.941"	"27.16"	"27.212"	"26.67"	"25.128"	"19.627"	"16.774"
"1971"	"15.061"	"16.491"	"20.953"	"23.841"	"24.764"	"26.601"	"26.048"	"26.049"	"26.298"	"25.128"	"20.099"	"17.342"
"1972"	"16.445"	"16.277"	"22.452"	"24.417"	"27.659"	"26.716"	"27.598"	"26.661"	"25.1"	"24.459"	"19.289"	"16.805"
"1973"	"16.138"	"17.303"	"20.504"	"25.564"	"26.124"	"26.342"	"26.961"	"27.061"	"26.48"	"24.523"	"20.09"	"16.937"
"1974"	"14.478"	"17.748"	"21.59"	"25.903"	"25.914"	"26.704"	"26.282"	"26.951"	"25.992"	"26.866"	"20.23"	"15.624"
"1975"	"14.653"	"16.906"	"21.237"	"25.587"	"26.268"	"27.042"	"25.719"	"26.753"	"26.05"	"26.748"	"21.067"	"16.445"
"1976"	"14.562"	"18.02"	"22.346"	"25.027"	"25.624"	"26.747"	"26.434"	"26.541"	"25.691"	"24.882"	"23.397"	"17.006"
"1977"	"15.779"	"18.05"	"23.455"	"25.027"	"24.053"	"25.905"	"26.721"	"27.351"	"26.561"	"24.408"	"21.947"	"15.852"
"1978"	"12.843"	"16.152"	"19.876"	"24.024"	"26.341"	"26.611"	"26.522"	"26.644"	"26.292"	"25.32"	"21.898"	"17.317"
"1979"	"15.741"	"15.874"	"21.545"	"25.375"	"27.229"	"27.296"	"26.891"	"27.693"	"25.912"	"25.421"	"23.158"	"16.906"
"1980"	"15.002"	"17.54"	"21.507"	"26.219"	"25.345"	"27.103"	"27.18"	"27.389"	"26.791"	"24.591"	"21.058"	"18.603"
"1981"	"13.663"	"17.72"	"20.895"	"24.039"	"25.153"	"27.044"	"26.882"	"27.629"	"26.292"	"25.35"	"20.488"	"16.399"
"1982"	"15.973"	"16.462"	"20.434"	"24.864"	"26.183"	"26.805"	"27.972"	"27.378"	"26.873"	"23.903"	"20.72"	"17.724"
"1983"	"14.071"	"15.175"	"21.507"	"23.45"	"25.388"	"27.369"	"27.591"	"27.66"	"27.289"	"25.169"	"19.812"	"16.157"
"1984"	"15.044"	"17.317"	"23.183"	"25.237"	"27.628"	"26.719"	"26.512"	"26.653"	"25.652"	"26.231"	"19.509"	"18.741"
"1985"	"15.083"	"17.707"	"24.289"	"25.915"	"25.624"	"27.323"	"25.803"	"27.53"	"26.311"	"24.509"	"20.121"	"18.067"
"1986"	"15.871"	"17.191"	"21.515"	"24.275"	"24.267"	"27.437"	"26.491"	"26.87"	"25.992"	"23.98"	"21.408"	"16.09"
"1987"	"14.602"	"17.356"	"21.644"	"24.426"	"25.428"	"27.833"	"27.12"	"26.56"	"26.841"	"23.884"	"19.263"	"17.533"
"1988"	"16.812"	"18.59"	"22.275"	"25.657"	"26.705"	"26.442"	"26.893"	"27.451"	"27.221"	"25.563"	"20.646"	"17.713"
"1989"	"15.271"	"17.704"	"22.245"	"25.34"	"26.664"	"26.441"	"27.05"	"26.885"	"27.2"	"25.783"	"20.831"	"16.328"
"1990"	"18.017"	"17.172"	"20.195"	"24.216"	"26.204"	"27.77"	"26.931"	"27.333"	"26.982"	"24.628"	"22.01"	"17.837"
"1991"	"13.76"	"18.434"	"22.343"	"25.277"	"26.948"	"26.603"	"27.512"	"27.212"	"26.423"	"25.68"	"21.013"	"16.637"
"1992"	"15.416"	"15.553"	"23.92"	"25.487"	"24.909"	"26.718"	"26.061"	"27.031"	"26.642"	"25.349"	"20.871"	"16.508"
"1993"	"16.027"	"18.761"	"20.344"	"24.184"	"25.502"	"27.072"	"27.373"	"27.171"	"26.295"	"26.008"	"21.862"	"18.676"
"1994"	"15.842"	"15.923"	"22.653"	"24.397"	"26.568"	"27.542"	"27.623"	"27.202"	"27.071"	"25.019"	"20.283"	"16.768"
"1995"	"12.826"	"17.143"	"22.234"	"24.739"	"28.145"	"27.842"	"27.117"	"27.107"	"26.78"	"25.81"	"19.988"	"18.363"
"1996"	"15.232"	"16.701"	"22.047"	"24.727"	"26.826"	"26.165"	"27.078"	"26.792"	"26.682"	"25.497"	"21.808"	"18.234"
"1997"	"14.153"	"16.317"	"22.445"	"25.422"	"26.156"	"27.135"	"27.061"	"27.662"	"25.803"	"23.913"	"20.88"	"17.336"
"1998"	"15.242"	"18.179"	"21.143"	"25.584"	"27.533"	"28.095"	"26.982"	"27.401"	"27.101"	"26.981"	"22.01"	"17.91"
"1999"	"16.342"	"18.694"	"23.153"	"28.907"	"27.223"	"27.692"	"26.673"	"27.051"	"26.583"	"25.841"	"22.158"	"17.891"
"2000"	"16.207"	"16.875"	"21.463"	"24.8"	"26.248"	"27.762"	"27.479"	"26.773"	"26.091"	"25.878"	"21.97"	"17.744"
"2001"	"16.04"	"18.209"	"21.271"	"25.607"	"27.355"	"27.472"	"27.649"	"27.711"	"27.329"	"25.922"	"22.528"	"18.547"
"2002"	"15.271"	"18.423"	"22.785"	"25.094"	"26.241"	"27.624"	"27.673"	"27.061"	"26.502"	"25.052"	"21.598"	"18.126"
