
"Year"	"Jan"	"Feb"	"Mar"	"Apr"	"May"	"Jun"	"Jul"	"Aug"	"Sep"	"Oct"	"Nov"	"Dec"
"1901"	"13.672"	"17.005"	"24.321"	"29.797"	"34.07"	"36.187"	"31.261"	"27.537"	"28.277"	"27.556"	"21.283"	"16.716"
"1902"	"16.855"	"19.422"	"26.81"	"30.843"	"34.481"	"34.469"	"29.361"	"28.96"	"27.443"	"26"	"20.012"	"15.089"
"1903"	"15.76"	"17.537"	"23.468"	"28.976"	"32.935"	"36.127"	"31.461"	"27.887"	"28.016"	"24.912"	"19.478"	"14.895"
"1904"	"15.478"	"18.232"	"23.604"	"30.743"	"33.365"	"34.175"	"27.649"	"26.793"	"27.121"	"25.899"	"19.894"	"15.989"
"1905"	"14.122"	"13.739"	"21.468"	"27.705"	"34.796"	"36.209"	"29.988"	"28.461"	"28.79"	"26.379"	"22.005"	"16.035"
"1906"	"14.733"	"16.792"	"22.576"	"30.103"	"35.975"	"33.395"	"29.243"	"28.148"	"26.804"	"25.794"	"21.378"	"16.505"
"1907"	"16.773"	"16.821"	"22.152"	"27.82"	"32.452"	"34.709"	"32.055"	"27.204"	"28.699"	"26.961"	"21.294"	"14.689"
"1908"	"14.589"	"18.421"	"23.594"	"31.17"	"33.952"	"35.487"	"28.121"	"27.01"	"27.794"	"25.654"	"20.265"	"14.967"
"1909"	"15.353"	"17.365"	"24.598"	"27.897"	"33.102"	"32.183"	"27.949"	"27.488"	"27.132"	"25.812"	"21.623"	"15.172"
"1910"	"14.75"	"18.505"	"24.464"	"29.471"	"34.175"	"33.064"	"29.487"	"27.932"	"27.686"	"24.567"	"19.389"	"15.629"
"1911"	"17.233"	"18.467"	"22.375"	"29.897"	"35.451"	"33.424"	"30.539"	"27.974"	"26.815"	"26.211"	"19.172"	"15.513"
"1912"	"16.061"	"19.305"	"23.565"	"30.016"	"34.581"	"36.037"	"30.239"	"27.943"	"26.781"	"25.871"	"19.578"	"15.234"
"1913"	"15.677"	"18.193"	"22.281"	"31.242"	"32.341"	"31.95"	"29.556"	"28.827"	"29.366"	"27.594"	"20.795"	"15.906"
"1914"	"17.459"	"18.593"	"23.687"	"30.305"	"34.121"	"33.406"	"29.003"	"27.762"	"28.16"	"25.687"	"21.594"	"15.354"
"1915"	"15.537"	"16.492"	"23.504"	"29.398"	"35.536"	"35.215"	"31.112"	"28.366"	"29.034"	"27.364"	"20.867"	"16.483"
"1916"	"15.989"	"17.631"	"26.52"	"31.331"	"34.235"	"31.978"	"29.778"	"27.345"	"27.661"	"25.061"	"18.667"	"14.595"
"1917"	"15.79"	"17.933"	"23.421"	"27.331"	"30.453"	"32.716"	"28.414"	"27.286"	"26.998"	"24.804"	"18.126"	"15.855"
"1918"	"14.171"	"18.604"	"24.087"	"28.459"	"35.491"	"33.395"	"31.978"	"29.188"	"28.827"	"26.9"	"21.123"	"14.967"
"1919"	"15.559"	"17.227"	"24.582"	"29.416"	"33.364"	"35.144"	"28.144"	"27.044"	"27.603"	"25.312"	"20.265"	"15.194"
"1920"	"15.389"	"17.92"	"24.61"	"29.875"	"31.223"	"33.152"	"28.316"	"28.138"	"29.366"	"27.813"	"22.16"	"16.812"
"1921"	"16.631"	"19.015"	"26.821"	"32.521"	"36.246"	"34.477"	"31.677"	"27.273"	"26.865"	"25.5"	"20.334"	"17.595"
"1922"	"15.144"	"19.804"	"25.519"	"30.816"	"34.524"	"33.26"	"28.988"	"26.938"	"26.992"	"25.51"	"20.178"	"15.211"
"1923"	"15.26"	"17.8"	"24.78"	"30.685"	"33.536"	"36.81"	"30.137"	"26.922"	"27.811"	"25.073"	"20.466"	"15.955"
"1924"	"14.62"	"18.093"	"25.641"	"30.803"	"32.301"	"35.892"	"29.016"	"27.532"	"27.264"	"24.938"	"19.742"	"15.605"
"1925"	"13.531"	"16.509"	"24.298"	"31.545"	"32.682"	"31.07"	"27.244"	"28.472"	"28.401"	"26.4"	"19.613"	"15.134"
"1926"	"15.588"	"19.478"	"22.953"	"26.798"	"32.052"	"36.015"	"30.056"	"27.631"	"26.992"	"24.279"	"18.15"	"14.279"
"1927"	"13.332"	"16.305"	"22.309"	"28.988"	"33.236"	"34.309"	"28.961"	"27.193"	"27.752"	"25.5"	"19.072"	"16.433"
"1928"	"14.932"	"18.338"	"24.293"	"29.516"	"34.881"	"33.85"	"29.268"	"29.126"	"28.915"	"26.494"	"21.589"	"15.19"
"1929"	"15.027"	"16.593"	"25.699"	"30.386"	"34.735"	"33.943"	"28.855"	"26.973"	"28.909"	"25.823"	"21.266"	"15.067"
"1930"	"15.188"	"17.861"	"25.299"	"29.545"	"33.737"	"33.887"	"27.844"	"27.333"	"28.182"	"26.583"	"20.078"	"15.912"
"1931"	"17.149"	"17.275"	"23.763"	"31.504"	"34.38"	"35.398"	"30.345"	"28.303"	"27.333"	"24.696"	"19.977"	"16.007"
"1932"	"17.918"	"17.339"	"24.305"	"29.416"	"33.442"	"35.492"	"30.238"	"27.614"	"27.734"	"25.86"	"19.645"	"15.711"
"1933"	"13.766"	"18.68"	"24.594"	"28.404"	"31.146"	"33.008"	"29.003"	"27.292"	"26.765"	"24.843"	"20.067"	"15.594"
"1934"	"14.032"	"18.85"	"22.969"	"29.685"	"33.406"	"33.098"	"28.756"	"27.215"	"27.216"	"23.744"	"19.367"	"16.379"
"1935"	"13.726"	"18.333"	"24.054"	"27.188"	"34.152"	"35.231"	"29.003"	"27.304"	"27.449"	"24.973"	"20.984"	"15.767"
"1936"	"13.772"	"18.232"	"24.047"	"29.427"	"35.386"	"32.208"	"28.632"	"27.345"	"27.304"	"25.366"	"20.688"	"15.594"
"1937"	"14.289"	"18.662"	"22.553"	"28.432"	"33.799"	"34.668"	"29.315"	"28.422"	"27.932"	"25.152"	"21.266"	"14.967"
"1938"	"15.221"	"16.721"	"25.821"	"31.026"	"35.592"	"31.426"	"29.268"	"28.133"	"28.96"	"26.229"	"19.567"	"15.584"
"1939"	"16.543"	"18.765"	"22.152"	"28.904"	"34.929"	"32.903"	"28.949"	"28.911"	"27.273"	"26.511"	"20.101"	"15.534"
"1940"	"15.361"	"17.65"	"22.582"	"28.71"	"34.463"	"34.687"	"30.106"	"27.327"	"27.477"	"25.772"	"21.417"	"15.478"
"1941"	"14.832"	"18.733"	"26.192"	"31.997"	"35.109"	"33.674"	"31.049"	"28.695"	"28.732"	"28.245"	"21.294"	"17.523"
"1942"	"13.933"	"19.037"	"25.613"	"31.484"	"35.141"	"35.609"	"28.398"	"27.286"	"26.921"	"25.672"	"21.344"	"15.278"
"1943"	"16.321"	"17.833"	"25.152"	"28.726"	"34.441"	"33.337"	"29.017"	"26.649"	"27.887"	"25.284"	"22.427"	"16.595"
"1944"	"14.832"	"17.804"	"22.692"	"28.926"	"35.095"	"33.081"	"28.922"	"28.132"	"27.926"	"24.855"	"21.22"	"17.294"
"1945"	"13.549"	"17.631"	"25.191"	"28.933"	"33.924"	"34.781"	"29.593"	"28.321"	"27.304"	"24.883"	"20.19"	"14.607"
"1946"	"16.061"	"20.132"	"24.252"	"31.765"	"34.352"	"33.26"	"29.003"	"27.609"	"28.176"	"26.284"	"19.889"	"16.631"
"1947"	"13.844"	"19.027"	"25.475"	"31.07"	"34.952"	"34.992"	"29.395"	"28.254"	"27.298"	"24.284"	"21.395"	"16.505"
"1948"	"15.239"	"17.604"	"23.37"	"31.413"	"35.552"	"35.216"	"29.744"	"27.734"	"27.449"	"26.383"	"19.807"	"15.924"
"1949"	"16.988"	"18.932"	"25.081"	"31.342"	"35.121"	"34.628"	"29.415"	"27.932"	"27.998"	"25.56"	"19.395"	"15.206"
"1950"	"16.388"	"17.121"	"23.081"	"29.031"	"34.486"	"34.865"	"29.266"	"27.609"	"27.421"	"25.272"	"19.678"	"14.766"
"1951"	"14.261"	"17.849"	"24.07"	"28.104"	"34.053"	"34.326"	"30.989"	"27.915"	"27.692"	"28.551"	"22.283"	"15.835"
"1952"	"16.789"	"20.622"	"24.198"	"31.655"	"35.438"	"32.855"	"29.038"	"27.021"	"28.604"	"26.588"	"20.706"	"16.63"
"1953"	"13.961"	"19.891"	"27.681"	"31.3"	"35.386"	"35.798"	"29.755"	"27.734"	"27.833"	"25.812"	"20.194"	"17.769"
"1954"	"13.967"	"19.833"	"24.504"	"31.044"	"35.78"	"35.128"	"30.043"	"28.126"	"27.087"	"23.872"	"21.006"	"15.794"
"1955"	"15.149"	"18.766"	"26.524"	"28.694"	"33.77"	"34.514"	"29.512"	"27.538"	"27.655"	"24.196"	"19.617"	"16.117"
"1956"	"15.549"	"18.558"	"25.034"	"30.816"	"35.193"	"32.911"	"27.822"	"27.216"	"27.855"	"24.738"	"19.161"	"16.412"
"1957"	"15.004"	"17.27"	"22.759"	"29.192"	"32.881"	"33.55"	"29.188"	"28.414"	"26.704"	"25.871"	"22.166"	"16.994"
"1958"	"17.601"	"19.387"	"25.557"	"32.126"	"34.652"	"35.138"	"28.933"	"27.904"	"27.104"	"25.024"	"20.782"	"17.446"
"1959"	"15.703"	"18.222"	"25.87"	"30.586"	"33.653"	"34.427"	"28.744"	"27.621"	"27.709"	"26.395"	"21.088"	"17.305"
"1960"	"14.972"	"21.315"	"24.554"	"30.004"	"34.508"	"35.398"	"29.432"	"27.087"	"28.032"	"25.156"	"20.078"	"17.083"
"1961"	"15.499"	"16.65"	"25.04"	"29.531"	"33.91"	"33.065"	"28.418"	"27.115"	"27.061"	"24.495"	"19.695"	"14.161"
"1962"	"14.254"	"18.517"	"23.71"	"30.154"	"33.681"	"34.465"	"29.812"	"27.631"	"26.743"	"23.977"	"20.878"	"17.066"
"1963"	"14.683"	"19.9"	"23.808"	"28.431"	"32.544"	"32.766"	"29.13"	"26.832"	"26.603"	"26.229"	"22.917"	"16.483"
"1964"	"14.604"	"18.649"	"26.509"	"31.455"	"32.798"	"34.068"	"28.694"	"28.244"	"27.193"	"26.029"	"20.128"	"16.889"
"1965"	"17.194"	"18.765"	"23.792"	"28.66"	"33.186"	"35.244"	"29.754"	"28.638"	"27.361"	"26.472"	"21.871"	"16.338"
"1966"	"16.382"	"21.143"	"24.299"	"30.028"	"33.664"	"32.41"	"30.983"	"27.333"	"28.509"	"27.406"	"22.172"	"15.835"
"1967"	"14.878"	"20.748"	"23.121"	"29.42"	"34.398"	"33.926"	"28.877"	"26.539"	"26.178"	"26.322"	"21.476"	"16.806"
"1968"	"14.761"	"17.409"	"24.947"	"29.132"	"32.664"	"33.3"	"28.148"	"27.149"	"28.177"	"25.512"	"21.489"	"16.895"
"1969"	"15.765"	"19.523"	"26.769"	"29.764"	"32.941"	"34.224"	"28.612"	"26.955"	"26.932"	"27.657"	"22.384"	"16.652"
"1970"	"16.132"	"17.955"	"24.554"	"32.292"	"34.657"	"32.282"	"30.024"	"27.673"	"27.16"	"26"	"20.377"	"16.707"
"1971"	"14.56"	"18.955"	"23.81"	"30.441"	"32.561"	"30.319"	"26.865"	"26.514"	"27.125"	"25.647"	"20.161"	"16.082"
"1972"	"15.24"	"16.71"	"25.223"	"29.941"	"34.889"	"35.559"	"31.327"	"26.624"	"26.57"	"25.483"	"21.384"	"16.793"
"1973"	"15.864"	"19.621"	"24.276"	"32.339"	"35.756"	"34.875"	"28.943"	"27.46"	"27.321"	"25.352"	"20.293"	"15.528"
"1974"	"14.877"	"17.233"	"25.792"	"31.98"	"34.07"	"33.793"	"28.03"	"26.849"	"28.649"	"26.56"	"20.138"	"15.295"
"1975"	"14.22"	"17.926"	"23.957"	"31.405"	"35.605"	"32.724"	"28.314"	"27.221"	"26.61"	"26.26"	"19.45"	"16.455"
"1976"	"16.183"	"19.399"	"24.315"	"29.976"	"34.071"	"31.708"	"29.397"	"27.115"	"27.298"	"26.205"	"22.432"	"16.463"
"1977"	"14.8"	"18.931"	"26.341"	"29.527"	"32.08"	"32.406"	"27.382"	"27.06"	"26.288"	"25.94"	"22.776"	"17.229"
"1978"	"15.267"	"17.861"	"22.584"	"29.19"	"35.953"	"33.214"	"28.045"	"25.975"	"26.498"	"26.466"	"22.495"	"16.47"
"1979"	"16.534"	"17.227"	"22.799"	"30.021"	"30.875"	"32.304"	"28.245"	"27.927"	"28.858"	"27.726"	"23.91"	"17.351"
"1980"	"15.772"	"20.105"	"24.47"	"31.264"	"34.452"	"31.156"	"27.327"	"26.286"	"28.183"	"27.484"	"21.938"	"16.451"
"1981"	"15.782"	"19.628"	"23.999"	"29.788"	"33.186"	"33.997"	"27.284"	"27.315"	"28.632"	"26.551"	"20.666"	"15.995"
"1982"	"16.309"	"17.591"	"22.106"	"29.153"	"31.601"	"33.809"	"30.809"	"26.866"	"27.656"	"27.428"	"21.826"	"17.338"
"1983"	"15.056"	"17.492"	"24.025"	"27.798"	"32.441"	"33.258"	"28.985"	"27.81"	"27.427"	"25.272"	"19.415"	"16.481"
"1984"	"15.26"	"16.509"	"25.821"	"30.731"	"36.733"	"34.055"	"29.403"	"26.706"	"26.83"	"25.733"	"20.429"	"16.986"
"1985"	"15.648"	"19.482"	"26.461"	"31.403"	"35.081"	"34.389"	"29.039"	"27.244"	"26.87"	"24.02"	"21.157"	"17.579"
"1986"	"15.338"	"17.587"	"24.144"	"30.305"	"32.523"	"33.032"	"27.534"	"28.253"	"28.102"	"26.679"	"22.041"	"15.705"
"1987"	"16.019"	"19.781"	"25.369"	"31.09"	"32.037"	"35.405"	"31.522"	"29.624"	"28.855"	"26.995"	"21.503"	"16.257"
"1988"	"15.966"	"20.249"	"25.235"	"31.578"	"36.275"	"33.238"	"28.559"	"27.856"	"28.784"	"25.8"	"20.94"	"17.323"
"1989"	"14.554"	"18.409"	"23.999"	"29.476"	"34.443"	"32.126"	"29.76"	"28.052"	"28.095"	"26.657"	"20.591"	"16.382"
"1990"	"17.573"	"18.882"	"23.475"	"30.832"	"33.288"	"32.78"	"27.889"	"27.961"	"26.832"	"26.064"	"21.548"	"16.884"
"1991"	"15.071"	"19.61"	"24.851"	"29.148"	"34.749"	"34.478"	"31.211"	"27.327"	"28.075"	"25.645"	"20.639"	"16.723"
"1992"	"16.061"	"17.989"	"24.835"	"30.034"	"32.998"	"35.865"	"29.891"	"27.794"	"26.744"	"25.841"	"21.232"	"17.233"
"1993"	"15.915"	"19.559"	"22.771"	"29.531"	"35.42"	"34.294"	"30.231"	"28.895"	"26.566"	"26.467"	"22.071"	"16.47"
"1994"	"17.426"	"18.32"	"25.765"	"28.97"	"35.012"	"33.697"	"28.205"	"27.138"	"27.165"	"25.716"	"21.232"	"16.818"
"1995"	"14.544"	"18.621"	"23.204"	"29.702"	"34.484"	"35.364"	"30.289"	"27.345"	"27.903"	"27.007"	"20.94"	"17.278"
"1996"	"15.732"	"18.37"	"25.043"	"29.512"	"33.864"	"33.435"	"29.176"	"26.722"	"27.69"	"25.772"	"20.612"	"14.824"
"1997"	"14.86"	"18.232"	"24.697"	"28.487"	"32.196"	"32.596"	"29.742"	"27.637"	"27.678"	"24.761"	"20.753"	"14.465"
"1998"	"14.689"	"19.158"	"22.576"	"30.42"	"35.141"	"34.098"	"29.378"	"28.203"	"28.466"	"26.732"	"21.787"	"16.784"
"1999"	"15.305"	"19.104"	"25.227"	"31.872"	"34.181"	"32.856"	"29.712"	"27.844"	"27.232"	"26.176"	"22.41"	"16.56"
"2000"	"16.187"	"17.735"	"24.076"	"32.043"	"33.716"	"32.115"	"28.615"	"28.361"	"27.712"	"27.55"	"23.359"	"17.299"
"2001"	"15.206"	"19.865"	"24.897"	"29.843"	"33.61"	"31.275"	"28.554"	"28.561"	"28.937"	"27.306"	"22.378"	"17.757"
"2002"	"15.861"	"18.711"	"25.586"	"31.743"	"35.263"	"33.793"	"31.643"	"28.044"	"27.115"	"26.996"	"21.872"	"18.063"
