
"Year"	"Jan"	"Feb"	"Mar"	"Apr"	"May"	"Jun"	"Jul"	"Aug"	"Sep"	"Oct"	"Nov"	"Dec"
"1901"	"14.436"	"0.341"	"9.583"	"1.597"	"6.861"	"106.221"	"384.723"	"293.103"	"57.003"	"53.697"	"0.272"	"0.007"
"1902"	"4.804"	"0.118"	"0"	"0.762"	"1.589"	"52.281"	"291.942"	"155.562"	"176.058"	"29.714"	"89.663"	"13.998"
"1903"	"0.97"	"0"	"0"	"0"	"11.942"	"107.567"	"398.822"	"267.702"	"204.173"	"26.272"	"0.272"	"0.007"
"1904"	"0"	"2.53"	"9.236"	"0"	"21.232"	"64.87"	"189.179"	"111.21"	"125.338"	"25.651"	"0.272"	"8.81"
"1905"	"0.15"	"0.942"	"0.172"	"0"	"5.896"	"47.961"	"425.49"	"140.481"	"306.653"	"0.316"	"0.563"	"0.139"
"1906"	"0"	"1.02"	"2.814"	"0"	"1.069"	"225.9"	"376.953"	"226.379"	"211.998"	"1.772"	"0.272"	"10.492"
"1907"	"10.238"	"9.692"	"0.069"	"4.499"	"1.93"	"81.133"	"302.168"	"258.736"	"21.023"	"0.316"	"20.864"	"0.248"
"1908"	"0.544"	"0"	"10.399"	"3.808"	"0"	"168.742"	"363.542"	"222.821"	"83.901"	"3.811"	"2.634"	"0.675"
"1909"	"3.293"	"0.82"	"0.395"	"2.043"	"17.205"	"129.344"	"298.703"	"235.666"	"242.637"	"0.345"	"0.272"	"32.728"
"1910"	"0.008"	"0"	"0"	"0.288"	"6.631"	"204.646"	"159.874"	"241.591"	"219.106"	"61.691"	"91.256"	"0.007"
"1911"	"1.325"	"0"	"1.508"	"0"	"0"	"139.536"	"122.113"	"197.823"	"129.518"	"4.314"	"82.918"	"0.007"
"1912"	"0"	"3.028"	"0"	"0.598"	"1.296"	"70.143"	"355.043"	"236.191"	"82.61"	"3.287"	"100.218"	"0.579"
"1913"	"0"	"0.437"	"2.159"	"0.015"	"7.747"	"132.28"	"403.893"	"182.414"	"199.698"	"0.827"	"0.272"	"11.281"
"1914"	"0"	"1.239"	"4.695"	"3.334"	"33.06"	"157.615"	"385.071"	"146.607"	"313.329"	"1.059"	"13.858"	"7.196"
"1915"	"2.561"	"10.865"	"25.065"	"3.213"	"7.576"	"158.881"	"265.953"	"143.681"	"189.88"	"131.417"	"2.938"	"7.316"
"1916"	"0"	"1.253"	"0"	"0.144"	"13.883"	"180.721"	"356.087"	"297.489"	"266.667"	"60.202"	"42.517"	"0.007"
"1917"	"0.676"	"4.289"	"5.465"	"0.209"	"42.766"	"112.467"	"205.934"	"202.491"	"353.52"	"83.377"	"0.272"	"0.007"
"1918"	"0"	"0.648"	"1.428"	"0"	"26.768"	"140.444"	"127.713"	"120.816"	"43.89"	"1.674"	"32.079"	"2.31"
"1919"	"13.767"	"0.493"	"0.109"	"1.772"	"7.638"	"238.314"	"242.785"	"293.238"	"140.772"	"57.058"	"28.301"	"0.386"
"1920"	"8.434"	"0"	"0.302"	"0.354"	"20.047"	"114.327"	"240.571"	"96.829"	"79.913"	"0.316"	"0.272"	"0.007"
"1921"	"3.304"	"0.158"	"0"	"0"	"0"	"219.581"	"302.396"	"191.762"	"212.09"	"1.186"	"0.272"	"0.007"
"1922"	"7.894"	"2.37"	"0.065"	"0"	"0.665"	"159.431"	"279.08"	"64.089"	"347.458"	"5.789"	"59.491"	"4.743"
"1923"	"0.491"	"0.145"	"10.029"	"1.703"	"4.564"	"16.219"	"559.032"	"255.831"	"255.994"	"4.48"	"0.77"	"1.765"
"1924"	"7.779"	"0.109"	"0.406"	"0.069"	"11.711"	"78.078"	"262.345"	"225.856"	"169.662"	"91.712"	"0.272"	"10.182"
"1925"	"0"	"0"	"0"	"0"	"25.125"	"96.638"	"230.336"	"180.416"	"71.344"	"2.634"	"71.812"	"1.485"
"1926"	"2.895"	"0.354"	"2.572"	"4.236"	"19.768"	"29.491"	"226.708"	"434.64"	"115.896"	"10.883"	"2.984"	"0.304"
"1927"	"0"	"1.271"	"7.188"	"1.165"	"0.297"	"121.971"	"358.447"	"127.138"	"130.398"	"43.309"	"106.763"	"8.139"
"1928"	"0.793"	"12.923"	"2.569"	"0.25"	"0.359"	"106.834"	"366.431"	"148.697"	"169.075"	"74.605"	"2.769"	"79.666"
"1929"	"2.328"	"5.897"	"0"	"7.138"	"0.169"	"192.872"	"297.966"	"128.414"	"102.358"	"3.051"	"0.272"	"3.766"
"1930"	"0.03"	"0.018"	"0"	"1.08"	"10.668"	"170.802"	"369.85"	"167.965"	"313.04"	"7.882"	"20.294"	"0.075"
"1931"	"1.251"	"0.604"	"0.293"	"0.11"	"1.562"	"120.369"	"402.834"	"385.48"	"301.6"	"123.577"	"79.138"	"3.031"
"1932"	"0"	"5.756"	"14.418"	"0.778"	"0"	"106.61"	"596.125"	"177.806"	"246.168"	"36.673"	"0.272"	"0.007"
"1933"	"0.283"	"3.3"	"2.763"	"1.965"	"19.036"	"211.375"	"231.067"	"329.046"	"409.97"	"17.298"	"25.558"	"12.77"
"1934"	"4.573"	"0"	"1.138"	"0"	"0"	"200.613"	"341.851"	"521.427"	"361.855"	"5.31"	"89.754"	"2.956"
"1935"	"0.808"	"0.785"	"0"	"9.947"	"1.367"	"118.276"	"449.867"	"200.756"	"229.166"	"64.671"	"3.165"	"3.702"
"1936"	"0.03"	"1.351"	"8.643"	"1.164"	"23.231"	"233.784"	"126.384"	"117.477"	"254.906"	"0.42"	"139.937"	"0.007"
"1937"	"0"	"2.008"	"9.337"	"2.712"	"0.371"	"162.93"	"433.416"	"64.395"	"286.781"	"63.405"	"2.532"	"1.04"
"1938"	"2.832"	"0"	"5.095"	"0.494"	"38.21"	"363.112"	"415.92"	"214.001"	"175.935"	"103.195"	"0.563"	"0.007"
"1939"	"1.139"	"0.303"	"12.307"	"0.144"	"0"	"48.868"	"351.842"	"368.994"	"124.781"	"15.358"	"20.75"	"1.682"
"1940"	"0.555"	"1.502"	"6.409"	"0.862"	"19.661"	"178.07"	"468.071"	"306.77"	"85.937"	"44.066"	"30.856"	"4.862"
"1941"	"10.674"	"10.296"	"8.722"	"1.786"	"0.17"	"31.442"	"359.19"	"190.432"	"132.01"	"0.316"	"0.272"	"0.007"
"1942"	"4.34"	"4.791"	"0.15"	"0.87"	"2.643"	"124.625"	"471.458"	"406.374"	"163.777"	"0.374"	"0.272"	"26.252"
"1943"	"9.809"	"0"	"0"	"2.433"	"12.375"	"133.864"	"254.608"	"93.107"	"207.56"	"52.984"	"0.272"	"0.007"
"1944"	"2.778"	"3.851"	"20.299"	"3.13"	"1.315"	"91.486"	"527.986"	"548.383"	"190.203"	"61.89"	"0.544"	"0.751"
"1945"	"13.605"	"0"	"0"	"1.583"	"1.672"	"85.17"	"305.531"	"321.299"	"270.752"	"4.935"	"0.272"	"0.007"
"1946"	"0"	"3.478"	"0"	"1.678"	"5.15"	"319.122"	"258.483"	"313.466"	"82.512"	"3.306"	"139.897"	"9.465"
"1947"	"8.906"	"2.325"	"2.42"	"4.255"	"1.293"	"60.141"	"360.68"	"352.145"	"278.465"	"20.419"	"0.301"	"15.279"
"1948"	"18.855"	"0.425"	"2.836"	"1.721"	"2.459"	"248.31"	"322.91"	"239.134"	"146.194"	"10.709"	"103.472"	"0.255"
"1949"	"0"	"0"	"0"	"0.289"	"7.47"	"139.337"	"243.015"	"208.936"	"379.986"	"69.464"	"0.756"	"0.007"
"1950"	"0.992"	"0.283"	"2.818"	"0.015"	"4.168"	"46.804"	"354.458"	"125.268"	"249.82"	"2.035"	"0.407"	"24.798"
"1951"	"0.784"	"1.941"	"1.497"	"4.858"	"1.773"	"104.679"	"211.667"	"194.791"	"104.906"	"28.591"	"0.287"	"0.007"
"1952"	"0"	"1.69"	"0.448"	"1.831"	"2.372"	"123.901"	"278.159"	"129.295"	"47.672"	"1.108"	"0.272"	"3.6"
"1953"	"1.435"	"0"	"0"	"0.763"	"0.606"	"75.298"	"266.641"	"294.159"	"153.925"	"25.499"	"0.272"	"0.007"
"1954"	"9.872"	"1.095"	"2.884"	"0"	"0"	"72.23"	"341.854"	"220.145"	"487.743"	"5.556"	"0.272"	"0.007"
"1955"	"12.035"	"0"	"0.016"	"0.195"	"0.141"	"160.607"	"185.432"	"318.269"	"353.464"	"93.196"	"0.272"	"0.007"
"1956"	"5.91"	"0"	"0.023"	"2.75"	"10.914"	"213.997"	"376.84"	"197.279"	"163.964"	"26.757"	"57.606"	"2.667"
"1957"	"1.24"	"0"	"16.869"	"2.812"	"6.986"	"106.497"	"218.465"	"261.362"	"99.318"	"6.744"	"7.987"	"0.213"
"1958"	"7.94"	"0"	"1.126"	"1.301"	"16.4"	"114.201"	"314.636"	"298.651"	"193.907"	"62.063"	"59.176"	"0.007"
"1959"	"13.912"	"0.164"	"0"	"2.963"	"8.212"	"116.999"	"414.201"	"356.585"	"386.111"	"80.019"	"48.629"	"0.007"
"1960"	"22.223"	"0"	"9.358"	"2.616"	"8.009"	"198.782"	"249.892"	"304.373"	"69.833"	"62.346"	"0.272"	"0.733"
"1961"	"6.334"	"0"	"0.228"	"0.14"	"10.293"	"100.289"	"337.247"	"220.07"	"428.455"	"118.678"	"7.933"	"10.527"
"1962"	"1.044"	"0.453"	"18.576"	"5.338"	"2.33"	"61.318"	"347.406"	"165.655"	"372.677"	"0.637"	"66.509"	"54.731"
"1963"	"9.614"	"4.706"	"1.308"	"0.462"	"7.604"	"121.039"	"252.833"	"230.281"	"170.232"	"35.138"	"36.023"	"0.429"
"1964"	"0"	"0.007"	"4.287"	"0"	"2.495"	"194.904"	"274.065"	"331.212"	"143.309"	"9.806"	"0.272"	"0.007"
"1965"	"6.788"	"0.072"	"2.349"	"3.488"	"0.555"	"64.917"	"261.394"	"264.734"	"89.539"	"2.912"	"0.57"	"8.898"
"1966"	"1.483"	"0.01"	"6.679"	"0.102"	"24.142"	"37.106"	"263.969"	"143.356"	"178.933"	"1.287"	"66.555"	"10.042"
"1967"	"0"	"0"	"13.066"	"0.594"	"0.638"	"170.191"	"231.418"	"244.723"	"82.121"	"3.439"	"0.272"	"88.803"
"1968"	"1.702"	"5.58"	"9.811"	"1.186"	"0"	"37.883"	"292.513"	"439.151"	"110.427"	"11.117"	"0.272"	"0.445"
"1969"	"5.448"	"0"	"0.069"	"0"	"1.623"	"64.349"	"379.2"	"279.56"	"305.139"	"0.316"	"58.493"	"0.007"
"1970"	"10.221"	"0.786"	"4.915"	"5.496"	"23.986"	"301.596"	"122.188"	"352.164"	"295.054"	"2.177"	"0.272"	"0.007"
"1971"	"0.639"	"1.152"	"0.646"	"0.513"	"30.583"	"106.291"	"217.5"	"203.257"	"198.67"	"33.813"	"0.272"	"0.007"
"1972"	"0"	"0.047"	"0"	"0.072"	"0.727"	"112.932"	"123.702"	"354.803"	"139.516"	"8.224"	"31.504"	"1.466"
"1973"	"0"	"3.603"	"0"	"0.015"	"0.899"	"126.411"	"429.432"	"342.465"	"202.253"	"50.131"	"0.272"	"4.409"
"1974"	"0"	"3.449"	"0.008"	"7.491"	"32.752"	"86.115"	"205.996"	"370.274"	"114.683"	"61.977"	"0.272"	"0.007"
"1975"	"1.758"	"2.363"	"1.96"	"0"	"5.159"	"142.651"	"285.83"	"347.056"	"238.957"	"44.867"	"0.272"	"0.007"
"1976"	"0.895"	"0.393"	"5.753"	"4.982"	"5.126"	"118.847"	"338.938"	"202.753"	"166.014"	"0.316"	"58.567"	"6.901"
"1977"	"0.012"	"0.965"	"8.63"	"0.641"	"3.751"	"246.155"	"218.64"	"231.797"	"172.937"	"35.47"	"129.982"	"0.843"
"1978"	"10.118"	"18.395"	"8.491"	"3.66"	"0"	"176.865"	"279.394"	"337.974"	"74.653"	"18.426"	"23.133"	"19.799"
"1979"	"17.9"	"6.968"	"2.517"	"0"	"5.955"	"145.928"	"290.605"	"321.76"	"66.878"	"30.256"	"67.439"	"8.692"
"1980"	"0.298"	"0.249"	"0.092"	"0.157"	"0"	"190.688"	"125.832"	"307.977"	"84.253"	"0.442"	"0.272"	"32.198"
"1981"	"9.731"	"0.185"	"1.477"	"0.117"	"14.113"	"83.779"	"212.801"	"342.297"	"149.026"	"23.492"	"18.755"	"6.442"
"1982"	"18.784"	"3.313"	"5.144"	"0.433"	"8.663"	"85.46"	"231.683"	"251.422"	"79.533"	"29.822"	"40.179"	"0.139"
"1983"	"0.358"	"0"	"0.436"	"0.275"	"1.244"	"117.237"	"361.773"	"295.45"	"336.641"	"51.469"	"0.272"	"2.864"
"1984"	"8.094"	"8.373"	"0"	"0"	"0.444"	"72.996"	"176.113"	"468.788"	"32.315"	"49.877"	"1.211"	"5.306"
"1985"	"2.669"	"0"	"0.205"	"8.5"	"6.415"	"68.672"	"244.889"	"274.371"	"124.127"	"148.015"	"0.272"	"0.007"
"1986"	"1.196"	"6.617"	"2.937"	"0"	"4.986"	"109.99"	"354.996"	"279.323"	"64.021"	"15.842"	"0.272"	"11.031"
"1987"	"4.918"	"5.997"	"4.471"	"0"	"16.013"	"121.917"	"177.815"	"317.833"	"66.006"	"35.262"	"18.038"	"33.55"
"1988"	"0.271"	"0.168"	"0.071"	"4.924"	"1.413"	"156.246"	"287.496"	"247.518"	"157.158"	"56.811"	"1.992"	"0.754"
"1989"	"0.346"	"0"	"20.46"	"0"	"6.557"	"183.241"	"98.873"	"226.782"	"142.819"	"0.316"	"0.272"	"7.004"
"1990"	"0.438"	"6.604"	"0.536"	"0"	"38.517"	"203.724"	"347.212"	"429.193"	"230.427"	"9.271"	"3.894"	"23.566"
"1991"	"0"	"0.527"	"3.605"	"2.9"	"4.107"	"187.8"	"287.618"	"191.285"	"22.522"	"1.391"	"6.899"	"0.572"
"1992"	"0.79"	"0.843"	"0"	"0"	"23.372"	"74.765"	"104.18"	"200.282"	"294.55"	"29.08"	"0.288"	"0.007"
"1993"	"0"	"0.912"	"5.443"	"0.001"	"5.867"	"135.65"	"310.146"	"193.255"	"162.055"	"15.02"	"1.624"	"3.215"
"1994"	"20.475"	"1.213"	"8.18"	"1.682"	"8.588"	"287.497"	"329.85"	"327.666"	"169.382"	"4.982"	"1.89"	"0.007"
"1995"	"9.808"	"0.62"	"16.058"	"1.994"	"11.563"	"83.844"	"432.591"	"148.81"	"182.174"	"40.537"	"2.432"	"7.738"
"1996"	"10.404"	"1.128"	"4.897"	"5.078"	"9.124"	"62.039"	"492.802"	"259.239"	"145.051"	"41.941"	"1.551"	"0.007"
"1997"	"4.966"	"0"	"0"	"5.021"	"4.499"	"143.899"	"382.653"	"285.278"	"54.466"	"37.9"	"101.396"	"47.596"
"1998"	"4.049"	"0.344"	"10.119"	"0.56"	"6.943"	"76.323"	"187.436"	"223.981"	"256.834"	"18.765"	"47.792"	"0.007"
"1999"	"0.382"	"12.533"	"0"	"0"	"3.926"	"176.393"	"203.03"	"179.114"	"298.479"	"85.317"	"0.272"	"2.957"
"2000"	"0"	"0.753"	"0"	"0"	"24.321"	"111.184"	"379.643"	"138.228"	"27.776"	"11.313"	"0.446"	"0.007"
"2001"	"2.375"	"0.007"	"4.831"	"0.71"	"19.632"	"319.866"	"190.483"	"104.923"	"9.59"	"40.126"	"1.802"	"0.007"
"2002"	"0.091"	"12.169"	"8.207"	"7.373"	"6.014"	"194.517"	"41.236"	"288.158"	"117.681"	"5.214"	"10.798"	"0.958"
