
"Year"	"Jan"	"Feb"	"Mar"	"Apr"	"May"	"Jun"	"Jul"	"Aug"	"Sep"	"Oct"	"Nov"	"Dec"
"1901"	"18.091"	"20.956"	"24.995"	"28.361"	"28.16"	"28.435"	"28.105"	"28.105"	"28.3"	"27.561"	"23.155"	"19.525"
"1902"	"19.026"	"20.791"	"25.995"	"26.461"	"27.93"	"27.935"	"28.005"	"28.204"	"28.3"	"26.526"	"22.691"	"19.225"
"1903"	"18.091"	"20.056"	"24.626"	"28.561"	"28.526"	"27.665"	"28.404"	"27.269"	"28"	"27.595"	"23.461"	"19.691"
"1904"	"18.425"	"21.056"	"26.33"	"27.431"	"27.426"	"28.269"	"27.705"	"27.87"	"28.3"	"26.86"	"23.125"	"19.125"
"1905"	"18.125"	"18.32"	"23.661"	"25.76"	"27.86"	"28.2"	"28.105"	"27.87"	"28.5"	"27.16"	"23.391"	"19.791"
"1906"	"18.39"	"20.556"	"23.661"	"28.496"	"28.96"	"28.1"	"28.505"	"27.369"	"28.935"	"26.76"	"23.491"	"19.926"
"1907"	"19.861"	"20.091"	"24.06"	"26.561"	"28.06"	"27.935"	"27.805"	"28.204"	"28.2"	"27.16"	"23.325"	"19.661"
"1908"	"18.46"	"20.491"	"25.63"	"29.331"	"28.06"	"27.935"	"27.74"	"28.105"	"28.4"	"26.86"	"23.025"	"19.696"
"1909"	"18.891"	"20.791"	"26.466"	"26.795"	"28.561"	"27.5"	"28.64"	"27.404"	"28.735"	"27.595"	"24.16"	"19.761"
"1910"	"18.425"	"20.29"	"24.395"	"25.491"	"28.06"	"27.6"	"27.369"	"27.805"	"28.334"	"26.561"	"23.325"	"18.525"
"1911"	"18.591"	"20.19"	"24.16"	"26.125"	"27.66"	"27.6"	"27.705"	"27.77"	"28.065"	"26.96"	"23.19"	"18.626"
"1912"	"18.591"	"21.29"	"25.06"	"25.89"	"28.16"	"27.935"	"27.905"	"27.805"	"27.865"	"26.561"	"23.426"	"19.36"
"1913"	"19.46"	"22.461"	"25.23"	"28.63"	"27.725"	"27.535"	"28.274"	"27.605"	"28"	"26.461"	"22.726"	"18.49"
"1914"	"18.425"	"20.956"	"24.761"	"26.06"	"27.595"	"27.5"	"28.04"	"27.369"	"28.1"	"25.825"	"23.19"	"19.626"
"1915"	"19.761"	"20.691"	"24.461"	"27.695"	"27.695"	"27.7"	"27.07"	"28.105"	"28"	"28.195"	"24.761"	"20.225"
"1916"	"18.26"	"20.891"	"25.73"	"26.86"	"28.66"	"28.07"	"27.635"	"27.64"	"28.1"	"26.895"	"23.596"	"18.991"
"1917"	"18.16"	"20.355"	"23.93"	"26.795"	"27.06"	"27.435"	"27.705"	"27.605"	"27.735"	"26.96"	"23.791"	"18.896"
"1918"	"18.26"	"20.491"	"25.095"	"26.63"	"27.695"	"26.434"	"28.07"	"27.505"	"28.265"	"26.99"	"23.09"	"19.26"
"1919"	"19.626"	"20.39"	"26.265"	"27.296"	"28.261"	"28.17"	"27.64"	"28.04"	"27.3"	"26.76"	"23.461"	"19.395"
"1920"	"19.46"	"20.456"	"24.86"	"26.795"	"28.125"	"27.865"	"28.174"	"27.705"	"28.135"	"26.96"	"23.295"	"19.63"
"1921"	"20.26"	"20.895"	"25.095"	"27.296"	"28.496"	"27.5"	"27.94"	"27.74"	"27.965"	"25.76"	"22.86"	"19.591"
"1922"	"19.661"	"21.26"	"26.13"	"28.7"	"28.626"	"28.035"	"27.975"	"27.84"	"27.835"	"26.33"	"23.4"	"19.661"
"1923"	"19.761"	"20.521"	"24.631"	"27.83"	"28.06"	"28.1"	"27.675"	"27.845"	"28.269"	"26.295"	"23.461"	"19.861"
"1924"	"19.125"	"20.691"	"27.265"	"28.296"	"28.06"	"28.135"	"27.975"	"27.84"	"27.535"	"27.431"	"23.526"	"19.16"
"1925"	"17.026"	"19.586"	"24.995"	"26.86"	"28.06"	"27.635"	"27.374"	"27.805"	"27.7"	"25.795"	"22.661"	"19.095"
"1926"	"18.626"	"20.691"	"24.561"	"26.995"	"27.99"	"27.5"	"27.74"	"27.775"	"27.865"	"26.73"	"22.325"	"20.125"
"1927"	"18.125"	"20.056"	"23.496"	"27.865"	"27.695"	"27.935"	"27.805"	"27.74"	"27.765"	"26.795"	"22.86"	"19.761"
"1928"	"19.425"	"21.561"	"25.365"	"27.53"	"27.361"	"27.47"	"27.81"	"27.905"	"28.366"	"26.791"	"22.856"	"20.125"
"1929"	"19.091"	"19.956"	"24.895"	"27.16"	"28.125"	"27.935"	"27.675"	"27.805"	"28.035"	"26.795"	"22.791"	"19.19"
"1930"	"17.191"	"20.991"	"24.895"	"27.261"	"28.06"	"27.3"	"27.805"	"27.805"	"28.735"	"26.491"	"23.391"	"19.425"
"1931"	"17.635"	"19.709"	"24.496"	"28.456"	"26.691"	"27.579"	"27.439"	"28.139"	"28.105"	"28.095"	"23.686"	"20.425"
"1932"	"18.835"	"21.051"	"25.339"	"27.725"	"28.109"	"27.544"	"27.64"	"27.84"	"28.369"	"27.695"	"24.26"	"19.861"
"1933"	"17.761"	"20.761"	"25.765"	"27.626"	"27.66"	"28.261"	"28"	"27.805"	"28.67"	"27.291"	"22.19"	"19.156"
"1934"	"18.626"	"20.33"	"25.76"	"27.99"	"27.616"	"27.07"	"27.479"	"27.514"	"28.374"	"27.456"	"22.16"	"19.551"
"1935"	"18.355"	"20.956"	"25.531"	"27.366"	"29.725"	"28"	"27.675"	"27.304"	"28.4"	"27.391"	"23.391"	"18.495"
"1936"	"17.39"	"20.091"	"25.365"	"27.695"	"27.595"	"28.105"	"27.84"	"28.269"	"28.135"	"26.955"	"23.791"	"19.821"
"1937"	"16.791"	"20.526"	"24.805"	"28.404"	"28.5"	"28.404"	"28.144"	"27.444"	"28.204"	"26.83"	"22.19"	"19.595"
"1938"	"19.56"	"19.891"	"27.67"	"28.66"	"27.2"	"28.07"	"27.875"	"27.84"	"28.07"	"27.361"	"22.26"	"19.861"
"1939"	"18.756"	"21.39"	"25.23"	"29.2"	"28.095"	"27.935"	"27.775"	"28.204"	"28.3"	"26.965"	"23.96"	"20.116"
"1940"	"18.056"	"20.16"	"23.735"	"29.051"	"28.06"	"28.1"	"27.975"	"28.239"	"27.705"	"27.296"	"24.125"	"20.056"
"1941"	"18.46"	"20.926"	"27.035"	"27.865"	"27.261"	"27.675"	"28.074"	"28.339"	"28.204"	"26.496"	"22.26"	"20.956"
"1942"	"19.091"	"21.5"	"25.565"	"26.596"	"27.595"	"27.675"	"28.474"	"28.5"	"27.835"	"27.665"	"23.86"	"18.991"
"1943"	"19.726"	"19.49"	"24.3"	"25.9"	"28.66"	"28.035"	"27.81"	"27.54"	"28.334"	"27.16"	"23.791"	"18.809"
"1944"	"18.225"	"19.63"	"24.765"	"26.13"	"29.586"	"27.865"	"28.54"	"27.975"	"27.7"	"27.265"	"22.556"	"19.986"
"1945"	"18.195"	"19.691"	"25.556"	"26.7"	"27.291"	"27.309"	"27.875"	"27.705"	"28.535"	"26.431"	"23.29"	"19.756"
"1946"	"19.16"	"22.456"	"25.065"	"24.965"	"27.431"	"27.935"	"27.97"	"28.304"	"28.17"	"26.295"	"23.856"	"20.251"
"1947"	"18.961"	"21.06"	"25.87"	"28.565"	"28.125"	"28.3"	"27.84"	"28.2"	"28.23"	"26.16"	"23.12"	"20.425"
"1948"	"19.495"	"20.761"	"24.895"	"26.596"	"27.456"	"28.6"	"27.605"	"28"	"28.235"	"26.591"	"23.791"	"19.621"
"1949"	"19.255"	"20.791"	"25.73"	"24.895"	"26.86"	"27.67"	"27.805"	"27.805"	"28.005"	"27.79"	"23.055"	"18.216"
"1950"	"18.991"	"20.526"	"24.83"	"27.391"	"28.691"	"27.935"	"27.97"	"27.334"	"28.93"	"27.526"	"23.155"	"20.151"
"1951"	"18.49"	"21.421"	"25.179"	"29.935"	"27.92"	"27.505"	"27.705"	"28.47"	"28.13"	"27.326"	"23.791"	"21.285"
"1952"	"19.591"	"22.591"	"24.295"	"27.3"	"27.955"	"28.73"	"27.935"	"28.435"	"27.87"	"27.79"	"23.856"	"20.051"
"1953"	"18.16"	"21.956"	"26.531"	"28.261"	"27.686"	"27.865"	"27.78"	"28.404"	"28.265"	"27.226"	"23.356"	"21.486"
"1954"	"17.756"	"22.956"	"25.491"	"28.366"	"28.86"	"27.135"	"27.67"	"27.805"	"28.7"	"26.456"	"22.456"	"20.255"
"1955"	"18.49"	"20.421"	"25.765"	"26.795"	"28.16"	"28.13"	"27.304"	"27.269"	"28.396"	"27.96"	"24.086"	"19.385"
"1956"	"18.891"	"20.686"	"25.925"	"27.76"	"28.055"	"27.404"	"27.9"	"27.87"	"27.8"	"27.79"	"23.826"	"19.856"
"1957"	"19.16"	"20.255"	"24.339"	"28.595"	"28.816"	"28.065"	"27.97"	"28.204"	"28.165"	"26.526"	"22.726"	"19.791"
"1958"	"19.46"	"20.891"	"25.195"	"28.226"	"28.256"	"29.369"	"28.439"	"27.47"	"28.6"	"27.66"	"23.456"	"20.32"
"1959"	"18.891"	"20.19"	"24.795"	"27.195"	"27.526"	"28.04"	"27.975"	"27.81"	"27.404"	"26.456"	"22.561"	"19.861"
"1960"	"18.46"	"21.696"	"24.461"	"29.165"	"29.63"	"28.17"	"27.174"	"28.509"	"27.87"	"26.965"	"22.826"	"19.791"
"1961"	"19.665"	"19.39"	"26.265"	"28.296"	"28.83"	"28.005"	"28.409"	"28.339"	"28.435"	"27.361"	"22.626"	"18.026"
"1962"	"17.63"	"21.09"	"25.26"	"28.195"	"27.955"	"27.635"	"28.404"	"27.2"	"28.935"	"26.895"	"22.691"	"19.156"
"1963"	"18.425"	"22.791"	"25.295"	"27.235"	"27.261"	"27.67"	"27.64"	"28.139"	"28.565"	"26.895"	"23.125"	"19.621"
"1964"	"18.46"	"21.39"	"26.461"	"26.526"	"28.06"	"27.665"	"27.304"	"28.304"	"28.439"	"27.565"	"24.761"	"20.056"
"1965"	"18.891"	"20.626"	"24.295"	"27.83"	"28.561"	"27.6"	"27.339"	"26.97"	"28.135"	"27.195"	"23.826"	"20.895"
"1966"	"19.395"	"22.591"	"25.661"	"28.426"	"28.556"	"26.965"	"28.135"	"27.605"	"28.035"	"25.995"	"24.19"	"19.425"
"1967"	"18.956"	"21.991"	"24.661"	"26.526"	"28.391"	"28.23"	"28.035"	"28.269"	"27.735"	"26.695"	"21.856"	"19.93"
"1968"	"18.455"	"20.021"	"25.491"	"27.366"	"27.556"	"27.235"	"27.94"	"27.9"	"28.03"	"27.025"	"23.391"	"19.286"
"1969"	"18.225"	"20.691"	"26.2"	"27.431"	"28.9"	"27.009"	"28.209"	"27.04"	"28.269"	"26.96"	"22.921"	"19.521"
"1970"	"17.986"	"21.086"	"25.295"	"28.265"	"28.626"	"28.4"	"27.47"	"28.005"	"28"	"26.561"	"23.255"	"19.691"
"1971"	"18.486"	"19.916"	"24.96"	"25.67"	"29"	"27.805"	"27.374"	"27.105"	"27.8"	"27.13"	"22.526"	"18.956"
"1972"	"18.656"	"19.355"	"25.295"	"27.226"	"28.591"	"27.935"	"28.239"	"27.775"	"28.16"	"27.09"	"23.556"	"20.125"
"1973"	"18.816"	"21.861"	"24.395"	"28.369"	"26.93"	"27.5"	"28.04"	"27.84"	"28.005"	"27.53"	"23.835"	"18.891"
"1974"	"18.056"	"20.121"	"25.295"	"27.095"	"27.561"	"27.535"	"26.304"	"27.64"	"27.3"	"27.695"	"24.351"	"18.086"
"1975"	"17.921"	"21.421"	"25.556"	"28.095"	"28.16"	"28.435"	"27.105"	"28.005"	"27.535"	"27.695"	"22.726"	"18.656"
"1976"	"18.665"	"21.856"	"25.626"	"27.391"	"27.865"	"26.335"	"27.239"	"27.269"	"27.935"	"26.561"	"24.426"	"19.36"
"1977"	"17.861"	"19.716"	"26.7"	"24.935"	"26.125"	"27.035"	"28.174"	"27.77"	"28.2"	"26.13"	"24.561"	"19.756"
"1978"	"17.191"	"21.225"	"24.696"	"27.73"	"26.895"	"27.339"	"27.94"	"29.009"	"27.835"	"28.165"	"24.696"	"20.395"
"1979"	"19.56"	"21.395"	"25.695"	"28.595"	"30.161"	"28.409"	"28.204"	"27.87"	"27.77"	"26.86"	"24.586"	"20.626"
"1980"	"18.691"	"21.056"	"25.426"	"28.725"	"26.661"	"28.374"	"28.575"	"28.174"	"28.369"	"26.426"	"23.791"	"21.165"
"1981"	"19.03"	"20.995"	"24.404"	"25.97"	"27.431"	"28.84"	"27.74"	"28.109"	"28.334"	"27.665"	"24.496"	"20.295"
"1982"	"19.731"	"21.36"	"24.865"	"26.695"	"28.855"	"27.805"	"28.035"	"28.07"	"28.4"	"27.895"	"23.16"	"19.595"
"1983"	"19.97"	"21.13"	"25.23"	"27.54"	"27.461"	"28.3"	"28.1"	"28.074"	"28.835"	"27.97"	"24.561"	"19.56"
"1984"	"17.891"	"20.561"	"26.87"	"28.435"	"26.86"	"28.274"	"27.805"	"28.374"	"27.5"	"27.8"	"23.995"	"19.417"
"1985"	"18.886"	"20.586"	"25.12"	"27.326"	"28.165"	"27.865"	"27.035"	"28.07"	"27.93"	"27.491"	"23.325"	"21.491"
"1986"	"19.091"	"21.516"	"26.526"	"26.326"	"28.139"	"28.6"	"27.6"	"28.235"	"27.431"	"26.055"	"23.925"	"20.116"
"1987"	"20.212"	"21.821"	"24.995"	"26.93"	"28.391"	"29.334"	"27.67"	"27.665"	"28.626"	"26.89"	"24.691"	"20.46"
"1988"	"20.021"	"22.255"	"25.025"	"28.47"	"27.756"	"28.035"	"28.04"	"27.73"	"28.226"	"27.426"	"24.596"	"21.39"
"1989"	"17.186"	"21.095"	"25.23"	"28.765"	"29.461"	"28.331"	"27.77"	"28.5"	"28.065"	"27.291"	"23.255"	"19.255"
"1990"	"19.677"	"21.821"	"23.33"	"26.491"	"28.79"	"28.66"	"27.64"	"28.17"	"28.351"	"26.256"	"25.656"	"21.081"
"1991"	"17.661"	"22.282"	"25.925"	"27.521"	"26.286"	"27.83"	"28.835"	"28.505"	"27.795"	"27.286"	"22.616"	"19.482"
"1992"	"18.39"	"19.516"	"26.721"	"28.725"	"27.621"	"28.795"	"27.391"	"29"	"28.595"	"27.16"	"23.686"	"19.121"
"1993"	"17.816"	"21.421"	"23.895"	"26.496"	"26.521"	"27.76"	"27.64"	"27.835"	"28.2"	"27.261"	"23.956"	"20.895"
"1994"	"19.33"	"19.891"	"25.251"	"27.095"	"28.79"	"28.261"	"28.84"	"28.4"	"29.105"	"27.02"	"23.956"	"19.861"
"1995"	"18.23"	"20.626"	"25.3"	"28.526"	"29.621"	"28.53"	"27.965"	"27.93"	"28.366"	"27.99"	"24.16"	"19.495"
"1996"	"18.382"	"20.991"	"25.856"	"27.905"	"28.386"	"28"	"28.03"	"27.865"	"29.1"	"27.055"	"23.986"	"20.23"
"1997"	"18.826"	"20.491"	"25.7"	"26.33"	"28.695"	"28.635"	"28.074"	"28.84"	"28.435"	"27.13"	"24.691"	"20.561"
"1998"	"18.691"	"21.561"	"23.865"	"28.57"	"29.195"	"29.165"	"28.705"	"28.339"	"29.17"	"28.396"	"25.16"	"21.596"
"1999"	"20.16"	"24.13"	"26.665"	"29.53"	"28.06"	"28.905"	"28.505"	"27.905"	"28.269"	"28.06"	"24.561"	"21.365"
"2000"	"18.33"	"21.16"	"24.33"	"27.63"	"27.93"	"28.304"	"28.87"	"27.74"	"27.87"	"27.23"	"23.99"	"20.225"
"2001"	"19.026"	"22.19"	"25.73"	"28.261"	"28.431"	"28.304"	"28.61"	"28.605"	"29.47"	"27.76"	"24.391"	"20.526"
"2002"	"19.56"	"22.591"	"26.195"	"27.595"	"28.261"	"27.935"	"28.54"	"28.105"	"28.135"	"27.296"	"24.125"	"20.791"
