
"Year"	"Jan"	"Feb"	"Mar"	"Apr"	"May"	"Jun"	"Jul"	"Aug"	"Sep"	"Oct"	"Nov"	"Dec"
"1901"	"0.316"	"0.998"	"8.52"	"99.398"	"123.583"	"876.979"	"510.852"	"439.355"	"221.474"	"146.427"	"9.742"	"9.917"
"1902"	"0.238"	"0"	"1.471"	"16.616"	"115.122"	"641.202"	"795.164"	"140.497"	"190.708"	"219.908"	"63.073"	"31.864"
"1903"	"0"	"0"	"0"	"5.275"	"135.954"	"462.055"	"893.629"	"361.843"	"151.267"	"123.839"	"24.158"	"19.669"
"1904"	"0.883"	"0"	"4.678"	"45.53"	"165.769"	"932.968"	"559.483"	"311.407"	"88.953"	"102.61"	"1.203"	"0.059"
"1905"	"0"	"0"	"2.074"	"9.944"	"88.525"	"476.697"	"366.211"	"270.435"	"59.374"	"182.903"	"14.987"	"0.059"
"1906"	"42.528"	"0"	"0"	"7.266"	"48.8"	"548.094"	"677.081"	"678"	"212.695"	"190.072"	"10.704"	"49.427"
"1907"	"3.641"	"0"	"0.299"	"113.633"	"3.137"	"504.27"	"519.828"	"959.964"	"447.255"	"30.686"	"30.857"	"6.299"
"1908"	"0"	"0.229"	"7.191"	"57.691"	"123"	"409.382"	"998.755"	"484.286"	"112.555"	"46.514"	"5.141"	"0.059"
"1909"	"4.867"	"0"	"6.844"	"4.277"	"120.461"	"540.777"	"883.063"	"404.346"	"179.717"	"75.553"	"26.489"	"0.339"
"1910"	"0"	"0"	"10.765"	"6.457"	"71.481"	"678.875"	"402.034"	"581.13"	"176.146"	"157.543"	"33.656"	"0.059"
"1911"	"0"	"0"	"0.103"	"37.437"	"73.837"	"409.082"	"877.161"	"625.375"	"209.381"	"189.481"	"32.911"	"7.582"
"1912"	"0"	"0"	"4.239"	"5.723"	"87.074"	"389.565"	"843.697"	"405.74"	"106.08"	"188.669"	"30.975"	"7.056"
"1913"	"0"	"0"	"0"	"18.384"	"75.239"	"639.869"	"472.983"	"353.296"	"167.858"	"157.738"	"16.431"	"0.098"
"1914"	"0"	"0"	"0.042"	"21.097"	"79.463"	"363.275"	"1447.834"	"1001.832"	"242.65"	"91.682"	"45.605"	"32.255"
"1915"	"34.75"	"0"	"2.02"	"39.044"	"114.302"	"792.145"	"544.373"	"287.601"	"312.457"	"88.122"	"49.293"	"8.328"
"1916"	"0"	"0"	"0.021"	"28.587"	"122.538"	"505.246"	"557.424"	"452.26"	"272.705"	"168.25"	"237.42"	"0.059"
"1917"	"0"	"5.394"	"15.285"	"2.045"	"16.963"	"674.617"	"333.181"	"431.172"	"317.687"	"261.764"	"149.073"	"0.059"
"1918"	"23.303"	"0"	"0.439"	"20.137"	"356.474"	"307.3"	"183.618"	"329.342"	"217.382"	"40.002"	"144.061"	"1.504"
"1919"	"2.49"	"0.172"	"0"	"4.233"	"130.493"	"934.378"	"508.847"	"368.16"	"217.769"	"211.482"	"84.319"	"8.306"
"1920"	"13.572"	"0"	"0.994"	"126.811"	"87.126"	"530.151"	"653.412"	"227.341"	"203.454"	"157.853"	"1.51"	"0.059"
"1921"	"3.01"	"0"	"1.268"	"46.196"	"8.478"	"477.664"	"635.927"	"395.442"	"105.99"	"180.731"	"89.149"	"0.059"
"1922"	"9.422"	"1.354"	"0"	"70.601"	"86.664"	"448.08"	"833.965"	"308.765"	"82.164"	"122.084"	"100.939"	"0.115"
"1923"	"0"	"0.172"	"20.319"	"25.205"	"174.732"	"148.174"	"1203.443"	"606.624"	"195.253"	"8.255"	"0.5"	"4.069"
"1924"	"0.575"	"0"	"0.486"	"48.537"	"18.215"	"516.983"	"1060.349"	"451.118"	"228.283"	"51.913"	"14.351"	"1.094"
"1925"	"0"	"0"	"0.147"	"51.624"	"146.783"	"769.532"	"709.125"	"299.543"	"183.171"	"160.683"	"39.804"	"26.095"
"1926"	"22.235"	"0"	"0"	"1.035"	"84.608"	"341.834"	"668.376"	"694.285"	"213.75"	"66.167"	"0.576"	"0.059"
"1927"	"0"	"0"	"0.132"	"26.722"	"119.614"	"618.186"	"876.872"	"283.888"	"296.429"	"36.443"	"93.434"	"0.059"
"1928"	"0"	"4.739"	"4.427"	"36.748"	"88.168"	"556.557"	"833.389"	"564.137"	"82.529"	"246.256"	"0.556"	"13.925"
"1929"	"10.662"	"0"	"0.727"	"130.086"	"117.962"	"705.676"	"599.089"	"237.447"	"297.258"	"179.992"	"61.991"	"0.547"
"1930"	"2.164"	"0"	"0.597"	"4.765"	"131.672"	"768.479"	"439.275"	"259.593"	"178.644"	"227.221"	"8.138"	"20.205"
"1931"	"0"	"0"	"5.723"	"32.497"	"50.879"	"447.694"	"730.462"	"638.391"	"217.349"	"129.573"	"129.888"	"43.795"
"1932"	"0"	"0"	"0.078"	"66.719"	"94.84"	"243.966"	"1020.808"	"654.822"	"211.801"	"360.54"	"153.548"	"4.189"
"1933"	"0"	"0.623"	"13.269"	"36.759"	"231.296"	"684.845"	"635.071"	"750.14"	"304.587"	"297.565"	"58.072"	"16.889"
"1934"	"5.969"	"0"	"0"	"22.117"	"24.144"	"735.497"	"789.011"	"450.182"	"98.89"	"117.767"	"67.3"	"0.059"
"1935"	"1.684"	"0"	"0.049"	"16.542"	"75.442"	"385.587"	"521.997"	"654.353"	"102.719"	"221.535"	"23.042"	"1.215"
"1936"	"0.727"	"2.342"	"2.407"	"72.428"	"99.662"	"797.652"	"317.371"	"224.69"	"225.967"	"84.798"	"88.993"	"0.627"
"1937"	"0"	"0"	"7.678"	"77.422"	"27.263"	"330.305"	"651.841"	"136.125"	"181.909"	"252.367"	"0.5"	"5.79"
"1938"	"0"	"0"	"11.452"	"33.862"	"50.054"	"432.996"	"515.151"	"356.278"	"295.304"	"105.563"	"17.991"	"5.845"
"1939"	"0"	"0"	"4.741"	"13.102"	"3.7"	"646.335"	"627.735"	"746.819"	"122.186"	"129.941"	"32.009"	"0.059"
"1940"	"0"	"0"	"0"	"18.555"	"102.479"	"441.037"	"575.724"	"610.864"	"81.335"	"152.661"	"34.992"	"10.918"
"1941"	"21.848"	"0.043"	"0.169"	"46.502"	"49.686"	"396.875"	"605.049"	"221.107"	"134.45"	"141.612"	"0.716"	"22.424"
"1942"	"0"	"3.915"	"0.021"	"50.325"	"98.238"	"616.622"	"758.42"	"331.319"	"77.711"	"65.835"	"10.468"	"28.38"
"1943"	"0.25"	"0"	"0.035"	"26.847"	"317.363"	"370.904"	"825.095"	"151.154"	"159.025"	"209.396"	"68.548"	"0.059"
"1944"	"0"	"1.055"	"22.649"	"9.78"	"89.476"	"543.707"	"1102.076"	"324.075"	"80.615"	"275.022"	"65.971"	"0.059"
"1945"	"0.193"	"0"	"0"	"11.124"	"34.724"	"557.011"	"900.171"	"445.571"	"156.1"	"67.08"	"17.412"	"0.059"
"1946"	"0"	"0"	"1.479"	"117.994"	"84.48"	"624.241"	"960.905"	"701.276"	"313.069"	"162.826"	"149.712"	"9.099"
"1947"	"14.61"	"0"	"7.74"	"19.969"	"78.652"	"546.321"	"603.552"	"812.879"	"214.128"	"94.151"	"19.208"	"54.156"
"1948"	"4.154"	"0"	"0.815"	"51.341"	"75.136"	"605.975"	"583.389"	"555.607"	"240.609"	"119.834"	"175.12"	"1.32"
"1949"	"0"	"0"	"4.891"	"41.394"	"242.417"	"268.68"	"539.3"	"349.869"	"194.582"	"151.077"	"34.589"	"0.059"
"1950"	"0"	"0"	"0"	"14.645"	"174.513"	"395.382"	"1019.043"	"607.473"	"299.416"	"153.499"	"36.378"	"0.171"
"1951"	"0"	"0"	"0.397"	"47.742"	"166.393"	"1117.72"	"632.017"	"306.868"	"211.811"	"178.628"	"16.86"	"0.059"
"1952"	"0"	"0.715"	"0"	"56.34"	"126.012"	"699.472"	"858.444"	"424.296"	"67.316"	"214.815"	"0.5"	"14.992"
"1953"	"0.073"	"0"	"5.102"	"53.157"	"34.4"	"1056.273"	"1014.979"	"695.498"	"170.128"	"265.894"	"0.5"	"0.059"
"1954"	"0"	"0"	"3.401"	"102.505"	"77.603"	"263.612"	"694.686"	"693.329"	"169.563"	"215.234"	"7.174"	"4.098"
"1955"	"0"	"0"	"0.202"	"57.725"	"279.303"	"734.08"	"314.041"	"366.256"	"439.912"	"239.202"	"32.147"	"0.08"
"1956"	"0"	"1.566"	"0.823"	"67.448"	"137.359"	"694.919"	"937.217"	"616.665"	"196.074"	"267.012"	"151.579"	"0.084"
"1957"	"0"	"0"	"4.822"	"30.295"	"177.987"	"729.809"	"562.598"	"779.393"	"77.175"	"254.323"	"89.504"	"0.059"
"1958"	"0"	"0"	"1.106"	"19.109"	"290.468"	"505.437"	"1040.858"	"362.258"	"163.76"	"137.655"	"43.779"	"0.115"
"1959"	"0"	"0"	"0"	"34.091"	"67.956"	"1232.513"	"1320.849"	"280.313"	"289.505"	"33.319"	"51.425"	"2.773"
"1960"	"0"	"0"	"6.494"	"50.402"	"311.954"	"411.063"	"532.017"	"386.14"	"225.815"	"49.901"	"33.367"	"0.059"
"1961"	"0"	"0"	"0"	"26.806"	"428.725"	"397.311"	"1514.729"	"413.111"	"210.991"	"202.006"	"9.511"	"0.059"
"1962"	"0"	"2.645"	"0.621"	"26.209"	"189.205"	"174.546"	"876.809"	"435.629"	"169.781"	"212.245"	"27.804"	"92.446"
"1963"	"0.705"	"1.952"	"17.77"	"97.939"	"151.731"	"324.61"	"517.258"	"660.719"	"79.571"	"244.323"	"2.495"	"0.059"
"1964"	"0"	"0"	"2.964"	"15.8"	"52.505"	"582.974"	"584.14"	"817.282"	"351.774"	"177.963"	"19.695"	"6.737"
"1965"	"6.256"	"0"	"0.099"	"26.748"	"118.119"	"530.695"	"968.56"	"275.013"	"236.231"	"18.501"	"25.688"	"73.013"
"1966"	"9.32"	"0.597"	"0.423"	"2.168"	"244.895"	"376.952"	"880.495"	"111.683"	"316.948"	"178.318"	"253.058"	"35.37"
"1967"	"3.921"	"0"	"0.091"	"40.228"	"77.712"	"634.114"	"959.713"	"407.188"	"169.288"	"151.614"	"2.663"	"17.97"
"1968"	"0"	"3.963"	"0.542"	"43.821"	"78.07"	"763.569"	"559.896"	"217.526"	"138.638"	"216.134"	"32.246"	"0.115"
"1969"	"0"	"0"	"16.146"	"44.989"	"65.309"	"241.664"	"708.786"	"904.95"	"156.3"	"113.279"	"51.535"	"1.871"
"1970"	"0.208"	"0"	"0"	"43.699"	"202.754"	"522.434"	"597.072"	"536.797"	"193.496"	"195.395"	"0.5"	"0.059"
"1971"	"0"	"0"	"0"	"48.456"	"110.93"	"737.488"	"401.378"	"397.517"	"209.042"	"81.162"	"0.5"	"0.059"
"1972"	"0"	"0.115"	"0.86"	"18.002"	"87.42"	"492.993"	"603.728"	"179.552"	"246.096"	"67.588"	"21.446"	"0.707"
"1973"	"0"	"0"	"0"	"30.877"	"47.092"	"814.297"	"451.55"	"504.577"	"122.558"	"129.238"	"20.01"	"0.358"
"1974"	"0"	"0"	"35.352"	"24.162"	"232.258"	"306.913"	"640.01"	"327.574"	"464.791"	"174.344"	"0.5"	"0.059"
"1975"	"0.931"	"0.678"	"0.042"	"13.015"	"106.416"	"617.501"	"649.241"	"271.325"	"293.884"	"157.094"	"64.877"	"0.15"
"1976"	"0"	"0"	"0.129"	"36.341"	"7.609"	"487.419"	"603.499"	"316.902"	"144.05"	"43.753"	"119.72"	"0.059"
"1977"	"0"	"0"	"7.602"	"45.421"	"114.632"	"741.935"	"639.476"	"343.931"	"117.904"	"213.877"	"161.573"	"0.059"
"1978"	"0"	"4.876"	"0"	"26.99"	"202.134"	"568.754"	"443.774"	"551.039"	"223.788"	"74.62"	"81.542"	"9.942"
"1979"	"0"	"1.808"	"0.828"	"6.741"	"129.141"	"712.369"	"362.831"	"406.748"	"299.488"	"78.416"	"149.691"	"0.059"
"1980"	"0"	"0"	"0.673"	"57.838"	"31.065"	"711.387"	"597.076"	"531.479"	"143.941"	"44.048"	"39.845"	"9.83"
"1981"	"0.669"	"0"	"5.177"	"28.26"	"90.054"	"460.844"	"447.11"	"380.467"	"327.122"	"66.142"	"11.417"	"0.08"
"1982"	"0"	"0"	"0"	"37.001"	"175.357"	"527.434"	"662.061"	"418.26"	"155.84"	"112.086"	"78.935"	"0.059"
"1983"	"0"	"0"	"0"	"0.362"	"59.394"	"795.607"	"596.716"	"670.309"	"360.912"	"93.287"	"34.794"	"30.376"
"1984"	"0"	"1.664"	"7.378"	"97.834"	"19.953"	"502.248"	"803.316"	"252.67"	"176.274"	"188.281"	"6.048"	"73.951"
"1985"	"0.441"	"0"	"2.16"	"15.062"	"89.999"	"416.995"	"349.794"	"346.125"	"107.987"	"107.199"	"10.069"	"1.44"
"1986"	"3.304"	"0.749"	"0"	"21.455"	"19.113"	"564.682"	"346.175"	"399.888"	"120.378"	"48.577"	"89.626"	"12.565"
"1987"	"0.172"	"0.19"	"4.64"	"11.353"	"119.985"	"360.33"	"308.172"	"208.478"	"264.591"	"115.624"	"31.615"	"69.039"
"1988"	"0"	"0.619"	"0"	"53.32"	"36.459"	"591.008"	"764.151"	"505.812"	"426.979"	"41.906"	"3.44"	"18.889"
"1989"	"0"	"0"	"9.726"	"59.629"	"55.629"	"536.483"	"656.257"	"150.291"	"238.122"	"37.551"	"4.523"	"2.472"
"1990"	"0.115"	"0"	"0.892"	"28.19"	"100.162"	"385.175"	"345.235"	"314.421"	"72.707"	"121.376"	"47.293"	"0.655"
"1991"	"0"	"0"	"0"	"81.861"	"115.969"	"587.993"	"654.635"	"370.684"	"266.05"	"101.917"	"21.436"	"0.059"
"1992"	"0"	"0"	"0"	"19.759"	"89.124"	"855.734"	"469.686"	"382.993"	"399.103"	"179.486"	"165.731"	"0.059"
"1993"	"0"	"0"	"13.339"	"25.043"	"81.843"	"578.694"	"700.369"	"358.089"	"92.684"	"195.173"	"14.444"	"50.066"
"1994"	"0.401"	"0.133"	"3.932"	"54.64"	"44.701"	"735.882"	"956.96"	"381.352"	"114.765"	"259.82"	"8.511"	"1.054"
"1995"	"6.586"	"0"	"2.009"	"21.638"	"74.158"	"306.24"	"452.373"	"292.4"	"228.7"	"223.625"	"14.738"	"0.059"
"1996"	"0"	"0.19"	"0"	"30.123"	"38.271"	"760.859"	"382.078"	"309.861"	"272.886"	"213.652"	"11.05"	"1.586"
"1997"	"5.413"	"0"	"7.54"	"32.543"	"26.43"	"781.511"	"457.167"	"621.483"	"62.553"	"161.015"	"75.913"	"75.985"
"1998"	"0"	"0"	"0"	"10.481"	"71.31"	"727.007"	"575.142"	"463.594"	"195.383"	"109.283"	"56.705"	"8.008"
"1999"	"0"	"0.287"	"0"	"8.845"	"110.957"	"627.331"	"645.463"	"181.459"	"70.686"	"303.032"	"10.629"	"0.195"
"2000"	"0"	"0.565"	"0"	"38.536"	"93.461"	"458.747"	"535.155"	"380.994"	"362.597"	"144.06"	"14.204"	"1.415"
"2001"	"0.401"	"0"	"1.769"	"26.913"	"31.825"	"335.828"	"318.259"	"258.737"	"163.475"	"129.595"	"58.724"	"3.627"
"2002"	"0.401"	"0.444"	"0.399"	"22.214"	"70.452"	"722.35"	"147.708"	"398.787"	"33.084"	"223.09"	"4.26"	"0.359"
