
"Year"	"Jan"	"Feb"	"Mar"	"Apr"	"May"	"Jun"	"Jul"	"Aug"	"Sep"	"Oct"	"Nov"	"Dec"
"1901"	"18.945"	"19.556"	"25.691"	"28.86"	"30.627"	"29.913"	"26.803"	"24.936"	"25.762"	"26.303"	"22.372"	"20.842"
"1902"	"21.077"	"22.298"	"26.917"	"29.506"	"30.964"	"29.704"	"27.112"	"26.425"	"25.357"	"25.523"	"21.249"	"19.582"
"1903"	"19.932"	"19.911"	"23.705"	"28"	"30.043"	"29.909"	"26.819"	"25.66"	"25.294"	"24.602"	"20.364"	"19.14"
"1904"	"20.272"	"20.914"	"24.129"	"29.252"	"30.749"	"28.365"	"25.792"	"25.658"	"25.621"	"25.737"	"21.323"	"20.253"
"1905"	"19.023"	"18.861"	"23.375"	"26.882"	"31.873"	"29.701"	"25.812"	"25.756"	"25.49"	"25.769"	"22.696"	"19.613"
"1906"	"18.657"	"19.795"	"24.638"	"29.024"	"31.306"	"28.037"	"25.746"	"25.568"	"24.624"	"24.673"	"22.615"	"20.342"
"1907"	"20.29"	"21.123"	"24.518"	"27.269"	"29.469"	"29.103"	"27.309"	"24.305"	"25.347"	"26.308"	"23.092"	"18.886"
"1908"	"19.327"	"20.597"	"24.066"	"29.528"	"30.238"	"29.004"	"25.124"	"24.861"	"25.666"	"25.472"	"21.839"	"18.777"
"1909"	"20.308"	"21.4"	"26.435"	"27.744"	"30.774"	"28.086"	"25.412"	"25.261"	"24.987"	"24.695"	"22.025"	"20.337"
"1910"	"19.926"	"21.146"	"25.355"	"28.633"	"30.307"	"27.764"	"25.701"	"25.509"	"25.204"	"23.952"	"20.051"	"19.673"
"1911"	"21.173"	"20.843"	"23.821"	"28.339"	"31.293"	"27.663"	"26.915"	"25.433"	"25.128"	"26.482"	"23.145"	"21.74"
"1912"	"20.787"	"22.581"	"25.169"	"29.532"	"31.199"	"30.577"	"26.649"	"25.27"	"25.652"	"25.531"	"21.418"	"19.638"
"1913"	"19.291"	"21.938"	"24.068"	"29.807"	"30.096"	"27.513"	"25.791"	"24.923"	"25.79"	"26.163"	"22.601"	"20.875"
"1914"	"21.134"	"21.693"	"24.494"	"28.512"	"31.395"	"28.352"	"25.753"	"25.594"	"25.855"	"25.595"	"23.455"	"20.319"
"1915"	"20.422"	"20.678"	"25.297"	"28.731"	"31.166"	"30.881"	"27.488"	"25.671"	"26.392"	"25.732"	"23.308"	"20.074"
"1916"	"20.24"	"20.646"	"26.858"	"29.872"	"31.4"	"27.163"	"27.021"	"25.532"	"26.125"	"25.062"	"21.521"	"19.466"
"1917"	"20.531"	"21.08"	"24.922"	"27.492"	"28.898"	"27.516"	"25.687"	"25.735"	"25.352"	"24.27"	"20.516"	"19.742"
"1918"	"18.688"	"22.006"	"25.06"	"27.532"	"30.561"	"28.074"	"27.311"	"25.825"	"25.851"	"26.455"	"24.053"	"20.437"
"1919"	"20.933"	"21.625"	"25.984"	"28.706"	"30.636"	"28.022"	"25.742"	"25.324"	"25.787"	"25.001"	"23.385"	"19.905"
"1920"	"20.77"	"20.909"	"25.806"	"28.534"	"28.758"	"28.581"	"25.329"	"25.19"	"26.294"	"26.169"	"22.83"	"20.634"
"1921"	"20.722"	"21.246"	"26.973"	"30.278"	"31.08"	"28.868"	"27.285"	"25.334"	"24.748"	"25.101"	"21.356"	"21.017"
"1922"	"19.823"	"22.776"	"26.001"	"29.531"	"30.881"	"28.57"	"25.552"	"25.252"	"25.189"	"25.132"	"21.643"	"18.781"
"1923"	"20.228"	"20.339"	"25.865"	"28.603"	"29.962"	"30.583"	"26.048"	"24.896"	"25.547"	"24.707"	"21.937"	"21.447"
"1924"	"20.832"	"22.279"	"27.241"	"29.939"	"30.508"	"29.601"	"26.437"	"25.76"	"25.489"	"23.832"	"20.365"	"20.148"
"1925"	"18.063"	"20.174"	"25.854"	"30.296"	"29.924"	"27.298"	"25.522"	"25.899"	"26.253"	"26.707"	"23.452"	"20.317"
"1926"	"21.082"	"23.343"	"25.561"	"26.861"	"30.656"	"31.113"	"26.69"	"25.481"	"25.587"	"25.767"	"21.392"	"19.78"
"1927"	"19.604"	"20.772"	"24.946"	"28.531"	"30.08"	"28.378"	"25.322"	"24.774"	"25.621"	"25.129"	"19.848"	"20.306"
"1928"	"20.022"	"21.336"	"25.188"	"28.591"	"30.522"	"28.656"	"25.473"	"24.934"	"25.059"	"25.195"	"22.647"	"19.633"
"1929"	"19.171"	"20.835"	"26.595"	"28.761"	"30.94"	"28.218"	"25.712"	"24.989"	"25.9"	"25.014"	"22.891"	"19.93"
"1930"	"20.396"	"19.899"	"25.886"	"28.368"	"30.738"	"28.87"	"24.783"	"24.695"	"25.662"	"26.039"	"21.028"	"20.708"
"1931"	"21.14"	"21.534"	"24.71"	"29.923"	"31.003"	"30.444"	"26.194"	"25.298"	"25.164"	"24.297"	"21.639"	"19.917"
"1932"	"20.742"	"20.004"	"24.726"	"28.066"	"30.804"	"28.673"	"25.387"	"25.638"	"25.587"	"25.896"	"21.753"	"20.374"
"1933"	"19.848"	"21.851"	"25.534"	"28.373"	"28.901"	"27.648"	"25.864"	"24.965"	"24.933"	"24.573"	"22.32"	"19.713"
"1934"	"18.734"	"21.87"	"24.694"	"28.936"	"30.196"	"28.779"	"25.452"	"24.771"	"24.552"	"24.457"	"21.092"	"20.084"
"1935"	"18.404"	"21.178"	"24.388"	"26.728"	"30.599"	"28.906"	"25.381"	"24.959"	"24.585"	"25.123"	"21.754"	"20.432"
"1936"	"19.366"	"20.945"	"24.977"	"27.78"	"31.304"	"27.241"	"25.755"	"25.336"	"25.612"	"25.151"	"22.744"	"19.542"
"1937"	"18.634"	"21.912"	"24.229"	"27.903"	"30.357"	"28.75"	"24.982"	"25.061"	"25.189"	"24.7"	"22.639"	"19.473"
"1938"	"21.312"	"19.804"	"26.702"	"29.234"	"30.347"	"25.804"	"25.145"	"25.548"	"25.706"	"24.594"	"21.042"	"20.107"
"1939"	"20.76"	"22.275"	"23.938"	"27.965"	"30.1"	"28.645"	"25.619"	"25.794"	"24.891"	"25.494"	"21.31"	"19.311"
"1940"	"19.937"	"21.873"	"23.511"	"28.18"	"30.702"	"28.645"	"25.325"	"24.787"	"25.418"	"25.123"	"22.186"	"19.747"
"1941"	"19.4"	"22.135"	"26.296"	"29.574"	"30.941"	"29.483"	"25.543"	"25.569"	"25.984"	"26.295"	"22.58"	"21.735"
"1942"	"19.562"	"21.908"	"26.331"	"30.222"	"30.894"	"29.613"	"24.982"	"25.041"	"24.828"	"25.253"	"21.46"	"19.807"
"1943"	"20.706"	"20.642"	"25.843"	"28.233"	"31.106"	"27.369"	"24.924"	"24.474"	"25.125"	"24.43"	"22.892"	"19.103"
"1944"	"19.733"	"20.774"	"24.504"	"27.965"	"31.068"	"28.663"	"25.369"	"24.86"	"25.685"	"24.433"	"22.23"	"21.478"
"1945"	"18.761"	"20.294"	"25.308"	"27.693"	"30.261"	"29.176"	"25.177"	"25.525"	"25.056"	"24.931"	"20.844"	"18.456"
"1946"	"19.753"	"22.51"	"25.297"	"29.703"	"29.904"	"27.668"	"25.284"	"24.537"	"25.189"	"25.806"	"20.478"	"21.976"
"1947"	"19.7"	"21.872"	"25.722"	"27.946"	"30.814"	"29.379"	"25.811"	"26.28"	"24.969"	"24.066"	"22.419"	"20.779"
"1948"	"20.729"	"21.41"	"25.851"	"29.872"	"31.528"	"28.61"	"25.927"	"25.25"	"25.045"	"26.239"	"23.271"	"19.484"
"1949"	"21.453"	"21.363"	"26.22"	"29.385"	"30.94"	"28.191"	"26.345"	"25.867"	"25.31"	"25.455"	"21.775"	"19.75"
"1950"	"20.549"	"19.927"	"24.765"	"28.531"	"30.259"	"29.155"	"25.544"	"25.607"	"25.212"	"24.346"	"20.485"	"19.442"
"1951"	"19.29"	"21.063"	"25.538"	"27.527"	"30.559"	"28.878"	"26.563"	"25.061"	"26.893"	"27.095"	"23.756"	"19.642"
"1952"	"20.663"	"22.908"	"24.767"	"29.737"	"31.142"	"28.594"	"25.902"	"24.629"	"25.719"	"25.916"	"21.664"	"22.174"
"1953"	"19.893"	"23.685"	"27.772"	"29.334"	"30.45"	"28.892"	"25.98"	"24.901"	"25.656"	"25.187"	"22.071"	"20.845"
"1954"	"19.271"	"22.673"	"25.765"	"29.222"	"31.331"	"28.78"	"25.792"	"25.559"	"23.987"	"23.856"	"21.889"	"20.373"
"1955"	"21.064"	"22.117"	"26.772"	"27.406"	"30.513"	"28.234"	"26.383"	"24.876"	"25.218"	"24.494"	"20.67"	"19.844"
"1956"	"20.628"	"21.617"	"26.491"	"29.362"	"30.206"	"27.528"	"24.557"	"24.59"	"25.093"	"24.633"	"21.761"	"20.414"
"1957"	"20.143"	"20.079"	"24.227"	"28.703"	"30.221"	"29.439"	"25.977"	"25.283"	"25.33"	"25.927"	"23.941"	"22.072"
"1958"	"21.307"	"21.671"	"25.99"	"29.994"	"31.224"	"29.777"	"25.711"	"25.83"	"25.023"	"25.234"	"23.014"	"21.077"
"1959"	"20.693"	"21.816"	"26.43"	"29.285"	"31.229"	"28.834"	"24.892"	"24.737"	"24.999"	"25.07"	"22.621"	"21.273"
"1960"	"19.297"	"23.107"	"24.725"	"28.857"	"30.414"	"28.293"	"26.385"	"24.419"	"25.857"	"25.2"	"22.407"	"22.173"
"1961"	"20.705"	"20.087"	"26.863"	"29.241"	"30.511"	"27.966"	"25.348"	"25.369"	"24.263"	"24.195"	"22.716"	"19.834"
"1962"	"18.594"	"21.884"	"25.359"	"28.8"	"31.065"	"29.076"	"25.982"	"25.359"	"25.091"	"24.199"	"22.627"	"20.736"
"1963"	"20.318"	"22.813"	"25.523"	"27.854"	"30.233"	"28.553"	"26.051"	"24.733"	"25.09"	"25.359"	"23.718"	"21.104"
"1964"	"19.019"	"21.595"	"26.87"	"30.308"	"30.238"	"28.41"	"25.634"	"24.899"	"25.287"	"25.726"	"21.72"	"20.388"
"1965"	"21.175"	"21.732"	"25.16"	"28.59"	"31.085"	"29.334"	"26.317"	"25.99"	"25.841"	"26.631"	"23.649"	"21.259"
"1966"	"20.594"	"23.434"	"25.284"	"29.106"	"29.775"	"29.408"	"27.238"	"25.406"	"25.564"	"26.837"	"24.246"	"20.94"
"1967"	"19.438"	"23.281"	"25.532"	"28.549"	"30.66"	"28.232"	"26.047"	"24.86"	"25.045"	"25.798"	"23.227"	"22.332"
"1968"	"19.101"	"20.637"	"24.956"	"28.669"	"29.804"	"29.614"	"26.073"	"24.611"	"26.616"	"25.076"	"22.182"	"20.612"
"1969"	"20.343"	"22.632"	"27.594"	"30.005"	"31.203"	"29.214"	"26.148"	"24.971"	"25.293"	"26.089"	"24.531"	"21.207"
"1970"	"20.502"	"22.301"	"25.653"	"30.127"	"31.536"	"27.307"	"26.114"	"25.332"	"25.126"	"25.874"	"21.291"	"19.541"
"1971"	"19.44"	"21.739"	"25.5"	"30.07"	"29.949"	"27.265"	"25.39"	"24.988"	"25.766"	"24.54"	"21.528"	"19.171"
"1972"	"19.801"	"19.868"	"26.603"	"28.558"	"30.794"	"29.373"	"26.391"	"25.321"	"25.93"	"26.601"	"22.556"	"21.174"
"1973"	"19.81"	"22.588"	"26.092"	"30.969"	"31.883"	"29.01"	"25.006"	"24.864"	"24.391"	"25.092"	"22.18"	"20.785"
"1974"	"19.84"	"21.377"	"27.175"	"29.937"	"30.078"	"29.207"	"26.173"	"25.339"	"26.619"	"25.332"	"21.383"	"19.575"
"1975"	"18.91"	"21.306"	"24.921"	"29.674"	"30.736"	"28.405"	"25.855"	"25.184"	"25.282"	"25.654"	"21.12"	"19.645"
"1976"	"20.033"	"22.141"	"26.297"	"28.577"	"30.007"	"27.324"	"26.079"	"25.078"	"25.326"	"26.594"	"25.125"	"21.682"
"1977"	"20.131"	"22.648"	"27.859"	"29.322"	"30.135"	"28.512"	"26.074"	"25.398"	"25.326"	"26.46"	"24.231"	"20.744"
"1978"	"19.333"	"21.243"	"24.331"	"29.234"	"31.308"	"27.91"	"25.534"	"24.894"	"25.626"	"25.994"	"24.001"	"20.607"
"1979"	"21.468"	"20.575"	"24.795"	"29.331"	"30.071"	"29.625"	"26.474"	"24.709"	"26.628"	"26.734"	"24.4"	"21.205"
"1980"	"20.756"	"22.398"	"25.973"	"30.37"	"31.542"	"26.813"	"25.663"	"25.159"	"26.365"	"26.936"	"24.258"	"20.472"
"1981"	"19.332"	"22.605"	"25.895"	"29.324"	"30.703"	"29.716"	"25.625"	"24.972"	"25.623"	"26.096"	"21.712"	"20.305"
"1982"	"20.79"	"21.21"	"24.632"	"28.268"	"29.726"	"29.508"	"27.014"	"25.397"	"26.114"	"26.95"	"23.246"	"21.949"
"1983"	"19.871"	"20.498"	"24.909"	"27.521"	"30.885"	"29.611"	"26.913"	"25.829"	"25.931"	"24.8"	"21.412"	"20.097"
"1984"	"19.409"	"20.391"	"26.992"	"29.708"	"31.445"	"28.709"	"26.051"	"24.625"	"25.256"	"25.656"	"22.462"	"21.252"
"1985"	"20.473"	"21.737"	"27.405"	"29.259"	"31.166"	"28.699"	"26.409"	"25.163"	"26.188"	"24.417"	"22.557"	"21.549"
"1986"	"20.765"	"22.031"	"26.136"	"29.64"	"30.769"	"28.678"	"25.824"	"24.853"	"26.467"	"26.385"	"23.756"	"20.071"
"1987"	"21.155"	"22.736"	"26.464"	"29.471"	"30.255"	"29.423"	"27.369"	"26.376"	"27.129"	"26.604"	"23.881"	"20.894"
"1988"	"21.734"	"23.223"	"25.806"	"29.987"	"31.593"	"29.01"	"25.809"	"25.827"	"26.627"	"25.293"	"22.585"	"20.733"
"1989"	"19.959"	"22.074"	"25.096"	"28.729"	"31.182"	"27.831"	"26.218"	"24.932"	"26.218"	"26.09"	"24.256"	"20.781"
"1990"	"22.197"	"22.266"	"24.766"	"29.019"	"29.939"	"27.692"	"25.437"	"25.256"	"25.484"	"25.742"	"23.581"	"21.302"
"1991"	"19.567"	"22.187"	"25.983"	"28.865"	"31.406"	"29.207"	"25.948"	"25.287"	"25.949"	"26.118"	"23.504"	"20.474"
"1992"	"20.528"	"20.905"	"26.135"	"28.88"	"30.792"	"30.189"	"27.486"	"25.421"	"25.549"	"25.723"	"23.233"	"21.108"
"1993"	"21.103"	"22.207"	"25.276"	"28.672"	"31.319"	"29.602"	"26.223"	"25.86"	"25.495"	"26.331"	"23.574"	"20.872"
"1994"	"21.337"	"21.189"	"26.275"	"28.461"	"31.302"	"27.929"	"25.276"	"24.972"	"24.729"	"26.022"	"23.025"	"20.307"
"1995"	"18.792"	"21.948"	"25.363"	"29.181"	"30.95"	"31.115"	"26.816"	"26.286"	"26.558"	"26.83"	"23.2"	"21.658"
"1996"	"21.575"	"23.211"	"27.64"	"29.334"	"31.023"	"29.886"	"26.769"	"25.328"	"25.992"	"25.391"	"23.033"	"21.082"
"1997"	"19.86"	"21.136"	"26.447"	"27.821"	"29.776"	"28.001"	"26.216"	"25.375"	"25.918"	"26.025"	"25.424"	"21.647"
"1998"	"20.735"	"21.876"	"25.791"	"30.279"	"32.302"	"30.049"	"26.373"	"26.404"	"26.254"	"26.918"	"23.791"	"21.038"
"1999"	"20.027"	"23.208"	"26.82"	"30.291"	"30.664"	"27.968"	"26.09"	"25.453"	"25.625"	"25.642"	"22.746"	"20.5"
"2000"	"21.099"	"20.948"	"25.361"	"30.906"	"29.475"	"28.24"	"25.283"	"26.237"	"26.099"	"27.07"	"24.328"	"21.358"
"2001"	"20.659"	"23.105"	"25.849"	"29.221"	"30.2"	"27.176"	"24.895"	"25.229"	"26.687"	"26.09"	"23.429"	"21.715"
"2002"	"19.4"	"22.668"	"26.396"	"30.221"	"31.337"	"28.338"	"26.62"	"24.695"	"25.558"	"26.831"	"23.865"	"22.347"
