
"Year"	"Jan"	"Feb"	"Mar"	"Apr"	"May"	"Jun"	"Jul"	"Aug"	"Sep"	"Oct"	"Nov"	"Dec"
"1901"	"70.236"	"63.621"	"32.976"	"27.127"	"12.516"	"90.613"	"318.094"	"417.281"	"171.434"	"9.295"	"0.674"	"0.173"
"1902"	"20.913"	"3.428"	"0.465"	"3.245"	"0.808"	"33.83"	"323.192"	"242.838"	"197.863"	"13.728"	"6.383"	"14.324"
"1903"	"9.04"	"4.307"	"1.873"	"0.992"	"35.203"	"137.428"	"440.215"	"399.257"	"213.021"	"101.097"	"0.006"	"0.177"
"1904"	"2.828"	"15.291"	"51.723"	"0"	"25.72"	"134.415"	"244.498"	"476.855"	"162.665"	"40.436"	"1.049"	"8.61"
"1905"	"15.783"	"24.537"	"25.046"	"13.593"	"11.146"	"94.013"	"321.577"	"429.945"	"447.576"	"1.817"	"0"	"2.877"
"1906"	"5.071"	"54.163"	"38.609"	"0"	"7.12"	"278.366"	"559.353"	"441.194"	"158.393"	"20.077"	"0.322"	"12.601"
"1907"	"1.03"	"107.112"	"16.258"	"38.392"	"2.87"	"293.659"	"251.612"	"496.4"	"96.126"	"0.404"	"9.601"	"4.347"
"1908"	"33.107"	"40.414"	"18.905"	"2.817"	"0.639"	"152.35"	"396.593"	"476.193"	"154.824"	"30.822"	"0"	"6.602"
"1909"	"7.519"	"11.938"	"3.832"	"46.188"	"27.866"	"185.069"	"490.138"	"267.265"	"143.126"	"0.648"	"0"	"39.897"
"1910"	"6.975"	"3.104"	"10.397"	"2.407"	"2.277"	"243.493"	"273.396"	"393.16"	"296.124"	"71.614"	"46.792"	"0.173"
"1911"	"21.018"	"1.656"	"24.635"	"0.124"	"2.387"	"368.275"	"108.71"	"362.97"	"250.22"	"70.769"	"34.118"	"0.2"
"1912"	"10.67"	"46.675"	"1.843"	"7.016"	"6.236"	"49.975"	"400.485"	"451.315"	"146.993"	"3.49"	"27.43"	"5.099"
"1913"	"0.21"	"71.805"	"36.628"	"0.615"	"30.117"	"252.263"	"303.95"	"503.112"	"115.051"	"21.884"	"1.696"	"27.196"
"1914"	"3.864"	"23.44"	"38.135"	"40.177"	"10.989"	"151.903"	"391.824"	"356.738"	"163.596"	"13.545"	"0"	"24.048"
"1915"	"58.569"	"39.051"	"43.492"	"8.868"	"10.05"	"134.364"	"342.905"	"344.388"	"255.136"	"97.116"	"19.507"	"2.544"
"1916"	"0.21"	"30.974"	"0.2"	"2.863"	"17.088"	"216.687"	"271.732"	"484.945"	"238.595"	"94.286"	"9.087"	"0.173"
"1917"	"2.915"	"84.161"	"12.743"	"4.543"	"46.927"	"179.496"	"378.274"	"424.597"	"254.077"	"118.895"	"0.027"	"1.31"
"1918"	"29.288"	"9.303"	"6.237"	"3.9"	"41.858"	"392.744"	"141.969"	"400.126"	"83.002"	"2.982"	"4.482"	"22.741"
"1919"	"114.313"	"75.463"	"29.976"	"5.058"	"21.012"	"241.479"	"350.011"	"625.665"	"190.216"	"80.176"	"31.166"	"13.594"
"1920"	"22.44"	"9.968"	"45.119"	"0.936"	"7.781"	"79.906"	"531.581"	"422.385"	"109.883"	"2.1"	"0"	"0.173"
"1921"	"43.744"	"9.495"	"0.2"	"1.799"	"0"	"254.878"	"436.772"	"394.452"	"290.263"	"3.003"	"0"	"0.173"
"1922"	"33.244"	"0.445"	"0.2"	"3.159"	"0.903"	"263.868"	"315.241"	"371.164"	"279.958"	"23.159"	"42.127"	"1.53"
"1923"	"0.773"	"32.817"	"37.28"	"10.28"	"1.317"	"77.378"	"495.769"	"536.45"	"255.295"	"8.94"	"3.484"	"0.4"
"1924"	"69.249"	"22.741"	"20.509"	"7.605"	"3.255"	"34.473"	"391.817"	"312.832"	"177.774"	"41.559"	"12.237"	"15.665"
"1925"	"0.21"	"2.466"	"2.87"	"0.641"	"25.229"	"141.967"	"329.95"	"656.612"	"133.428"	"8.144"	"26.609"	"0.173"
"1926"	"16.409"	"4.571"	"89.572"	"20.893"	"50.3"	"57.219"	"388.939"	"608.848"	"310.224"	"110.762"	"4.244"	"13.084"
"1927"	"16.246"	"35.243"	"46.571"	"0.147"	"2.535"	"170.113"	"506.36"	"386.713"	"72.809"	"82.517"	"37.77"	"10.829"
"1928"	"14.238"	"47.473"	"8.364"	"4.727"	"9.856"	"142.9"	"597.344"	"209.215"	"129.063"	"130.629"	"0"	"22.981"
"1929"	"46.169"	"37.306"	"1.861"	"4.571"	"2.331"	"127.728"	"674.755"	"412.649"	"234.323"	"66.32"	"0"	"58.151"
"1930"	"2.728"	"1.329"	"5.27"	"19.659"	"10.363"	"160.45"	"373.11"	"272.682"	"158.023"	"54.326"	"17.067"	"11.196"
"1931"	"2.534"	"50.544"	"28.653"	"4.832"	"8.189"	"66.619"	"546.432"	"449.687"	"209.452"	"149.158"	"16.107"	"7.04"
"1932"	"0.21"	"34.731"	"14.446"	"2.663"	"11.768"	"134.216"	"540.079"	"274.781"	"227.948"	"18.518"	"14.828"	"1.648"
"1933"	"0.868"	"17.458"	"25.271"	"46.525"	"40.259"	"170.66"	"375.134"	"487.672"	"180.677"	"88.528"	"1.634"	"7.699"
"1934"	"16.607"	"2.088"	"5.124"	"5.494"	"0.004"	"198.72"	"377.419"	"586.772"	"254.502"	"39.81"	"40.559"	"7.604"
"1935"	"8.198"	"10.803"	"1.475"	"18.963"	"1.431"	"146.557"	"447.812"	"403.481"	"196.638"	"5.619"	"0"	"0.839"
"1936"	"3.95"	"52.713"	"36.564"	"5.809"	"21.168"	"260.467"	"336.494"	"368.725"	"222.869"	"95.566"	"13.494"	"13.992"
"1937"	"0.21"	"76.497"	"36.123"	"47.016"	"5.046"	"212.867"	"493.5"	"261.323"	"184.087"	"103.481"	"0"	"0.173"
"1938"	"35.342"	"21.635"	"3.327"	"9.052"	"16.558"	"288.031"	"336.855"	"438.273"	"172.614"	"114.666"	"1.218"	"0.173"
"1939"	"16.351"	"17.771"	"60.299"	"15.76"	"0.027"	"126.219"	"420.434"	"553.876"	"119.381"	"36.705"	"0.872"	"0.273"
"1940"	"0.762"	"33.88"	"43.213"	"17.068"	"7.634"	"105.34"	"588.204"	"481.377"	"91.543"	"52.887"	"11.609"	"15.976"
"1941"	"34.025"	"31.084"	"22.073"	"3.21"	"7.443"	"206.368"	"255.926"	"372.239"	"106.364"	"13.454"	"1.838"	"0.173"
"1942"	"39.944"	"101.85"	"12.13"	"15.321"	"1.529"	"120.507"	"520.905"	"413.192"	"220.645"	"21.859"	"0.171"	"3.686"
"1943"	"76.976"	"4.697"	"0.798"	"11.929"	"25.181"	"92.083"	"388.002"	"510.402"	"291.756"	"118.428"	"2.582"	"0.173"
"1944"	"28.941"	"108.288"	"94.366"	"3.359"	"2.996"	"131.331"	"624.464"	"585.993"	"197.014"	"103.315"	"1.005"	"0.285"
"1945"	"66.512"	"11.993"	"0.2"	"15.984"	"11.171"	"236.283"	"541.272"	"221.812"	"237.159"	"60.289"	"1.455"	"4.858"
"1946"	"0.21"	"32.437"	"8.859"	"18.316"	"16.21"	"246.031"	"397.422"	"387.692"	"163.505"	"35.64"	"20.264"	"3.135"
"1947"	"60.548"	"31.45"	"49.139"	"5.843"	"1.019"	"81.045"	"551.671"	"420.646"	"338.148"	"20.33"	"1.274"	"7.859"
"1948"	"33.115"	"12.747"	"27.411"	"7.666"	"5.307"	"237.334"	"317.056"	"431.303"	"266.474"	"36.786"	"66.105"	"1.648"
"1949"	"0.21"	"28.441"	"6.477"	"6.475"	"41.519"	"197.765"	"347.349"	"567.623"	"280.724"	"186.029"	"0"	"0.173"
"1950"	"12.091"	"62.823"	"49.118"	"2.416"	"4.337"	"119.866"	"481.059"	"248.348"	"140.429"	"3.747"	"3.751"	"15.339"
"1951"	"14.93"	"7.242"	"48.505"	"12.932"	"17.459"	"128.663"	"387.024"	"329.594"	"171.648"	"74.268"	"0.134"	"0.173"
"1952"	"0.519"	"30.635"	"28.963"	"6.257"	"9.259"	"131.035"	"193.417"	"305.422"	"175.18"	"18.065"	"0"	"7.136"
"1953"	"28.598"	"1.274"	"0.2"	"16.965"	"0.603"	"77.553"	"434.892"	"433.016"	"234.525"	"21.76"	"0.25"	"0.493"
"1954"	"9.563"	"8.762"	"9.368"	"1.724"	"4.141"	"137.738"	"363.865"	"371.423"	"281.374"	"9.639"	"0"	"0.8"
"1955"	"43.74"	"5.863"	"12.816"	"5.925"	"2.774"	"104.847"	"421.083"	"576.257"	"329.211"	"130.18"	"0.447"	"0.194"
"1956"	"19.723"	"8.049"	"3.281"	"0.569"	"43.263"	"234.172"	"562.412"	"352.133"	"282.76"	"35.855"	"52.382"	"18.298"
"1957"	"9.588"	"1.103"	"39.921"	"37.214"	"4.733"	"159.123"	"477.525"	"324.642"	"144.39"	"12.062"	"0"	"7.109"
"1958"	"17.278"	"24.487"	"22.082"	"14.567"	"1.552"	"70.452"	"478.084"	"366.406"	"229.014"	"97.783"	"26.535"	"0.285"
"1959"	"40.145"	"21.926"	"0.2"	"16.799"	"44.933"	"140.887"	"330.704"	"395.687"	"225.032"	"70.15"	"0"	"0.895"
"1960"	"31.344"	"0.285"	"18.606"	"16.535"	"16.626"	"173.022"	"478.734"	"395.375"	"98.323"	"91.308"	"0"	"0.173"
"1961"	"27.536"	"45.158"	"9.957"	"4.386"	"14.162"	"84.985"	"451.318"	"512.36"	"361.216"	"81.352"	"5.845"	"38.764"
"1962"	"15.881"	"47.099"	"28.411"	"9.911"	"12.38"	"102.437"	"298.974"	"394.899"	"270.1"	"8.876"	"12.313"	"79.169"
"1963"	"11.948"	"22.79"	"25.894"	"14.94"	"17.367"	"124.863"	"372.913"	"411.543"	"258.944"	"59.03"	"1.05"	"0.285"
"1964"	"0.21"	"46.198"	"10.806"	"9.433"	"4.496"	"146.162"	"398.613"	"547.922"	"154.156"	"31.062"	"10.329"	"0.173"
"1965"	"13.785"	"0.299"	"32.226"	"14.308"	"5.529"	"126.722"	"301.537"	"234.473"	"203.143"	"9.593"	"0"	"4.319"
"1966"	"51.25"	"1.467"	"14.996"	"5.845"	"28.607"	"220.472"	"290.083"	"254.183"	"95.397"	"9.06"	"25.596"	"28.053"
"1967"	"1.774"	"0.285"	"63.155"	"7.962"	"12.241"	"170.356"	"387.217"	"627.32"	"191.533"	"5.431"	"0"	"126.614"
"1968"	"38.749"	"23.232"	"22.556"	"17.107"	"0.903"	"131.429"	"334.837"	"417.772"	"281.103"	"24.664"	"0.818"	"4.008"
"1969"	"2.822"	"2.012"	"8.377"	"2.542"	"14.366"	"97.977"	"601.292"	"442.364"	"203.747"	"3.511"	"10.223"	"13.919"
"1970"	"36.977"	"35.184"	"32.16"	"1.702"	"23.938"	"199.889"	"450.379"	"577.2"	"268.333"	"10.456"	"0"	"0.173"
"1971"	"17.665"	"13.691"	"13.981"	"11.667"	"13.813"	"340.505"	"307.348"	"489.338"	"150.514"	"117.038"	"0"	"0.173"
"1972"	"14.552"	"42.185"	"0.487"	"12.257"	"0.571"	"85.69"	"281.228"	"531.104"	"110.844"	"44.325"	"18.982"	"3.906"
"1973"	"4.438"	"16.046"	"1.315"	"2.435"	"0.365"	"90.789"	"537.659"	"460.003"	"221.768"	"60.043"	"0.555"	"0.819"
"1974"	"0.21"	"4.715"	"3.04"	"1.063"	"6.29"	"133.13"	"405.893"	"370.189"	"110.113"	"146.724"	"2.869"	"0.173"
"1975"	"10.987"	"41.291"	"36.611"	"0.89"	"3.013"	"219.429"	"366.162"	"302.397"	"222.269"	"66.211"	"0.515"	"0.173"
"1976"	"19.607"	"2.874"	"10.548"	"40.513"	"17.926"	"68.992"	"354.308"	"444.434"	"330.274"	"0.4"	"26.931"	"0.734"
"1977"	"13.867"	"5.617"	"9.099"	"13.809"	"34.061"	"250.92"	"410.695"	"389.129"	"242.551"	"32.739"	"51.114"	"48.885"
"1978"	"42.473"	"80.524"	"46.087"	"38.125"	"8.563"	"256.902"	"267.818"	"447.216"	"171.363"	"25.526"	"6.228"	"57.422"
"1979"	"45.937"	"32.42"	"0.2"	"3.985"	"5.191"	"124.193"	"353.398"	"437.685"	"178.415"	"33.952"	"25.689"	"7.195"
"1980"	"0.881"	"6.379"	"4.38"	"1.948"	"2.086"	"262.522"	"280.496"	"456.051"	"70.424"	"8.456"	"0"	"20.888"
"1981"	"29.737"	"4.013"	"49.048"	"9.584"	"13.926"	"110.44"	"447.073"	"293.612"	"293.941"	"8.02"	"8.366"	"30.079"
"1982"	"56.078"	"19.101"	"40.883"	"5.146"	"17.026"	"149.593"	"345.661"	"482.665"	"300.61"	"16.104"	"25.328"	"8.507"
"1983"	"4.283"	"15.711"	"5.213"	"10.639"	"18.015"	"148.027"	"329.224"	"367.286"	"207.799"	"51.714"	"0.489"	"8.721"
"1984"	"48.93"	"51.466"	"1.383"	"9.221"	"1.906"	"211.581"	"377.766"	"316.658"	"126.893"	"23.649"	"0"	"0.173"
"1985"	"31.781"	"5.569"	"0.202"	"9.57"	"6.876"	"142.99"	"450.28"	"461.46"	"120.264"	"152.892"	"0"	"2.169"
"1986"	"45.939"	"62.272"	"1.513"	"2.376"	"18.016"	"166.689"	"289.873"	"459.409"	"139.306"	"4.543"	"9.009"	"52.646"
"1987"	"18.562"	"17.717"	"26.021"	"0.187"	"9.66"	"79.611"	"283.607"	"507.531"	"184.596"	"55.099"	"36.439"	"12.211"
"1988"	"7.077"	"8.834"	"29.142"	"18.764"	"5.742"	"200.52"	"269.655"	"364.103"	"217.01"	"28.104"	"11.107"	"9.878"
"1989"	"0.607"	"0.285"	"56.439"	"0.105"	"8.171"	"186.243"	"296.211"	"334.674"	"112.103"	"20.436"	"5.243"	"56.225"
"1990"	"2.608"	"41.578"	"20.361"	"2.762"	"35.171"	"344.724"	"447.447"	"477.494"	"145.08"	"51.947"	"0.038"	"18.15"
"1991"	"34.748"	"12.147"	"20.968"	"12.205"	"2.757"	"191.355"	"342.519"	"478.891"	"117.096"	"5.097"	"3.711"	"41.474"
"1992"	"22.88"	"11.446"	"0.2"	"6.439"	"4.707"	"64.464"	"199.567"	"363.703"	"217.71"	"52.996"	"3.783"	"0.173"
"1993"	"4.816"	"22.072"	"56.563"	"1.465"	"18.718"	"118.527"	"379.095"	"269.619"	"268.653"	"50.049"	"0"	"1.286"
"1994"	"65.759"	"68.091"	"49.66"	"10.741"	"2.933"	"259.042"	"655.341"	"474.276"	"223.829"	"105.107"	"0.009"	"0.173"
"1995"	"44.274"	"11.606"	"85.621"	"8.148"	"4.913"	"121.13"	"381.741"	"367.401"	"245.824"	"18.039"	"5.887"	"9.062"
"1996"	"31.906"	"22.196"	"4.679"	"22.222"	"0.669"	"141.56"	"320.491"	"410.105"	"137.522"	"76.987"	"10.299"	"0.173"
"1997"	"31.505"	"0.285"	"1.195"	"6.361"	"15.225"	"74.615"	"236.162"	"365.867"	"194.773"	"53.227"	"45.998"	"82.159"
"1998"	"14.705"	"51.196"	"41.152"	"8.115"	"20.996"	"85.62"	"261.019"	"426.428"	"194.637"	"62.892"	"49.383"	"0.173"
"1999"	"27.765"	"37.011"	"0.2"	"0"	"22.334"	"94.526"	"353.876"	"428.317"	"216.315"	"65.949"	"0"	"0.173"
"2000"	"5.167"	"29.365"	"0.2"	"3.037"	"20.62"	"175.346"	"365.066"	"181.208"	"166.509"	"7.142"	"0"	"0.173"
"2001"	"4.561"	"0.628"	"33.6"	"15.237"	"16.069"	"182.042"	"302.951"	"400.637"	"91.412"	"108.298"	"1.65"	"0.173"
"2002"	"60.565"	"25.699"	"2.765"	"5.336"	"16.168"	"203.58"	"152.659"	"436.347"	"149.961"	"60.625"	"8.574"	"2.03"
