
"Year"	"Jan"	"Feb"	"Mar"	"Apr"	"May"	"Jun"	"Jul"	"Aug"	"Sep"	"Oct"	"Nov"	"Dec"
"1901"	"17.177"	"19.41"	"24.559"	"29.386"	"32.759"	"32.253"	"27.356"	"25.32"	"25.964"	"25.136"	"20.015"	"17.076"
"1902"	"18.945"	"20.53"	"27.332"	"30.682"	"34.094"	"32.954"	"27.228"	"26.789"	"25.942"	"24.519"	"19.51"	"16.808"
"1903"	"18.288"	"18.944"	"25.014"	"30.211"	"31.901"	"31.865"	"27.549"	"26.287"	"26.1"	"23.618"	"18.353"	"16.163"
"1904"	"18.233"	"19.954"	"25.4"	"31.33"	"32.914"	"29.784"	"26.263"	"25.577"	"25.674"	"24.329"	"19.206"	"17.894"
"1905"	"17.201"	"17.193"	"24.435"	"27.58"	"33.262"	"33.576"	"26.681"	"26.08"	"25.431"	"23.95"	"20.239"	"17.029"
"1906"	"17.346"	"20.179"	"24.31"	"30.701"	"34.513"	"30.506"	"26.384"	"25.901"	"25.687"	"24.162"	"20.226"	"17.839"
"1907"	"18.075"	"19.534"	"24.116"	"27.143"	"31.937"	"30.796"	"27.902"	"24.943"	"26.605"	"25.28"	"20.551"	"16.329"
"1908"	"16.319"	"20.496"	"24.679"	"31.506"	"34.147"	"32.251"	"26.37"	"25.422"	"26.397"	"24.152"	"19.262"	"15.959"
"1909"	"19.298"	"20.123"	"25.867"	"27.507"	"32.861"	"28.782"	"25.775"	"26.113"	"25.677"	"24.15"	"20.249"	"17.884"
"1910"	"17.488"	"19.652"	"25.476"	"30.667"	"33.228"	"29.066"	"26.594"	"25.7"	"25.861"	"23.971"	"18.706"	"16.959"
"1911"	"19.442"	"19.254"	"24.27"	"30.041"	"34.524"	"29.195"	"27.883"	"25.376"	"25.655"	"24.712"	"20.641"	"16.806"
"1912"	"18.045"	"21.029"	"25.47"	"29.839"	"33.348"	"33.364"	"27.137"	"25.623"	"25.954"	"24.507"	"19.694"	"16.515"
"1913"	"17.152"	"20.655"	"24.27"	"31.362"	"31.928"	"28.313"	"26.629"	"25.6"	"26.384"	"24.961"	"19.993"	"17.439"
"1914"	"18.207"	"21.228"	"24.897"	"28.527"	"32.369"	"29.919"	"26.528"	"25.992"	"26.04"	"24.304"	"21.172"	"17.428"
"1915"	"17.841"	"19.856"	"24.378"	"29.629"	"34.266"	"32.733"	"27.539"	"25.893"	"26.065"	"25.404"	"21.543"	"16.785"
"1916"	"17.166"	"20.378"	"26.231"	"31.252"	"33.403"	"27.648"	"26.85"	"25.702"	"25.966"	"24.828"	"20.2"	"15.917"
"1917"	"17.498"	"19.406"	"23.925"	"27.934"	"29.916"	"28.653"	"26.336"	"25.845"	"25.54"	"24.601"	"18.954"	"17.492"
"1918"	"16.423"	"20.53"	"25.421"	"29.452"	"32.464"	"27.566"	"27.903"	"25.563"	"26.52"	"24.104"	"20.252"	"17.044"
"1919"	"19.149"	"19.346"	"25.308"	"29.072"	"32.055"	"29.384"	"26.153"	"25.421"	"26.086"	"23.828"	"20.775"	"16.928"
"1920"	"17.698"	"20.21"	"25.488"	"29.572"	"31.203"	"31.89"	"26.076"	"26.111"	"26.795"	"25.48"	"20.55"	"17.502"
"1921"	"18.555"	"20.043"	"27.407"	"31.681"	"35.614"	"30.089"	"27.326"	"25.577"	"25.574"	"24.205"	"18.736"	"18.093"
"1922"	"17.544"	"20.939"	"26.309"	"30.488"	"34.157"	"29.43"	"25.948"	"25.414"	"25.332"	"23.558"	"19.638"	"16.459"
"1923"	"17.696"	"19.806"	"24.61"	"30.396"	"33.538"	"33.847"	"26.271"	"25.056"	"25.974"	"23.138"	"19.85"	"18.028"
"1924"	"18.177"	"21.277"	"26.93"	"31.286"	"32.925"	"33.229"	"26.352"	"25.915"	"25.775"	"24.058"	"19.351"	"17.393"
"1925"	"16.624"	"19.477"	"25.157"	"31.131"	"31.811"	"29.155"	"25.237"	"25.931"	"26.409"	"24.837"	"20.343"	"16.598"
"1926"	"17.79"	"21.031"	"24.802"	"27.365"	"30.872"	"33.678"	"27.415"	"25.655"	"25.753"	"23.838"	"18.342"	"16.83"
"1927"	"18.463"	"20.29"	"24.048"	"30.289"	"32.949"	"31.155"	"26.271"	"25.745"	"26.574"	"24.46"	"18.92"	"18.015"
"1928"	"18.566"	"20.231"	"25.631"	"29.574"	"34.133"	"30.142"	"26.174"	"26.481"	"26.574"	"24.949"	"20.611"	"17.74"
"1929"	"18.202"	"18.897"	"25.92"	"29.827"	"34.254"	"30.409"	"26.017"	"25.277"	"26.211"	"24.115"	"19.716"	"17.174"
"1930"	"17.788"	"19.164"	"25.92"	"29.207"	"32.768"	"30.957"	"26.185"	"25.601"	"26.331"	"25.238"	"19.619"	"17.621"
"1931"	"18.897"	"21.366"	"25.057"	"31.106"	"34.212"	"32.087"	"26.592"	"25.667"	"26.331"	"24.105"	"19.808"	"17.348"
"1932"	"18.775"	"19.133"	"25.344"	"29.885"	"32.835"	"32.209"	"26.458"	"25.981"	"26.288"	"25.192"	"20.486"	"17.418"
"1933"	"17.859"	"21.419"	"25.681"	"28.259"	"29.725"	"28.929"	"26.572"	"25.643"	"25.785"	"24.172"	"19.706"	"17.405"
"1934"	"16.864"	"20.241"	"25.278"	"30.353"	"33.536"	"30.635"	"26.372"	"25.523"	"25.574"	"23.45"	"19.225"	"17.649"
"1935"	"17.201"	"20.431"	"25.334"	"27.788"	"33.972"	"31.655"	"26.048"	"25.412"	"25.64"	"24.394"	"20.227"	"18.376"
"1936"	"18.372"	"19.754"	"25.877"	"29.364"	"33.624"	"28.078"	"26.378"	"25.601"	"25.742"	"23.684"	"20.862"	"17.828"
"1937"	"16.432"	"20.513"	"24.002"	"28.575"	"32.16"	"31.067"	"26.259"	"25.336"	"25.944"	"23.686"	"20.527"	"16.684"
"1938"	"19.416"	"18.957"	"26.964"	"30.142"	"33.238"	"27.431"	"25.861"	"25.711"	"26.238"	"24.282"	"19.694"	"16.838"
"1939"	"18.745"	"21.3"	"24.31"	"29.566"	"34.235"	"30.127"	"25.972"	"25.477"	"25.654"	"24.837"	"19.628"	"17.206"
"1940"	"17.116"	"20.554"	"24.591"	"29.377"	"33.268"	"30.788"	"25.859"	"25.609"	"26.065"	"24.637"	"20.708"	"17.697"
"1941"	"18.513"	"20.043"	"26.589"	"31.631"	"34.304"	"30.612"	"27.025"	"26.197"	"26.74"	"25.121"	"20.192"	"18.494"
"1942"	"17.801"	"20.011"	"25.701"	"30.142"	"34.567"	"32.324"	"25.593"	"25.457"	"25.412"	"24.466"	"20.536"	"17.363"
"1943"	"19.413"	"18.992"	"25.937"	"29.34"	"33.464"	"30.113"	"26.137"	"24.735"	"25.762"	"23.939"	"20.038"	"16.525"
"1944"	"17.722"	"19.521"	"23.592"	"28.375"	"34.321"	"31.111"	"25.905"	"25.53"	"26.077"	"23.738"	"20.071"	"19.302"
"1945"	"17.003"	"19.641"	"25.906"	"28.287"	"33.336"	"31.519"	"26.227"	"26.443"	"25.873"	"23.816"	"19.316"	"16.238"
"1946"	"17.693"	"20.993"	"25.519"	"29.517"	"33.081"	"28.653"	"25.984"	"25.519"	"25.366"	"25.047"	"20.71"	"19.131"
"1947"	"17.803"	"20.009"	"25.574"	"30.464"	"33.673"	"32.13"	"26.171"	"26.036"	"25.861"	"23.958"	"20.647"	"18.229"
"1948"	"18.533"	"20.388"	"24.906"	"31.005"	"35.111"	"31.357"	"26.275"	"25.635"	"25.473"	"25.236"	"21.243"	"16.559"
"1949"	"18.273"	"20.097"	"25.944"	"30.62"	"32.973"	"30.095"	"26.426"	"25.724"	"25.717"	"24.769"	"18.508"	"17.357"
"1950"	"18.331"	"19.511"	"24.308"	"29.59"	"33.793"	"30.301"	"25.97"	"25.825"	"25.885"	"23.936"	"19.327"	"17.436"
"1951"	"16.92"	"20.487"	"25.521"	"28.81"	"33.081"	"31.323"	"27.181"	"25.724"	"26.51"	"26.324"	"20.949"	"17.338"
"1952"	"18.586"	"21.886"	"25.053"	"31.298"	"34.813"	"31.549"	"26.995"	"25.49"	"26.362"	"25.002"	"19.84"	"18.82"
"1953"	"18.223"	"22.604"	"28.564"	"30.776"	"34.618"	"32.471"	"26.296"	"25.334"	"26.209"	"24.207"	"19.63"	"18.558"
"1954"	"17.121"	"22.286"	"26.009"	"31.187"	"35.033"	"31.248"	"26.592"	"26.078"	"25.398"	"22.985"	"19.336"	"18.017"
"1955"	"18.334"	"21.287"	"27.295"	"28.875"	"33.488"	"30.905"	"26.054"	"25.511"	"25.777"	"23.993"	"19.036"	"17.556"
"1956"	"18.445"	"20.308"	"27.016"	"31.543"	"33.833"	"28.147"	"25.792"	"25.422"	"25.354"	"23.893"	"19.333"	"18.616"
"1957"	"19.19"	"19.5"	"23.689"	"29.198"	"32.836"	"31.787"	"26.281"	"25.945"	"26.065"	"24.74"	"21.179"	"19.406"
"1958"	"19.264"	"21.52"	"26.521"	"31.483"	"34.268"	"33.398"	"26.66"	"26.1"	"25.773"	"24.591"	"21.496"	"18.239"
"1959"	"18.788"	"20.489"	"26.329"	"30.42"	"33.805"	"30.676"	"26.027"	"25.309"	"25.672"	"24.927"	"20.513"	"17.861"
"1960"	"17.478"	"21.458"	"24.601"	"29.674"	"33.336"	"31.162"	"26.271"	"25.334"	"26.45"	"24.228"	"19.493"	"18.943"
"1961"	"19.086"	"19.31"	"26.844"	"30.575"	"33.524"	"29.497"	"25.926"	"25.501"	"25.107"	"23.926"	"19.704"	"16.033"
"1962"	"16.441"	"20.285"	"24.975"	"29.804"	"32.402"	"31.502"	"26.923"	"25.7"	"25.52"	"23.238"	"20.315"	"17.962"
"1963"	"16.555"	"21.216"	"25.018"	"28.952"	"32.204"	"29.446"	"26.372"	"25.897"	"25.964"	"24.849"	"21.588"	"17.85"
"1964"	"18.28"	"20.666"	"26.601"	"31.207"	"32.955"	"30.688"	"25.616"	"25.444"	"26.065"	"24.949"	"19.619"	"17.785"
"1965"	"18.287"	"20.574"	"24.856"	"28.721"	"33.633"	"31.506"	"26.816"	"26.133"	"25.497"	"24.971"	"21.261"	"18.207"
"1966"	"17.952"	"22.283"	"26.054"	"31.296"	"33.259"	"31.411"	"28.459"	"25.99"	"26.483"	"25.533"	"22.741"	"17.573"
"1967"	"18.27"	"21.933"	"24.765"	"29.287"	"33.206"	"31.91"	"27.018"	"25.279"	"25.753"	"24.246"	"20.726"	"19.32"
"1968"	"17.212"	"19.69"	"24.32"	"28.593"	"32.646"	"30.702"	"26.594"	"25.189"	"26.906"	"24.148"	"20.259"	"17.649"
"1969"	"18.145"	"22.477"	"27.94"	"31.396"	"32.705"	"31.861"	"26.387"	"25.4"	"25.487"	"25.046"	"22.049"	"17.673"
"1970"	"18.901"	"21.38"	"25.39"	"30.615"	"33.703"	"28.113"	"26.294"	"25.53"	"25.632"	"24.768"	"19.348"	"16.878"
"1971"	"18"	"20.112"	"24.733"	"30.202"	"30.046"	"27.647"	"25.587"	"25.004"	"26.42"	"24.99"	"19.618"	"16.777"
"1972"	"18.437"	"19.954"	"26.764"	"29.398"	"33.705"	"33.545"	"27.471"	"24.946"	"26.065"	"24.371"	"21.357"	"19.439"
"1973"	"19.012"	"22.243"	"26.024"	"31.317"	"35.175"	"31.255"	"26.186"	"25.501"	"26.018"	"24.013"	"20.388"	"17.652"
"1974"	"17.419"	"20.465"	"26.981"	"31.496"	"32.143"	"30.558"	"26.633"	"25.785"	"27.062"	"24.973"	"19.917"	"18.036"
"1975"	"16.94"	"21.401"	"25.305"	"31.088"	"35.014"	"30.925"	"25.52"	"25.332"	"25.764"	"25.347"	"18.913"	"16.552"
"1976"	"17.814"	"21.114"	"25.639"	"28.555"	"33.527"	"29.364"	"25.573"	"25.779"	"25.532"	"25.661"	"24.032"	"19.344"
"1977"	"18.501"	"21.764"	"27.419"	"29.457"	"30.761"	"30.844"	"26.25"	"25.382"	"25.831"	"25.37"	"22.339"	"17.882"
"1978"	"16.856"	"19.232"	"22.997"	"28.703"	"35.014"	"29.993"	"25.821"	"24.902"	"26.223"	"24.796"	"21.753"	"16.95"
"1979"	"18.736"	"17.766"	"24.504"	"28.949"	"31.02"	"30.661"	"26.293"	"25.566"	"26.58"	"26.059"	"24.421"	"18.917"
"1980"	"19.278"	"22.276"	"25.093"	"31.505"	"34.263"	"28.179"	"25.41"	"24.693"	"25.507"	"25.232"	"21.894"	"18.237"
"1981"	"17.57"	"21.798"	"24.475"	"28.297"	"31.981"	"31.133"	"25.655"	"25.624"	"25.797"	"24.614"	"20.657"	"17.263"
"1982"	"19.431"	"20.19"	"23.904"	"30.031"	"31.514"	"30.643"	"28.429"	"25.414"	"26.811"	"24.89"	"20.938"	"19.521"
"1983"	"17.96"	"19.934"	"25.876"	"29.343"	"32.181"	"32.021"	"27.627"	"26.321"	"26.11"	"23.295"	"19.101"	"17.197"
"1984"	"17.843"	"18.545"	"25.918"	"30.129"	"34.713"	"29.784"	"26.426"	"25.003"	"25.364"	"25.058"	"20.014"	"19.189"
"1985"	"18.795"	"20.919"	"27.917"	"31.505"	"33.781"	"31.661"	"25.794"	"25.325"	"26.453"	"24.091"	"20.878"	"19.13"
"1986"	"18.217"	"19.797"	"24.581"	"30.776"	"32.395"	"31.053"	"25.525"	"25.889"	"26.279"	"24.626"	"21.496"	"17.812"
"1987"	"17.821"	"20.942"	"25.876"	"31.051"	"31.284"	"32.277"	"26.903"	"26.577"	"26.922"	"24.84"	"20.862"	"17.708"
"1988"	"18.826"	"22.077"	"25.551"	"30.52"	"35.469"	"30.531"	"26.281"	"26.408"	"27.196"	"24.003"	"20.714"	"18.795"
"1989"	"17.239"	"21.743"	"24.58"	"30.613"	"34.36"	"29.302"	"27.026"	"26.099"	"26.277"	"24.872"	"21.805"	"18.126"
"1990"	"20.299"	"21.243"	"25.547"	"30.158"	"30.353"	"28.697"	"25.696"	"26.188"	"25.645"	"24.377"	"21.283"	"18.651"
"1991"	"17.512"	"22.588"	"25.844"	"29.648"	"35.745"	"30.042"	"27.496"	"25.622"	"27.04"	"24.728"	"20.43"	"17.85"
"1992"	"18.494"	"20.259"	"26.703"	"30.522"	"32.886"	"33.056"	"27.893"	"25.883"	"26.077"	"25.282"	"21.606"	"17.738"
"1993"	"19.095"	"21.265"	"24.315"	"29.933"	"34.497"	"31.44"	"27.767"	"26.3"	"25.659"	"25.539"	"21.223"	"17.526"
"1994"	"19.919"	"20.854"	"27.379"	"29.447"	"34.925"	"29.661"	"26.327"	"25.566"	"26.341"	"24.884"	"21.138"	"18.227"
"1995"	"16.804"	"21.074"	"24.411"	"29.968"	"32.105"	"33.088"	"26.822"	"26.168"	"26.727"	"25.232"	"21.095"	"19.122"
"1996"	"18.818"	"20.881"	"26.799"	"29.56"	"34.562"	"31.566"	"26.967"	"25.391"	"26.876"	"24.61"	"20.807"	"17.011"
"1997"	"16.99"	"19.62"	"25.987"	"27.674"	"32.427"	"31.145"	"26.723"	"26.012"	"26.041"	"24.773"	"22.231"	"18.245"
"1998"	"18.058"	"20.518"	"23.115"	"29.06"	"32.834"	"31.956"	"26.662"	"26.477"	"26.554"	"26.246"	"21.524"	"17.825"
"1999"	"16.741"	"21.654"	"25.923"	"31.454"	"32.581"	"29.532"	"26.362"	"25.522"	"25.578"	"25.39"	"21.956"	"18.162"
"2000"	"18.248"	"20.11"	"24.918"	"31.486"	"32.338"	"28.245"	"26.252"	"26.335"	"25.6"	"26.026"	"22.669"	"17.96"
"2001"	"17.826"	"21.731"	"25.979"	"28.987"	"33.538"	"28.078"	"25.695"	"25.921"	"27.154"	"25.706"	"22.64"	"19.119"
"2002"	"18.055"	"21.338"	"26.422"	"30.774"	"34.437"	"30.474"	"27.758"	"25.411"	"26.233"	"25.212"	"21.65"	"20.033"
