
"Year"	"Jan"	"Feb"	"Mar"	"Apr"	"May"	"Jun"	"Jul"	"Aug"	"Sep"	"Oct"	"Nov"	"Dec"
"1901"	"15.524"	"19.736"	"24.683"	"30.246"	"30.001"	"30.385"	"28.352"	"27.901"	"27.455"	"26.699"	"21.196"	"16.964"
"1902"	"17.472"	"19.784"	"26.341"	"28.292"	"29.748"	"29.834"	"27.798"	"28.199"	"27.556"	"25.556"	"20.792"	"16.505"
"1903"	"16.636"	"18.831"	"24.744"	"29.901"	"31.367"	"29.085"	"29.007"	"27.756"	"27.602"	"25.986"	"20.482"	"16.348"
"1904"	"16.47"	"19.432"	"25.436"	"30.512"	"29.002"	"28.573"	"27.298"	"27.699"	"27.652"	"25.7"	"20.591"	"17.514"
"1905"	"15.928"	"16.338"	"22.986"	"26.692"	"28.339"	"31.048"	"27.798"	"27.407"	"27.199"	"25.944"	"21.237"	"17"
"1906"	"16.125"	"18.63"	"22.881"	"30.204"	"30.606"	"29.834"	"28.249"	"27.508"	"28.053"	"25.799"	"21.185"	"17.403"
"1907"	"17.626"	"18.83"	"22.687"	"27.137"	"29.654"	"29.583"	"28.054"	"28.047"	"27.654"	"25.949"	"21.044"	"16.652"
"1908"	"15.516"	"19.18"	"25.242"	"32.004"	"30.813"	"29.577"	"27.999"	"27.797"	"27.755"	"26.399"	"20.69"	"16.201"
"1909"	"17.537"	"19.438"	"26.383"	"27.681"	"30.713"	"28.325"	"28.05"	"27.046"	"27.848"	"25.99"	"21.899"	"17.403"
"1910"	"16.167"	"19.127"	"25.041"	"29.803"	"30.059"	"28.727"	"27.556"	"27.551"	"27.801"	"25.799"	"20.538"	"16.294"
"1911"	"18.128"	"18.78"	"23.933"	"29.35"	"30.717"	"28.573"	"28.71"	"27.655"	"27.202"	"25.653"	"20.948"	"15.697"
"1912"	"16.975"	"20.439"	"24.597"	"27.65"	"29.348"	"29.783"	"27.654"	"27.655"	"27.753"	"25.799"	"20.388"	"16.499"
"1913"	"16.321"	"19.334"	"23.238"	"30.911"	"28.956"	"27.371"	"28.152"	"27.346"	"27.704"	"25.342"	"20.093"	"16.303"
"1914"	"16.726"	"19.736"	"24.434"	"27.094"	"29.144"	"28.669"	"27.743"	"27.455"	"27.511"	"24.852"	"20.993"	"17.447"
"1915"	"17.366"	"19.48"	"23.983"	"29.098"	"29.906"	"28.727"	"28.908"	"28.312"	"27.652"	"27.545"	"22.992"	"17.201"
"1916"	"16.574"	"19.834"	"26.536"	"29.55"	"32.779"	"28.468"	"27.91"	"27.952"	"27.755"	"26.152"	"21.184"	"16.248"
"1917"	"16.121"	"19.334"	"23.942"	"28.644"	"28.285"	"28.722"	"28.053"	"27.845"	"27.299"	"25.699"	"20.936"	"16.645"
"1918"	"15.575"	"19.387"	"25.592"	"28.292"	"29.482"	"27.717"	"29.12"	"27.154"	"27.854"	"26.098"	"21.146"	"16.707"
"1919"	"17.629"	"18.581"	"25.932"	"28.746"	"30.309"	"29.072"	"28.152"	"28.151"	"27.455"	"25.745"	"21.435"	"16.947"
"1920"	"17.274"	"19.334"	"24.137"	"29.404"	"30.163"	"30.745"	"28.498"	"27.901"	"27.455"	"26.399"	"21.588"	"17.29"
"1921"	"17.479"	"19.384"	"26.088"	"30.208"	"32.221"	"29.945"	"28.409"	"27.699"	"27.651"	"25"	"20.538"	"17.512"
"1922"	"17.12"	"20.084"	"26.085"	"30.79"	"31.813"	"28.173"	"28.053"	"27.497"	"27.153"	"25.041"	"21.09"	"17.102"
"1923"	"17.074"	"19.334"	"25.08"	"30.151"	"30.869"	"30.541"	"28.152"	"27.741"	"27.908"	"25.499"	"21.138"	"17.809"
"1924"	"17.027"	"19.834"	"26.942"	"30.694"	"31.021"	"31.395"	"28.053"	"27.899"	"27.055"	"26.341"	"20.889"	"17.149"
"1925"	"15.48"	"18.232"	"24.73"	"28.441"	"29.662"	"29.331"	"27.698"	"28.107"	"27.511"	"25.299"	"20.946"	"16.614"
"1926"	"16.679"	"20.191"	"23.992"	"28.095"	"30.109"	"32.163"	"28.107"	"27.899"	"27.553"	"25.796"	"20.246"	"17.755"
"1927"	"16.877"	"19.292"	"23.139"	"29.857"	"29.355"	"30.193"	"28.252"	"27.809"	"27.812"	"26.352"	"21.502"	"17.809"
"1928"	"16.935"	"20.032"	"26.293"	"29.446"	"30.359"	"28.671"	"27.849"	"28.158"	"28.301"	"26.402"	"21.101"	"17.406"
"1929"	"16.679"	"18.586"	"25.232"	"29.098"	"31.371"	"30.8"	"27.798"	"27.505"	"27.755"	"25.195"	"20.693"	"16.448"
"1930"	"15.626"	"19.08"	"25.341"	"29.053"	"30.403"	"29.647"	"27.95"	"27.699"	"27.698"	"26.152"	"20.688"	"16.446"
"1931"	"17.82"	"19.325"	"24.313"	"30.654"	"30.059"	"31.191"	"27.903"	"28.342"	"27.799"	"26.34"	"20.838"	"17.548"
"1932"	"17.721"	"18.542"	"25.886"	"29.588"	"31.582"	"30.192"	"28.386"	"28.045"	"28.19"	"26.599"	"21.285"	"17.65"
"1933"	"15.374"	"19.935"	"25.33"	"27.637"	"30.516"	"29.022"	"27.849"	"27.201"	"27.652"	"25.896"	"20.838"	"17.201"
"1934"	"16.17"	"19.03"	"24.784"	"29.692"	"30.568"	"28.938"	"28.206"	"27.794"	"27.899"	"25.345"	"20.493"	"17.46"
"1935"	"16.306"	"19.927"	"25.881"	"29.025"	"31.872"	"30.514"	"28.792"	"27.105"	"27.648"	"25.843"	"21.282"	"17.059"
"1936"	"15.834"	"19.631"	"25.745"	"29.8"	"29.537"	"28.745"	"28.038"	"28.297"	"27.245"	"25.491"	"21.777"	"17.895"
"1937"	"15.518"	"19.468"	"24.03"	"29.559"	"29.728"	"29.9"	"28.738"	"27.749"	"28.04"	"25.206"	"20.985"	"16.69"
"1938"	"17.986"	"18.526"	"26.848"	"31.199"	"28.976"	"28.956"	"28.145"	"27.786"	"28.552"	"26.549"	"20.693"	"17.144"
"1939"	"17.729"	"20.346"	"24.333"	"31.021"	"30.956"	"29.837"	"28.284"	"27.675"	"27.84"	"25.952"	"21.427"	"17.901"
"1940"	"16.821"	"19.734"	"23.446"	"29.544"	"31.09"	"30.395"	"28.236"	"28.043"	"27.959"	"26.702"	"22.717"	"17.975"
"1941"	"17.281"	"20.134"	"26.641"	"30.796"	"30.014"	"29.623"	"28.396"	"28.149"	"28.143"	"25.55"	"21.247"	"18.609"
"1942"	"17.325"	"19.834"	"25.887"	"29.211"	"31.691"	"31.241"	"28.579"	"27.385"	"27.196"	"25.896"	"22.551"	"17.024"
"1943"	"18.225"	"18.485"	"25.44"	"27.458"	"30.734"	"29.128"	"28.045"	"27.403"	"27.997"	"26.569"	"21.937"	"18.768"
"1944"	"17.14"	"19.648"	"24.74"	"27.488"	"32.533"	"30.692"	"28.08"	"27.847"	"27.912"	"25.901"	"21.452"	"18.676"
"1945"	"16.675"	"18.546"	"25.844"	"28.477"	"29.913"	"30.186"	"28.693"	"28.158"	"28.146"	"25.395"	"21.042"	"16.708"
"1946"	"17.766"	"21.504"	"25.354"	"26.384"	"29.398"	"29.416"	"28.033"	"28.035"	"27.936"	"25.753"	"22.04"	"18.35"
"1947"	"17.57"	"20.177"	"25.941"	"31.007"	"31.101"	"30.678"	"28.342"	"28.131"	"27.698"	"26.042"	"21.707"	"18.403"
"1948"	"18.578"	"20.239"	"24.957"	"29.678"	"29.953"	"30.133"	"27.478"	"27.475"	"27.936"	"25.848"	"21.698"	"16.642"
"1949"	"17.618"	"19.421"	"25.53"	"27.001"	"27.725"	"29.599"	"28.053"	"28.054"	"27.749"	"26.829"	"20.677"	"16.514"
"1950"	"17.633"	"19.279"	"24.436"	"29.694"	"30.989"	"29.315"	"28.429"	"27.344"	"28.04"	"25.942"	"20.64"	"17.505"
"1951"	"16.771"	"20.23"	"25.771"	"29.588"	"31.105"	"29.945"	"28.149"	"28.801"	"28.548"	"27.103"	"21.947"	"18.213"
"1952"	"18.032"	"20.955"	"25.15"	"27.303"	"29.709"	"29.826"	"27.752"	"27.732"	"27.255"	"26.387"	"21.445"	"17.525"
"1953"	"16.487"	"20.89"	"27.169"	"29.757"	"30.867"	"29.132"	"27.445"	"27.83"	"27.293"	"26.048"	"21.242"	"19.056"
"1954"	"16.02"	"21.39"	"25.28"	"32.083"	"31.209"	"28.279"	"27.395"	"27.591"	"27.774"	"24.743"	"19.769"	"17.313"
"1955"	"17.126"	"19.6"	"26.56"	"28.909"	"31.427"	"29.591"	"27.363"	"27.27"	"28.046"	"26.489"	"22.079"	"17.222"
"1956"	"17.135"	"19.519"	"26.179"	"30.063"	"30.61"	"27.893"	"27.785"	"27.55"	"27.292"	"25.805"	"20.937"	"17.924"
"1957"	"17.093"	"18.601"	"24.583"	"29.946"	"33.424"	"30.154"	"28.083"	"27.853"	"27.861"	"25.738"	"21.104"	"18.459"
"1958"	"18.726"	"20.082"	"25.953"	"31.087"	"33.077"	"32.199"	"29.243"	"27.599"	"28.185"	"27.354"	"22.076"	"18.861"
"1959"	"17.533"	"19.343"	"25.046"	"30.193"	"31.324"	"29.686"	"28.437"	"28.289"	"27.685"	"26.128"	"21.193"	"17.701"
"1960"	"16.886"	"21.929"	"24.137"	"31.081"	"31.528"	"29.984"	"27.791"	"28.179"	"27.358"	"26.486"	"20.874"	"18.085"
"1961"	"18.162"	"18.322"	"26.282"	"30.641"	"31.795"	"29.264"	"28.128"	"28.288"	"27.788"	"25.832"	"20.58"	"15.501"
"1962"	"16.067"	"20.519"	"25.121"	"30.473"	"30.454"	"29.68"	"28.806"	"27.561"	"27.797"	"25.545"	"21.292"	"17.809"
"1963"	"16.354"	"21.087"	"24.946"	"28.649"	"29.046"	"29.509"	"28.252"	"28.051"	"28.15"	"26.412"	"22.526"	"18.406"
"1964"	"16.841"	"20.192"	"26.392"	"30.038"	"29.302"	"30.735"	"27.499"	"28.047"	"27.851"	"26.54"	"21.776"	"18.111"
"1965"	"18.128"	"20.334"	"24.079"	"29.193"	"31.664"	"30.864"	"27.955"	"27.57"	"27.759"	"26.352"	"21.92"	"17.186"
"1966"	"17.353"	"21.683"	"26.13"	"31.291"	"32.122"	"30.851"	"28.609"	"28.001"	"27.863"	"25.669"	"22.366"	"17.901"
"1967"	"17.84"	"21.204"	"23.938"	"27.401"	"30.517"	"30.351"	"28.448"	"27.842"	"27.794"	"25.765"	"20.959"	"18.737"
"1968"	"16.938"	"18.961"	"25.337"	"29.547"	"31.92"	"28.211"	"27.74"	"27.943"	"28.513"	"25.454"	"21.39"	"19.59"
"1969"	"16.682"	"20.576"	"26.841"	"30.105"	"29.345"	"29.883"	"28.057"	"27.1"	"27.198"	"25.857"	"22.389"	"17.655"
"1970"	"17.231"	"19.741"	"24.899"	"30.451"	"31.552"	"28.923"	"28.099"	"27.903"	"27.301"	"25.946"	"20.652"	"16.753"
"1971"	"16.621"	"19.063"	"24.135"	"26.272"	"27.743"	"28.214"	"26.8"	"26.453"	"27.147"	"25.841"	"20.288"	"17.352"
"1972"	"16.803"	"17.51"	"24.922"	"29.148"	"31.948"	"30.005"	"28.355"	"27.699"	"25.699"	"25.238"	"20.148"	"17"
"1973"	"16.758"	"20.029"	"23.331"	"29.439"	"29.093"	"27.868"	"28.098"	"27.901"	"27.301"	"25.943"	"21.288"	"17.597"
"1974"	"15.372"	"19.364"	"24.46"	"29.384"	"29.35"	"29.641"	"27.606"	"27.657"	"27.41"	"26.886"	"20.943"	"15.399"
"1975"	"16.816"	"19.876"	"25.034"	"29.676"	"30.253"	"29.377"	"26.296"	"27.845"	"27.151"	"26.943"	"21.987"	"17.107"
"1976"	"17.035"	"20.576"	"25.833"	"29.293"	"28.992"	"30.032"	"28.36"	"27.654"	"27.111"	"26.448"	"23.175"	"17.655"
"1977"	"16.767"	"19.769"	"26.879"	"29.177"	"27.045"	"28.385"	"27.849"	"28.408"	"28.011"	"25.455"	"22.609"	"15.608"
"1978"	"15.685"	"19.188"	"23.736"	"28.137"	"29.426"	"28.373"	"27.852"	"28.161"	"27.397"	"25.837"	"22.488"	"18.207"
"1979"	"17.773"	"18.813"	"24.785"	"29.631"	"31.61"	"30.783"	"28.411"	"29.005"	"27.136"	"26.542"	"23.8"	"17.928"
"1980"	"17.074"	"19.826"	"24.867"	"30.88"	"29.368"	"29.051"	"28.083"	"27.732"	"27.908"	"25.798"	"21.989"	"18.691"
"1981"	"16.288"	"19.873"	"24.085"	"26.472"	"27.535"	"29.532"	"27.749"	"28.199"	"27.651"	"26.24"	"21.445"	"17.563"
"1982"	"18.225"	"19.434"	"22.976"	"28.687"	"31.778"	"29.481"	"30.109"	"27.904"	"28.509"	"26.162"	"21.801"	"17.737"
"1983"	"16.435"	"19.161"	"25.282"	"28.05"	"29.201"	"31.397"	"28.853"	"28.4"	"28.205"	"26.039"	"21.553"	"17.474"
"1984"	"16.969"	"18.813"	"25.571"	"30.204"	"31.599"	"28.119"	"28.006"	"27.807"	"27.314"	"26.942"	"20.544"	"18.109"
"1985"	"17.582"	"19.268"	"26.167"	"30.193"	"28.951"	"30.184"	"27.306"	"28.101"	"27.201"	"26"	"22.004"	"19.308"
"1986"	"17.669"	"20.127"	"24.483"	"28.796"	"28.157"	"30.635"	"27.907"	"27.299"	"27.349"	"25.297"	"21.995"	"18.023"
"1987"	"17.284"	"20.947"	"24.984"	"28.692"	"29.81"	"30.779"	"27.999"	"27.051"	"27.749"	"26.768"	"22.427"	"19.674"
"1988"	"18.771"	"20.82"	"24.925"	"29.991"	"30.651"	"28.682"	"28.406"	"28.548"	"29.108"	"27.813"	"22.655"	"20.028"
"1989"	"17.263"	"21.682"	"25.627"	"31.002"	"30.304"	"28.428"	"28.252"	"28.154"	"28.102"	"27.303"	"22.15"	"17.763"
"1990"	"18.191"	"20.234"	"23.683"	"28.602"	"29.085"	"29.672"	"28.054"	"28.806"	"28.408"	"25.347"	"22.997"	"18.709"
"1991"	"16.246"	"21.728"	"25.529"	"29.293"	"31.757"	"28.623"	"28.748"	"28.19"	"27.505"	"27.043"	"23.352"	"17.608"
"1992"	"15.954"	"18.337"	"26.275"	"30.201"	"29.155"	"30.327"	"27.972"	"28.158"	"28.056"	"26.411"	"22.358"	"17.613"
"1993"	"17.083"	"21.48"	"23.945"	"28.15"	"29.023"	"30.004"	"28.908"	"27.649"	"27.652"	"26.899"	"22.372"	"18.794"
"1994"	"18.131"	"19.292"	"25.534"	"28.536"	"30.7"	"29.529"	"28.787"	"28.193"	"27.848"	"26.357"	"22.3"	"18.154"
"1995"	"15.921"	"20.504"	"24.873"	"29.437"	"31.077"	"30.251"	"27.756"	"27.499"	"27.698"	"26.54"	"22.643"	"18.517"
"1996"	"17.084"	"19.668"	"25.888"	"28.676"	"30.559"	"28.821"	"28.053"	"27.245"	"28.352"	"26.102"	"22.085"	"18.178"
"1997"	"16.87"	"18.617"	"25.583"	"28.793"	"29.955"	"29.934"	"28.148"	"28.295"	"27.202"	"25.646"	"22.362"	"17.898"
"1998"	"16.621"	"20.483"	"23.834"	"29.008"	"30.756"	"31.292"	"28.306"	"28.309"	"28.354"	"28.3"	"22.99"	"19.156"
"1999"	"18.014"	"21.575"	"26.179"	"31.729"	"30.648"	"29.676"	"27.999"	"27.899"	"27.698"	"26.845"	"22.69"	"19.354"
"2000"	"17.802"	"19.921"	"24.664"	"29.468"	"30.301"	"29.628"	"28.256"	"28.107"	"27.306"	"26.708"	"23.151"	"18.157"
"2001"	"17.626"	"20.278"	"25.429"	"30.196"	"30.893"	"29.264"	"28.336"	"28.554"	"28.354"	"27.3"	"23.652"	"19.208"
"2002"	"17.376"	"21.179"	"25.985"	"29.392"	"30.95"	"30.13"	"29.302"	"27.899"	"27.801"	"26.399"	"22.293"	"18.96"
