
"Year"	"Jan"	"Feb"	"Mar"	"Apr"	"May"	"Jun"	"Jul"	"Aug"	"Sep"	"Oct"	"Nov"	"Dec"
"1901"	"30.125"	"25.192"	"52.957"	"156.926"	"157.677"	"327.29"	"302.619"	"309.885"	"277.91"	"111.909"	"87.081"	"5.32"
"1902"	"21.714"	"25.023"	"50.406"	"184.565"	"225.733"	"326.669"	"503.369"	"353.205"	"448.228"	"58.604"	"10.276"	"2.764"
"1903"	"37.148"	"30.907"	"86.512"	"126.224"	"171.267"	"405.579"	"277.289"	"440.419"	"212.012"	"124.374"	"35.877"	"3.695"
"1904"	"28.722"	"33.307"	"102.423"	"250.01"	"198.979"	"161.295"	"285.549"	"427.26"	"170.536"	"41.443"	"34.625"	"3.354"
"1905"	"32.862"	"18.698"	"101.213"	"127.904"	"144.131"	"193.6"	"368.057"	"406.261"	"104.081"	"70.212"	"30.043"	"26.692"
"1906"	"21.058"	"56.571"	"89.015"	"302.649"	"138.018"	"302.845"	"306.22"	"361.824"	"132.438"	"65.503"	"22.943"	"2.876"
"1907"	"13.548"	"51.542"	"82.661"	"197.652"	"157.134"	"313.745"	"421.131"	"241.256"	"291.252"	"30.353"	"1.895"	"6.486"
"1908"	"22.127"	"37.894"	"37.098"	"229.576"	"238.501"	"466.506"	"529.867"	"174.25"	"291.384"	"83.584"	"6.862"	"3.419"
"1909"	"64.817"	"11.366"	"12.666"	"147.607"	"281.974"	"474.784"	"302.921"	"405.012"	"138.177"	"64.657"	"7.969"	"4.473"
"1910"	"14.826"	"43.443"	"117.938"	"125.017"	"121.862"	"526.745"	"384.699"	"298.608"	"137.619"	"229.011"	"19.193"	"30.669"
"1911"	"41.68"	"34.594"	"56.502"	"155.674"	"299.099"	"335.514"	"410.661"	"278.869"	"236.606"	"245.811"	"41.182"	"7.681"
"1912"	"20.067"	"65.159"	"56.173"	"141.638"	"154.436"	"308.017"	"512.129"	"358.129"	"299.221"	"104.892"	"28.485"	"10.196"
"1913"	"20.746"	"58.714"	"62.423"	"264.947"	"390.281"	"321.719"	"262.906"	"295.425"	"209.98"	"250.077"	"7.137"	"45.679"
"1914"	"10.196"	"38.722"	"75.954"	"123.531"	"161.482"	"225.493"	"393.76"	"339.858"	"163.726"	"71.352"	"16.082"	"5.073"
"1915"	"10.562"	"39.953"	"99.832"	"93.716"	"290.545"	"391.817"	"590.062"	"367.174"	"234.724"	"110.616"	"18.56"	"11.096"
"1916"	"32.807"	"28.151"	"89.62"	"148.235"	"314.866"	"389.477"	"378.114"	"317.525"	"143.101"	"66.538"	"15.208"	"9.086"
"1917"	"19.719"	"100.872"	"44.257"	"184.746"	"187.056"	"438.679"	"474.844"	"320.202"	"183.594"	"102.345"	"28.211"	"1.81"
"1918"	"13.316"	"26.843"	"96.768"	"90.612"	"184.495"	"551.095"	"386.924"	"234.139"	"199.093"	"69.759"	"7.058"	"2.984"
"1919"	"12.224"	"32.404"	"13.768"	"102.42"	"263.201"	"383.696"	"496.431"	"181.304"	"239.691"	"269.582"	"16.575"	"2.219"
"1920"	"13.209"	"51.842"	"130.918"	"87.915"	"173.286"	"343.59"	"325.359"	"336.078"	"188.815"	"61.544"	"5.193"	"16.855"
"1921"	"28.732"	"34.168"	"111.096"	"222.976"	"328.182"	"333.437"	"216.518"	"419.302"	"306.217"	"171.248"	"9.876"	"22.966"
"1922"	"34.598"	"15.946"	"47.522"	"112.504"	"174.115"	"328.671"	"404.895"	"358.641"	"197.108"	"90.106"	"12.813"	"6.545"
"1923"	"3.957"	"71.283"	"16.172"	"124.491"	"294.037"	"320.538"	"537.232"	"260.981"	"374.948"	"70.812"	"13.395"	"9.359"
"1924"	"16.288"	"30.301"	"37.136"	"97.284"	"287.73"	"326.722"	"577.434"	"375.133"	"241.799"	"152.914"	"47.062"	"3.42"
"1925"	"22.072"	"34.607"	"78.215"	"103.405"	"349.063"	"347.045"	"399.556"	"351.912"	"296.117"	"59.556"	"5.124"	"2.926"
"1926"	"15.754"	"17.211"	"73.294"	"120.809"	"244.119"	"290.153"	"488.547"	"199.417"	"135.345"	"207.341"	"43.032"	"8.97"
"1927"	"26.448"	"51.981"	"92.804"	"187.179"	"145.093"	"320.136"	"385.224"	"307.88"	"447.92"	"228.094"	"13.975"	"2.031"
"1928"	"14.129"	"24.069"	"79.703"	"102.042"	"293.243"	"423.153"	"363.206"	"373.957"	"312.986"	"146.707"	"32.601"	"9.076"
"1929"	"17.021"	"17.155"	"47.623"	"136.557"	"451.712"	"336.037"	"291.085"	"289.841"	"183.208"	"84.036"	"45.318"	"7.971"
"1930"	"17.005"	"27.199"	"62.94"	"215.346"	"80.008"	"360.883"	"214.688"	"368.284"	"425.079"	"253.59"	"62.346"	"9.177"
"1931"	"14.104"	"65.919"	"46.313"	"266.251"	"217.406"	"492.769"	"489.985"	"224.194"	"219.646"	"116.922"	"20.211"	"46.312"
"1932"	"44.764"	"40.688"	"53.815"	"94.788"	"355.349"	"444.378"	"335.189"	"371.26"	"219.96"	"137.526"	"92.993"	"37.13"
"1933"	"21.035"	"55.159"	"38.41"	"162.452"	"194.396"	"451.193"	"303.214"	"462.007"	"125.948"	"68.997"	"6.866"	"6.959"
"1934"	"19.875"	"39.159"	"28.422"	"245.986"	"293.879"	"459.473"	"329.437"	"205.524"	"225.18"	"85.295"	"27.217"	"9.061"
"1935"	"15.104"	"46.161"	"51.887"	"83.074"	"171.114"	"517.329"	"434.936"	"312.546"	"322.044"	"18.985"	"24.033"	"7.236"
"1936"	"37.438"	"68.843"	"47.581"	"152.39"	"237.481"	"490.042"	"440.894"	"266.607"	"276.026"	"81.202"	"46.086"	"30.057"
"1937"	"23.454"	"49.759"	"45.211"	"105.034"	"184.921"	"194.782"	"300.777"	"367.639"	"178.63"	"83.652"	"6.842"	"6.406"
"1938"	"56.481"	"70.838"	"89.674"	"160.45"	"123.355"	"367.476"	"479.848"	"385.072"	"224.304"	"181.008"	"60.992"	"8.539"
"1939"	"11.644"	"47.341"	"33.71"	"149.507"	"226.531"	"411.093"	"326.612"	"188.241"	"273.343"	"93.953"	"0.762"	"2.779"
"1940"	"3.976"	"45.098"	"153.743"	"64.85"	"240.145"	"351.345"	"244.08"	"178.812"	"217.833"	"84.955"	"14.738"	"47.961"
"1941"	"22.333"	"36.324"	"72.99"	"55.783"	"276.567"	"363.314"	"254.434"	"300.003"	"330.838"	"34.503"	"9.445"	"15.734"
"1942"	"4.033"	"25.224"	"135.349"	"142.733"	"307.204"	"396.941"	"292.053"	"250.043"	"251.864"	"5.924"	"7.95"	"0.743"
"1943"	"56.627"	"31.84"	"111.118"	"108.443"	"301.357"	"309.017"	"309.272"	"378.238"	"234.295"	"108.246"	"4.723"	"6.191"
"1944"	"17.041"	"36.855"	"51.777"	"94.036"	"192.752"	"386.147"	"356.142"	"256.691"	"266.963"	"108.756"	"14.202"	"37.29"
"1945"	"27.448"	"41.011"	"61.646"	"96.163"	"233.937"	"396.404"	"467.922"	"282.352"	"235.235"	"164.712"	"1.709"	"22.69"
"1946"	"0.175"	"7.552"	"64.523"	"74.698"	"154.45"	"418.596"	"420.599"	"288.163"	"202.661"	"147.637"	"6.398"	"0.723"
"1947"	"15.485"	"17.352"	"46.609"	"199.327"	"199.444"	"216.433"	"500.693"	"338.056"	"420.161"	"245.004"	"9.164"	"9.574"
"1948"	"21.068"	"32.419"	"74.635"	"177.719"	"515.56"	"338.134"	"565.02"	"315.343"	"112.33"	"103.233"	"18.265"	"8.757"
"1949"	"24.552"	"17.906"	"98.921"	"169.5"	"307.169"	"325.834"	"353.408"	"291.374"	"307.345"	"158.619"	"17.609"	"20.436"
"1950"	"19.682"	"53.366"	"80.133"	"110.21"	"220.266"	"397.024"	"338.032"	"337.481"	"234.704"	"164.117"	"25.722"	"11.645"
"1951"	"15.139"	"32.097"	"84.312"	"140.176"	"172.599"	"471.803"	"346.69"	"217.513"	"185.308"	"108.355"	"59.269"	"39.832"
"1952"	"22.291"	"26.063"	"81.629"	"94.15"	"204.797"	"322.714"	"337.501"	"393.865"	"382.153"	"119.488"	"40.543"	"3.536"
"1953"	"16.9"	"57.528"	"126.263"	"128.213"	"300.224"	"345.486"	"370.729"	"159.15"	"159.018"	"127.793"	"2.836"	"3.32"
"1954"	"41.567"	"77.538"	"38.878"	"175.071"	"296.453"	"335.211"	"389.615"	"430.666"	"288.381"	"115.015"	"0.455"	"31.63"
"1955"	"15.87"	"34.581"	"118.895"	"77.835"	"194.051"	"366.215"	"628.825"	"358.736"	"125.127"	"64.95"	"7.114"	"24.217"
"1956"	"43.432"	"17.423"	"131.479"	"160.698"	"283.007"	"358.096"	"203.905"	"292.845"	"194.77"	"117.92"	"48.083"	"16.005"
"1957"	"39.176"	"59.246"	"33.358"	"203.627"	"298.948"	"417.911"	"380.333"	"201.429"	"222.081"	"76.084"	"25.011"	"24.187"
"1958"	"23.939"	"25.939"	"9.185"	"70.218"	"440.929"	"279.912"	"447.848"	"419.819"	"221.485"	"236.727"	"0.307"	"15.215"
"1959"	"25.735"	"47.519"	"56.955"	"128.13"	"406.4"	"383.7"	"280.832"	"214.154"	"195.105"	"166.598"	"22.593"	"14.868"
"1960"	"3.082"	"35.52"	"19.595"	"71.36"	"178.555"	"280.492"	"461.969"	"306.06"	"214.144"	"44.646"	"12.191"	"23.329"
"1961"	"21.956"	"31.566"	"142.074"	"150.508"	"301.518"	"160.957"	"347.779"	"259.35"	"217.961"	"132.126"	"20.479"	"6.139"
"1962"	"22.307"	"35.885"	"65.145"	"121.47"	"277.64"	"373.307"	"262.487"	"507.728"	"157.331"	"42.266"	"12.018"	"9.621"
"1963"	"10.194"	"22.094"	"30.189"	"146.111"	"159.874"	"269.344"	"461.548"	"328.833"	"103.521"	"129.178"	"23.435"	"5.872"
"1964"	"21.089"	"43.508"	"101.53"	"119.571"	"142.88"	"376.933"	"371.996"	"274.716"	"214.828"	"97.471"	"4.495"	"24.577"
"1965"	"5.918"	"46.834"	"45.661"	"118.63"	"161.638"	"285.301"	"355.451"	"417.443"	"290.364"	"41.069"	"97.77"	"7.223"
"1966"	"21.37"	"19.642"	"27.401"	"147.061"	"240.926"	"449.165"	"318.175"	"455.31"	"183.664"	"70.75"	"24.405"	"13.649"
"1967"	"21.025"	"28.899"	"76.132"	"47.463"	"145.512"	"332.427"	"251.092"	"174.142"	"204.093"	"34.042"	"12.592"	"4.074"
"1968"	"28.89"	"59.481"	"52.713"	"130.739"	"350.865"	"317.026"	"456.13"	"247.386"	"252.581"	"78.808"	"4.76"	"0.207"
"1969"	"52.114"	"4.453"	"96.911"	"94.54"	"179.782"	"317.213"	"436.129"	"367.845"	"146.818"	"86.148"	"11.87"	"2.638"
"1970"	"31.145"	"64.48"	"89.327"	"147.742"	"377.057"	"293.087"	"409.852"	"348.762"	"220.239"	"142.123"	"10.805"	"0.143"
"1971"	"22.073"	"39.351"	"40.405"	"111.453"	"171.633"	"335.363"	"351.482"	"303.447"	"154.529"	"197.175"	"64.151"	"12.292"
"1972"	"27.812"	"15.413"	"71.991"	"198.542"	"240.864"	"199.321"	"362.79"	"165.994"	"146.763"	"35.395"	"2.13"	"6.763"
"1973"	"25.461"	"32.31"	"40.944"	"205.095"	"210.701"	"553.444"	"200.061"	"337.64"	"275.367"	"60.092"	"20.355"	"23.652"
"1974"	"28.59"	"16.362"	"50.736"	"207.913"	"122.14"	"303.436"	"531.72"	"357.964"	"254.272"	"34.736"	"10.826"	"3.771"
"1975"	"22.987"	"50.879"	"39.582"	"150.769"	"287.432"	"198.71"	"278.706"	"353.757"	"161.856"	"115.615"	"6.623"	"10.119"
"1976"	"6.138"	"54.924"	"104.277"	"161.544"	"147.428"	"388.476"	"388.803"	"207.941"	"118.843"	"50.035"	"24.025"	"4.308"
"1977"	"21.041"	"41.445"	"75.984"	"246.82"	"246.376"	"349.531"	"367.442"	"458.665"	"195.131"	"138.27"	"45.18"	"50.703"
"1978"	"16.629"	"40.125"	"43.41"	"125.235"	"188.971"	"380.886"	"322.845"	"146.033"	"274.851"	"81.78"	"67.572"	"0.143"
"1979"	"18.986"	"20.698"	"85.329"	"65.787"	"92.455"	"276.016"	"442.471"	"247.542"	"268.262"	"193.448"	"9.306"	"74.534"
"1980"	"24.727"	"27.194"	"94.67"	"236.183"	"178.744"	"242.315"	"415.417"	"516.456"	"237.635"	"120.272"	"1.75"	"0.143"
"1981"	"30.247"	"40.628"	"78.525"	"115.014"	"212.497"	"278.235"	"423.9"	"335.933"	"166.475"	"53.561"	"3.779"	"57.188"
"1982"	"9.412"	"40.44"	"59.603"	"162.173"	"133.007"	"298.574"	"314.112"	"238.401"	"213.751"	"28.313"	"62.858"	"33.25"
"1983"	"49.836"	"68.639"	"31.56"	"146.869"	"197.654"	"278.527"	"447.128"	"229.924"	"259.112"	"97.816"	"11.974"	"24.23"
"1984"	"8.807"	"11.781"	"59.943"	"207.289"	"233.331"	"281.564"	"449.643"	"224.452"	"222.804"	"81.695"	"1.06"	"32.017"
"1985"	"9.575"	"31.101"	"89.907"	"185.669"	"128.121"	"375.056"	"494.578"	"213.961"	"227.328"	"74.303"	"13"	"29.042"
"1986"	"6.152"	"36.072"	"45.903"	"202.706"	"77.883"	"216.188"	"420.899"	"310.939"	"271.672"	"148.88"	"22.114"	"5.499"
"1987"	"1.657"	"35.074"	"88.966"	"145.403"	"165.02"	"183.177"	"493.102"	"414.46"	"343.611"	"105.399"	"14.826"	"13.419"
"1988"	"20.04"	"25.627"	"77.37"	"145.625"	"297.159"	"151.538"	"431.054"	"502.661"	"239.813"	"175.433"	"22.196"	"7.813"
"1989"	"9.283"	"69.95"	"24.058"	"159.673"	"147.853"	"253.319"	"314.203"	"258.033"	"280.301"	"148.865"	"28.207"	"10.848"
"1990"	"12.316"	"50.16"	"43.073"	"166.269"	"202.054"	"483.988"	"456.543"	"228.192"	"432.801"	"103.084"	"2.917"	"10.209"
"1991"	"9.997"	"18.939"	"88.751"	"117.503"	"279.163"	"400.615"	"515.593"	"338.376"	"263.318"	"131.75"	"10.921"	"33.831"
"1992"	"26.723"	"71.357"	"93.53"	"141.088"	"155.268"	"287.449"	"347.572"	"253.367"	"204.319"	"115.375"	"9.544"	"3.752"
"1993"	"30.601"	"63.166"	"78.158"	"71.82"	"259.268"	"345.932"	"327.71"	"512.833"	"340.031"	"84.485"	"8.487"	"1.921"
"1994"	"22.642"	"31.628"	"131.444"	"174.952"	"204.331"	"284.433"	"242.344"	"256.847"	"202.243"	"208.321"	"11.373"	"4.681"
"1995"	"23.687"	"44.126"	"57.3"	"85.853"	"363.213"	"367.406"	"416.91"	"290.163"	"328.27"	"53.563"	"25.621"	"15.528"
"1996"	"20.021"	"27.477"	"133.076"	"134.87"	"468.959"	"188.456"	"372.093"	"137.326"	"167.829"	"141.963"	"1.117"	"0.144"
"1997"	"14.657"	"62.227"	"117.557"	"90.224"	"168.053"	"362.073"	"295.387"	"152.674"	"262.779"	"33.252"	"21.813"	"25.884"
"1998"	"20.092"	"66.305"	"114.663"	"116.865"	"266.221"	"640.165"	"410.312"	"360.215"	"123.308"	"111.384"	"9.824"	"3.712"
"1999"	"3.469"	"55.29"	"30.331"	"167.453"	"292.025"	"324.373"	"309.066"	"325.794"	"185.76"	"132.292"	"11.966"	"0.144"
"2000"	"45.472"	"10.011"	"87.615"	"233.358"	"290.655"	"258.541"	"354.728"	"400.183"	"271.448"	"43.578"	"8.859"	"0.916"
"2001"	"2.086"	"21.108"	"39.877"	"176.908"	"239.508"	"262.952"	"454.837"	"251.595"	"231.778"	"146.926"	"11.485"	"3.844"
"2002"	"35.501"	"36.307"	"49.991"	"224.991"	"305.403"	"272.918"	"410.131"	"275.739"	"310.439"	"42.817"	"30.647"	"0.803"
