
"Year"	"Jan"	"Feb"	"Mar"	"Apr"	"May"	"Jun"	"Jul"	"Aug"	"Sep"	"Oct"	"Nov"	"Dec"
"1901"	"32.105"	"10.122"	"5.53"	"0"	"4.242"	"17.917"	"124.691"	"280.645"	"57.183"	"4.859"	"0"	"7.793"
"1902"	"2.884"	"0.628"	"0"	"0.871"	"2.424"	"46.767"	"349.804"	"162.246"	"149.689"	"1.309"	"4.709"	"0"
"1903"	"4.182"	"1.481"	"4.732"	"0.147"	"2.788"	"7.635"	"124.607"	"315.052"	"84.866"	"68.416"	"0"	"0"
"1904"	"6.813"	"0.591"	"8.164"	"0"	"4.323"	"72.025"	"369.184"	"406.559"	"33.066"	"22.715"	"10.706"	"21.89"
"1905"	"17.301"	"12.202"	"8.35"	"0.447"	"0.4"	"22.027"	"151.609"	"79.561"	"99.921"	"0.273"	"0"	"1.626"
"1906"	"1.44"	"14.178"	"11.216"	"0"	"2.087"	"135.768"	"179.286"	"131.01"	"224.365"	"0.3"	"0"	"7.793"
"1907"	"5.636"	"40.194"	"4.446"	"14.633"	"6.164"	"19.708"	"103.658"	"422.592"	"1.499"	"0.273"	"0.364"	"0"
"1908"	"23.123"	"1.26"	"0.718"	"0.943"	"4.63"	"28.769"	"468.488"	"395.48"	"29.262"	"10.689"	"0.109"	"1.845"
"1909"	"18.272"	"3.672"	"0"	"8.975"	"11.14"	"98.037"	"389.53"	"162.23"	"99.141"	"0.273"	"0"	"25.84"
"1910"	"9.861"	"1.907"	"0"	"1.651"	"2.097"	"53.167"	"169.813"	"226.692"	"164.313"	"33.597"	"10.071"	"0"
"1911"	"22.531"	"0"	"11.854"	"0.52"	"0"	"32.663"	"51.13"	"121.546"	"328.452"	"24.232"	"40.404"	"9.319"
"1912"	"21.678"	"2.252"	"6.97"	"0.59"	"0.72"	"16.944"	"232.263"	"239.015"	"185.292"	"0.273"	"11.387"	"3.372"
"1913"	"0"	"31.564"	"4.052"	"0"	"16.746"	"72.542"	"109.04"	"86.143"	"22.31"	"0.273"	"0"	"9.109"
"1914"	"0.987"	"2.881"	"4.027"	"5.691"	"13.103"	"81.76"	"411.364"	"177.381"	"168.791"	"16.05"	"0"	"0"
"1915"	"11.194"	"18.157"	"30.174"	"3.211"	"2.498"	"48.452"	"199.784"	"219.368"	"80.933"	"50.25"	"0.054"	"1.059"
"1916"	"0"	"10.862"	"0"	"0.943"	"1.454"	"85.414"	"275.571"	"379.705"	"118.37"	"28.714"	"1.652"	"0"
"1917"	"3.215"	"12.592"	"12.517"	"9.731"	"26.234"	"59.503"	"414.942"	"320.063"	"272.133"	"60.685"	"0"	"6.027"
"1918"	"15.578"	"0.081"	"2.579"	"0"	"1.417"	"59.252"	"69.216"	"214.625"	"68.239"	"0.273"	"0.72"	"0.282"
"1919"	"29.597"	"1.827"	"1.326"	"6.944"	"4.187"	"23.672"	"257.705"	"462.674"	"77.315"	"11.805"	"3.476"	"8.34"
"1920"	"6.208"	"13.34"	"6.443"	"0"	"8.113"	"86.267"	"381.279"	"94.772"	"79.41"	"0.346"	"0"	"0"
"1921"	"32.049"	"0.356"	"0"	"0.354"	"0"	"55.976"	"104.109"	"171.939"	"310.115"	"1.287"	"0"	"0"
"1922"	"17.613"	"0.674"	"0.499"	"1.436"	"0.081"	"63.612"	"266.764"	"277.327"	"237.107"	"0.8"	"0.881"	"43.164"
"1923"	"0.555"	"8.161"	"0.51"	"0.162"	"2.225"	"3.053"	"186.79"	"321.227"	"243.615"	"14.429"	"0.229"	"10.048"
"1924"	"15.81"	"7.734"	"0"	"0"	"0.409"	"11.065"	"211.178"	"292.319"	"311.237"	"11.598"	"1.93"	"30.841"
"1925"	"0"	"0"	"0"	"0"	"17.01"	"152.712"	"610.571"	"113.462"	"97.907"	"1.563"	"39.065"	"0"
"1926"	"7.356"	"3.867"	"26.443"	"5.85"	"18.45"	"23.499"	"228.57"	"311.781"	"184.968"	"7.645"	"0"	"0.446"
"1927"	"1.553"	"16.037"	"4.879"	"2.122"	"3.398"	"25.534"	"270.886"	"293.314"	"112.994"	"18.2"	"31.818"	"16.55"
"1928"	"6.895"	"21.507"	"0.382"	"2.454"	"1.853"	"24.312"	"234.931"	"84.979"	"74.826"	"90.197"	"10.278"	"43.973"
"1929"	"11.483"	"1.136"	"0"	"1.844"	"0"	"52.105"	"239.421"	"170.459"	"28.3"	"12.353"	"0"	"29.388"
"1930"	"9.193"	"7.34"	"0.419"	"1.235"	"1.999"	"104.853"	"463.931"	"215.301"	"73.404"	"32.056"	"1.947"	"4.948"
"1931"	"0.082"	"6.225"	"0"	"0.354"	"1.254"	"28.777"	"163.171"	"211.23"	"297.61"	"85.925"	"4.535"	"0"
"1932"	"0"	"1.493"	"8.683"	"2.096"	"1.392"	"23.081"	"167.132"	"315.577"	"182.157"	"6.492"	"0.694"	"0"
"1933"	"0"	"5.562"	"1.742"	"9.047"	"18.694"	"239.748"	"136.842"	"281.385"	"242.084"	"35.869"	"0.001"	"0"
"1934"	"13.822"	"0"	"13.07"	"0"	"0"	"109.678"	"138.734"	"230.699"	"136.612"	"0.574"	"2.439"	"39.541"
"1935"	"21.395"	"4.517"	"0.427"	"8.565"	"0.935"	"41.738"	"359.17"	"206.576"	"119.114"	"5.377"	"0.054"	"11.262"
"1936"	"1.194"	"9.617"	"11.118"	"1.034"	"3.087"	"232.754"	"263.037"	"348.861"	"129.027"	"0.346"	"21.732"	"20.269"
"1937"	"0"	"33.17"	"1.659"	"4.228"	"5.432"	"55.589"	"136.558"	"162.923"	"126.85"	"13.174"	"4.745"	"26.43"
"1938"	"15.585"	"0.913"	"0.001"	"1.049"	"2.07"	"61.166"	"341.559"	"163.787"	"68.192"	"21.765"	"0"	"0"
"1939"	"15.54"	"6.86"	"1.081"	"1.178"	"0"	"96.555"	"321.943"	"112.885"	"162.925"	"2.937"	"0"	"0"
"1940"	"14.336"	"11.491"	"9.004"	"5.266"	"8.614"	"41.939"	"133.529"	"284.103"	"62.263"	"0.966"	"3.294"	"4.985"
"1941"	"18.547"	"1.319"	"1.771"	"0"	"8.92"	"32.126"	"165.281"	"144.586"	"67.589"	"0.273"	"0"	"0"
"1942"	"26.041"	"11.652"	"0.001"	"2.609"	"1.952"	"39.617"	"415.02"	"323.203"	"316.299"	"0.3"	"0"	"7.75"
"1943"	"20.518"	"0.22"	"0.826"	"12.247"	"12.173"	"73.622"	"151.182"	"444.321"	"188.473"	"3.611"	"0"	"0"
"1944"	"19.872"	"14.682"	"28.142"	"15.632"	"0"	"24.144"	"218.546"	"302.761"	"75.524"	"4.982"	"0"	"1.294"
"1945"	"23.085"	"0"	"0"	"7.051"	"11.275"	"40.206"	"169.918"	"334.164"	"252.542"	"5.708"	"0"	"7.631"
"1946"	"0"	"5.662"	"0"	"2.551"	"8.316"	"63.271"	"281.372"	"341.604"	"8.364"	"11.035"	"5.634"	"7.076"
"1947"	"9.798"	"4.648"	"4.621"	"1.01"	"0.852"	"34.26"	"350.401"	"326.408"	"354.286"	"59.983"	"0.822"	"4.696"
"1948"	"40.128"	"8.141"	"0"	"0.943"	"3.232"	"42.169"	"360.926"	"300.685"	"212.925"	"28.31"	"13.406"	"0"
"1949"	"0"	"12.266"	"1.753"	"0"	"1.081"	"8.652"	"373.786"	"404.862"	"256.396"	"22.183"	"0"	"0"
"1950"	"4.41"	"0.994"	"9.364"	"0"	"9.685"	"16.863"	"245.641"	"350.192"	"168.266"	"0.273"	"0"	"8.212"
"1951"	"9.83"	"4.072"	"16.153"	"2.211"	"3.133"	"70.742"	"157.92"	"319.946"	"245.968"	"2.265"	"23.768"	"0"
"1952"	"0.147"	"12.522"	"7.957"	"3.98"	"2.618"	"72.771"	"204.158"	"572.355"	"27.507"	"0.273"	"0"	"35.069"
"1953"	"34.643"	"3.852"	"0"	"0.656"	"0.054"	"27.777"	"231.852"	"242.65"	"68.475"	"1.064"	"0"	"2.045"
"1954"	"14.442"	"25.007"	"5.535"	"0"	"0"	"14.62"	"265.819"	"258.401"	"190.931"	"56.52"	"0"	"0"
"1955"	"33.066"	"3.433"	"0.746"	"0"	"0.846"	"133.781"	"323.936"	"409.337"	"186.072"	"112.236"	"0"	"0.293"
"1956"	"6.791"	"3.793"	"14.294"	"0"	"0.51"	"96.031"	"436.197"	"246.148"	"89.932"	"123.291"	"11.107"	"19.091"
"1957"	"21.662"	"0"	"21.265"	"4.11"	"5.348"	"31.394"	"392.94"	"198.919"	"199.469"	"13.441"	"4.127"	"4.971"
"1958"	"5.18"	"3.807"	"6.717"	"0.001"	"0"	"8.081"	"413.262"	"336.202"	"270.487"	"46.318"	"0"	"5.509"
"1959"	"19.735"	"1.075"	"0"	"0.754"	"31.876"	"29.568"	"229.963"	"283.839"	"73.394"	"30.048"	"5.189"	"0"
"1960"	"5.116"	"0"	"20.495"	"0.483"	"6.981"	"17.793"	"304.261"	"542.394"	"86.52"	"89.182"	"0"	"9.319"
"1961"	"32.019"	"19.168"	"0.081"	"1.651"	"2.291"	"61.475"	"185.723"	"590.478"	"88.621"	"53.903"	"5.921"	"1.233"
"1962"	"23.808"	"2.488"	"6.471"	"4.788"	"0.774"	"16.548"	"269.895"	"298.996"	"243.453"	"0.273"	"0"	"1.868"
"1963"	"16.216"	"2.151"	"4.906"	"3.266"	"7.275"	"44.925"	"246.237"	"285.592"	"368.456"	"0.401"	"7.668"	"13.456"
"1964"	"0"	"0.94"	"2.001"	"0.52"	"9.919"	"11.347"	"416.957"	"315.818"	"321.626"	"2.364"	"0"	"4.696"
"1965"	"1.085"	"4.321"	"3.825"	"8.618"	"1.7"	"8.313"	"300.638"	"145.277"	"150.426"	"47.398"	"0"	"2.405"
"1966"	"0.301"	"2.874"	"0"	"0"	"17.993"	"114.337"	"159.31"	"329.277"	"17.191"	"0.347"	"40.878"	"3.25"
"1967"	"0.347"	"0"	"17.245"	"0.621"	"0.726"	"32.095"	"256.826"	"584.124"	"166.96"	"0.273"	"0"	"46.193"
"1968"	"27.749"	"2.647"	"4.282"	"0"	"0"	"31.427"	"270.217"	"171.012"	"49.734"	"44.405"	"0"	"1.799"
"1969"	"3.573"	"8.226"	"0.001"	"0"	"15.54"	"9.627"	"383.262"	"240.442"	"120.928"	"0.273"	"10.048"	"0"
"1970"	"28.816"	"27.701"	"3.643"	"0"	"19.624"	"85.058"	"152.406"	"380.258"	"254.4"	"7.566"	"0"	"0"
"1971"	"15.644"	"7.86"	"0.492"	"4.723"	"11.441"	"167.981"	"277.253"	"252.345"	"140.429"	"68.067"	"2.05"	"0"
"1972"	"6.047"	"15.346"	"0"	"0.001"	"0.409"	"21.996"	"75.348"	"299.376"	"147.569"	"26.297"	"5.784"	"6.576"
"1973"	"11.338"	"8.614"	"0"	"0"	"0.662"	"9.755"	"300.456"	"409.746"	"174.433"	"71.386"	"0"	"1.682"
"1974"	"0"	"0.054"	"0"	"0.081"	"5.26"	"12.387"	"150.323"	"155.062"	"21.424"	"83.758"	"0.001"	"0"
"1975"	"3.604"	"1.793"	"2.785"	"1.23"	"0"	"101.402"	"331.674"	"192.416"	"181.687"	"30.106"	"0"	"0"
"1976"	"5.279"	"1.408"	"1.008"	"2.69"	"3.192"	"109.865"	"186.031"	"274.4"	"137.758"	"0.273"	"19.475"	"0"
"1977"	"21.342"	"2.62"	"0.282"	"8.882"	"5.457"	"38.59"	"413.781"	"220.796"	"235.108"	"53.066"	"1.965"	"2.118"
"1978"	"4.294"	"18.389"	"23.093"	"2.433"	"0"	"133.402"	"211.323"	"213.543"	"206.024"	"2.191"	"0.054"	"16.883"
"1979"	"10.887"	"32.536"	"1.081"	"0.801"	"12.519"	"37.639"	"182.972"	"80.007"	"11.308"	"0.799"	"17.179"	"6.541"
"1980"	"0"	"3.161"	"12.342"	"0.354"	"1.553"	"84.961"	"274.096"	"379.334"	"45.393"	"17.31"	"2.049"	"45.314"
"1981"	"7.273"	"0.255"	"16.196"	"0"	"14.621"	"221.345"	"348.422"	"235.29"	"84.652"	"0.273"	"7.448"	"2.104"
"1982"	"30.566"	"4.409"	"16.113"	"3.222"	"14.693"	"27.506"	"150.332"	"472.288"	"104.177"	"0.875"	"44.853"	"14.315"
"1983"	"12.43"	"2.787"	"0"	"19.927"	"24.735"	"73.212"	"91.017"	"400.493"	"177.781"	"34.865"	"0"	"3.69"
"1984"	"8.787"	"5.598"	"0"	"22.589"	"1.734"	"80.765"	"149.592"	"273.321"	"127.596"	"5.019"	"0"	"0"
"1985"	"6.46"	"0"	"2.579"	"7.975"	"1.879"	"40.118"	"452.342"	"309.05"	"185.382"	"121.162"	"0"	"22.054"
"1986"	"10.976"	"17.353"	"5.677"	"0"	"22.832"	"86.797"	"175.992"	"160.513"	"86.95"	"46.625"	"0"	"28.137"
"1987"	"18.913"	"6.854"	"3.625"	"0"	"25.541"	"10.987"	"96.221"	"167.582"	"37.097"	"21.256"	"0"	"8.538"
"1988"	"4.853"	"1.282"	"10.629"	"9.187"	"2.857"	"95.723"	"272.588"	"276.34"	"55.857"	"4.015"	"0"	"6.061"
"1989"	"9.354"	"0"	"10.676"	"0.454"	"0.054"	"17.957"	"229.124"	"271.581"	"117.753"	"10.182"	"8.15"	"12.471"
"1990"	"0"	"17.115"	"0.547"	"1.77"	"14.512"	"109.289"	"316.363"	"334.712"	"311.165"	"0.782"	"0"	"10.204"
"1991"	"2.407"	"11.988"	"3.485"	"4.437"	"16.83"	"16.171"	"25.623"	"251.389"	"115.82"	"0.273"	"9.678"	"39.35"
"1992"	"18.158"	"6.749"	"9.063"	"1.896"	"13.038"	"17.859"	"80.404"	"218.322"	"155.273"	"68.218"	"23.776"	"0"
"1993"	"6.886"	"0.864"	"8.544"	"1.77"	"10.583"	"87.031"	"237.907"	"156.424"	"231.949"	"11.487"	"0"	"0.001"
"1994"	"20.558"	"13.811"	"11.728"	"4.096"	"5.492"	"92.345"	"537.784"	"289.583"	"55.299"	"2.076"	"0"	"0"
"1995"	"29.292"	"3.156"	"3.343"	"7.644"	"0.2"	"30.786"	"160.389"	"304.53"	"153.797"	"1.3"	"3.483"	"7.261"
"1996"	"11.56"	"3.209"	"0.962"	"3.277"	"10.749"	"142.478"	"187.008"	"297.868"	"315.049"	"48.295"	"0"	"0"
"1997"	"3.154"	"0"	"2.3"	"2.159"	"15.241"	"102.401"	"68.198"	"206.069"	"204.054"	"53.346"	"29.547"	"22.287"
"1998"	"0"	"4.52"	"15.95"	"6.191"	"10.836"	"94.729"	"196.871"	"299.703"	"61.772"	"47.65"	"2.59"	"0.3"
"1999"	"12.694"	"13.231"	"0"	"0"	"5.081"	"139.908"	"244.03"	"286.579"	"264.479"	"76.602"	"0"	"2.93"
"2000"	"8.359"	"2.294"	"1.325"	"1.343"	"6.835"	"25.181"	"266.531"	"157.22"	"109.823"	"0.273"	"0.107"	"0"
"2001"	"6.385"	"4.141"	"3.121"	"9.029"	"19.268"	"111.627"	"164.325"	"251.41"	"65.278"	"32.395"	"1.297"	"0"
"2002"	"12.38"	"11.368"	"0.853"	"0.563"	"8.007"	"36.306"	"42.004"	"212.525"	"182.391"	"29.217"	"3.478"	"7.827"
