
"Year"	"Jan"	"Feb"	"Mar"	"Apr"	"May"	"Jun"	"Jul"	"Aug"	"Sep"	"Oct"	"Nov"	"Dec"
"1901"	"22.758"	"24.148"	"28.267"	"31.934"	"34.061"	"32.379"	"28.095"	"26.709"	"28.095"	"27.108"	"23.337"	"20.943"
"1902"	"23.23"	"24.91"	"29.812"	"32.826"	"35.531"	"33.532"	"28.658"	"28.204"	"27.418"	"26.9"	"22.81"	"20.94"
"1903"	"22.646"	"23.867"	"28.591"	"32.508"	"33.014"	"32.766"	"27.86"	"27.405"	"27.343"	"25.625"	"21.704"	"20.089"
"1904"	"22.504"	"24.284"	"28.499"	"33.383"	"34.301"	"31.004"	"28.173"	"27.516"	"27.178"	"26.491"	"22.565"	"21.014"
"1905"	"22.023"	"22.9"	"28.356"	"30.944"	"34.619"	"33.561"	"28.308"	"27.52"	"26.875"	"26.364"	"23.556"	"20.574"
"1906"	"22.483"	"24.954"	"27.854"	"33.304"	"35.784"	"31.044"	"27.777"	"27.339"	"27.212"	"26.316"	"23.303"	"21.606"
"1907"	"22.2"	"24.549"	"27.988"	"29.938"	"33.711"	"31.758"	"28.43"	"26.064"	"27.913"	"27.333"	"24.036"	"20.361"
"1908"	"21.095"	"24.788"	"28.092"	"33.334"	"35.261"	"33.044"	"27.608"	"26.594"	"27.401"	"26.389"	"22.451"	"19.489"
"1909"	"23.09"	"24.982"	"29.279"	"30.142"	"34.156"	"30.654"	"27.214"	"27.571"	"27.165"	"26.23"	"23.021"	"21.754"
"1910"	"22.091"	"23.975"	"28.915"	"33.397"	"35.013"	"31.058"	"28.421"	"27.564"	"27.209"	"26.231"	"21.346"	"19.685"
"1911"	"22.483"	"23.679"	"28.258"	"32.838"	"35.76"	"30.903"	"28.723"	"26.736"	"27.722"	"26.963"	"23.972"	"20.604"
"1912"	"22.233"	"25.315"	"29.486"	"32.078"	"35.116"	"34.75"	"28.216"	"27.169"	"27.691"	"26.825"	"22.877"	"19.935"
"1913"	"21.107"	"25.405"	"28.574"	"33.763"	"34.134"	"30.862"	"28.02"	"27.367"	"28.063"	"26.835"	"23.079"	"21.479"
"1914"	"21.648"	"25.647"	"28.787"	"30.708"	"34.06"	"31.154"	"27.839"	"27.286"	"27.247"	"26.553"	"23.656"	"21.165"
"1915"	"21.745"	"24.316"	"27.506"	"31.949"	"35.013"	"33.928"	"28.894"	"27.568"	"27.686"	"27.302"	"24.936"	"20.309"
"1916"	"21.815"	"24.808"	"28.974"	"33.048"	"34.422"	"29.587"	"28.513"	"27.568"	"27.586"	"26.88"	"23.615"	"19.587"
"1917"	"21.352"	"23.25"	"27.032"	"30.712"	"32.618"	"29.678"	"27.673"	"27.61"	"26.919"	"26.352"	"22.613"	"20.516"
"1918"	"20.709"	"24.208"	"28.268"	"31.901"	"32.785"	"29.694"	"29.19"	"27.22"	"28.152"	"26.492"	"24.327"	"21.373"
"1919"	"23.39"	"24.921"	"28.719"	"31.911"	"33.632"	"30.217"	"28.245"	"27.163"	"27.887"	"26.158"	"23.797"	"20.4"
"1920"	"22.086"	"24.521"	"28.983"	"31.8"	"33.406"	"32.843"	"28.034"	"28.12"	"28.408"	"27.631"	"23.527"	"20.846"
"1921"	"22.8"	"24.524"	"30.28"	"33.25"	"37.412"	"31.631"	"28.457"	"27.528"	"27.214"	"26.138"	"21.33"	"20.773"
"1922"	"21.912"	"24.571"	"29.589"	"33.341"	"35.302"	"31.648"	"27.81"	"27.826"	"27.139"	"26.166"	"23.324"	"19.714"
"1923"	"21.716"	"24.247"	"27.896"	"32.567"	"35.099"	"35.264"	"27.748"	"26.96"	"27.479"	"25.52"	"23.049"	"21.064"
"1924"	"22.581"	"25.809"	"29.668"	"33.656"	"35.293"	"33.991"	"28.509"	"27.897"	"27.346"	"25.902"	"22.217"	"20.382"
"1925"	"21.269"	"23.921"	"28.495"	"33.386"	"32.931"	"30.841"	"27.315"	"27.206"	"28.025"	"26.619"	"23.684"	"20.163"
"1926"	"22.636"	"25.222"	"28.722"	"30.686"	"33.006"	"35.111"	"28.738"	"27.29"	"27.678"	"26.306"	"22.239"	"20.764"
"1927"	"24.091"	"25.508"	"29.046"	"33.601"	"35.145"	"32.108"	"27.473"	"27.404"	"27.964"	"26.328"	"21.943"	"21.139"
"1928"	"22.834"	"24.653"	"28.795"	"32.306"	"35.811"	"31.97"	"27.907"	"28.189"	"27.84"	"26.947"	"23.222"	"21.261"
"1929"	"23.114"	"23.416"	"28.796"	"31.166"	"35.657"	"31.434"	"27.802"	"27.476"	"27.598"	"26.313"	"22.741"	"21.753"
"1930"	"22.471"	"23.45"	"29.01"	"31.636"	"34.749"	"32.364"	"28.137"	"27.533"	"27.713"	"26.956"	"22.383"	"21.49"
"1931"	"22.007"	"26.162"	"28.75"	"33.183"	"35.523"	"33.245"	"27.923"	"27.295"	"27.808"	"26.327"	"22.636"	"20.465"
"1932"	"21.731"	"23.319"	"28.076"	"32.143"	"34.26"	"32.863"	"27.48"	"27.921"	"27.583"	"27.466"	"23.97"	"20.838"
"1933"	"22.589"	"26.057"	"28.563"	"31.433"	"31.738"	"29.841"	"27.881"	"27.213"	"27.283"	"26.07"	"23.111"	"20.944"
"1934"	"21.175"	"24.388"	"28.635"	"32.784"	"35.581"	"32.171"	"27.848"	"27.161"	"27.07"	"25.894"	"21.942"	"20.54"
"1935"	"22.204"	"24.975"	"28.68"	"30.811"	"36.147"	"33.236"	"27.297"	"27.493"	"27.16"	"26.916"	"22.89"	"21.936"
"1936"	"24.297"	"24.315"	"28.763"	"32.145"	"34.762"	"29.616"	"28.408"	"27.226"	"27.779"	"26.455"	"24.187"	"21.354"
"1937"	"21.211"	"25.149"	"27.944"	"31.725"	"34.599"	"32.835"	"27.608"	"27.635"	"27.701"	"26.185"	"23.379"	"20.837"
"1938"	"24.401"	"24.322"	"30.07"	"32.529"	"34.842"	"28.743"	"27.403"	"27.571"	"27.484"	"25.821"	"22.178"	"20.285"
"1939"	"22.533"	"25.196"	"27.805"	"32.375"	"36.033"	"32.304"	"27.593"	"27.496"	"27.471"	"27.047"	"22.239"	"20.348"
"1940"	"20.757"	"24.827"	"28.093"	"32.01"	"34.294"	"31.541"	"26.918"	"27.106"	"27.904"	"26.819"	"23.933"	"21.585"
"1941"	"23.249"	"24.93"	"29.892"	"34.008"	"35.696"	"32.119"	"28.787"	"27.997"	"28.281"	"27.097"	"22.827"	"22.273"
"1942"	"22.508"	"24.708"	"29.39"	"32.649"	"35.884"	"33.293"	"27.203"	"27.282"	"27.573"	"26.077"	"22.879"	"21.393"
"1943"	"23.61"	"23.27"	"28.831"	"31.807"	"33.934"	"30.641"	"27.627"	"26.889"	"27.053"	"25.976"	"22.942"	"19.138"
"1944"	"22.339"	"23.942"	"26.708"	"31.042"	"35.486"	"32.61"	"27.396"	"27.462"	"27.563"	"26.187"	"22.552"	"21.644"
"1945"	"21.735"	"24.114"	"28.936"	"31.124"	"35.392"	"32.336"	"27.509"	"27.393"	"26.97"	"25.761"	"21.661"	"19.443"
"1946"	"20.732"	"24.005"	"29.298"	"31.463"	"34.707"	"30.093"	"27.907"	"27.192"	"27.424"	"27.494"	"24.457"	"22.857"
"1947"	"23.299"	"24.317"	"29.239"	"33.267"	"35.813"	"33.076"	"27.388"	"27.717"	"27.275"	"25.725"	"22.991"	"21.356"
"1948"	"22.79"	"25.206"	"28.118"	"32.897"	"36.35"	"32.751"	"28.402"	"27.492"	"27.241"	"27.353"	"24.908"	"19.573"
"1949"	"21.922"	"23.941"	"29.298"	"32.747"	"34.384"	"30.818"	"27.779"	"27.764"	"27.375"	"26.818"	"22.431"	"20.272"
"1950"	"22.052"	"24.115"	"27.598"	"32.737"	"35.412"	"31.875"	"27.465"	"28.004"	"27.551"	"26.069"	"22.332"	"20.518"
"1951"	"21.602"	"24.924"	"29.014"	"31.996"	"34.521"	"32.152"	"28.636"	"27.254"	"28.358"	"28.001"	"24.021"	"21.155"
"1952"	"22.687"	"25.718"	"28.511"	"33.447"	"35.793"	"33.355"	"28.78"	"27.491"	"27.819"	"27.001"	"22.443"	"22.662"
"1953"	"22.379"	"26.071"	"31.047"	"33.037"	"37.006"	"34.243"	"28.313"	"27.097"	"28.051"	"26.819"	"22.756"	"20.823"
"1954"	"21.648"	"25.988"	"29.104"	"33.542"	"36.394"	"32.707"	"27.907"	"27.867"	"26.846"	"25.446"	"21.928"	"21.7"
"1955"	"22.378"	"25.902"	"29.835"	"31.809"	"34.411"	"32.055"	"27.88"	"27.214"	"27.374"	"26.214"	"21.642"	"20.274"
"1956"	"22.452"	"23.965"	"30.006"	"33.645"	"34.688"	"30.335"	"27.014"	"27.247"	"27.157"	"26.04"	"23.218"	"21.488"
"1957"	"23.118"	"24.31"	"27.164"	"31.555"	"34.32"	"32.703"	"27.638"	"27.287"	"28.015"	"27.358"	"24.024"	"22.446"
"1958"	"22.86"	"25.524"	"29.108"	"33.057"	"35.35"	"34.715"	"27.515"	"27.89"	"27.468"	"26.603"	"24.433"	"21.268"
"1959"	"22.731"	"25.495"	"29.366"	"32.747"	"35.523"	"31.623"	"27.467"	"26.995"	"27.374"	"27.039"	"23.331"	"21.37"
"1960"	"22.313"	"24.858"	"28.043"	"32.329"	"34.954"	"31.885"	"28.21"	"27.49"	"28.176"	"26.24"	"23.004"	"22.458"
"1961"	"23.152"	"24.11"	"30.43"	"33.234"	"34.539"	"31.133"	"27.466"	"27.491"	"26.732"	"26.039"	"22.565"	"20.503"
"1962"	"20.69"	"24.323"	"28.553"	"31.767"	"34.016"	"31.845"	"27.842"	"27.485"	"27.39"	"26.315"	"23.032"	"21.061"
"1963"	"20.876"	"24.398"	"28.488"	"30.676"	"34.341"	"31.035"	"28.103"	"27.223"	"27.802"	"26.847"	"24.062"	"21.366"
"1964"	"23.209"	"25.757"	"29.951"	"33.665"	"35.732"	"32.264"	"28.092"	"26.826"	"27.609"	"27"	"22.809"	"20.776"
"1965"	"22.252"	"24.78"	"28.651"	"31.932"	"35.691"	"32.371"	"27.914"	"28.099"	"27.611"	"27.344"	"24.169"	"22.466"
"1966"	"22.522"	"26.054"	"29.8"	"33.344"	"35.432"	"32.816"	"29.647"	"28.023"	"27.838"	"27.2"	"25.327"	"21.169"
"1967"	"22.707"	"25.529"	"28.064"	"32.428"	"35.594"	"32.844"	"28.403"	"27.29"	"27.54"	"26.423"	"23.589"	"23.09"
"1968"	"21.511"	"24.886"	"27.517"	"30.924"	"34.573"	"32.677"	"28.341"	"27.314"	"27.9"	"26.102"	"23.522"	"21.85"
"1969"	"22.491"	"26.622"	"31.161"	"34.175"	"34.517"	"32.979"	"27.91"	"27.633"	"27.202"	"26.697"	"24.77"	"21.008"
"1970"	"22.686"	"26.558"	"29.641"	"32.941"	"35.619"	"29.839"	"28.137"	"27.182"	"27.581"	"26.847"	"22.278"	"19.738"
"1971"	"22.421"	"25.371"	"27.784"	"32.337"	"33.371"	"29.465"	"28.194"	"27.876"	"27.946"	"26.613"	"21.853"	"19.827"
"1972"	"21.49"	"24.419"	"29.996"	"32.747"	"35.533"	"34.331"	"28.645"	"27.605"	"28.032"	"26.618"	"23.534"	"22.772"
"1973"	"23.784"	"26.45"	"30.253"	"35.244"	"37.244"	"32.807"	"27.743"	"27.295"	"27.729"	"26.487"	"22.548"	"21.336"
"1974"	"21.494"	"25.621"	"30.099"	"33.855"	"34.248"	"31.865"	"29.031"	"27.512"	"28.549"	"26.715"	"22.508"	"20.232"
"1975"	"20.987"	"25.019"	"29.12"	"33.502"	"36.378"	"31.544"	"27.874"	"27.791"	"27.503"	"27.421"	"21.861"	"19.66"
"1976"	"21.089"	"25.361"	"29.165"	"32.48"	"34.556"	"32.231"	"27.711"	"27.598"	"27.747"	"27.569"	"26.592"	"23.364"
"1977"	"22.282"	"26.572"	"30.497"	"32.593"	"32.684"	"32.422"	"28.485"	"27.048"	"27.994"	"27.386"	"25.731"	"21.334"
"1978"	"22.172"	"24.588"	"28.525"	"32.38"	"36.157"	"30.685"	"27.106"	"26.147"	"27.971"	"27.385"	"25.762"	"21.593"
"1979"	"23.85"	"24.477"	"29.059"	"32.33"	"33.061"	"32.961"	"28.158"	"27.623"	"27.566"	"28.18"	"26.258"	"22.269"
"1980"	"24.249"	"26.822"	"29.906"	"33.085"	"36.165"	"29.506"	"27.813"	"26.88"	"27.365"	"27.273"	"25.183"	"21.946"
"1981"	"21.369"	"26.076"	"28.205"	"32.381"	"33.056"	"32.027"	"26.987"	"26.774"	"27.367"	"27.15"	"23.09"	"21.731"
"1982"	"24.026"	"26.418"	"29.398"	"32.665"	"34"	"32.959"	"29.753"	"27.251"	"28.283"	"27.05"	"24.472"	"22.599"
"1983"	"22.868"	"25.644"	"30.107"	"32.806"	"34.863"	"34.329"	"29.112"	"28.149"	"27.861"	"26.378"	"22.468"	"20.736"
"1984"	"23.327"	"24.649"	"29.426"	"32.676"	"36.881"	"31.783"	"28.069"	"27.633"	"28.146"	"27.289"	"22.606"	"22.869"
"1985"	"24.321"	"25.674"	"30.975"	"33.73"	"35.923"	"31.177"	"28.135"	"27.613"	"28.503"	"26.162"	"23.404"	"22.711"
"1986"	"21.837"	"25.14"	"29.24"	"33.446"	"35.6"	"32.284"	"28.848"	"27.67"	"28.758"	"27.2"	"24.095"	"22.685"
"1987"	"22.702"	"24.802"	"28.812"	"33.4"	"33.768"	"34.16"	"28.829"	"28.302"	"29.445"	"27.375"	"24.246"	"21.666"
"1988"	"23.337"	"26.369"	"30.078"	"32.775"	"37.146"	"32.819"	"27.702"	"28.089"	"28.283"	"26.41"	"23.41"	"21.973"
"1989"	"22.605"	"25.163"	"28.049"	"33.262"	"36.517"	"31.102"	"28.517"	"27.227"	"28.375"	"27.077"	"24.229"	"21.472"
"1990"	"23.657"	"25.398"	"28.527"	"33.118"	"30.925"	"29.014"	"27.778"	"27.699"	"28.178"	"26.153"	"25.046"	"22.475"
"1991"	"22.6"	"26.764"	"30.006"	"32.578"	"36.176"	"31.157"	"28.283"	"27.476"	"28.992"	"26.815"	"23.405"	"21.447"
"1992"	"21.882"	"24.686"	"30.266"	"32.995"	"35.744"	"33.369"	"29.766"	"27.172"	"28.372"	"26.979"	"24.355"	"20.355"
"1993"	"22.937"	"24.714"	"29.255"	"33.017"	"36.288"	"32.935"	"28.86"	"27.977"	"28.117"	"27.314"	"23.601"	"20.074"
"1994"	"23.278"	"25.153"	"30.319"	"32.261"	"36.232"	"30.827"	"27.27"	"26.926"	"27.852"	"27.26"	"23.643"	"20.943"
"1995"	"20.588"	"24.821"	"28.711"	"32.351"	"32.936"	"34.026"	"28.51"	"28.686"	"28.725"	"26.9"	"24.129"	"22.904"
"1996"	"24.455"	"25.769"	"30.021"	"32.044"	"36.488"	"33.669"	"28.816"	"27.72"	"28.591"	"26.662"	"24.308"	"21.155"
"1997"	"21.425"	"24.478"	"29.528"	"30.729"	"34.506"	"32.806"	"28.808"	"28.336"	"28.243"	"27.057"	"26.043"	"22.976"
"1998"	"23.796"	"25.595"	"28.77"	"32.913"	"35.658"	"33.539"	"29.302"	"28.423"	"28.479"	"27.901"	"24.61"	"20.593"
"1999"	"21.128"	"26.315"	"29.911"	"34.391"	"34.236"	"31.128"	"28.219"	"27.45"	"27.372"	"27.321"	"23.934"	"21.251"
"2000"	"23.674"	"25.211"	"28.746"	"34.126"	"34.193"	"30.087"	"27.841"	"27.905"	"28.061"	"28.058"	"24.84"	"21.496"
"2001"	"22.99"	"26.623"	"29.907"	"31.952"	"35.622"	"30.28"	"28.124"	"27.47"	"29.056"	"27.318"	"25.483"	"22.039"
"2002"	"22.699"	"26.082"	"30.053"	"33.738"	"36.182"	"31.563"	"29.281"	"26.995"	"28.19"	"27.628"	"24.135"	"23.202"
