
"Year"	"Jan"	"Feb"	"Mar"	"Apr"	"May"	"Jun"	"Jul"	"Aug"	"Sep"	"Oct"	"Nov"	"Dec"
"1901"	"15.233"	"18.822"	"24.137"	"30.417"	"32.384"	"33.903"	"30.427"	"29.428"	"28.976"	"27.67"	"22.05"	"17.493"
"1902"	"17.669"	"19.553"	"25.902"	"29.226"	"32.408"	"32.865"	"29.602"	"29.799"	"28.979"	"26.085"	"21.422"	"16.355"
"1903"	"16.577"	"18.518"	"23.63"	"30.207"	"33.54"	"32.677"	"31.069"	"29.371"	"29.396"	"26.586"	"21.279"	"16.651"
"1904"	"16.681"	"19.274"	"24.654"	"31.335"	"31.436"	"31.742"	"29.183"	"29.026"	"28.979"	"26.582"	"20.891"	"17.336"
"1905"	"15.118"	"14.993"	"21.643"	"27.069"	"31.381"	"34.031"	"29.726"	"28.6"	"28.85"	"26.797"	"21.793"	"16.767"
"1906"	"16.049"	"18.264"	"22.402"	"30.72"	"33.507"	"32.601"	"30.028"	"28.87"	"29.451"	"26.614"	"22.239"	"17.697"
"1907"	"17.839"	"18.362"	"21.373"	"27.596"	"31.642"	"32.739"	"30.316"	"29.924"	"29.555"	"27.312"	"21.595"	"16.88"
"1908"	"14.94"	"18.827"	"24.762"	"32.617"	"33.2"	"33.179"	"29.768"	"30.053"	"29.394"	"27.162"	"21.123"	"16.295"
"1909"	"17.538"	"18.438"	"25.907"	"28.198"	"33.055"	"31.123"	"29.81"	"29.195"	"29.637"	"27.224"	"21.923"	"17.455"
"1910"	"15.868"	"18.992"	"24.884"	"30.468"	"32.561"	"31.681"	"29.37"	"29.624"	"29.322"	"26.385"	"20.965"	"16.623"
"1911"	"17.598"	"18.353"	"22.756"	"29.969"	"33.732"	"31.567"	"30.946"	"29.4"	"28.782"	"26.456"	"20.435"	"16.055"
"1912"	"16.61"	"19.995"	"24.259"	"28.73"	"31.907"	"32.916"	"29.673"	"29.328"	"28.979"	"26.682"	"20.439"	"16.454"
"1913"	"16.11"	"18.679"	"22.384"	"31.188"	"31.257"	"30.294"	"29.854"	"29.399"	"29.608"	"26.243"	"20.367"	"16.579"
"1914"	"17.155"	"19.31"	"23.452"	"28.216"	"31.545"	"31.73"	"29.629"	"29.026"	"28.979"	"25.385"	"21.557"	"17.591"
"1915"	"17.04"	"18.519"	"23.532"	"29.88"	"32.95"	"32.052"	"30.77"	"29.485"	"29.35"	"28.34"	"23.194"	"17.126"
"1916"	"16.107"	"18.726"	"26.868"	"30.729"	"34.764"	"31.224"	"29.695"	"29.112"	"29.179"	"26.885"	"21.868"	"16.15"
"1917"	"15.911"	"18.495"	"23.26"	"28.163"	"29.639"	"31.44"	"29.752"	"29.469"	"28.621"	"26.329"	"21.606"	"16.824"
"1918"	"15.01"	"18.699"	"25.011"	"28.737"	"32.337"	"30.651"	"31.069"	"28.813"	"29.51"	"26.824"	"21.348"	"15.939"
"1919"	"16.648"	"17.584"	"24.853"	"28.736"	"32.041"	"31.969"	"29.805"	"29.527"	"28.978"	"26.536"	"21.597"	"16.863"
"1920"	"16.595"	"18.636"	"23.249"	"30.107"	"31.462"	"33.101"	"29.939"	"29.469"	"29.12"	"27.014"	"21.997"	"17.551"
"1921"	"17.08"	"19.055"	"26.462"	"31.38"	"35.229"	"32.541"	"30.066"	"29.192"	"28.647"	"25.711"	"20.936"	"16.202"
"1922"	"16.746"	"19.866"	"25.87"	"30.777"	"34.241"	"31.124"	"29.666"	"28.927"	"28.504"	"25.552"	"21.277"	"16.963"
"1923"	"16.434"	"18.562"	"24.662"	"31.137"	"33.26"	"34.076"	"29.81"	"29.825"	"29.179"	"25.965"	"21.481"	"17.239"
"1924"	"15.851"	"18.996"	"26.411"	"31.265"	"32.423"	"34.702"	"29.809"	"29.226"	"28.382"	"26.908"	"21.267"	"17.451"
"1925"	"14.95"	"17.256"	"24.38"	"29.918"	"32.241"	"31.512"	"29.304"	"29.272"	"28.985"	"26.159"	"21.038"	"16.379"
"1926"	"16.108"	"19.369"	"22.926"	"27.716"	"31.792"	"35.223"	"30.04"	"29.368"	"28.98"	"26.368"	"20.078"	"17.15"
"1927"	"15.337"	"18.492"	"23.013"	"30.147"	"31.56"	"33.102"	"29.996"	"29.197"	"29.425"	"26.839"	"21.561"	"17.499"
"1928"	"15.484"	"18.938"	"25.379"	"29.617"	"33.188"	"31.67"	"29.682"	"29.932"	"30.054"	"27.454"	"21.541"	"17.764"
"1929"	"16.407"	"18.051"	"25.255"	"29.955"	"34.015"	"33.211"	"29.655"	"29.023"	"29.223"	"25.912"	"21.396"	"16.722"
"1930"	"15.482"	"18.496"	"25.283"	"29.793"	"32.668"	"32.526"	"29.513"	"29.226"	"29.423"	"26.725"	"21.11"	"16.525"
"1931"	"17.282"	"18.563"	"24.213"	"31.166"	"32.734"	"33.885"	"29.854"	"30.026"	"29.253"	"26.938"	"21.368"	"17.823"
"1932"	"17.65"	"18.164"	"25.11"	"29.899"	"33.025"	"33.674"	"30.35"	"29.424"	"29.61"	"27.11"	"22.126"	"16.696"
"1933"	"14.74"	"19.835"	"24.916"	"27.994"	"31.545"	"31.767"	"29.525"	"29.171"	"28.985"	"26.51"	"21.593"	"17.227"
"1934"	"16.151"	"19.166"	"24.088"	"30.497"	"33.054"	"31.932"	"29.782"	"29.498"	"29.452"	"26.31"	"21.267"	"17.508"
"1935"	"15.546"	"19.425"	"24.84"	"28.076"	"33.576"	"33.329"	"30.249"	"28.827"	"28.98"	"26.409"	"21.493"	"17.032"
"1936"	"15.577"	"19.293"	"24.855"	"29.352"	"32.528"	"30.765"	"29.48"	"29.452"	"28.778"	"25.708"	"21.894"	"17.463"
"1937"	"14.978"	"18.935"	"23.443"	"28.775"	"32.048"	"33.053"	"30.28"	"28.613"	"29.478"	"25.782"	"21.037"	"16.306"
"1938"	"16.605"	"17.322"	"25.955"	"31.019"	"32.231"	"31.195"	"29.683"	"29.226"	"29.705"	"27.011"	"20.635"	"17.05"
"1939"	"16.952"	"19.463"	"22.984"	"30.162"	"33.661"	"32.014"	"29.909"	"29.256"	"29.096"	"26.581"	"21.747"	"17.41"
"1940"	"16.266"	"18.851"	"22.399"	"29.149"	"33"	"33.026"	"29.909"	"29.426"	"28.976"	"27.336"	"22.366"	"17.093"
"1941"	"16.406"	"19.72"	"26.584"	"31.982"	"32.69"	"32.153"	"30.728"	"29.371"	"29.281"	"26.758"	"21.735"	"18.379"
"1942"	"16.333"	"19.265"	"25.355"	"29.94"	"34.127"	"33.786"	"30.221"	"29.398"	"28.254"	"26.543"	"22.668"	"17.307"
"1943"	"18.36"	"18.498"	"25.199"	"28.038"	"33.531"	"32.958"	"29.828"	"28.984"	"29.311"	"26.94"	"22.126"	"18.263"
"1944"	"16.022"	"18.793"	"23.542"	"27.868"	"34.426"	"32.814"	"29.954"	"29.527"	"30.404"	"26.225"	"21.598"	"18.198"
"1945"	"15.534"	"17.741"	"24.885"	"28.394"	"32.457"	"33.585"	"30.825"	"29.842"	"28.98"	"25.569"	"21.197"	"15.927"
"1946"	"16.683"	"20.826"	"24.52"	"28.315"	"31.22"	"32.407"	"29.749"	"29.798"	"29.075"	"26.185"	"21.329"	"17.98"
"1947"	"16.079"	"19.465"	"25.427"	"31.201"	"32.828"	"33.888"	"29.923"	"29.856"	"29.221"	"26.441"	"21.871"	"17.625"
"1948"	"16.881"	"19.321"	"24.395"	"31.043"	"33.261"	"34.551"	"29.483"	"29.426"	"28.94"	"26.086"	"21.693"	"17.034"
"1949"	"17.384"	"18.939"	"24.429"	"28.844"	"31.051"	"32.675"	"29.657"	"29.424"	"28.984"	"27.153"	"20.939"	"16.197"
"1950"	"16.98"	"18.621"	"23.615"	"29.578"	"32.958"	"31.927"	"29.923"	"29.11"	"28.653"	"26.453"	"20.555"	"17.565"
"1951"	"15.947"	"19.083"	"24.94"	"29.423"	"33.269"	"33.014"	"30.028"	"29.656"	"29.278"	"28.481"	"22.697"	"17.176"
"1952"	"17.493"	"20.808"	"23.887"	"30.312"	"32.932"	"32.507"	"29.909"	"29.162"	"28.88"	"27.396"	"21.754"	"17.229"
"1953"	"15.99"	"20.411"	"27.56"	"30.825"	"33.712"	"33.153"	"29.281"	"29.217"	"28.91"	"26.338"	"21.097"	"18.739"
"1954"	"15.566"	"20.814"	"25.3"	"31.938"	"34.106"	"32.655"	"29.998"	"29.169"	"29.278"	"25.796"	"20.86"	"16.84"
"1955"	"16.211"	"18.647"	"26.485"	"29.364"	"32.927"	"32.513"	"29.211"	"28.959"	"28.779"	"26.755"	"22.082"	"17.229"
"1956"	"16.172"	"18.705"	"25.642"	"31.426"	"34.045"	"31.057"	"29.884"	"29.327"	"28.338"	"26.897"	"21.34"	"17.987"
"1957"	"17.081"	"18.62"	"23.755"	"30.196"	"34.11"	"33.228"	"30.211"	"29.797"	"29.773"	"27.037"	"22.396"	"18.474"
"1958"	"18.291"	"19.846"	"25.269"	"31.281"	"33.67"	"34.242"	"30.293"	"29.109"	"29.308"	"27.198"	"22.566"	"18.493"
"1959"	"17.017"	"18.961"	"24.958"	"30.607"	"32.915"	"32.899"	"30.223"	"29.774"	"28.948"	"26.743"	"21.938"	"17.936"
"1960"	"16.561"	"21.544"	"23.762"	"30.078"	"32.925"	"33.469"	"29.623"	"29.935"	"29.248"	"26.71"	"21.226"	"18.624"
"1961"	"17.249"	"18.39"	"24.972"	"30.11"	"33.254"	"32.144"	"30.114"	"29.596"	"29.207"	"26.665"	"20.896"	"14.58"
"1962"	"15.311"	"19.367"	"24.086"	"29.671"	"32.29"	"33.281"	"30.669"	"28.658"	"28.576"	"25.994"	"21.663"	"17.368"
"1963"	"15.396"	"20.095"	"24.06"	"29.213"	"31.518"	"32.041"	"29.752"	"29.301"	"28.611"	"27.208"	"22.36"	"18.33"
"1964"	"16.106"	"19.347"	"25.855"	"30.512"	"31.416"	"32.972"	"28.972"	"29.566"	"28.979"	"27.956"	"21.654"	"17.521"
"1965"	"17.262"	"19.547"	"23.424"	"28.496"	"32.405"	"33.774"	"29.871"	"29.283"	"28.353"	"26.751"	"22.312"	"16.232"
"1966"	"16.602"	"20.602"	"25.116"	"30.652"	"33.417"	"33.141"	"30.573"	"28.86"	"29.068"	"26.57"	"23.078"	"17.145"
"1967"	"16.188"	"20.437"	"23.422"	"28.839"	"32.643"	"33.468"	"30.022"	"29.081"	"28.976"	"25.915"	"20.915"	"18.177"
"1968"	"15.976"	"18.262"	"24.28"	"29.325"	"32.415"	"31.488"	"29.723"	"29.429"	"29.826"	"26.311"	"22.324"	"17.355"
"1969"	"16.171"	"19.728"	"26.629"	"30.771"	"32.143"	"33.46"	"30.008"	"28.787"	"28.751"	"27.34"	"23.44"	"17.783"
"1970"	"16.602"	"18.653"	"24.479"	"30.807"	"33.112"	"31.671"	"29.884"	"29.626"	"28.904"	"27.596"	"21.826"	"17.428"
"1971"	"15.868"	"17.113"	"24.042"	"28.241"	"30.114"	"30.3"	"28.78"	"27.987"	"28.782"	"26.341"	"20.971"	"17.382"
"1972"	"16.196"	"17.154"	"24.614"	"29.079"	"33.088"	"33.343"	"30.3"	"29.34"	"28.18"	"25.54"	"21.607"	"17.172"
"1973"	"16.713"	"19.872"	"23.729"	"30.944"	"32.403"	"32.105"	"30.199"	"29.237"	"28.907"	"26.537"	"21.166"	"16.8"
"1974"	"16.215"	"18.382"	"24.758"	"30.713"	"32.261"	"32.695"	"29.325"	"29.03"	"28.818"	"27.909"	"21.368"	"15.841"
"1975"	"15.75"	"18.725"	"24.186"	"30.313"	"32.875"	"32.184"	"28.851"	"29.025"	"28.679"	"27.511"	"20.763"	"16.665"
"1976"	"16.592"	"19.66"	"24.529"	"29.324"	"31.83"	"31.928"	"29.726"	"28.667"	"28.479"	"26.782"	"22.982"	"16.848"
"1977"	"15.82"	"19.413"	"25.626"	"29.251"	"30.393"	"31.755"	"29.509"	"29.298"	"29.435"	"26.226"	"23.342"	"17.641"
"1978"	"15.452"	"17.932"	"22.64"	"28.813"	"33.003"	"32.128"	"29.411"	"29.324"	"28.947"	"26.682"	"22.741"	"17.552"
"1979"	"17.156"	"17.728"	"24.138"	"29.896"	"33.369"	"32.25"	"30.023"	"30.454"	"28.863"	"27.43"	"24.085"	"18.727"
"1980"	"16.592"	"19.466"	"24.185"	"31.567"	"32.963"	"31.865"	"29.971"	"29.08"	"28.743"	"26.427"	"22.25"	"17.866"
"1981"	"15.984"	"19.358"	"23.955"	"28.722"	"31.358"	"32.752"	"29.28"	"29.26"	"29.377"	"26.641"	"21.208"	"16.996"
"1982"	"17.401"	"18.531"	"23.133"	"29.492"	"32.713"	"31.869"	"31.199"	"29.627"	"29.009"	"26.527"	"22.239"	"16.373"
"1983"	"15.566"	"19.805"	"23.855"	"28.75"	"31.113"	"32.826"	"30.252"	"29.955"	"30.105"	"26.739"	"21.322"	"17.862"
"1984"	"15.798"	"18.149"	"25.572"	"30.568"	"33.191"	"31.803"	"29.212"	"28.829"	"28.608"	"27.736"	"20.841"	"17.841"
"1985"	"17.077"	"18.966"	"26.882"	"30.736"	"32.733"	"33.254"	"29.149"	"29.426"	"29.121"	"26.241"	"21.771"	"18.512"
"1986"	"16.481"	"18.538"	"24.383"	"29.64"	"30.942"	"32.183"	"29.367"	"28.953"	"27.838"	"25.81"	"22.765"	"16.809"
"1987"	"15.813"	"20.743"	"24.084"	"29.741"	"32.045"	"33.715"	"30.059"	"28.877"	"29.54"	"26.812"	"22.101"	"17.853"
"1988"	"17.389"	"19.866"	"24.422"	"30.372"	"33.161"	"31.676"	"29.606"	"28.789"	"30.15"	"27.664"	"22.367"	"18.836"
"1989"	"15.4"	"18.257"	"24.508"	"29.736"	"33.345"	"31.771"	"29.612"	"28.79"	"29.706"	"27.764"	"22.235"	"16.631"
"1990"	"16.577"	"18.909"	"23.381"	"30.497"	"31.191"	"32.743"	"29.095"	"29.224"	"29.505"	"26.869"	"22.389"	"18.125"
"1991"	"16.868"	"19.776"	"25.011"	"29.326"	"32.758"	"31.447"	"30.168"	"28.726"	"29.442"	"26.795"	"21.247"	"17.467"
"1992"	"15.266"	"17.247"	"26.073"	"30.466"	"31.258"	"31.841"	"30.236"	"29.016"	"29.402"	"27.538"	"22.525"	"17.466"
"1993"	"17.274"	"20.893"	"23.581"	"29.038"	"32.627"	"32.563"	"30.695"	"29.208"	"28.979"	"27.683"	"22.191"	"18.256"
"1994"	"17.583"	"18.667"	"26.257"	"29.428"	"33.251"	"32.81"	"29.909"	"29.089"	"29.579"	"26.901"	"22.206"	"17.483"
"1995"	"14.96"	"20.886"	"24.436"	"29.942"	"33.579"	"33.471"	"29.927"	"28.886"	"29.231"	"27.311"	"22.566"	"18.606"
"1996"	"16.724"	"19.456"	"25.812"	"29.297"	"33.06"	"31.748"	"29.655"	"28.177"	"29.807"	"27.106"	"22.777"	"18.295"
"1997"	"15.714"	"18.153"	"24.842"	"29.742"	"31.587"	"33.197"	"31.389"	"29.388"	"28.548"	"25.989"	"22.364"	"17.879"
"1998"	"16.358"	"20.069"	"23.302"	"29.306"	"32.721"	"33.951"	"29.611"	"29.558"	"29.608"	"29.062"	"23.368"	"19.074"
"1999"	"16.723"	"20.856"	"25.401"	"32.468"	"32.971"	"32.142"	"29.523"	"29.167"	"28.877"	"27.908"	"23.744"	"18.741"
"2000"	"17.265"	"19.426"	"24.442"	"30.811"	"32.457"	"31.994"	"30.28"	"29.428"	"28.951"	"28.251"	"24.312"	"18.193"
"2001"	"16.95"	"20.153"	"24.758"	"30.021"	"33.144"	"31.4"	"29.569"	"29.728"	"30.111"	"28.435"	"24.508"	"19.468"
"2002"	"16.541"	"20.294"	"25.742"	"30.208"	"33.634"	"33.287"	"31.326"	"29.299"	"28.847"	"27.01"	"22.697"	"17.965"
