
"Year"	"Jan"	"Feb"	"Mar"	"Apr"	"May"	"Jun"	"Jul"	"Aug"	"Sep"	"Oct"	"Nov"	"Dec"
"1901"	"11.576"	"13.324"	"20.401"	"24.688"	"29.862"	"33.683"	"31.417"	"31.335"	"29.32"	"26.497"	"19.297"	"14.021"
"1902"	"13.491"	"16.594"	"20.98"	"25.92"	"31.259"	"32.661"	"31.423"	"31.019"	"29.166"	"24.995"	"18.801"	"13.216"
"1903"	"12.273"	"14.653"	"17.885"	"23.912"	"29.334"	"34.264"	"31.666"	"30.584"	"30.092"	"25.846"	"18.599"	"13.446"
"1904"	"11.028"	"15.351"	"18.781"	"26.331"	"30.764"	"33.765"	"31.879"	"31.14"	"29.295"	"25.322"	"18.329"	"13.996"
"1905"	"10.419"	"10.102"	"16.153"	"23.869"	"31.692"	"34.137"	"31.8"	"32.241"	"29.621"	"25.312"	"19.274"	"13.173"
"1906"	"10.756"	"12.677"	"17.403"	"24.931"	"32.018"	"33.079"	"32.296"	"31.041"	"28.763"	"25.618"	"19.847"	"15.02"
"1907"	"14.52"	"12.824"	"16.502"	"24.01"	"29.19"	"32.312"	"32.051"	"30.315"	"30.547"	"25.998"	"19.748"	"13.248"
"1908"	"13.475"	"15.276"	"19.552"	"26.213"	"30.438"	"33.911"	"31.036"	"29.085"	"28.412"	"24.593"	"18.125"	"12.95"
"1909"	"10.601"	"13.028"	"19.692"	"24.563"	"30.009"	"32.26"	"30.391"	"30.436"	"28.164"	"24.945"	"19.775"	"12.569"
"1910"	"11.897"	"14.225"	"18.878"	"24.113"	"30.859"	"32.761"	"30.621"	"30.21"	"29.995"	"25.12"	"17.874"	"12.442"
"1911"	"12.573"	"14.746"	"16.977"	"24.912"	"31.253"	"33.116"	"32.871"	"32.342"	"30.019"	"25.743"	"16.481"	"12.841"
"1912"	"12.92"	"16.223"	"18.952"	"24.862"	"30.54"	"33.962"	"31.849"	"30.161"	"28.769"	"25.266"	"17.523"	"13.166"
"1913"	"13.225"	"14.098"	"16.831"	"26.014"	"29.429"	"31.131"	"30.147"	"30.315"	"28.916"	"24.919"	"17.549"	"12.47"
"1914"	"13.943"	"13.526"	"18.233"	"24.56"	"30.287"	"33.179"	"30.713"	"30.191"	"29.189"	"22.995"	"18.374"	"12.467"
"1915"	"11.825"	"13"	"20.176"	"25.593"	"33.314"	"33.462"	"33.174"	"31.77"	"30.641"	"26.084"	"18.675"	"13.242"
"1916"	"13.075"	"14.147"	"21.955"	"26.64"	"29.559"	"32.691"	"30.237"	"29.959"	"29.369"	"25.29"	"17.215"	"12.766"
"1917"	"12.304"	"15.647"	"18.983"	"22.239"	"26.98"	"31.857"	"31.096"	"29.757"	"28.235"	"23.863"	"16.971"	"12.992"
"1918"	"11.177"	"14.944"	"18.553"	"22.856"	"32.765"	"32.862"	"32.479"	"31.541"	"29.219"	"24.822"	"17.977"	"12.225"
"1919"	"11.831"	"13.694"	"19.282"	"24.489"	"29.465"	"35.192"	"31.775"	"30.107"	"29.044"	"24.702"	"17.745"	"12.199"
"1920"	"12.497"	"12.927"	"18.183"	"24.289"	"26.831"	"32.236"	"32.474"	"30.615"	"30.147"	"25.897"	"19.451"	"13.917"
"1921"	"12.323"	"15.574"	"22.434"	"28.874"	"32.808"	"33.71"	"32.197"	"30.236"	"29.363"	"24.022"	"18.32"	"14.423"
"1922"	"11.623"	"15.718"	"20.603"	"25.708"	"30.113"	"32.217"	"32.169"	"31.321"	"29.039"	"23.973"	"18.018"	"12.995"
"1923"	"11.998"	"13.7"	"20.077"	"26.412"	"29.258"	"34.064"	"30.599"	"29.938"	"29.121"	"23.741"	"17.621"	"12.919"
"1924"	"11.077"	"14.198"	"20.222"	"25.9"	"26.488"	"34.285"	"32.423"	"30.44"	"28.093"	"25.193"	"17.77"	"13.72"
"1925"	"10.722"	"12.998"	"20.429"	"28.062"	"29.938"	"31.359"	"30.394"	"30.087"	"29.521"	"25.048"	"16.821"	"13.07"
"1926"	"12.569"	"15.822"	"17.627"	"22.287"	"27.703"	"33.709"	"32.15"	"29.958"	"28.741"	"24.515"	"16.246"	"12.915"
"1927"	"11.372"	"12.547"	"18.428"	"24.431"	"28.984"	"32.56"	"31.239"	"30.387"	"29.294"	"25.341"	"18.697"	"14.574"
"1928"	"11.722"	"15.451"	"19.449"	"25.26"	"32.609"	"33.212"	"32.046"	"31.067"	"29.004"	"25.737"	"18.243"	"12.792"
"1929"	"11.621"	"12.996"	"21.448"	"26.486"	"31.162"	"32.934"	"30.742"	"29.861"	"29.666"	"24.293"	"18.371"	"11.299"
"1930"	"10.774"	"14.649"	"20.154"	"24.264"	"30.237"	"32.06"	"29.961"	"30.585"	"28.984"	"24.725"	"17.798"	"13.637"
"1931"	"13.796"	"12.171"	"19.076"	"26.887"	"30.213"	"33.361"	"30.243"	"31.087"	"29.067"	"25.319"	"18.548"	"14.021"
"1932"	"13.798"	"14.279"	"20.206"	"26.26"	"28.959"	"34.438"	"31.613"	"30.133"	"30.044"	"25.089"	"18.611"	"12.973"
"1933"	"10.375"	"15.103"	"19.078"	"23.163"	"29.111"	"33.391"	"31.494"	"28.883"	"27.966"	"24.747"	"18.447"	"14.795"
"1934"	"10.374"	"17.22"	"18.951"	"25.685"	"29.311"	"32.926"	"31.795"	"30.062"	"30.67"	"24.536"	"18.167"	"13.596"
"1935"	"10.278"	"14.623"	"19.751"	"21.734"	"30.279"	"33.314"	"31.471"	"29.937"	"29.415"	"24.541"	"18.594"	"13.171"
"1936"	"10.975"	"14.973"	"18.6"	"24.66"	"33.168"	"31.657"	"30.793"	"30.835"	"29.61"	"25.22"	"18.175"	"12.85"
"1937"	"11.797"	"14.548"	"19.043"	"24.282"	"30.657"	"34.034"	"30.588"	"31.941"	"29.671"	"24.143"	"17.627"	"12.145"
"1938"	"11.007"	"13.071"	"19.633"	"26.387"	"32.86"	"31.655"	"32.32"	"31.243"	"29.886"	"25.143"	"17.145"	"14.042"
"1939"	"12.774"	"14.194"	"16.676"	"23.313"	"31.36"	"32.113"	"31.44"	"31.237"	"30.148"	"25.695"	"18.471"	"14.444"
"1940"	"12.87"	"14.448"	"17.978"	"24.164"	"31.112"	"32.958"	"31.845"	"29.935"	"28.85"	"25.188"	"19.3"	"13.046"
"1941"	"11.723"	"15.624"	"21.574"	"27.79"	"31.836"	"32.43"	"31.371"	"31.313"	"28.818"	"27.074"	"19.128"	"14.945"
"1942"	"11.223"	"14.726"	"21.151"	"26.766"	"30.463"	"33.515"	"30.743"	"29.941"	"28.633"	"24.966"	"19.873"	"13.045"
"1943"	"11.476"	"15.123"	"20.18"	"24.56"	"29.742"	"32.463"	"30.919"	"30.862"	"30.421"	"25.191"	"19.52"	"14.894"
"1944"	"11.231"	"12.802"	"18.629"	"24.988"	"31.883"	"32.436"	"31.537"	"30.439"	"28.565"	"24.691"	"18.8"	"13.817"
"1945"	"10.399"	"13.397"	"19.696"	"23.435"	"30.235"	"33.284"	"31.086"	"30.382"	"29.337"	"24.763"	"18.873"	"12.522"
"1946"	"14.1"	"17.15"	"19.104"	"28.339"	"31.366"	"33.241"	"31.87"	"31.158"	"30.287"	"25.792"	"18.024"	"11.873"
"1947"	"10.858"	"14.75"	"20.932"	"27.41"	"31.886"	"35.691"	"33.627"	"30.616"	"29.268"	"24.369"	"19.726"	"13.744"
"1948"	"12.524"	"13.606"	"18.23"	"26.989"	"32.439"	"33.209"	"31.092"	"29.69"	"29.748"	"25.745"	"17.319"	"13.025"
"1949"	"13.646"	"13.227"	"19.694"	"27.142"	"32.616"	"32.54"	"30.867"	"30.586"	"30.766"	"24.816"	"17.221"	"12.446"
"1950"	"12.923"	"13.085"	"18.455"	"24.323"	"31.297"	"34.188"	"31.794"	"30.379"	"27.301"	"23.808"	"17.97"	"11.898"
"1951"	"11.825"	"14.553"	"21.472"	"23.159"	"30.162"	"33.084"	"31.47"	"30.817"	"30.645"	"27.022"	"19.944"	"14.794"
"1952"	"13.027"	"16.698"	"18.955"	"27.689"	"31.538"	"33.121"	"31.071"	"30.664"	"30.323"	"25.32"	"18.562"	"13.47"
"1953"	"11.328"	"17.219"	"22.126"	"26.187"	"32.069"	"33.968"	"31.941"	"30.137"	"29.086"	"25.412"	"18.593"	"15.72"
"1954"	"11.024"	"15.252"	"20.15"	"26.841"	"31.459"	"33.56"	"31.676"	"31.846"	"29.514"	"22.966"	"17.998"	"13.022"
"1955"	"12.025"	"15.599"	"21.531"	"23.643"	"28.183"	"34.393"	"31.446"	"30.209"	"29.038"	"23.84"	"18.543"	"13.571"
"1956"	"12.058"	"15.319"	"19.506"	"26.743"	"33.105"	"32.758"	"30.191"	"29.737"	"30.422"	"24.02"	"17.771"	"13.525"
"1957"	"11.398"	"13.625"	"18.63"	"23.718"	"28.24"	"32.488"	"32.273"	"29.89"	"28.86"	"24.924"	"18.298"	"13.77"
"1958"	"14.249"	"15.015"	"20.223"	"27.738"	"30.33"	"33.362"	"31.669"	"30.513"	"28.556"	"24.994"	"19.117"	"14.594"
"1959"	"12.005"	"13.579"	"20.907"	"26.412"	"29.99"	"34.411"	"30.62"	"30.883"	"29.294"	"26.369"	"18.445"	"14.313"
"1960"	"11.648"	"18.194"	"18.709"	"24.286"	"31.035"	"33.612"	"31.441"	"30.635"	"29.864"	"25.267"	"18.099"	"14.034"
"1961"	"12.724"	"13.15"	"20.325"	"25.36"	"30.636"	"33.755"	"31.345"	"30.534"	"30.542"	"25.39"	"17.691"	"11.948"
"1962"	"11.797"	"15.897"	"19.647"	"26.688"	"29.958"	"33.233"	"31.668"	"30.565"	"27.964"	"24.442"	"18.49"	"12.567"
"1963"	"11.921"	"15.988"	"19.308"	"25.137"	"29.312"	"33.701"	"31.431"	"29.685"	"28.471"	"25.604"	"18.805"	"12.853"
"1964"	"10.378"	"13.464"	"19.707"	"25.523"	"28.753"	"32.968"	"29.801"	"30.809"	"29.094"	"25.055"	"17.489"	"13.689"
"1965"	"12.587"	"14.753"	"19.628"	"23.698"	"29.36"	"33.215"	"30.72"	"29.331"	"29.043"	"25.207"	"19.206"	"12.173"
"1966"	"11.453"	"15.884"	"19.42"	"25.734"	"30.814"	"33.139"	"31.425"	"30.464"	"28.506"	"24.204"	"17.856"	"12.914"
"1967"	"11.325"	"16.692"	"19.386"	"25.35"	"29.748"	"33.785"	"31.79"	"30.205"	"29.581"	"23.753"	"18.225"	"13.393"
"1968"	"10.426"	"12.539"	"20.16"	"26.008"	"30.005"	"34.01"	"31.066"	"30.283"	"30.563"	"23.577"	"18.3"	"13.612"
"1969"	"11.88"	"15.438"	"22.503"	"25.81"	"29.77"	"33.848"	"31.554"	"31.562"	"29.428"	"26.035"	"19.871"	"13.901"
"1970"	"13.08"	"15.445"	"20.254"	"27.447"	"32.52"	"32.416"	"32.282"	"30.672"	"29.978"	"25.798"	"18.518"	"13.743"
"1971"	"12.202"	"15.688"	"21.178"	"26.991"	"30.284"	"33.26"	"30.591"	"29.987"	"28.593"	"25.213"	"19.123"	"14.208"
"1972"	"13.167"	"12.937"	"20.777"	"24.867"	"30.988"	"33.734"	"31.301"	"30.046"	"28.192"	"23.445"	"19.168"	"14.02"
"1973"	"12.372"	"16.322"	"19.278"	"27.764"	"31.433"	"34.04"	"31.041"	"30.384"	"29.015"	"24.465"	"18.54"	"12.41"
"1974"	"12.018"	"13.154"	"20.852"	"27.567"	"30.781"	"32.067"	"31.071"	"30.015"	"28.641"	"24.437"	"17.466"	"12.179"
"1975"	"12.251"	"13.495"	"18.634"	"26.239"	"30.984"	"32.608"	"29.844"	"29.791"	"28.61"	"25.439"	"17.25"	"13.859"
"1976"	"12.822"	"14.55"	"18.826"	"24.965"	"30.833"	"32.06"	"31.392"	"28.957"	"28.494"	"24.996"	"18.893"	"13.22"
"1977"	"12.067"	"14.704"	"21.038"	"25.481"	"28.232"	"31.663"	"30.76"	"29.89"	"28.362"	"25.642"	"20.202"	"13.874"
"1978"	"11.301"	"14.371"	"18.226"	"25.492"	"32.546"	"33.345"	"30.143"	"29.836"	"28.548"	"25.044"	"18.799"	"14.194"
"1979"	"12.844"	"14.524"	"18.523"	"27.759"	"29.358"	"33.464"	"31.094"	"30.987"	"27.988"	"25.865"	"19.674"	"14.649"
"1980"	"12.842"	"15.28"	"19.35"	"28.086"	"32.293"	"33.049"	"30.849"	"29.91"	"28.295"	"25.198"	"18.441"	"12.947"
"1981"	"12.793"	"15.728"	"20.838"	"26.511"	"31.638"	"33.089"	"29.995"	"29.886"	"29.046"	"24.093"	"18.171"	"13.293"
"1982"	"13.219"	"13.684"	"17.323"	"24.312"	"28.282"	"32.875"	"31.546"	"29.785"	"28.971"	"24.652"	"18.521"	"13.941"
"1983"	"11.954"	"14.455"	"18.033"	"23.674"	"28.792"	"31.848"	"30.555"	"30.058"	"29.618"	"24.141"	"18.047"	"13.775"
"1984"	"11.622"	"13.243"	"21.558"	"25.959"	"32.84"	"34.064"	"30.346"	"30.636"	"27.612"	"24.14"	"18.177"	"13.463"
"1985"	"12.447"	"15.952"	"21.747"	"26.437"	"31.562"	"33.06"	"30.514"	"30.16"	"29.27"	"23.984"	"18.823"	"14.494"
"1986"	"10.431"	"14.866"	"19.125"	"25.309"	"28.656"	"32.464"	"29.973"	"30.142"	"28.66"	"24.467"	"19.069"	"12.129"
"1987"	"11.888"	"16.097"	"20.199"	"26.312"	"27.154"	"32.537"	"32.421"	"31.393"	"30.694"	"25.418"	"19.098"	"14.213"
"1988"	"14.124"	"16.195"	"19.28"	"27.714"	"32.285"	"32.97"	"30.392"	"29.588"	"28.955"	"24.522"	"19.095"	"14.146"
"1989"	"12.067"	"14.594"	"19.258"	"24.492"	"30.365"	"31.972"	"30.62"	"28.312"	"28.838"	"24.918"	"18.445"	"13.819"
"1990"	"14.446"	"15.341"	"18.582"	"25.418"	"31.285"	"33.853"	"30.395"	"29.857"	"29.014"	"24.295"	"18.531"	"13.352"
"1991"	"10.886"	"14.877"	"19.396"	"24.168"	"30.006"	"32.062"	"31.652"	"29.865"	"28.944"	"23.918"	"17.978"	"14.214"
"1992"	"13.048"	"14.395"	"19.156"	"25.266"	"29.462"	"32.634"	"30.196"	"29.694"	"28.47"	"24.595"	"18.994"	"14.842"
"1993"	"11.866"	"16.849"	"18.379"	"26.206"	"31.945"	"33.236"	"30.194"	"31.291"	"28.566"	"24.446"	"19.496"	"13.993"
"1994"	"13.222"	"14.924"	"21.452"	"24.443"	"31.36"	"33.841"	"30.799"	"30.04"	"28.11"	"23.992"	"19.173"	"14.449"
"1995"	"11.429"	"14.599"	"18.88"	"24.411"	"31.964"	"34.384"	"31.046"	"29.185"	"28.668"	"25.245"	"18.949"	"13.996"
"1996"	"12.398"	"16.195"	"20.556"	"26.49"	"29.84"	"31.531"	"30.897"	"29.091"	"28.812"	"24.217"	"18.13"	"13.053"
"1997"	"12.588"	"15.098"	"19.776"	"25.412"	"28.803"	"31.211"	"31.395"	"29.337"	"29.636"	"23.365"	"18.246"	"12.363"
"1998"	"11.575"	"15.647"	"18.451"	"26.29"	"31.834"	"33.587"	"31.073"	"30.638"	"29.284"	"25.612"	"18.899"	"13.544"
"1999"	"11.948"	"16.941"	"21.099"	"29.139"	"31.937"	"31.785"	"31.688"	"30.536"	"30.419"	"25.918"	"20.024"	"14.567"
"2000"	"12.892"	"13.925"	"19.608"	"28.188"	"33.263"	"32.163"	"30.387"	"30.363"	"29.362"	"26.614"	"20.067"	"14.966"
"2001"	"12.587"	"16.295"	"21.052"	"26.167"	"32.39"	"31.259"	"30.938"	"31.241"	"29.315"	"26.446"	"19.951"	"14.894"
"2002"	"14.43"	"14.564"	"18.987"	"28.064"	"32.84"	"32.936"	"32.272"	"30.864"	"27.711"	"25.216"	"20.541"	"14.667"
