
"Year"	"Jan"	"Feb"	"Mar"	"Apr"	"May"	"Jun"	"Jul"	"Aug"	"Sep"	"Oct"	"Nov"	"Dec"
"1901"	"39.899"	"7.165"	"23.938"	"6.635"	"27.591"	"26.666"	"283.219"	"103.647"	"19.76"	"0.058"	"0"	"2.57"
"1902"	"0.249"	"3.338"	"20.891"	"16.053"	"20.081"	"55.109"	"145.765"	"118.627"	"78.487"	"5.225"	"3.555"	"0.098"
"1903"	"19.514"	"8.108"	"16.022"	"2.168"	"15.178"	"20.489"	"290.983"	"138.512"	"61.699"	"4.753"	"0"	"8.443"
"1904"	"34.098"	"2.016"	"82.978"	"9.433"	"15.98"	"46.813"	"96.05"	"96.429"	"39.324"	"3.994"	"9.166"	"3.609"
"1905"	"55.188"	"29.924"	"10.474"	"3.482"	"3.507"	"26.958"	"94.802"	"80.965"	"234.944"	"4.87"	"0"	"21.397"
"1906"	"5.628"	"77.171"	"22.545"	"7.798"	"29.292"	"40.481"	"71.453"	"166.593"	"231.668"	"0.369"	"0"	"6.843"
"1907"	"18.684"	"55.854"	"31.723"	"40.211"	"3.533"	"80.991"	"67.436"	"203.261"	"6.256"	"2.621"	"0.295"	"0.098"
"1908"	"38.352"	"7.734"	"0.973"	"23.903"	"20.519"	"59.789"	"150.116"	"438.045"	"161.853"	"0.882"	"0.129"	"8.514"
"1909"	"22.925"	"13.497"	"3.529"	"61.116"	"4.156"	"117.012"	"278.11"	"147.884"	"225.15"	"0.249"	"3.011"	"71.42"
"1910"	"37.412"	"6.643"	"5.496"	"34.563"	"8.396"	"113.887"	"142.29"	"167.811"	"30.644"	"1.149"	"0.368"	"8.117"
"1911"	"60.719"	"6.236"	"79.711"	"11.039"	"10.132"	"61.454"	"94.003"	"126.708"	"75.191"	"4.905"	"23.219"	"2.274"
"1912"	"52.081"	"8.477"	"10.986"	"33.381"	"14.229"	"27.714"	"74.489"	"177.765"	"21.202"	"0.153"	"10.097"	"12.203"
"1913"	"15.591"	"39.689"	"38.344"	"12.916"	"61.377"	"62.041"	"166.353"	"220.462"	"26.657"	"1.883"	"1.709"	"19.727"
"1914"	"27.371"	"39.162"	"18.238"	"25.683"	"22.526"	"38.614"	"251.086"	"120.946"	"177.289"	"29.39"	"12.788"	"20.532"
"1915"	"7.295"	"62.812"	"28.23"	"9.751"	"6.152"	"48.033"	"38.792"	"149.223"	"87.743"	"26.092"	"0"	"5.199"
"1916"	"2.907"	"11.688"	"4.806"	"7.975"	"11.648"	"46.554"	"370.035"	"154.222"	"62.43"	"9.036"	"0.471"	"0.098"
"1917"	"5.215"	"5.549"	"11.556"	"35.468"	"23.938"	"110.188"	"118.835"	"338.425"	"231.726"	"21.62"	"0"	"7.901"
"1918"	"2.297"	"2.673"	"44.849"	"41.681"	"1.344"	"59.003"	"57.394"	"98.228"	"28.883"	"0.22"	"8.049"	"14.168"
"1919"	"54.697"	"20.94"	"18.759"	"15.956"	"14.399"	"8.44"	"229.077"	"123.657"	"33.469"	"1.696"	"1.445"	"18.05"
"1920"	"30.969"	"22.359"	"20.587"	"13.434"	"15.855"	"24.368"	"49.352"	"120.284"	"55.345"	"0.554"	"0"	"0.246"
"1921"	"8.607"	"0.897"	"2.78"	"5.267"	"17.434"	"61.936"	"205.384"	"171.342"	"70.978"	"10.918"	"0"	"22.91"
"1922"	"18.424"	"19.971"	"12.679"	"7.936"	"12.377"	"55.876"	"75.393"	"109.199"	"291.037"	"2.472"	"1.039"	"47.679"
"1923"	"34.634"	"43.764"	"9.088"	"35.005"	"23.225"	"3.922"	"241.493"	"214.219"	"25.884"	"10.473"	"4.16"	"39.474"
"1924"	"47.661"	"56.989"	"11.981"	"4.619"	"28.867"	"4.808"	"253.728"	"59.478"	"138.159"	"4.546"	"0.515"	"70.666"
"1925"	"12.398"	"3.512"	"5.786"	"3.344"	"20.652"	"145.063"	"199.802"	"185.49"	"19.722"	"2.773"	"19.596"	"0.098"
"1926"	"16.755"	"3.93"	"51.381"	"18.475"	"14.154"	"17.22"	"114.378"	"258.389"	"66.291"	"0.517"	"2.651"	"16.827"
"1927"	"1.073"	"18.941"	"17.513"	"9.603"	"17.49"	"25.849"	"113.743"	"184.941"	"38.547"	"6.389"	"0"	"45.634"
"1928"	"14.746"	"21.502"	"10.682"	"21.569"	"6.079"	"33.046"	"123.985"	"126.729"	"200.139"	"0"	"14.894"	"21.226"
"1929"	"13.596"	"3.273"	"2.512"	"8.069"	"3.354"	"138.937"	"140.801"	"286.808"	"13.952"	"2.931"	"0"	"67.789"
"1930"	"30.161"	"7.534"	"3.082"	"32.246"	"8.227"	"22.83"	"238.867"	"81.952"	"29.554"	"1.997"	"2.945"	"5.393"
"1931"	"38.409"	"32.753"	"19.658"	"18.687"	"23.148"	"13.943"	"349.65"	"219.442"	"107.107"	"20.274"	"0.368"	"0.098"
"1932"	"24.862"	"1.998"	"17.543"	"10.459"	"7.114"	"45.326"	"128.412"	"86.226"	"36.082"	"0.42"	"0.129"	"44.305"
"1933"	"8.101"	"12.379"	"21.441"	"19.351"	"8.165"	"46.823"	"119.912"	"305.059"	"112.717"	"5.967"	"10.863"	"1.018"
"1934"	"17.423"	"7.396"	"22.071"	"1.978"	"4.06"	"35.72"	"164.447"	"193.276"	"7.889"	"0"	"0"	"15.179"
"1935"	"68.426"	"67.564"	"11.955"	"35.844"	"13.334"	"2.944"	"52.898"	"103.941"	"47.968"	"0.996"	"15.474"	"6.902"
"1936"	"7.247"	"44.824"	"40.161"	"20.664"	"6.934"	"208.849"	"248.328"	"127.848"	"63.069"	"15.901"	"0.866"	"29.977"
"1937"	"6.264"	"86.733"	"14.159"	"38.575"	"10.274"	"25.761"	"275.476"	"29.687"	"68.72"	"8.571"	"0.768"	"24.404"
"1938"	"44.672"	"25.69"	"3.274"	"9.792"	"0.6"	"160.815"	"82.42"	"101.294"	"11.487"	"9.223"	"0.416"	"2.703"
"1939"	"16.676"	"58.975"	"35.507"	"10.347"	"6.815"	"52.069"	"112.729"	"64.156"	"53.686"	"6.631"	"0"	"0.098"
"1940"	"46.098"	"31.754"	"22.891"	"11.45"	"9.158"	"101.982"	"64.784"	"140.747"	"69.216"	"0.82"	"0.986"	"4.422"
"1941"	"29.959"	"12.876"	"8.904"	"10.265"	"26.488"	"61.48"	"119.606"	"47.362"	"171.012"	"0.397"	"1.53"	"15.877"
"1942"	"30.648"	"42.449"	"21.875"	"34.216"	"25.502"	"48.132"	"187.271"	"190.388"	"69.53"	"3.215"	"1.53"	"32.653"
"1943"	"26.365"	"2.312"	"8.507"	"13.581"	"9.685"	"89.962"	"92.644"	"61.622"	"64.566"	"0"	"0"	"0.098"
"1944"	"32.885"	"42.225"	"26.377"	"35.758"	"3.174"	"66.623"	"127.497"	"182.234"	"81.99"	"0.644"	"3.625"	"17.25"
"1945"	"62.978"	"2.011"	"25.408"	"60.358"	"12.656"	"85.113"	"220.375"	"107.194"	"135.533"	"7.689"	"0.295"	"4.559"
"1946"	"2.289"	"10.754"	"13.293"	"10.541"	"22.099"	"74.852"	"132.592"	"153.267"	"18.149"	"16.91"	"4.903"	"13.498"
"1947"	"14.79"	"15.918"	"10.209"	"1.541"	"7.588"	"14.475"	"88.245"	"224.127"	"64.069"	"15.7"	"0.416"	"21.276"
"1948"	"7.342"	"42.889"	"56.077"	"20.444"	"9.764"	"80.12"	"314.088"	"186.484"	"70.378"	"2.146"	"5.162"	"25.738"
"1949"	"12.467"	"48.593"	"25.323"	"9.21"	"9.027"	"26.832"	"311.698"	"81.095"	"79.125"	"3.367"	"0.522"	"2.152"
"1950"	"91.748"	"29.723"	"59.043"	"8.983"	"12.599"	"24.599"	"317.123"	"184.506"	"313.537"	"0.744"	"0.292"	"0.841"
"1951"	"29.437"	"20.814"	"38.576"	"28.778"	"22.832"	"50.305"	"142.786"	"136.708"	"32.216"	"3.219"	"18.376"	"3.215"
"1952"	"19.223"	"15.341"	"39.076"	"6.989"	"13.107"	"44.271"	"116.509"	"60.695"	"5.011"	"1.713"	"3.519"	"11.919"
"1953"	"39.069"	"13.354"	"17.006"	"13.297"	"4.976"	"41.021"	"258.303"	"196.803"	"171.314"	"5.353"	"3.856"	"16.128"
"1954"	"24.571"	"60.721"	"4.3"	"2.675"	"16.893"	"41.381"	"200.28"	"56.883"	"342.317"	"16.18"	"0"	"2.271"
"1955"	"21.52"	"2.199"	"47.915"	"16.141"	"22.771"	"30.896"	"100.496"	"138.725"	"236.633"	"23.99"	"0"	"6.671"
"1956"	"26.734"	"13.038"	"34.554"	"20.03"	"7.545"	"135.41"	"170.484"	"190.213"	"8.687"	"35.433"	"0"	"4.574"
"1957"	"83.476"	"7.988"	"38.208"	"50.85"	"15.628"	"32.554"	"103.344"	"346.799"	"26.467"	"12.885"	"15.137"	"16.077"
"1958"	"9.415"	"5.629"	"10.985"	"9.668"	"7.584"	"42.415"	"136.871"	"131.132"	"238.229"	"11.744"	"0.664"	"43.868"
"1959"	"38.296"	"17.3"	"20.49"	"4.274"	"36.469"	"9.335"	"356.373"	"226.144"	"52.584"	"13.356"	"29.787"	"1.216"
"1960"	"22.983"	"3.401"	"34.203"	"18.285"	"10.711"	"46.413"	"147.538"	"113.368"	"64.788"	"4.714"	"0"	"12.338"
"1961"	"89.67"	"26.901"	"12.432"	"22.968"	"9.691"	"30.272"	"240.059"	"123.478"	"136.728"	"16.118"	"1.635"	"15.064"
"1962"	"33.131"	"33.076"	"22.8"	"4.504"	"11.725"	"2.062"	"169.833"	"125.777"	"218.342"	"0"	"11.541"	"17.206"
"1963"	"0.253"	"23.346"	"44.942"	"6.52"	"27.929"	"12.962"	"92.786"	"68.399"	"60.104"	"0.676"	"0.837"	"28.888"
"1964"	"29.867"	"10.259"	"11.108"	"21.854"	"17.704"	"72.813"	"291.08"	"189.918"	"80.785"	"0"	"3.283"	"10.505"
"1965"	"11.022"	"29.681"	"21.844"	"57.997"	"20.245"	"2.726"	"186.69"	"113.67"	"2.858"	"10.948"	"11.444"	"0.098"
"1966"	"1.198"	"65.006"	"34.394"	"19.082"	"30.72"	"100.507"	"138.394"	"117.884"	"240.066"	"18.333"	"7.7"	"0.618"
"1967"	"0.65"	"30.934"	"59.801"	"9.457"	"15.281"	"4.6"	"89.951"	"314.465"	"39.953"	"5.179"	"2.388"	"67.214"
"1968"	"26.142"	"35.682"	"14.65"	"5.816"	"8.504"	"13.161"	"136.971"	"210.963"	"0.921"	"14.126"	"0.147"	"15.366"
"1969"	"7.321"	"18.363"	"36.974"	"50.529"	"27.734"	"14.644"	"208.763"	"100.611"	"96.824"	"5.418"	"0"	"0.098"
"1970"	"22.479"	"25.83"	"18.259"	"2.321"	"10.784"	"47.502"	"47.957"	"179.593"	"46.465"	"2.698"	"0"	"0.131"
"1971"	"1.249"	"16.737"	"5.111"	"31.574"	"47.181"	"75.251"	"152.283"	"285.209"	"24.558"	"7.642"	"0"	"0.098"
"1972"	"13.596"	"18.259"	"23.717"	"5.332"	"14.428"	"12.803"	"110.335"	"127.049"	"155.54"	"19.989"	"13.321"	"16.025"
"1973"	"23.309"	"21.364"	"19.036"	"7.531"	"19.328"	"36.406"	"171.356"	"277.803"	"81.871"	"3.269"	"0"	"25.336"
"1974"	"21.524"	"23.594"	"10.603"	"1.729"	"19.268"	"43.268"	"204.696"	"76.016"	"29.534"	"0.42"	"0.122"	"13.034"
"1975"	"25.593"	"35.498"	"46.985"	"6.978"	"3.572"	"120.178"	"243.517"	"202.251"	"169.998"	"2.296"	"0"	"0.89"
"1976"	"20.272"	"33.807"	"22.875"	"12.701"	"17.021"	"113.441"	"177.508"	"562.399"	"150.486"	"16.754"	"0"	"0.563"
"1977"	"38.186"	"1.816"	"2.652"	"55.523"	"45.086"	"119.235"	"187.295"	"141.492"	"52.575"	"29.848"	"1.493"	"12.39"
"1978"	"9.347"	"10.242"	"82.351"	"14.523"	"2.903"	"96.27"	"345.776"	"362.198"	"161.944"	"0"	"11.485"	"1.186"
"1979"	"13.398"	"51.737"	"53.687"	"8.533"	"27.877"	"41.278"	"155.304"	"85.591"	"101.801"	"8.704"	"8.205"	"2.474"
"1980"	"16.905"	"18.772"	"24.729"	"9.461"	"8.397"	"110.012"	"456.925"	"277.838"	"90.053"	"7.897"	"10.098"	"14.626"
"1981"	"97.749"	"25.262"	"51.373"	"11.759"	"9.319"	"10.38"	"414.439"	"115.738"	"2.513"	"9.267"	"35.216"	"0.323"
"1982"	"27.443"	"28.961"	"121.704"	"22.206"	"44.961"	"13.161"	"43.084"	"190.665"	"2.033"	"5.399"	"30.671"	"32.646"
"1983"	"50.099"	"32.71"	"71.534"	"47.535"	"83.537"	"57.3"	"186.731"	"247.045"	"55.442"	"24.468"	"0"	"1.444"
"1984"	"0.449"	"56.195"	"14.799"	"26.545"	"6.797"	"19.82"	"449.109"	"236.807"	"141.013"	"0"	"0.246"	"29.991"
"1985"	"11.905"	"2.172"	"12.51"	"35.488"	"24.136"	"68.734"	"291.212"	"186.89"	"107.857"	"21.103"	"2.085"	"28.246"
"1986"	"3.928"	"48.106"	"26.057"	"17.01"	"30.333"	"93.68"	"242.077"	"223.037"	"102.456"	"6.957"	"5.101"	"24.995"
"1987"	"34.241"	"27.32"	"30.261"	"17.379"	"22.22"	"85.341"	"103.192"	"79.215"	"2.274"	"21.626"	"0"	"9.024"
"1988"	"13.736"	"15.792"	"80.987"	"11.402"	"0.62"	"63.798"	"285.806"	"145.203"	"182.471"	"29.359"	"0"	"37.877"
"1989"	"48.283"	"8.428"	"24.019"	"5.359"	"11.569"	"27.465"	"267.539"	"139.975"	"50.695"	"1.663"	"10.058"	"2.148"
"1990"	"11.708"	"78.138"	"85.917"	"21.453"	"24.959"	"15.97"	"219.6"	"220.171"	"227.374"	"3.652"	"10.888"	"53.463"
"1991"	"5.376"	"29.031"	"18.027"	"62.983"	"24.187"	"114.162"	"26.86"	"146.443"	"63.409"	"3.954"	"0.147"	"13.329"
"1992"	"72.163"	"41.949"	"25.012"	"15.891"	"43.106"	"23.953"	"116.537"	"202.557"	"138.571"	"4.502"	"17.302"	"4.2"
"1993"	"15.621"	"17.598"	"33.167"	"34.499"	"18.764"	"24.237"	"197.051"	"24.052"	"96.115"	"0"	"0"	"0.098"
"1994"	"30.69"	"19.073"	"12.26"	"10.551"	"67.277"	"37.704"	"153.887"	"105.85"	"144.071"	"2.642"	"0"	"16.807"
"1995"	"33.354"	"110.07"	"18.904"	"7.219"	"1.337"	"79.456"	"216.955"	"290.769"	"102.742"	"2.847"	"12.923"	"3.353"
"1996"	"41.963"	"43.069"	"38.864"	"13.578"	"21.228"	"216.697"	"115.966"	"354.606"	"35.031"	"5.8"	"0.001"	"4.028"
"1997"	"25.066"	"14.84"	"28.536"	"40.507"	"23.914"	"120.52"	"289.788"	"390.467"	"72.357"	"25.417"	"18.036"	"4.656"
"1998"	"25.111"	"45.568"	"29.033"	"34.568"	"18.974"	"18.798"	"194.332"	"101.975"	"83.651"	"20.139"	"1.189"	"4.081"
"1999"	"18.327"	"15.188"	"16.273"	"12.258"	"19.325"	"67.149"	"96.922"	"180.303"	"67.358"	"1.955"	"2.693"	"1.803"
"2000"	"22.548"	"23.542"	"10.412"	"3.033"	"13.743"	"55.622"	"234.585"	"101.535"	"46.976"	"0"	"4.655"	"1.434"
"2001"	"8.083"	"8.882"	"23.754"	"10.298"	"21.946"	"70.358"	"313.709"	"61.986"	"52.764"	"0.997"	"2.809"	"2.103"
"2002"	"10.012"	"24.531"	"25.858"	"7.652"	"21.131"	"66.259"	"87.086"	"132.583"	"148.327"	"0.698"	"0"	"7.304"
