
"Year"	"Jan"	"Feb"	"Mar"	"Apr"	"May"	"Jun"	"Jul"	"Aug"	"Sep"	"Oct"	"Nov"	"Dec"
"1901"	"18.047"	"19.715"	"25.896"	"30.75"	"34.039"	"33.253"	"27.797"	"25.059"	"26.271"	"26.141"	"21.213"	"18.976"
"1902"	"20.439"	"22.317"	"28.465"	"31.943"	"34.55"	"33.079"	"27.47"	"27.017"	"25.902"	"25.055"	"20.067"	"17.816"
"1903"	"19.577"	"20.224"	"25.193"	"30.284"	"32.354"	"33.671"	"28.129"	"26.032"	"25.765"	"23.923"	"19.57"	"17.742"
"1904"	"19.613"	"20.908"	"25.155"	"31.618"	"33.628"	"30.909"	"25.828"	"25.422"	"25.54"	"25.269"	"20.289"	"18.752"
"1905"	"18.266"	"17.807"	"24.345"	"28.793"	"35.195"	"33.484"	"27.123"	"26.556"	"25.919"	"24.993"	"21.958"	"18.177"
"1906"	"18.213"	"20.078"	"25.367"	"31.333"	"35.217"	"30.764"	"26.465"	"26.436"	"24.985"	"24.252"	"21.701"	"19.045"
"1907"	"19.826"	"20.282"	"24.932"	"28.811"	"32.354"	"31.928"	"28.645"	"24.879"	"26.694"	"26.673"	"22.406"	"17.487"
"1908"	"18.402"	"21.365"	"25.053"	"31.924"	"33.898"	"32.466"	"25.779"	"25.119"	"26.489"	"25.242"	"20.963"	"17.483"
"1909"	"19.86"	"21.26"	"27.234"	"29.151"	"33.663"	"29.986"	"25.846"	"25.894"	"25.378"	"24.683"	"21.453"	"18.548"
"1910"	"19.073"	"21.259"	"26.429"	"30.681"	"33.775"	"29.911"	"26.767"	"25.83"	"25.744"	"23.747"	"19.255"	"18.769"
"1911"	"20.567"	"20.774"	"24.298"	"30.721"	"34.956"	"29.504"	"27.606"	"25.643"	"25.345"	"25.3"	"21.233"	"18.982"
"1912"	"19.841"	"22.416"	"25.998"	"31.014"	"34.37"	"33.665"	"27.439"	"25.685"	"25.817"	"25.168"	"20.26"	"17.689"
"1913"	"18.854"	"21.595"	"24.691"	"32.206"	"32.683"	"29.313"	"26.58"	"25.593"	"26.714"	"26.447"	"21.445"	"18.706"
"1914"	"20.657"	"21.786"	"25.208"	"30.288"	"33.621"	"30.462"	"26.293"	"25.937"	"26.331"	"25.559"	"22.601"	"18.681"
"1915"	"19.321"	"19.997"	"25.449"	"30.22"	"34.453"	"33.683"	"28.036"	"25.725"	"26.767"	"25.681"	"22.104"	"18.604"
"1916"	"19.175"	"20.477"	"27.85"	"31.848"	"34.3"	"28.478"	"27.393"	"25.736"	"26.143"	"24.444"	"19.943"	"17.407"
"1917"	"19.334"	"20.259"	"25.044"	"28.957"	"31.129"	"29.657"	"25.914"	"25.858"	"25.561"	"24.299"	"19.446"	"18.784"
"1918"	"17.423"	"21.824"	"26.271"	"29.866"	"34.371"	"30.017"	"28.129"	"25.811"	"26.742"	"26.13"	"22.296"	"18.117"
"1919"	"19.582"	"20.857"	"26.695"	"30.314"	"33.209"	"30.702"	"25.794"	"25.122"	"25.959"	"24.276"	"21.706"	"18.244"
"1920"	"19.213"	"20.852"	"26.592"	"30.904"	"31.198"	"31.058"	"25.974"	"25.84"	"27.066"	"26.922"	"22.308"	"19.797"
"1921"	"20.259"	"21.5"	"28.357"	"32.657"	"34.989"	"30.611"	"28.261"	"25.429"	"25.158"	"24.765"	"20.381"	"20.024"
"1922"	"18.482"	"22.779"	"27.023"	"31.584"	"34.172"	"30.366"	"26.28"	"25.501"	"25.545"	"24.647"	"20.476"	"17.348"
"1923"	"19.072"	"20.663"	"26.645"	"31.147"	"33.106"	"34.005"	"26.971"	"24.941"	"26.037"	"24.029"	"21.059"	"19.468"
"1924"	"19.334"	"22.083"	"27.927"	"32.2"	"33.229"	"32.713"	"26.742"	"25.924"	"25.64"	"23.838"	"19.62"	"18.416"
"1925"	"17.206"	"20.125"	"26.591"	"32.304"	"32.055"	"29.296"	"25.199"	"26.031"	"26.341"	"25.79"	"20.817"	"17.724"
"1926"	"19.507"	"22.541"	"25.295"	"27.711"	"32.479"	"33.945"	"27.32"	"25.627"	"25.759"	"23.677"	"19.11"	"17.126"
"1927"	"18.183"	"19.757"	"24.436"	"30.221"	"33.512"	"31.565"	"26.235"	"25.66"	"26.447"	"24.354"	"18.591"	"18.655"
"1928"	"18.813"	"21.091"	"25.987"	"30.422"	"34.222"	"30.927"	"25.989"	"26.145"	"26.381"	"25.009"	"21.777"	"17.612"
"1929"	"18.425"	"19.856"	"27.325"	"30.444"	"34.324"	"30.692"	"26.141"	"25.276"	"26.337"	"24.568"	"21.723"	"17.987"
"1930"	"19.254"	"20.197"	"26.921"	"30.196"	"33.433"	"31.455"	"25.696"	"25.397"	"26.111"	"26.035"	"20.314"	"19.461"
"1931"	"20.925"	"21.236"	"26.077"	"32.544"	"34.435"	"33.154"	"27.451"	"25.922"	"25.598"	"23.556"	"20.509"	"18.337"
"1932"	"20.868"	"19.868"	"25.516"	"30.213"	"33.858"	"31.981"	"26.333"	"25.87"	"25.906"	"25.513"	"20.96"	"19.06"
"1933"	"18.906"	"22.16"	"26.6"	"29.97"	"30.936"	"30.037"	"27.141"	"25.744"	"25.278"	"24.232"	"20.978"	"18.487"
"1934"	"17.929"	"21.664"	"25.517"	"31.088"	"33.604"	"31.284"	"26.098"	"25.398"	"25.012"	"23.736"	"19.923"	"18.527"
"1935"	"17.479"	"20.949"	"25.678"	"28.295"	"34.035"	"31.702"	"25.944"	"25.232"	"25.401"	"24.673"	"21.44"	"18.985"
"1936"	"18.118"	"20.897"	"25.871"	"29.943"	"34.55"	"29.603"	"26.706"	"25.558"	"25.541"	"24.44"	"21.289"	"18.033"
"1937"	"17.892"	"21.47"	"24.792"	"29.301"	"33.484"	"31.47"	"26.083"	"25.713"	"25.785"	"24.04"	"21.896"	"18.015"
"1938"	"20.043"	"19.581"	"27.734"	"31.485"	"34.443"	"27.291"	"25.839"	"26.007"	"26.804"	"24.536"	"20.355"	"18.664"
"1939"	"20.302"	"22.057"	"24.504"	"30.371"	"33.865"	"30.568"	"26.046"	"26.08"	"25.377"	"25.415"	"20.752"	"17.963"
"1940"	"19.036"	"21.308"	"24.435"	"30.271"	"33.885"	"31.225"	"26.285"	"25.32"	"25.911"	"24.976"	"21.466"	"18.374"
"1941"	"18.66"	"21.215"	"27.542"	"32.137"	"34.507"	"32.055"	"26.756"	"25.748"	"26.644"	"26.454"	"21.928"	"20.224"
"1942"	"18.089"	"21.248"	"27.016"	"32.079"	"34.457"	"32.872"	"25.407"	"25.436"	"25.361"	"24.913"	"21.018"	"18.043"
"1943"	"19.765"	"20.124"	"26.689"	"30.145"	"34.537"	"30.379"	"26.055"	"24.816"	"25.826"	"23.93"	"23.301"	"17.889"
"1944"	"18.548"	"20.449"	"24.648"	"30.024"	"34.584"	"30.902"	"25.886"	"25.404"	"26.071"	"23.94"	"21.082"	"20.189"
"1945"	"17.442"	"20.252"	"26.384"	"29.609"	"33.693"	"32.026"	"26.263"	"26.087"	"25.478"	"24.143"	"19.903"	"17.194"
"1946"	"19.6"	"22.613"	"26.304"	"32.373"	"33.786"	"29.784"	"26.08"	"25.186"	"25.932"	"25.211"	"19.821"	"19.732"
"1947"	"17.736"	"21.032"	"26.449"	"30.815"	"34.552"	"31.972"	"26.29"	"26.432"	"25.471"	"23.534"	"21.52"	"19.315"
"1948"	"18.783"	"20.452"	"26.014"	"32.152"	"35.373"	"31.026"	"26.734"	"25.654"	"25.344"	"25.65"	"20.662"	"17.781"
"1949"	"20.231"	"21.051"	"27.095"	"32.084"	"34.437"	"30.924"	"26.697"	"26.35"	"25.715"	"24.731"	"20.164"	"18.456"
"1950"	"19.906"	"20.133"	"25.193"	"30.654"	"34.281"	"32.327"	"26.677"	"26.008"	"26.008"	"24.505"	"19.89"	"18.213"
"1951"	"17.957"	"20.991"	"26.493"	"29.763"	"34.091"	"31.96"	"28.216"	"25.558"	"26.561"	"26.969"	"22.622"	"18.096"
"1952"	"20.199"	"23.079"	"25.838"	"32.164"	"35.202"	"31.366"	"26.771"	"24.976"	"26.636"	"25.833"	"20.959"	"20.232"
"1953"	"18.237"	"23.823"	"29.304"	"31.903"	"34.402"	"32.895"	"26.779"	"25.755"	"26.397"	"24.839"	"21.04"	"19.75"
"1954"	"17.974"	"22.554"	"26.607"	"31.894"	"35.3"	"32.04"	"27.233"	"25.863"	"24.672"	"23.249"	"21.067"	"18.981"
"1955"	"19.466"	"22.539"	"28.283"	"29.524"	"33.891"	"31.028"	"26.696"	"25.635"	"25.542"	"23.315"	"19.666"	"18.519"
"1956"	"19.502"	"21.514"	"27.366"	"31.661"	"34.058"	"29.06"	"25.367"	"25.043"	"25.487"	"24.108"	"19.626"	"19.026"
"1957"	"18.956"	"20.023"	"24.355"	"30.249"	"32.854"	"31.891"	"26.533"	"26.056"	"25.469"	"25.272"	"23.062"	"20.404"
"1958"	"20.668"	"21.627"	"26.825"	"32.446"	"34.615"	"33.177"	"26.24"	"26.392"	"25.311"	"24.028"	"21.828"	"19.453"
"1959"	"19.508"	"21.235"	"27.661"	"31.445"	"34.001"	"31.624"	"26.101"	"25.266"	"25.378"	"25.076"	"21.55"	"19.588"
"1960"	"17.945"	"23.227"	"25.724"	"31.166"	"34.473"	"32.063"	"27.043"	"24.642"	"26.32"	"24.31"	"20.764"	"20.371"
"1961"	"19.098"	"19.323"	"27.503"	"31.034"	"33.813"	"30.52"	"25.746"	"25.546"	"24.503"	"23.224"	"20.613"	"17.695"
"1962"	"17.324"	"20.736"	"25.228"	"30.147"	"33.479"	"31.496"	"26.866"	"25.356"	"24.927"	"23.124"	"21.405"	"19.273"
"1963"	"17.969"	"22.109"	"24.852"	"28.195"	"32.12"	"29.368"	"25.701"	"24.655"	"25.214"	"24.885"	"22.952"	"19.108"
"1964"	"18.425"	"21.715"	"28.141"	"32.573"	"33.377"	"30.924"	"26.959"	"25.557"	"25.823"	"25.679"	"20.93"	"19.29"
"1965"	"19.913"	"21.561"	"25.621"	"30.062"	"33.857"	"31.916"	"27.151"	"26.507"	"25.617"	"25.744"	"21.863"	"18.97"
"1966"	"19.04"	"23.007"	"25.69"	"30.327"	"32.638"	"30.837"	"28.447"	"25.683"	"27.054"	"26.828"	"23.418"	"18.782"
"1967"	"19.06"	"23.357"	"24.869"	"29.902"	"34.468"	"30.935"	"26.874"	"25.383"	"25.218"	"26.532"	"22.611"	"19.69"
"1968"	"18.309"	"20.716"	"27.017"	"29.55"	"32.281"	"30.422"	"26.523"	"25.043"	"26.851"	"24.868"	"22.264"	"19.494"
"1969"	"19.115"	"22.694"	"28.073"	"30.503"	"33.375"	"30.424"	"26.409"	"24.719"	"25.198"	"27.309"	"23.404"	"19.494"
"1970"	"19.597"	"21.976"	"27.02"	"33.287"	"35.132"	"29.782"	"27.367"	"25.41"	"25.305"	"24.793"	"20.375"	"18.451"
"1971"	"18.934"	"22.081"	"25.927"	"31.59"	"31.723"	"28.459"	"25.759"	"25.68"	"25.906"	"24.639"	"20.915"	"17.772"
"1972"	"19.096"	"20.474"	"27.676"	"30.333"	"34.077"	"31.907"	"27.636"	"25.31"	"25.668"	"25.393"	"21.743"	"19.996"
"1973"	"19.511"	"22.373"	"27.262"	"33.036"	"35.18"	"31.569"	"25.708"	"25.89"	"25.436"	"24.71"	"20.485"	"18.581"
"1974"	"18.325"	"21.155"	"27.139"	"31.588"	"32.715"	"31.409"	"27.221"	"25.322"	"27.219"	"25.106"	"20.273"	"18.507"
"1975"	"17.151"	"21.43"	"25.659"	"31.817"	"34.263"	"30.759"	"25.783"	"25.804"	"25.496"	"24.998"	"19.528"	"18.097"
"1976"	"19.005"	"22.095"	"26.715"	"30.751"	"33.711"	"29.624"	"26.933"	"25.377"	"25.773"	"25.936"	"24.175"	"20.25"
"1977"	"19.363"	"22.612"	"28.697"	"30.944"	"32.174"	"31.53"	"26.944"	"25.617"	"25.748"	"25.544"	"22.789"	"19.339"
"1978"	"18.63"	"20.882"	"25.231"	"30.858"	"35.413"	"30.435"	"25.906"	"24.672"	"26.335"	"25.921"	"23.357"	"18.039"
"1979"	"20.11"	"20.118"	"25.21"	"31.192"	"32.057"	"31.869"	"26.542"	"24.896"	"27.547"	"27"	"23.99"	"19.819"
"1980"	"20.368"	"22.723"	"27.054"	"32.443"	"33.722"	"29.181"	"26.515"	"25.101"	"26.938"	"26.362"	"23.216"	"18.85"
"1981"	"18.073"	"22.826"	"25.878"	"30.997"	"33.561"	"32.431"	"25.274"	"25.475"	"26.362"	"25.654"	"20.862"	"18.596"
"1982"	"20.225"	"20.925"	"25.079"	"30.203"	"32.248"	"32.043"	"27.599"	"25.489"	"26.614"	"26.239"	"22.12"	"20.778"
"1983"	"19.081"	"20.915"	"26.186"	"29.769"	"33.539"	"32.656"	"27.294"	"26.424"	"26.039"	"24.316"	"20.256"	"18.569"
"1984"	"19.122"	"19.656"	"27.09"	"31.423"	"35.156"	"30.886"	"27.375"	"24.652"	"25.699"	"25.637"	"21.52"	"20.157"
"1985"	"20.382"	"21.906"	"28.645"	"31.379"	"34.521"	"31.036"	"27.257"	"25.258"	"26.631"	"23.969"	"21.653"	"20.493"
"1986"	"19.653"	"21.56"	"26.415"	"31.216"	"33.811"	"31.07"	"25.88"	"25.344"	"27.368"	"25.319"	"22.597"	"19.091"
"1987"	"19.35"	"22.405"	"26.616"	"31.767"	"32.543"	"32.585"	"27.594"	"26.89"	"27.551"	"26.151"	"22.82"	"19.109"
"1988"	"20.849"	"23.49"	"27.182"	"31.791"	"35.546"	"31.505"	"26.471"	"26.611"	"27.382"	"24.909"	"21.586"	"19.303"
"1989"	"18.773"	"21.827"	"25.704"	"30.624"	"34.763"	"30.063"	"27.03"	"25.377"	"26.826"	"25.945"	"22.961"	"18.842"
"1990"	"21.266"	"21.836"	"25.082"	"31.442"	"31.731"	"28.788"	"25.629"	"26.233"	"25.727"	"25.466"	"22.606"	"19.572"
"1991"	"18.552"	"23.093"	"27.424"	"30.566"	"35.046"	"31.154"	"27.116"	"25.275"	"26.964"	"26.291"	"21.845"	"19.208"
"1992"	"19.902"	"21.082"	"27.702"	"31.246"	"33.632"	"32.217"	"28.2"	"25.618"	"26.019"	"25.283"	"21.712"	"19.566"
"1993"	"20.354"	"21.709"	"24.965"	"31.058"	"35.243"	"32.248"	"27.053"	"25.822"	"25.504"	"25.773"	"21.863"	"18.564"
"1994"	"20.319"	"20.929"	"27.561"	"29.539"	"34.869"	"29.843"	"25.488"	"25.064"	"25.853"	"25.481"	"21.797"	"18.774"
"1995"	"17.199"	"21.278"	"24.928"	"30.172"	"33.477"	"33.8"	"27.425"	"26.302"	"26.8"	"26.405"	"22.065"	"20.589"
"1996"	"20.282"	"22.663"	"27.868"	"31.289"	"34.7"	"32.844"	"27.584"	"25.593"	"26.661"	"24.859"	"21.977"	"18.782"
"1997"	"18.36"	"20.835"	"27.096"	"29.041"	"32.176"	"29.965"	"26.482"	"26.032"	"26.191"	"24.785"	"22.843"	"17.919"
"1998"	"18.834"	"21.664"	"25.181"	"31.408"	"35.255"	"32.634"	"27.306"	"26.907"	"27.093"	"26.499"	"22.204"	"19.614"
"1999"	"19.172"	"22.155"	"27.167"	"32.649"	"33.731"	"30.025"	"26.967"	"25.425"	"25.342"	"25.102"	"22.661"	"18.884"
"2000"	"20.385"	"20.702"	"25.95"	"33.014"	"32.419"	"29.85"	"26.064"	"26.82"	"26.75"	"27.532"	"23.986"	"20.406"
"2001"	"19.64"	"23.412"	"27.225"	"30.324"	"33.851"	"28.88"	"25.793"	"26.282"	"27.689"	"26.406"	"23.195"	"21.457"
"2002"	"19.201"	"22.881"	"27.525"	"32.398"	"35.031"	"30.985"	"28.442"	"25.17"	"26.068"	"26.566"	"22.656"	"21.606"
