
"Year"	"Jan"	"Feb"	"Mar"	"Apr"	"May"	"Jun"	"Jul"	"Aug"	"Sep"	"Oct"	"Nov"	"Dec"
"1901"	"17.298"	"19.924"	"24.628"	"30.047"	"32.906"	"33.246"	"27.921"	"26.645"	"26.585"	"25.758"	"20.639"	"17.235"
"1902"	"18.612"	"20.615"	"27.236"	"30.433"	"34.067"	"33.355"	"27.748"	"27.67"	"26.954"	"25.321"	"20.392"	"17.269"
"1903"	"18.552"	"19.522"	"25.543"	"30.874"	"33.108"	"32.131"	"27.844"	"27.488"	"27.205"	"24.937"	"19.649"	"16.532"
"1904"	"18.038"	"19.939"	"25.561"	"31.358"	"32.782"	"30.06"	"26.691"	"26.522"	"26.639"	"25.134"	"20.126"	"18.146"
"1905"	"17.401"	"17.835"	"24.451"	"28.085"	"32.879"	"34.644"	"27.328"	"27.359"	"26.519"	"24.739"	"20.811"	"17.449"
"1906"	"17.764"	"20.603"	"24.265"	"30.864"	"34.575"	"31.615"	"27.551"	"27.165"	"27.019"	"25.218"	"21.015"	"18.168"
"1907"	"18.103"	"20.025"	"24.173"	"27.867"	"31.984"	"30.805"	"28.44"	"26.302"	"27.118"	"25.638"	"21.182"	"16.636"
"1908"	"16.213"	"20.725"	"24.759"	"31.753"	"34.014"	"32.463"	"27.423"	"26.576"	"27.308"	"24.857"	"19.913"	"16.368"
"1909"	"19.38"	"20.439"	"25.228"	"27.968"	"33.192"	"29.129"	"26.532"	"27.062"	"26.724"	"24.196"	"20.518"	"18.339"
"1910"	"17.373"	"20.038"	"25.51"	"30.659"	"33.37"	"30.261"	"27.502"	"26.779"	"27.01"	"25.161"	"19.732"	"16.548"
"1911"	"19.724"	"19.628"	"24.518"	"30.08"	"34.081"	"29.245"	"28.67"	"26.065"	"26.595"	"25.122"	"21.258"	"16.774"
"1912"	"17.869"	"21.313"	"25.717"	"29.926"	"33.528"	"33.065"	"27.526"	"26.666"	"26.639"	"25.176"	"20.278"	"16.512"
"1913"	"17.346"	"20.698"	"24.03"	"30.781"	"32.077"	"28.462"	"27.149"	"26.567"	"26.741"	"24.672"	"19.822"	"17.36"
"1914"	"17.783"	"21.423"	"24.891"	"28.636"	"31.669"	"30.61"	"27.194"	"27.089"	"26.66"	"24.384"	"21.554"	"17.767"
"1915"	"18.092"	"20.548"	"24.873"	"30.217"	"34.281"	"32.51"	"28.339"	"27.49"	"26.795"	"26.207"	"22.411"	"17.297"
"1916"	"16.773"	"20.924"	"26.059"	"31.354"	"33.65"	"28.686"	"27.527"	"26.666"	"26.968"	"25.765"	"21.211"	"16.161"
"1917"	"17.524"	"20.132"	"24.4"	"28.696"	"30.284"	"29.119"	"26.901"	"26.603"	"26.543"	"25.355"	"19.846"	"17.137"
"1918"	"16.593"	"20.155"	"25.229"	"29.293"	"32.472"	"27.911"	"28.504"	"26.091"	"26.795"	"24.307"	"20.753"	"17.422"
"1919"	"20.306"	"20.266"	"25.454"	"29.439"	"31.976"	"29.584"	"26.764"	"26.467"	"26.694"	"24.636"	"21.1"	"17.078"
"1920"	"17.55"	"20.525"	"25.824"	"29.946"	"31.423"	"32.396"	"26.704"	"26.671"	"27.058"	"25.588"	"20.969"	"16.989"
"1921"	"18.493"	"19.801"	"26.936"	"31.2"	"35.885"	"30.918"	"27.813"	"26.079"	"26.383"	"24.241"	"18.705"	"17.957"
"1922"	"17.686"	"20.656"	"25.838"	"30.14"	"33.994"	"29.204"	"26.14"	"26.131"	"25.87"	"23.488"	"20.026"	"16.269"
"1923"	"17.395"	"20.002"	"24.079"	"30.365"	"33.973"	"33.861"	"26.954"	"26.166"	"26.923"	"24.136"	"20.133"	"18.056"
"1924"	"17.878"	"20.896"	"26.51"	"31.089"	"32.455"	"33.434"	"26.847"	"26.981"	"26.495"	"24.87"	"20.499"	"17.175"
"1925"	"16.793"	"19.525"	"24.812"	"30.473"	"31.751"	"29.899"	"25.927"	"26.666"	"27.061"	"25.099"	"21.085"	"17.162"
"1926"	"18.086"	"21.224"	"24.912"	"27.864"	"31.449"	"33.922"	"27.842"	"26.666"	"26.496"	"24.321"	"19.003"	"17.138"
"1927"	"18.538"	"20.929"	"24.298"	"30.042"	"32.653"	"32.081"	"27.336"	"26.316"	"27.404"	"24.956"	"20.344"	"18.079"
"1928"	"18.229"	"20.55"	"25.709"	"29.293"	"33.333"	"30.075"	"26.764"	"27.188"	"27.283"	"25.984"	"20.862"	"18.145"
"1929"	"18.115"	"19.335"	"25.611"	"29.9"	"34.042"	"31.192"	"26.649"	"25.98"	"27.402"	"24.212"	"20.096"	"17.535"
"1930"	"17.456"	"19.532"	"25.566"	"29.462"	"32.42"	"31.694"	"26.63"	"26.533"	"26.993"	"25.733"	"20.355"	"17.268"
"1931"	"18.928"	"20.641"	"24.899"	"30.752"	"33.797"	"32.619"	"27.227"	"26.964"	"27.358"	"25.415"	"20.549"	"17.68"
"1932"	"18.584"	"19.754"	"25.382"	"29.884"	"32.809"	"32.733"	"27.234"	"26.88"	"27.104"	"25.623"	"21.111"	"17.392"
"1933"	"17.322"	"21.23"	"25.649"	"28.489"	"30.92"	"29.364"	"27.129"	"26.574"	"26.802"	"24.95"	"20.312"	"17.557"
"1934"	"17.333"	"20.113"	"25.265"	"30.406"	"33.779"	"31.313"	"27.053"	"26.666"	"26.839"	"24.248"	"20.146"	"17.782"
"1935"	"17.226"	"20.904"	"25.34"	"28.134"	"33.923"	"32.574"	"27.223"	"26.446"	"26.62"	"24.856"	"20.392"	"18.444"
"1936"	"18.143"	"20.025"	"25.885"	"29.524"	"33.101"	"28.749"	"26.925"	"26.487"	"26.694"	"24.283"	"21.525"	"18.145"
"1937"	"16.229"	"21.288"	"24.45"	"29.007"	"32.75"	"31.82"	"27.158"	"26.623"	"26.794"	"24.536"	"20.746"	"16.638"
"1938"	"19.303"	"19.556"	"26.924"	"30.427"	"32.832"	"28.714"	"27.188"	"26.663"	"26.928"	"25.108"	"20.032"	"16.681"
"1939"	"18.523"	"21.39"	"24.619"	"29.653"	"34.362"	"31.291"	"26.649"	"26.344"	"26.439"	"25.423"	"20.023"	"17.133"
"1940"	"16.369"	"20.41"	"24.163"	"29.042"	"32.684"	"31.405"	"26.538"	"26.566"	"26.818"	"25.399"	"21.861"	"18.145"
"1941"	"18.748"	"20.76"	"26.601"	"31.782"	"33.796"	"29.896"	"27.391"	"27.078"	"27.216"	"24.572"	"19.945"	"18.152"
"1942"	"17.737"	"20.404"	"25.43"	"29.736"	"33.993"	"32.768"	"26.553"	"26.522"	"26.517"	"24.395"	"21.052"	"18.095"
"1943"	"19.87"	"19.012"	"25.252"	"28.638"	"33.031"	"30.762"	"26.926"	"26.019"	"27.011"	"25.608"	"20.847"	"17.249"
"1944"	"18.134"	"20.408"	"23.769"	"27.822"	"33.602"	"31.584"	"26.677"	"26.32"	"27.127"	"24.335"	"20.521"	"18.874"
"1945"	"17.132"	"19.405"	"25.41"	"28.353"	"32.983"	"31.821"	"27.098"	"27.619"	"26.579"	"23.895"	"19.738"	"15.822"
"1946"	"16.865"	"20.801"	"25.155"	"28.875"	"32.792"	"29.974"	"26.508"	"26.566"	"26.772"	"25.272"	"22"	"19.972"
"1947"	"18.403"	"20.139"	"25.915"	"31.05"	"33.87"	"32.258"	"27.015"	"27.065"	"27.015"	"24.647"	"20.813"	"18.144"
"1948"	"19.198"	"21.178"	"24.565"	"30.781"	"34.273"	"32.226"	"27.282"	"26.666"	"26.549"	"25.181"	"22.289"	"17.034"
"1949"	"18.079"	"20.257"	"25.575"	"30.323"	"32.85"	"31.631"	"27.153"	"26.554"	"26.692"	"25.624"	"19.667"	"16.401"
"1950"	"18.092"	"20.255"	"24.336"	"29.487"	"33.847"	"30.203"	"26.617"	"26.641"	"26.795"	"24.358"	"19.905"	"17.451"
"1951"	"16.993"	"20.439"	"25.338"	"28.769"	"32.786"	"31.502"	"27.404"	"26.977"	"27.593"	"26.905"	"21.676"	"17.787"
"1952"	"18.796"	"22.211"	"24.901"	"30.744"	"34.232"	"32"	"27.846"	"26.666"	"26.782"	"25.386"	"20.647"	"18.709"
"1953"	"18.103"	"22.071"	"27.941"	"30.678"	"34.778"	"32.675"	"27.012"	"26.567"	"26.955"	"25.189"	"20.157"	"18.415"
"1954"	"17.139"	"22.381"	"25.361"	"31.263"	"34.218"	"31.358"	"27.851"	"27.168"	"26.681"	"23.738"	"19.204"	"18.023"
"1955"	"18.248"	"21.204"	"26.961"	"29.319"	"33.548"	"32.352"	"26.727"	"26.689"	"26.78"	"25.175"	"20.135"	"17.726"
"1956"	"18.761"	"20.344"	"26.948"	"31.5"	"33.904"	"28.713"	"26.654"	"26.158"	"26.272"	"24.036"	"20.199"	"19.151"
"1957"	"19.544"	"20.237"	"24.426"	"29.929"	"33.722"	"32.365"	"26.742"	"26.985"	"26.791"	"25.699"	"21.104"	"19.081"
"1958"	"19.317"	"21.761"	"26.858"	"31.539"	"33.789"	"33.971"	"27.527"	"27.121"	"26.792"	"25.563"	"22.138"	"18.977"
"1959"	"19.048"	"20.726"	"25.97"	"30.78"	"33.996"	"31.654"	"27.172"	"26.409"	"26.421"	"25.388"	"20.669"	"17.612"
"1960"	"17.989"	"21.645"	"24.982"	"30.219"	"33.235"	"32.103"	"26.927"	"26.666"	"27.035"	"25.053"	"20.139"	"18.882"
"1961"	"18.722"	"19.565"	"26.442"	"30.421"	"33.763"	"29.88"	"26.615"	"26.735"	"26.383"	"24.786"	"19.67"	"15.428"
"1962"	"15.839"	"20.061"	"24.477"	"29.616"	"32.567"	"30.918"	"27.607"	"26.666"	"26.53"	"23.902"	"20.748"	"18.371"
"1963"	"16.394"	"21.594"	"25.263"	"29.484"	"32.317"	"30.562"	"26.928"	"26.956"	"26.433"	"25.389"	"21.523"	"18.39"
"1964"	"18.406"	"20.352"	"26.466"	"31.044"	"32.687"	"30.689"	"25.523"	"26.412"	"26.795"	"25.135"	"20.559"	"18.196"
"1965"	"18.428"	"20.87"	"24.552"	"28.458"	"31.94"	"32.659"	"27.536"	"27.117"	"26.384"	"25.398"	"21.7"	"18.098"
"1966"	"18.075"	"22.251"	"25.815"	"31.264"	"34.248"	"31.534"	"28.615"	"27.029"	"27.266"	"25.733"	"23.413"	"17.867"
"1967"	"18.618"	"22.179"	"24.705"	"29.374"	"33.505"	"33.098"	"28.113"	"26.302"	"26.533"	"24.278"	"20.682"	"19.688"
"1968"	"17.886"	"20.373"	"24.82"	"28.999"	"32.788"	"30.787"	"27.09"	"26.342"	"27.305"	"24.542"	"20.879"	"17.636"
"1969"	"17.916"	"22.739"	"27.285"	"31.157"	"32.412"	"31.697"	"27.163"	"26.567"	"26.254"	"26.259"	"22.86"	"18.343"
"1970"	"19.078"	"21.13"	"25.34"	"30.951"	"33.38"	"29.286"	"26.668"	"26.567"	"26.328"	"24.825"	"19.8"	"16.596"
"1971"	"17.9"	"20.486"	"24.449"	"28.8"	"29.973"	"28.108"	"25.913"	"25.545"	"26.58"	"25.193"	"20.86"	"17.103"
"1972"	"18.081"	"19.603"	"26.188"	"29.896"	"34.188"	"33.709"	"27.806"	"26.716"	"26.538"	"24.904"	"21.858"	"19.092"
"1973"	"18.875"	"22.19"	"25.183"	"31.151"	"34.113"	"31.063"	"27.75"	"26.839"	"26.647"	"24.86"	"20.563"	"17.931"
"1974"	"17.633"	"20.471"	"25.929"	"31.034"	"33.116"	"31.781"	"27.416"	"27.256"	"27.371"	"25.752"	"20.65"	"17.365"
"1975"	"16.937"	"21.271"	"25.214"	"30.871"	"34.372"	"31.411"	"26.724"	"26.379"	"26.293"	"25.808"	"19.987"	"17.052"
"1976"	"17.202"	"21.384"	"25.742"	"29.068"	"32.942"	"31.513"	"27.038"	"26.708"	"26.377"	"26.203"	"24.257"	"19.047"
"1977"	"18.013"	"21.574"	"27.067"	"29.532"	"30.542"	"30.905"	"26.928"	"26.732"	"26.795"	"25.658"	"22.732"	"17.55"
"1978"	"16.949"	"20.446"	"23.397"	"28.918"	"34.216"	"30.612"	"26.783"	"26.386"	"26.794"	"25.292"	"22.37"	"17.513"
"1979"	"19.014"	"18.206"	"24.774"	"29.514"	"32.31"	"31.311"	"28.085"	"26.955"	"26.524"	"26.275"	"24.499"	"18.856"
"1980"	"19.024"	"22.057"	"24.787"	"31.53"	"33.762"	"28.978"	"26.093"	"25.911"	"26.508"	"25.388"	"22.185"	"18.488"
"1981"	"17.536"	"21.603"	"24.91"	"29.348"	"32.172"	"31.665"	"27.028"	"27.177"	"27.035"	"25.309"	"21.29"	"17.747"
"1982"	"19.982"	"20.905"	"24.463"	"30.135"	"32.209"	"30.882"	"29.371"	"26.758"	"27.595"	"25.737"	"21.947"	"19.515"
"1983"	"18.006"	"20.548"	"25.942"	"29.526"	"32.216"	"32.303"	"28.043"	"27.476"	"27.35"	"24.569"	"20.339"	"18.074"
"1984"	"18.469"	"19.57"	"25.935"	"30.825"	"34.16"	"29.516"	"26.919"	"26.342"	"26.497"	"25.604"	"20.492"	"18.778"
"1985"	"19.324"	"20.843"	"27.135"	"31.017"	"33.255"	"31.719"	"26.102"	"26.171"	"27.106"	"24.102"	"21.006"	"19.14"
"1986"	"17.605"	"20.333"	"24.772"	"30.141"	"31.749"	"30.629"	"26.205"	"26.32"	"26.632"	"24.363"	"21.805"	"18.054"
"1987"	"17.208"	"20.712"	"24.895"	"30.103"	"31.638"	"32.452"	"26.937"	"26.611"	"26.75"	"24.719"	"20.794"	"17.507"
"1988"	"17.931"	"21.182"	"24.934"	"29.765"	"33.496"	"29.388"	"26.659"	"27.466"	"27.905"	"25.145"	"21.391"	"19.357"
"1989"	"17.553"	"21.592"	"25.63"	"30.96"	"33.958"	"29.837"	"27.393"	"26.873"	"27.138"	"25.514"	"22.01"	"18.182"
"1990"	"19.913"	"21.535"	"24.594"	"30.028"	"30.931"	"30.163"	"26.274"	"26.959"	"26.83"	"24.434"	"21.841"	"18.653"
"1991"	"18.103"	"22.536"	"25.665"	"29.574"	"33.543"	"29.852"	"27.753"	"26.18"	"26.846"	"25.089"	"20.388"	"17.801"
"1992"	"17.351"	"19.574"	"26.224"	"30.38"	"32.37"	"30.797"	"28.558"	"26.867"	"27.016"	"25.737"	"22.672"	"18.294"
"1993"	"19.2"	"21.878"	"25.337"	"30.127"	"33.98"	"32.526"	"28.09"	"27.085"	"26.794"	"25.987"	"20.561"	"17.789"
"1994"	"19.458"	"20.923"	"26.639"	"29.524"	"33.417"	"30.848"	"26.355"	"26.115"	"26.605"	"25.844"	"21.855"	"18.367"
"1995"	"17.036"	"20.923"	"24.949"	"30.08"	"31.761"	"33.305"	"27.33"	"26.754"	"26.799"	"25.523"	"21.942"	"18.833"
"1996"	"19.237"	"19.976"	"26.704"	"28.971"	"34.133"	"30.462"	"27.346"	"26.457"	"27.495"	"25.122"	"21.797"	"17.658"
"1997"	"17.339"	"19.561"	"25.639"	"27.784"	"32.339"	"32.905"	"27.13"	"26.566"	"26.61"	"25.886"	"22.924"	"19.965"
"1998"	"18.535"	"21.297"	"23.486"	"28.997"	"32.29"	"33.399"	"27.009"	"27.321"	"27.306"	"27.206"	"22.434"	"18.687"
"1999"	"16.871"	"21.76"	"26.061"	"31.847"	"32.593"	"30.671"	"27.04"	"26.666"	"26.417"	"26.385"	"22.339"	"18.966"
"2000"	"18.695"	"20.512"	"24.778"	"31.421"	"32.877"	"29.659"	"27.814"	"27.165"	"26.486"	"26.851"	"23.141"	"18.337"
"2001"	"17.726"	"20.858"	"25.847"	"29.802"	"33.567"	"28.762"	"26.24"	"27.009"	"27.598"	"26.895"	"23.683"	"19.729"
"2002"	"18.07"	"21.77"	"26.391"	"30.555"	"34.347"	"31.554"	"28.489"	"26.556"	"26.795"	"25.579"	"22.085"	"19.733"
