
"Year"	"Jan"	"Feb"	"Mar"	"Apr"	"May"	"Jun"	"Jul"	"Aug"	"Sep"	"Oct"	"Nov"	"Dec"
"1901"	"18.604"	"19.88"	"26.51"	"30.259"	"32.858"	"32.506"	"28.965"	"26.556"	"27.445"	"28.04"	"23.664"	"21.435"
"1902"	"21.094"	"22.723"	"28.011"	"31.262"	"32.786"	"31.803"	"28.997"	"28.079"	"27.032"	"26.856"	"22.408"	"19.725"
"1903"	"19.828"	"20.272"	"24.411"	"29.029"	"31.954"	"32.11"	"28.868"	"27.278"	"26.854"	"26.379"	"20.968"	"19.308"
"1904"	"20.231"	"21.19"	"24.881"	"30.902"	"32.644"	"30.304"	"27.326"	"27.006"	"27.274"	"27.246"	"22.724"	"20.78"
"1905"	"18.877"	"18.353"	"24.106"	"28.293"	"33.831"	"31.679"	"27.561"	"27.522"	"27.335"	"27.086"	"23.964"	"20.19"
"1906"	"18.296"	"19.882"	"25.185"	"30.083"	"33.212"	"30.105"	"27.561"	"27.124"	"26.319"	"26.271"	"23.557"	"20.571"
"1907"	"20.429"	"21.228"	"25.204"	"28.938"	"31.233"	"31.294"	"29.623"	"25.881"	"26.867"	"27.636"	"24.061"	"19.21"
"1908"	"19.24"	"20.83"	"24.457"	"30.851"	"32.09"	"31.033"	"26.804"	"26.344"	"27.027"	"26.86"	"22.972"	"19.404"
"1909"	"19.87"	"21.549"	"26.866"	"29.243"	"32.399"	"30.27"	"27.168"	"26.499"	"26.449"	"26.059"	"22.949"	"20.119"
"1910"	"19.83"	"21.54"	"25.983"	"29.648"	"32.029"	"29.596"	"27.071"	"27.029"	"26.855"	"25.356"	"21.194"	"20.285"
"1911"	"21.195"	"21.241"	"24.321"	"29.446"	"33.013"	"29.616"	"28.596"	"27.109"	"26.559"	"27.453"	"23.259"	"21.98"
"1912"	"20.808"	"23.027"	"25.667"	"30.644"	"32.992"	"32.479"	"28.207"	"26.634"	"26.798"	"26.848"	"22.109"	"19.866"
"1913"	"19.467"	"21.811"	"24.29"	"30.971"	"31.778"	"29.861"	"27.499"	"26.283"	"27.232"	"27.701"	"23.6"	"20.744"
"1914"	"21.474"	"21.635"	"25.191"	"30.018"	"33.273"	"30.204"	"27.504"	"27.184"	"27.499"	"27.164"	"24.56"	"20.194"
"1915"	"20.225"	"20.612"	"26.214"	"29.848"	"33.196"	"33.028"	"29.537"	"27.336"	"28.343"	"27.778"	"23.951"	"20.762"
"1916"	"20.413"	"20.755"	"27.65"	"31.209"	"33.081"	"29.121"	"28.626"	"26.917"	"27.709"	"26.464"	"21.778"	"19.855"
"1917"	"20.846"	"21.519"	"25.892"	"28.903"	"30.495"	"29.572"	"27.026"	"27.003"	"26.751"	"25.8"	"21.437"	"20.188"
"1918"	"18.55"	"22.224"	"25.91"	"28.862"	"32.913"	"30.094"	"28.952"	"27.137"	"27.171"	"27.424"	"24.688"	"19.99"
"1919"	"20.628"	"21.512"	"26.71"	"30.026"	"32.544"	"30.219"	"27.358"	"26.615"	"27.232"	"26.394"	"24.073"	"20.192"
"1920"	"20.49"	"21.209"	"26.679"	"29.925"	"30.251"	"30.663"	"27.052"	"26.632"	"27.962"	"27.761"	"24.048"	"20.895"
"1921"	"20.562"	"21.527"	"27.907"	"31.673"	"33.013"	"30.996"	"29.308"	"27.032"	"26.248"	"26.464"	"22.45"	"21.69"
"1922"	"19.251"	"23.167"	"26.832"	"30.904"	"32.78"	"30.729"	"27.52"	"26.888"	"26.726"	"26.448"	"22.619"	"19.282"
"1923"	"20.345"	"20.801"	"26.695"	"30.231"	"31.927"	"32.632"	"27.777"	"26.199"	"27.317"	"26.06"	"22.655"	"21.593"
"1924"	"20.326"	"22.466"	"28.027"	"31.295"	"32.002"	"31.74"	"28.036"	"27.122"	"26.995"	"25.454"	"21.253"	"20.403"
"1925"	"17.742"	"20.144"	"26.679"	"31.787"	"31.722"	"29.35"	"27.215"	"27.489"	"27.858"	"28.571"	"24.122"	"20.667"
"1926"	"20.802"	"23.658"	"26.361"	"28.258"	"32.311"	"33.342"	"28.458"	"27.06"	"27.019"	"26.906"	"21.876"	"19.833"
"1927"	"18.827"	"20.639"	"25.205"	"29.684"	"31.748"	"30.739"	"27.003"	"26.172"	"27.042"	"26.475"	"20.609"	"20.661"
"1928"	"19.708"	"21.455"	"25.817"	"29.709"	"32.449"	"30.458"	"26.993"	"26.322"	"26.809"	"26.517"	"23.444"	"19.464"
"1929"	"18.811"	"20.619"	"27.21"	"30.307"	"32.747"	"30.401"	"27.451"	"26.287"	"27.212"	"26.446"	"24.095"	"19.674"
"1930"	"20.083"	"20.521"	"26.679"	"29.831"	"32.501"	"31.039"	"26.531"	"26.261"	"27.574"	"27.72"	"22.061"	"20.82"
"1931"	"21.373"	"21.378"	"25.479"	"31.118"	"32.843"	"32.453"	"28.22"	"26.863"	"26.828"	"25.862"	"22.602"	"20.569"
"1932"	"21.417"	"20.597"	"25.504"	"29.492"	"32.628"	"30.775"	"27.144"	"26.885"	"27.256"	"27.514"	"22.45"	"20.952"
"1933"	"19.786"	"22.277"	"26.464"	"29.731"	"30.741"	"29.985"	"27.499"	"26.355"	"26.568"	"26.185"	"23.14"	"20.076"
"1934"	"18.388"	"22.438"	"25.522"	"30.312"	"32.073"	"31.022"	"27.198"	"26.423"	"26.173"	"25.652"	"22.286"	"20.865"
"1935"	"18.133"	"21.625"	"25.384"	"28.064"	"32.272"	"31.032"	"27.068"	"26.318"	"26.274"	"26.284"	"23.009"	"20.624"
"1936"	"19.144"	"21.614"	"25.607"	"29.053"	"32.99"	"29.29"	"27.499"	"26.907"	"26.96"	"26.48"	"23.45"	"19.669"
"1937"	"18.471"	"22.4"	"24.829"	"29.321"	"32.113"	"30.932"	"26.693"	"26.522"	"26.806"	"26.162"	"23.945"	"19.617"
"1938"	"20.878"	"20.058"	"27.69"	"30.66"	"32.449"	"27.907"	"26.893"	"27.093"	"27.682"	"26.59"	"21.849"	"20.654"
"1939"	"20.73"	"22.509"	"24.527"	"29.071"	"31.904"	"30.715"	"27.661"	"27.549"	"26.506"	"26.88"	"22.519"	"20.02"
"1940"	"20.367"	"22.156"	"24.132"	"29.333"	"32.62"	"30.742"	"27.138"	"26.349"	"26.925"	"26.756"	"22.876"	"19.876"
"1941"	"19.207"	"22.422"	"26.85"	"30.863"	"32.571"	"31.493"	"26.925"	"26.804"	"27.355"	"27.82"	"23.369"	"21.764"
"1942"	"19.054"	"22.128"	"26.852"	"31.532"	"32.502"	"31.754"	"26.644"	"26.368"	"26.258"	"26.275"	"22.287"	"19.661"
"1943"	"20.31"	"21.293"	"26.474"	"29.644"	"33.203"	"29.227"	"26.422"	"25.884"	"26.58"	"25.923"	"23.608"	"19.773"
"1944"	"19.435"	"21.108"	"25.378"	"29.183"	"32.492"	"30.367"	"26.793"	"26.186"	"27.181"	"25.681"	"22.938"	"21.539"
"1945"	"18.314"	"20.494"	"26.091"	"29.106"	"31.827"	"31.179"	"26.48"	"26.886"	"26.564"	"26.119"	"21.597"	"18.708"
"1946"	"19.758"	"23.115"	"25.73"	"31.355"	"31.775"	"29.559"	"26.918"	"25.833"	"26.637"	"26.901"	"20.32"	"21.431"
"1947"	"19.162"	"22.085"	"26.366"	"29.476"	"32.547"	"31.229"	"27.433"	"27.68"	"26.409"	"25.302"	"22.961"	"20.794"
"1948"	"20.006"	"21.528"	"26.651"	"31.344"	"33.427"	"30.637"	"27.915"	"26.756"	"26.748"	"27.793"	"23.618"	"20.053"
"1949"	"21.669"	"21.773"	"26.929"	"31.013"	"33.095"	"30.352"	"27.987"	"27.358"	"27.049"	"26.929"	"22.534"	"19.827"
"1950"	"20.604"	"19.816"	"25.525"	"29.921"	"32.121"	"31.196"	"26.803"	"26.929"	"26.627"	"26.419"	"21.306"	"19.6"
"1951"	"18.878"	"21.157"	"26.356"	"28.62"	"32.19"	"30.903"	"28.593"	"26.491"	"28.515"	"29.146"	"24.752"	"20.016"
"1952"	"20.725"	"23.512"	"25.9"	"31.259"	"33.042"	"30.619"	"27.383"	"25.989"	"27.291"	"27.536"	"22.704"	"21.961"
"1953"	"19.604"	"24.234"	"28.688"	"30.821"	"32.115"	"30.914"	"27.668"	"26.2"	"26.994"	"26.35"	"22.62"	"21.464"
"1954"	"18.965"	"23.084"	"26.544"	"30.64"	"33.158"	"31.071"	"27.622"	"27.233"	"25.412"	"24.921"	"22.82"	"20.257"
"1955"	"20.727"	"22.402"	"27.98"	"28.403"	"32.098"	"30.118"	"28.27"	"26.33"	"26.4"	"25.789"	"21.354"	"20.009"
"1956"	"20.386"	"21.849"	"27.322"	"30.644"	"32.395"	"29.525"	"25.923"	"25.872"	"26.627"	"25.504"	"22.073"	"20.503"
"1957"	"19.575"	"20.052"	"24.825"	"29.839"	"31.573"	"31.092"	"27.763"	"26.937"	"26.904"	"27.295"	"25.093"	"22.072"
"1958"	"21.406"	"22.126"	"27.022"	"31.518"	"32.948"	"31.784"	"27.334"	"27.562"	"26.156"	"26.328"	"23.41"	"21.132"
"1959"	"20.126"	"21.81"	"27.35"	"30.581"	"32.835"	"30.744"	"26.306"	"25.972"	"26.275"	"26.551"	"23.28"	"21.055"
"1960"	"18.701"	"23.572"	"25.166"	"29.791"	"31.791"	"30.27"	"28.068"	"25.803"	"27.6"	"26.833"	"23.017"	"22.291"
"1961"	"20.327"	"20.343"	"27.696"	"30.259"	"32.529"	"29.909"	"27.027"	"26.864"	"25.616"	"25.547"	"23.375"	"19.346"
"1962"	"18.384"	"22.219"	"26.082"	"30.132"	"32.79"	"30.965"	"27.662"	"26.931"	"26.582"	"25.084"	"23.542"	"20.967"
"1963"	"19.717"	"23.657"	"26.325"	"29.436"	"31.875"	"30.76"	"27.844"	"26.375"	"26.349"	"26.663"	"24.7"	"21.242"
"1964"	"18.46"	"22.03"	"27.878"	"31.559"	"32.045"	"30.395"	"27.251"	"26.605"	"26.985"	"27.137"	"22.393"	"20.602"
"1965"	"21.484"	"22.129"	"25.912"	"29.815"	"32.917"	"31.569"	"28.173"	"27.58"	"27.196"	"28.112"	"24.578"	"21.14"
"1966"	"20.829"	"24.218"	"25.893"	"30.266"	"31.797"	"31.219"	"29.002"	"26.881"	"26.961"	"28.298"	"24.962"	"20.857"
"1967"	"18.8"	"23.92"	"26.038"	"29.557"	"32.237"	"29.902"	"27.586"	"26.203"	"26.37"	"27.232"	"24.331"	"22.274"
"1968"	"19.011"	"20.661"	"25.789"	"29.934"	"31.333"	"31.757"	"27.855"	"25.839"	"28.316"	"26.98"	"23.47"	"20.718"
"1969"	"20.347"	"22.799"	"28.637"	"31.198"	"32.704"	"31.258"	"28.04"	"26.378"	"26.89"	"27.626"	"25.461"	"21.315"
"1970"	"20.412"	"22.275"	"26.355"	"31.515"	"33.389"	"29.146"	"27.754"	"26.976"	"26.513"	"27.523"	"22.349"	"20.139"
"1971"	"19.411"	"21.989"	"26.368"	"31.839"	"31.868"	"28.923"	"26.499"	"26.43"	"27.296"	"26.175"	"22.707"	"19.635"
"1972"	"20.194"	"19.905"	"27.61"	"29.686"	"32.531"	"31.44"	"28.12"	"26.94"	"27.161"	"27.915"	"23.594"	"21.153"
"1973"	"19.554"	"23.197"	"26.915"	"32.41"	"33.687"	"30.884"	"26.402"	"26.344"	"25.72"	"26.402"	"22.943"	"20.809"
"1974"	"19.522"	"21.077"	"28.24"	"31.283"	"31.811"	"31.152"	"28.27"	"27.096"	"28.497"	"27.425"	"22.166"	"19.958"
"1975"	"18.615"	"21.543"	"25.375"	"30.125"	"32.672"	"30.425"	"27.481"	"26.754"	"26.695"	"27.027"	"22.006"	"20.346"
"1976"	"20.459"	"22.49"	"26.959"	"30.36"	"32.102"	"29.305"	"27.743"	"26.386"	"26.623"	"27.838"	"26.362"	"21.968"
"1977"	"19.703"	"22.995"	"28.732"	"31.029"	"32.04"	"30.435"	"27.468"	"26.806"	"26.679"	"28.42"	"25.439"	"21.701"
"1978"	"19.493"	"21.915"	"25.433"	"31.134"	"33.287"	"30.204"	"26.989"	"26.324"	"27.199"	"27.433"	"25.139"	"20.752"
"1979"	"21.264"	"20.786"	"25.553"	"30.668"	"31.847"	"31.914"	"28.246"	"26.42"	"28.652"	"28.4"	"25.617"	"21.725"
"1980"	"20.701"	"22.7"	"26.979"	"31.136"	"33.473"	"29.169"	"27.501"	"26.954"	"27.944"	"28.558"	"25.095"	"20.823"
"1981"	"19.647"	"22.879"	"26.809"	"31.279"	"32.804"	"32.212"	"27.41"	"26.279"	"27.895"	"27.402"	"22.317"	"20.518"
"1982"	"20.649"	"21.326"	"25.122"	"29.808"	"30.926"	"31.348"	"28.799"	"26.697"	"27.655"	"28.301"	"23.905"	"22.15"
"1983"	"19.571"	"20.531"	"25.634"	"28.609"	"32.583"	"31.419"	"28.39"	"27.238"	"27.658"	"25.973"	"21.761"	"20.004"
"1984"	"19.022"	"19.739"	"27.56"	"31.348"	"33.188"	"30.742"	"27.539"	"25.632"	"26.211"	"26.643"	"23.158"	"21.237"
"1985"	"19.879"	"21.622"	"28.401"	"30.644"	"33.044"	"31.015"	"28.335"	"26.432"	"27.627"	"25.68"	"23.728"	"22.132"
"1986"	"20.718"	"22.277"	"26.915"	"31.06"	"32.423"	"30.807"	"27.201"	"26.186"	"28.084"	"27.66"	"24.766"	"20.259"
"1987"	"20.796"	"23.208"	"27.363"	"30.959"	"32.018"	"31.73"	"29.594"	"28.395"	"28.822"	"28.704"	"24.987"	"21.475"
"1988"	"21.975"	"24.028"	"26.791"	"31.885"	"33.53"	"31.405"	"27.667"	"27.284"	"28.507"	"26.877"	"23.678"	"21.426"
"1989"	"19.627"	"22.389"	"26.065"	"30.151"	"33"	"29.897"	"27.814"	"26.47"	"27.994"	"27.614"	"25.31"	"21.15"
"1990"	"22.393"	"22.58"	"25.476"	"30.7"	"32.108"	"29.993"	"26.965"	"26.821"	"26.808"	"27.357"	"24.353"	"21.516"
"1991"	"19.278"	"22.662"	"26.976"	"30.364"	"33.08"	"31.674"	"27.859"	"26.756"	"27.082"	"27.075"	"24.307"	"21.063"
"1992"	"20.631"	"20.768"	"26.826"	"30.136"	"32.493"	"32.468"	"29.174"	"26.919"	"26.45"	"27.107"	"23.767"	"21.727"
"1993"	"21.203"	"22.819"	"26.105"	"30.152"	"33.288"	"31.801"	"27.774"	"27.653"	"27.345"	"28.171"	"24.823"	"21.827"
"1994"	"21.692"	"21.372"	"27.178"	"30.092"	"33.382"	"29.843"	"26.566"	"26.599"	"26.407"	"27.223"	"23.982"	"20.987"
"1995"	"18.91"	"22.213"	"26.028"	"30.39"	"32.93"	"33.262"	"28.531"	"27.619"	"28.163"	"28.747"	"24.147"	"22.126"
"1996"	"21.391"	"23.593"	"28.753"	"30.745"	"32.84"	"31.862"	"28.586"	"26.615"	"27.355"	"26.901"	"24.137"	"21.361"
"1997"	"20.041"	"21.822"	"27.446"	"29.366"	"31.522"	"29.981"	"27.712"	"26.9"	"27.478"	"27.147"	"25.956"	"21.184"
"1998"	"20.42"	"22.232"	"26.538"	"31.826"	"34.082"	"32.145"	"27.954"	"27.93"	"27.764"	"28.998"	"24.549"	"21.593"
"1999"	"20.133"	"23.464"	"27.48"	"31.824"	"32.666"	"30.121"	"27.8"	"27.015"	"27.697"	"27.103"	"23.867"	"20.776"
"2000"	"21.102"	"21.019"	"26.457"	"32.51"	"31.29"	"30.59"	"26.905"	"27.861"	"27.734"	"28.585"	"25.612"	"22.247"
"2001"	"20.227"	"23.277"	"26.957"	"30.618"	"31.993"	"28.726"	"26.324"	"26.824"	"28.426"	"27.905"	"24.494"	"21.982"
"2002"	"19.526"	"22.463"	"27.327"	"31.573"	"33.272"	"30.532"	"28.397"	"26.191"	"27.074"	"28.362"	"24.871"	"22.938"
