
"Year"	"Jan"	"Feb"	"Mar"	"Apr"	"May"	"Jun"	"Jul"	"Aug"	"Sep"	"Oct"	"Nov"	"Dec"
"1901"	"0.004"	"0"	"0"	"0"	"7.142"	"7.312"	"47.131"	"39.52"	"15.829"	"1.698"	"0.151"	"0.017"
"1902"	"0"	"0"	"0"	"0"	"0.075"	"10.567"	"167.186"	"85.8"	"98.825"	"3.638"	"0.151"	"0.446"
"1903"	"0"	"0"	"0.421"	"0"	"20.977"	"7.11"	"271.884"	"81.623"	"95.926"	"0.169"	"0.151"	"0"
"1904"	"0"	"2.653"	"3.995"	"0"	"0.075"	"12.261"	"154.568"	"3.641"	"2.122"	"0.193"	"0.151"	"0"
"1905"	"0"	"0.789"	"0.042"	"0.359"	"0.075"	"3.093"	"131.52"	"13.086"	"7.23"	"0.309"	"0.151"	"0"
"1906"	"0.031"	"3.601"	"0"	"0"	"0.075"	"106.399"	"172.018"	"153.64"	"15.893"	"22.912"	"0.151"	"0"
"1907"	"0"	"0.664"	"0"	"1.715"	"0.075"	"39.279"	"184.356"	"89.842"	"0.697"	"0.169"	"0.151"	"0"
"1908"	"1.021"	"0"	"0"	"0"	"0.075"	"29.682"	"263.954"	"153.75"	"26.643"	"1.597"	"0.151"	"0"
"1909"	"0"	"0.722"	"0"	"0.185"	"0.091"	"119.526"	"165.87"	"30.289"	"175.154"	"4.433"	"0.151"	"8.299"
"1910"	"0"	"0"	"0"	"0"	"0.075"	"192.815"	"123.462"	"183.183"	"39.045"	"0.169"	"0.151"	"0"
"1911"	"0.766"	"0"	"2.978"	"0"	"0.377"	"72.87"	"9.65"	"29.922"	"28.441"	"0.169"	"0.539"	"1.165"
"1912"	"0"	"0"	"0"	"0.116"	"0.075"	"181.361"	"264.021"	"104.86"	"17.155"	"6.334"	"1.299"	"0"
"1913"	"0"	"0.011"	"0"	"0"	"0.075"	"175.008"	"122.146"	"24.499"	"26.556"	"0.201"	"0.151"	"0"
"1914"	"0"	"0.535"	"0"	"0"	"18.481"	"119.316"	"84.533"	"24.712"	"161.253"	"0.989"	"0.528"	"0"
"1915"	"0.498"	"0.042"	"0.014"	"1.244"	"10.532"	"48.828"	"100.105"	"18.562"	"30.002"	"17.02"	"0.151"	"0"
"1916"	"0"	"0"	"0"	"0"	"0.075"	"39.397"	"130.662"	"129.559"	"109.938"	"15.742"	"0.151"	"0"
"1917"	"0"	"2.622"	"0"	"0.101"	"64.97"	"189.977"	"125.664"	"143.733"	"70.233"	"113.39"	"0.151"	"0.017"
"1918"	"0"	"0"	"0"	"0"	"5.427"	"6.204"	"23.053"	"6.064"	"6.995"	"0.169"	"0.151"	"0"
"1919"	"0.206"	"0"	"0"	"0"	"0.295"	"15.806"	"123.546"	"99.95"	"18.161"	"0.169"	"6.433"	"0"
"1920"	"0.27"	"2.076"	"0.187"	"0"	"26.965"	"268.181"	"144.068"	"23.707"	"19.32"	"0.169"	"0.151"	"0"
"1921"	"0"	"0"	"0"	"0"	"0.075"	"18.403"	"288.166"	"63.805"	"104.622"	"1.53"	"0.151"	"0"
"1922"	"0"	"0.011"	"0"	"0.196"	"0.075"	"19.209"	"71.563"	"29.019"	"91.927"	"23.962"	"0.151"	"5.151"
"1923"	"0"	"3.024"	"0"	"1.551"	"0.133"	"0.967"	"67.258"	"43.365"	"14.073"	"0.971"	"0.151"	"0"
"1924"	"0"	"0.007"	"0"	"0"	"1.702"	"61.679"	"68.935"	"57.326"	"52.656"	"0.208"	"0.151"	"0.104"
"1925"	"0"	"0"	"0"	"0"	"23.198"	"326.205"	"39.995"	"15.507"	"25.865"	"0.169"	"4.219"	"0"
"1926"	"0.361"	"0"	"0"	"1.787"	"21.993"	"22.41"	"194.098"	"143.241"	"259.669"	"0.801"	"0.151"	"0"
"1927"	"0"	"1.003"	"0"	"0"	"3.84"	"62.58"	"221.604"	"25.129"	"48.486"	"12.301"	"2.324"	"2.549"
"1928"	"0"	"0"	"0"	"1.785"	"0.075"	"1.834"	"178.877"	"62.448"	"67.613"	"45.197"	"0.265"	"0"
"1929"	"0.052"	"0"	"0"	"1.551"	"0.075"	"49.455"	"133.489"	"20.678"	"13.507"	"11.612"	"0.151"	"6.136"
"1930"	"0.152"	"0.067"	"0"	"0"	"0.075"	"160.14"	"151.417"	"10.14"	"30.452"	"7.197"	"0.151"	"0.071"
"1931"	"0"	"0.121"	"0"	"0"	"29.284"	"7.829"	"69.007"	"72.125"	"26.586"	"76.163"	"0.886"	"0"
"1932"	"0"	"0"	"0"	"0"	"5.584"	"16.941"	"233.924"	"16.743"	"25.264"	"50.115"	"0.151"	"0"
"1933"	"0"	"2.26"	"0"	"0"	"72.178"	"83.8"	"130.296"	"181.408"	"113.082"	"1.226"	"0.151"	"2.027"
"1934"	"0"	"0"	"0.172"	"0.359"	"0.075"	"119.515"	"89.255"	"47.209"	"30.474"	"4.676"	"0.151"	"0"
"1935"	"0.65"	"0"	"0"	"0.031"	"0.075"	"43.905"	"264.096"	"66.101"	"28.569"	"5.285"	"0.151"	"0"
"1936"	"0"	"0.021"	"0"	"0"	"1.053"	"121.145"	"65.437"	"11.134"	"84.235"	"0.169"	"28.849"	"0"
"1937"	"0"	"0.659"	"0"	"0"	"0.075"	"145.411"	"162.676"	"6.8"	"86.054"	"21.565"	"0.151"	"0.813"
"1938"	"0.062"	"0"	"0"	"0"	"19.28"	"112.128"	"44.445"	"37.49"	"5.68"	"31.77"	"0.151"	"2.274"
"1939"	"0"	"0"	"0.482"	"0"	"0.075"	"6.481"	"87.018"	"57.482"	"3.192"	"5.324"	"2.027"	"0"
"1940"	"0.158"	"0.21"	"0.632"	"0"	"2.488"	"146.052"	"68.527"	"56.359"	"22.141"	"0.288"	"15.24"	"0"
"1941"	"0"	"0"	"0"	"0"	"0.075"	"10.874"	"186.45"	"1.227"	"7.405"	"17.547"	"0.151"	"2.751"
"1942"	"0"	"0.52"	"0"	"0"	"4.014"	"7.527"	"108.699"	"102.419"	"52.024"	"0.169"	"0.151"	"0.965"
"1943"	"0"	"0"	"0"	"0.234"	"25.912"	"81.484"	"252.023"	"5.128"	"59.95"	"9.522"	"0.542"	"0"
"1944"	"0"	"0"	"0.483"	"0"	"5.328"	"128.94"	"227.751"	"103.324"	"1.35"	"0.169"	"0.151"	"0"
"1945"	"0.173"	"0"	"0.021"	"0.116"	"0.075"	"144.133"	"287.797"	"55.961"	"60.608"	"0.201"	"0.151"	"0"
"1946"	"0"	"0"	"0"	"0"	"0.075"	"238.42"	"124.64"	"60.061"	"27.88"	"0.169"	"6.242"	"0.908"
"1947"	"0"	"0"	"0"	"0.551"	"0.075"	"0.967"	"70.335"	"175.226"	"205.879"	"1.474"	"0.151"	"0"
"1948"	"0.616"	"0"	"0"	"0"	"0.075"	"3.435"	"10.414"	"94.118"	"52.378"	"61.1"	"18.998"	"0"
"1949"	"0"	"0.19"	"0"	"0"	"0.634"	"9.1"	"179.217"	"102.856"	"48.453"	"8.058"	"0.151"	"0"
"1950"	"0"	"0"	"0"	"0"	"0.075"	"2.353"	"294.962"	"15.786"	"32.269"	"0.169"	"0.151"	"0"
"1951"	"0"	"0"	"0.063"	"0.031"	"6.641"	"40.484"	"93.213"	"94.519"	"5.2"	"0.169"	"3.399"	"0"
"1952"	"0"	"0"	"0"	"0"	"0.075"	"93.444"	"139.471"	"15.126"	"16.662"	"0.766"	"0.151"	"0"
"1953"	"0.159"	"0"	"0"	"0"	"0.075"	"133.694"	"114.486"	"210.082"	"65.222"	"0.169"	"0.151"	"0"
"1954"	"0.121"	"0.367"	"0.227"	"0"	"0.075"	"43.004"	"214.885"	"170.366"	"132.598"	"0.169"	"0.151"	"1.772"
"1955"	"0"	"0"	"0"	"0"	"0.075"	"18.562"	"22.295"	"66.71"	"134.35"	"21.228"	"0.151"	"0"
"1956"	"0.112"	"0"	"0"	"2.262"	"1.47"	"59.781"	"263.443"	"54.664"	"147.976"	"67.592"	"0.263"	"0"
"1957"	"0.111"	"0"	"0"	"1.824"	"6.715"	"136.97"	"126.557"	"123.976"	"8.621"	"1.099"	"24.538"	"0.581"
"1958"	"0"	"0"	"0"	"1.099"	"0.075"	"60.837"	"179.606"	"111.094"	"142.5"	"41.213"	"20.152"	"0.171"
"1959"	"0"	"0"	"0"	"2.319"	"35.567"	"63.043"	"422.73"	"35.41"	"74.725"	"133.75"	"0.151"	"0"
"1960"	"0"	"0"	"0.923"	"0"	"32.4"	"96.037"	"145.758"	"20.575"	"43.399"	"0.169"	"0.151"	"0"
"1961"	"0.105"	"1.369"	"0"	"0"	"0.634"	"57.953"	"208.943"	"81.953"	"123.261"	"21.504"	"0.151"	"0"
"1962"	"0"	"0"	"0.128"	"0"	"0.133"	"16.351"	"205.973"	"92.169"	"116.188"	"0.169"	"7.685"	"0.436"
"1963"	"0.125"	"0"	"0"	"0"	"0.133"	"39.709"	"120.636"	"116.028"	"27.533"	"33.363"	"21.346"	"0"
"1964"	"0"	"0"	"0"	"0"	"0.705"	"200.691"	"138.548"	"147.108"	"116.753"	"0.169"	"0.151"	"0"
"1965"	"0.228"	"0"	"0"	"0.286"	"0.214"	"0.967"	"161.721"	"97.981"	"114.889"	"0.711"	"7.13"	"0"
"1966"	"0"	"0"	"0"	"0"	"1.25"	"79.31"	"83.022"	"5.135"	"46.53"	"0.169"	"0.151"	"0"
"1967"	"0"	"0"	"2.931"	"0"	"0.075"	"110.726"	"201.253"	"14.508"	"19.198"	"0.169"	"0.151"	"8.573"
"1968"	"0.031"	"0.032"	"0"	"0"	"0.075"	"5.232"	"109.553"	"143.984"	"44.858"	"8.931"	"0.151"	"0"
"1969"	"0"	"0"	"0"	"0"	"0.075"	"47.068"	"206.651"	"20.642"	"3.24"	"0.169"	"3.79"	"0.654"
"1970"	"0"	"0"	"0"	"0"	"37.038"	"57.037"	"152.737"	"220.183"	"91.285"	"37.28"	"0.151"	"0"
"1971"	"0"	"0"	"0"	"0"	"0.623"	"87.55"	"165.849"	"110.743"	"87.629"	"0.261"	"0.151"	"0"
"1972"	"0"	"1.191"	"0"	"0"	"0.295"	"100.408"	"100.97"	"11.692"	"0.592"	"0.169"	"0.151"	"0"
"1973"	"0.079"	"0"	"0"	"0"	"2.799"	"38.809"	"211.486"	"36.29"	"46.437"	"1.621"	"0.151"	"0"
"1974"	"0"	"0"	"0"	"0"	"10.507"	"5.699"	"72.353"	"19.978"	"26.936"	"24.884"	"0.151"	"0"
"1975"	"0"	"0"	"0"	"0"	"2.356"	"74.414"	"51.54"	"61.761"	"74.34"	"79.84"	"0.151"	"0"
"1976"	"0"	"0"	"0"	"0"	"0.075"	"23.51"	"70.768"	"43.311"	"36.122"	"2.611"	"21.695"	"0"
"1977"	"0"	"0"	"0"	"0.139"	"6.641"	"69.747"	"151.212"	"43.56"	"110.501"	"0.881"	"3.884"	"0"
"1978"	"0"	"0.014"	"0"	"0.466"	"0.075"	"235.169"	"60.023"	"106.483"	"7.76"	"24.343"	"9.23"	"0.142"
"1979"	"0"	"0.328"	"0"	"0"	"0.075"	"163.512"	"26.575"	"278.685"	"44.735"	"10.41"	"83.106"	"0"
"1980"	"0.174"	"0.069"	"0"	"0.11"	"0.075"	"299.801"	"249.593"	"63.675"	"18.03"	"0.302"	"0.817"	"3.746"
"1981"	"0.081"	"0"	"0.042"	"0"	"0.075"	"43.781"	"218.023"	"98.938"	"62.408"	"43.753"	"49.802"	"0"
"1982"	"0"	"0"	"0"	"0"	"46.279"	"3.621"	"144.996"	"84.082"	"22.652"	"0.379"	"73.037"	"0"
"1983"	"0"	"0.244"	"0"	"0"	"0.075"	"324.857"	"180.204"	"176.563"	"67.88"	"16.509"	"0.151"	"0"
"1984"	"0"	"0"	"0"	"0"	"0.075"	"37.231"	"88.845"	"76.213"	"103.542"	"0.169"	"0.151"	"0"
"1985"	"0"	"0"	"0"	"0"	"24.952"	"5.345"	"47.444"	"85.668"	"19.868"	"49.779"	"0.426"	"0"
"1986"	"0"	"0"	"0.042"	"0"	"1.896"	"279.792"	"11.378"	"41.918"	"7.936"	"0.169"	"0.151"	"0.305"
"1987"	"0.004"	"0.091"	"0"	"0"	"0.77"	"15.229"	"17.967"	"44.969"	"1.271"	"0.248"	"0.16"	"0.948"
"1988"	"0"	"0"	"0"	"0.223"	"0.075"	"16.145"	"275.956"	"50.862"	"120.516"	"0.369"	"0.151"	"0"
"1989"	"0.495"	"0"	"0"	"0"	"0.079"	"120.787"	"182.678"	"42.861"	"20.634"	"0.173"	"0.151"	"0"
"1990"	"0"	"0.413"	"0"	"0"	"72.868"	"44.644"	"29.933"	"237.655"	"37.088"	"5.618"	"0.239"	"1.444"
"1991"	"0"	"0.035"	"0"	"0"	"0.075"	"6.286"	"167.981"	"37.274"	"3.094"	"0.169"	"0.171"	"1.469"
"1992"	"0.093"	"0"	"0"	"0"	"0.075"	"14.72"	"227.308"	"83.842"	"157.383"	"14.271"	"0.792"	"0"
"1993"	"0"	"0.534"	"0"	"0"	"4.182"	"25.139"	"158.406"	"8.762"	"44.827"	"36.55"	"13.48"	"0"
"1994"	"0.599"	"0"	"0.19"	"0"	"0.082"	"51.858"	"150.967"	"67.209"	"186.746"	"0.224"	"0.164"	"0"
"1995"	"0"	"0"	"0"	"0.004"	"0.075"	"3.309"	"161.751"	"19.973"	"26.341"	"1.483"	"7.485"	"0.184"
"1996"	"0.079"	"0.004"	"0"	"0"	"2.012"	"145.277"	"296.748"	"34.193"	"17.584"	"25.827"	"0.151"	"0"
"1997"	"0.143"	"0"	"0.093"	"0.174"	"3.408"	"122.86"	"173.802"	"76.616"	"139.016"	"1.003"	"0.808"	"0.007"
"1998"	"0"	"0.423"	"0.265"	"0"	"0.075"	"143.189"	"297.874"	"132.55"	"31.556"	"137.543"	"0.268"	"0"
"1999"	"0"	"0.111"	"0"	"0"	"9.348"	"136.688"	"84.75"	"17.34"	"22.244"	"52.556"	"0.151"	"0"
"2000"	"0"	"0"	"0"	"0"	"32.882"	"19.393"	"235.267"	"65.144"	"0.835"	"8.137"	"0.18"	"0"
"2001"	"0"	"0"	"0"	"0"	"64.01"	"167.615"	"172.47"	"54.318"	"6.577"	"35.182"	"0.199"	"0"
"2002"	"0"	"0"	"0"	"0"	"0.075"	"90.296"	"16.968"	"119.283"	"6.052"	"0.169"	"0.151"	"0.877"
