
"Year"	"Jan"	"Feb"	"Mar"	"Apr"	"May"	"Jun"	"Jul"	"Aug"	"Sep"	"Oct"	"Nov"	"Dec"
"1901"	"23.984"	"48.718"	"6.855"	"7.62"	"56.991"	"84.941"	"146.567"	"140.426"	"223.762"	"56.48"	"104.706"	"0"
"1902"	"9.736"	"0.16"	"1.653"	"12.106"	"42.687"	"150.21"	"252.788"	"315.476"	"225.521"	"25.601"	"3.161"	"14.1"
"1903"	"3.497"	"18.717"	"1.855"	"2.561"	"24.522"	"159.471"	"524.75"	"184.036"	"209.255"	"89.96"	"16.87"	"4.111"
"1904"	"0.189"	"2.847"	"15.058"	"0.435"	"131.517"	"200.737"	"220.68"	"448.204"	"175.425"	"100.167"	"0.214"	"4.063"
"1905"	"3.68"	"13.114"	"32.678"	"141.665"	"106.058"	"78.242"	"278.382"	"321.744"	"441.578"	"17.301"	"0.214"	"0"
"1906"	"12.323"	"44.78"	"11.949"	"0.319"	"6.892"	"255.388"	"333.32"	"179.276"	"172.056"	"79.325"	"15.721"	"1.066"
"1907"	"0.197"	"13.316"	"29.551"	"164.24"	"36.463"	"217.863"	"130.76"	"267.282"	"73.737"	"17.679"	"6.391"	"6.85"
"1908"	"14.714"	"1.073"	"2.597"	"13.606"	"48.94"	"297.35"	"188.147"	"336.419"	"214.015"	"49.33"	"0.214"	"0.155"
"1909"	"0.013"	"34.124"	"0.16"	"95.995"	"8.204"	"159.489"	"244.491"	"210.782"	"164.585"	"5.291"	"0.214"	"2.768"
"1910"	"6.849"	"0.392"	"8.016"	"14.137"	"11.593"	"201.115"	"382.712"	"522.855"	"142.267"	"100.577"	"17.289"	"0"
"1911"	"0.322"	"1.006"	"17.185"	"1.859"	"24.495"	"267.241"	"94.242"	"245.207"	"358.228"	"46.121"	"21.449"	"0"
"1912"	"0"	"45.941"	"4.939"	"19.622"	"25.443"	"94.376"	"226.851"	"272.537"	"196.436"	"53.883"	"70.115"	"0"
"1913"	"0"	"39.228"	"15.3"	"1.557"	"30.236"	"138.968"	"337.356"	"172.705"	"115.214"	"121.632"	"13.45"	"1.028"
"1914"	"0.077"	"22.502"	"10.863"	"104.887"	"47.346"	"262.712"	"200.102"	"192.531"	"322.797"	"9.263"	"0.261"	"4.463"
"1915"	"25.303"	"37.862"	"36.953"	"52.689"	"19.349"	"169.038"	"187.348"	"438.276"	"274.314"	"125.585"	"74.248"	"0"
"1916"	"0"	"5.422"	"0.16"	"3.325"	"9.97"	"263.933"	"248.751"	"246.77"	"110.417"	"134.098"	"61.319"	"0"
"1917"	"0.025"	"70.669"	"11.663"	"16.21"	"65.254"	"256.427"	"141.322"	"473.073"	"141.81"	"233.974"	"9.695"	"0.321"
"1918"	"15.535"	"0.16"	"12.311"	"4.794"	"55.369"	"247.291"	"203.066"	"315.236"	"220.385"	"11.267"	"5.981"	"2.025"
"1919"	"44.856"	"47.733"	"7.653"	"12.556"	"39.389"	"235.188"	"410.906"	"423.805"	"111.836"	"120.428"	"63.1"	"1.175"
"1920"	"4.491"	"7.839"	"35.406"	"0.57"	"30.783"	"120.95"	"249.221"	"309.051"	"137.736"	"73.158"	"0.379"	"0"
"1921"	"35.416"	"1.332"	"0.694"	"30.119"	"1.731"	"203.998"	"292.833"	"255.93"	"239.319"	"81.317"	"0.214"	"0"
"1922"	"5.848"	"2.707"	"0.16"	"5.825"	"12.574"	"227.142"	"178.647"	"300.825"	"266.025"	"52.013"	"38.868"	"0"
"1923"	"0"	"60.354"	"1.11"	"25.963"	"4.668"	"82.35"	"207.507"	"244.308"	"260.479"	"89.913"	"58.102"	"2.326"
"1924"	"32.589"	"4.683"	"0.3"	"12.682"	"30.803"	"72.088"	"176.176"	"248.188"	"289.022"	"92.77"	"78.297"	"0"
"1925"	"0"	"0.343"	"2.451"	"68.638"	"131.371"	"361.302"	"316.97"	"339.629"	"98.681"	"213.386"	"3.387"	"5.881"
"1926"	"19.309"	"2.15"	"58.839"	"47.837"	"44.628"	"151.592"	"219.662"	"270.174"	"300.739"	"63.405"	"0.796"	"0.369"
"1927"	"2.553"	"8.83"	"121.013"	"3.184"	"16.939"	"212.211"	"358.369"	"434.051"	"196.014"	"30.84"	"15.299"	"0"
"1928"	"0.292"	"1.302"	"0.514"	"84.87"	"77.102"	"179.743"	"286.259"	"267.642"	"251.901"	"250.592"	"3.125"	"0.025"
"1929"	"1.44"	"46.062"	"3.558"	"42.396"	"44.785"	"185.55"	"159.678"	"456.986"	"77.503"	"217.606"	"0.245"	"4.445"
"1930"	"0.025"	"5.924"	"1.407"	"52.697"	"98.98"	"196.003"	"448.864"	"242.112"	"220.248"	"63.766"	"75.153"	"0.708"
"1931"	"1.348"	"6.715"	"9.956"	"7.391"	"15.478"	"73.565"	"179.746"	"333.277"	"237.095"	"196.464"	"61.562"	"1.567"
"1932"	"0"	"22.237"	"0.685"	"101.66"	"44.677"	"65.596"	"249.016"	"288.306"	"187.233"	"42.349"	"97.287"	"0.017"
"1933"	"11.451"	"3.606"	"1.023"	"38.275"	"41.526"	"266.215"	"330.289"	"261.424"	"235.839"	"109.775"	"18.841"	"2.796"
"1934"	"0.322"	"3.899"	"3.021"	"6.633"	"3.58"	"228.173"	"294.018"	"374.076"	"153.228"	"56.29"	"16.715"	"0"
"1935"	"2.597"	"3.31"	"1.775"	"43.59"	"6.224"	"119.502"	"225.606"	"228.553"	"159.275"	"56.313"	"0.214"	"0"
"1936"	"2.071"	"70.263"	"6.773"	"14.098"	"118.91"	"388.762"	"447.139"	"333.992"	"152.5"	"133.624"	"27.069"	"0.64"
"1937"	"0"	"67.153"	"3.954"	"90.143"	"27.505"	"142.81"	"286.446"	"227.957"	"129.034"	"123.484"	"0.214"	"0"
"1938"	"4.169"	"19.236"	"0.744"	"1.901"	"141.795"	"183.006"	"137.202"	"227.404"	"443.753"	"95.023"	"20.735"	"0"
"1939"	"6.555"	"4.21"	"22.382"	"5.731"	"14.932"	"112.844"	"246.436"	"271.738"	"288.314"	"99.935"	"15.256"	"0.567"
"1940"	"0"	"25.821"	"108.835"	"35.453"	"69.028"	"246.282"	"276.41"	"409.976"	"213.804"	"57.755"	"14.846"	"1.493"
"1941"	"12.19"	"3.759"	"4.549"	"0.946"	"54.734"	"244.065"	"145.437"	"220.356"	"223.993"	"165.701"	"31.297"	"0"
"1942"	"1.328"	"29.571"	"10.184"	"69.606"	"10.85"	"100.055"	"283.077"	"343.813"	"238.012"	"54.551"	"43.677"	"0"
"1943"	"29.876"	"1.83"	"2.672"	"120.143"	"12.407"	"158.144"	"311.945"	"361.506"	"136.532"	"148.676"	"12.618"	"0"
"1944"	"18.285"	"80.584"	"105.736"	"86.613"	"23.184"	"124.118"	"273.526"	"260.417"	"174.294"	"102.756"	"6.656"	"0"
"1945"	"12.705"	"1.438"	"0.518"	"149.848"	"29.85"	"87.105"	"369.863"	"145.172"	"258.34"	"163.521"	"20.694"	"5.97"
"1946"	"0"	"5.097"	"6.303"	"37.243"	"43.796"	"223.579"	"397.474"	"419.788"	"146.683"	"123.292"	"53.908"	"0.017"
"1947"	"26.721"	"24.863"	"9.108"	"15.084"	"5.11"	"212.935"	"367.775"	"244.31"	"269.837"	"56.864"	"16.92"	"5.853"
"1948"	"8.227"	"45.456"	"7.481"	"119.421"	"21.477"	"144.436"	"225.026"	"283.731"	"255.592"	"35.506"	"94.382"	"0.017"
"1949"	"1.883"	"3.664"	"5.738"	"27.708"	"44.787"	"140.417"	"173.719"	"301.854"	"299.57"	"165.437"	"0.214"	"0"
"1950"	"0.324"	"21.347"	"44.964"	"44.787"	"15.937"	"138.284"	"218.377"	"164.337"	"38.675"	"62.633"	"43.733"	"0.322"
"1951"	"0.224"	"0.227"	"20.438"	"83.312"	"16.816"	"146.64"	"375.85"	"349.648"	"254.497"	"45.78"	"38.55"	"0"
"1952"	"0.346"	"3.159"	"23.75"	"90.92"	"23.818"	"156.975"	"248.344"	"229.586"	"245.176"	"149.539"	"0.214"	"3.439"
"1953"	"20.862"	"0.16"	"0.16"	"3.492"	"14.261"	"157.257"	"111.152"	"438.279"	"236.921"	"61.036"	"55.965"	"0"
"1954"	"0.251"	"12.366"	"0.726"	"0.736"	"36.931"	"183.049"	"30.421"	"72.315"	"322.778"	"110.225"	"0.214"	"3.468"
"1955"	"0.686"	"1.646"	"26.262"	"48.656"	"54.824"	"144.506"	"132.25"	"315.559"	"312.78"	"209.121"	"42.649"	"0"
"1956"	"0.59"	"23.291"	"3.604"	"41.652"	"73.625"	"294.911"	"691.317"	"552.549"	"222.7"	"126.168"	"15.872"	"0.235"
"1957"	"4.396"	"8.743"	"17.159"	"9.29"	"17.32"	"138.314"	"294.566"	"395.109"	"87.403"	"52.997"	"1.587"	"0"
"1958"	"11.016"	"25.266"	"7.769"	"133.198"	"28.299"	"106.363"	"542.505"	"249.995"	"221.344"	"172.917"	"69.827"	"0"
"1959"	"11.43"	"6.915"	"0.4"	"2.986"	"53.572"	"234.216"	"325.863"	"109.341"	"191.635"	"169.246"	"0.214"	"2.188"
"1960"	"0.213"	"0.16"	"13.138"	"5.507"	"53.637"	"186.862"	"435.164"	"294.659"	"140.606"	"66.366"	"0.597"	"1.353"
"1961"	"18.133"	"60.896"	"0.67"	"7.13"	"55.472"	"177.504"	"158.727"	"367.628"	"285.688"	"106.391"	"21.694"	"0.281"
"1962"	"4.382"	"22.215"	"1.475"	"4.697"	"16.213"	"147.944"	"475.388"	"157.916"	"223.227"	"251.778"	"5.211"	"5.817"
"1963"	"0.324"	"0.281"	"11.511"	"149.36"	"67.067"	"114.601"	"163.41"	"224.032"	"222.443"	"195.2"	"5.02"	"0"
"1964"	"0.34"	"43.072"	"7.793"	"57.08"	"36.247"	"93.739"	"214.441"	"454.187"	"227.684"	"69.956"	"4.236"	"0"
"1965"	"6.222"	"7.619"	"30.222"	"39.74"	"21.469"	"108.023"	"565.207"	"256.517"	"194.634"	"58.491"	"0.214"	"0.768"
"1966"	"55.34"	"8.519"	"0.284"	"0.631"	"11.382"	"163.875"	"126.448"	"190.452"	"220.788"	"73.514"	"58.158"	"1.725"
"1967"	"20.636"	"0.16"	"101.339"	"9.022"	"4.543"	"228.869"	"265.987"	"262.739"	"236.21"	"39.933"	"0.214"	"11.376"
"1968"	"16.207"	"26.705"	"1.501"	"1.493"	"19.2"	"213.308"	"362.8"	"140.358"	"286.615"	"130.883"	"39.755"	"0.417"
"1969"	"0"	"0.242"	"25.395"	"10.251"	"34.99"	"85.459"	"413.965"	"156.324"	"242.082"	"24.679"	"47.18"	"12.275"
"1970"	"3.204"	"26.028"	"59.63"	"6.653"	"47.491"	"281.39"	"200.988"	"302.781"	"87.845"	"54.916"	"6.846"	"0"
"1971"	"12.688"	"53.105"	"0.932"	"89.078"	"72.033"	"336.31"	"172.026"	"310.616"	"161.446"	"79.858"	"0.214"	"0"
"1972"	"0.404"	"23.849"	"0.37"	"33.341"	"10.761"	"94.63"	"165.475"	"255.035"	"283.492"	"129.355"	"45.82"	"0.017"
"1973"	"0.07"	"0.16"	"2.888"	"18.04"	"29.268"	"131.974"	"224.769"	"330.641"	"104.551"	"143.419"	"12.185"	"10.058"
"1974"	"0"	"0.345"	"62.164"	"0.63"	"34.396"	"204.545"	"211.316"	"220.355"	"134.077"	"148.36"	"22.197"	"0"
"1975"	"0.88"	"8.272"	"9.596"	"0.758"	"34.299"	"322.775"	"366.761"	"258.519"	"275.97"	"181.408"	"24.481"	"0"
"1976"	"0.472"	"1.097"	"0.669"	"123.396"	"32.544"	"89.28"	"440.542"	"340.571"	"251.683"	"53.408"	"53.734"	"0.535"
"1977"	"0.333"	"0.273"	"0.16"	"63.375"	"68.074"	"171.975"	"299.445"	"306.04"	"185.983"	"76.275"	"87.413"	"3.12"
"1978"	"9.87"	"20.247"	"20.601"	"36.796"	"44.317"	"175.365"	"386.158"	"368.065"	"182.717"	"68.21"	"30.693"	"12.349"
"1979"	"1.712"	"22.695"	"1.128"	"28.437"	"13.658"	"188.115"	"198.763"	"128.047"	"178.883"	"26.311"	"9.82"	"2.713"
"1980"	"22.136"	"17.963"	"16.961"	"14.32"	"27.032"	"293.646"	"325.07"	"312.432"	"228.649"	"71.947"	"2.677"	"4.511"
"1981"	"18.744"	"4.751"	"59.268"	"12.397"	"23.626"	"116.642"	"221.848"	"324.847"	"348.815"	"26.049"	"1.3"	"0.961"
"1982"	"0.9"	"5.182"	"21.179"	"45.38"	"20.206"	"134.55"	"296.968"	"322.759"	"167.818"	"44.058"	"33.938"	"0.027"
"1983"	"0.363"	"40.65"	"19.656"	"8.183"	"46.96"	"160.218"	"269.417"	"266.765"	"151.466"	"97.713"	"3.829"	"1.412"
"1984"	"10.014"	"16.634"	"2.612"	"17.727"	"58.328"	"304.644"	"239.976"	"274.358"	"100.998"	"47.177"	"2.693"	"0.178"
"1985"	"28.99"	"1.091"	"2.827"	"7.479"	"22.887"	"243.973"	"292.8"	"264.336"	"186.455"	"182.37"	"2.266"	"0.257"
"1986"	"26.186"	"28.421"	"2.007"	"26.784"	"25.953"	"173.852"	"290.178"	"325.55"	"222.608"	"56.918"	"92.139"	"2.219"
"1987"	"3.608"	"0.711"	"19.201"	"23.19"	"47.84"	"87.56"	"238.288"	"292.518"	"99.495"	"66.634"	"51.708"	"1.288"
"1988"	"0.117"	"14.494"	"4.402"	"31.24"	"59.968"	"92.836"	"361.484"	"242.995"	"216.323"	"54.378"	"5.113"	"0.195"
"1989"	"0"	"0.16"	"33.931"	"5.108"	"91.823"	"216.361"	"289.493"	"265.903"	"163.276"	"63.821"	"1.299"	"1.296"
"1990"	"1.664"	"63.536"	"59.139"	"15.264"	"103.37"	"215.689"	"395.214"	"377.593"	"161.304"	"221.907"	"31.081"	"1.833"
"1991"	"13.163"	"2.104"	"18.247"	"16.854"	"30.661"	"206.632"	"334.672"	"269.369"	"176.262"	"86.588"	"20.601"	"3.987"
"1992"	"7.426"	"3.471"	"0.16"	"6.39"	"100.483"	"160.03"	"355.477"	"252.635"	"156.539"	"44.877"	"30.909"	"0"
"1993"	"0.653"	"0.168"	"22.413"	"27.834"	"48.462"	"246.982"	"296.425"	"208.901"	"202.927"	"183.62"	"7.477"	"0"
"1994"	"1.139"	"11.529"	"27.209"	"19.539"	"45.83"	"154.208"	"373.143"	"286.943"	"201.033"	"155.303"	"16.555"	"0"
"1995"	"9.308"	"5.19"	"43.482"	"14.716"	"61.695"	"130.734"	"367.507"	"189.829"	"191.684"	"179.558"	"33.979"	"0"
"1996"	"6.607"	"4.073"	"9.03"	"36.997"	"15.563"	"149.571"	"221.993"	"262.822"	"89.228"	"79.001"	"22.048"	"0.344"
"1997"	"18.46"	"3.838"	"60.124"	"47.952"	"10.956"	"123.468"	"278.006"	"214.863"	"218.144"	"25.069"	"63.437"	"10.348"
"1998"	"8.971"	"48.412"	"4.93"	"21.899"	"44.242"	"172.539"	"248.696"	"148.515"	"214.075"	"201.033"	"99.406"	"0"
"1999"	"0.233"	"0.278"	"0.16"	"0.319"	"83.76"	"193.768"	"163.691"	"497.434"	"148.089"	"88.084"	"11.388"	"0"
"2000"	"0.238"	"65.632"	"0.16"	"26.58"	"45.713"	"312.304"	"200.201"	"270.32"	"92.861"	"50.129"	"6.743"	"0.003"
"2001"	"0.33"	"1.04"	"19.656"	"25.171"	"64.671"	"314.263"	"266.551"	"332.845"	"126.259"	"89.412"	"56.542"	"0.074"
"2002"	"50.037"	"3.749"	"5.753"	"41.25"	"59.195"	"170.18"	"223.193"	"345.128"	"125.524"	"30.279"	"26.904"	"0"
