
"Year"	"Jan"	"Feb"	"Mar"	"Apr"	"May"	"Jun"	"Jul"	"Aug"	"Sep"	"Oct"	"Nov"	"Dec"
"1901"	"50.693"	"11.297"	"21.769"	"7.119"	"27.926"	"40.414"	"346.58"	"168.439"	"49.483"	"0.396"	"0"	"6.105"
"1902"	"0.327"	"6.228"	"23.602"	"24.667"	"24.169"	"90.157"	"239.978"	"158.201"	"99.141"	"7.227"	"6.892"	"0.155"
"1903"	"30.812"	"14.704"	"21.048"	"4.02"	"13.117"	"35.371"	"446.798"	"165.26"	"65.242"	"10.595"	"0"	"6.196"
"1904"	"39.271"	"3.987"	"59.447"	"9.102"	"27.125"	"74.791"	"177.699"	"156.93"	"83.345"	"7.588"	"20.249"	"7.859"
"1905"	"80.643"	"40.083"	"13.073"	"7.347"	"7.76"	"40.869"	"120.889"	"165.792"	"214.801"	"3.817"	"0"	"22.728"
"1906"	"13.182"	"92.39"	"21.499"	"10.671"	"50.441"	"63.086"	"94.919"	"270.08"	"229.543"	"1.046"	"0"	"5.051"
"1907"	"23.244"	"57.912"	"47.185"	"38.183"	"6.777"	"129.962"	"118.202"	"260.403"	"14.091"	"2.602"	"0.216"	"0.148"
"1908"	"43.454"	"17.966"	"1.787"	"22.081"	"37.671"	"75.224"	"154.296"	"413.989"	"302.265"	"0.722"	"0.488"	"6.526"
"1909"	"34.686"	"14.494"	"5.779"	"51.41"	"6.722"	"142.54"	"350.974"	"213.617"	"281.444"	"0.766"	"5.883"	"58.539"
"1910"	"44.483"	"13.868"	"8.607"	"36.299"	"16.639"	"139.192"	"225.292"	"238.291"	"79.454"	"2.581"	"0.984"	"9.769"
"1911"	"73.419"	"8.185"	"81.796"	"11.686"	"7.489"	"68.743"	"153.824"	"183.64"	"166.475"	"5.235"	"35.059"	"3.766"
"1912"	"58.596"	"17.727"	"14.747"	"28.319"	"26.325"	"43.554"	"121.674"	"185.489"	"63.33"	"0.495"	"19.177"	"16.853"
"1913"	"30.208"	"50.172"	"45.17"	"22.149"	"52.708"	"97.646"	"167.655"	"242.439"	"49.683"	"2.149"	"4.916"	"23.102"
"1914"	"30.934"	"47.522"	"31.652"	"23.719"	"20.994"	"60.653"	"271.152"	"185.443"	"267.513"	"24.409"	"16.087"	"15.988"
"1915"	"9.478"	"78.093"	"31.226"	"11.107"	"12.82"	"70.791"	"70.511"	"307.197"	"107.431"	"28.872"	"0"	"5.744"
"1916"	"5.249"	"13.715"	"4.505"	"11.024"	"17.507"	"98.022"	"383.583"	"197.378"	"117.888"	"10.609"	"0.337"	"0.174"
"1917"	"9.332"	"14.497"	"20.64"	"33.735"	"31.703"	"162.675"	"170.538"	"434.236"	"282.855"	"23.772"	"0"	"13.105"
"1918"	"3.196"	"2.298"	"40.308"	"37.516"	"3.415"	"74.104"	"104.699"	"103.717"	"49.149"	"0.581"	"17.163"	"17.934"
"1919"	"70.091"	"21.477"	"25.268"	"21.206"	"15.651"	"25.128"	"223.666"	"138.408"	"69.201"	"4.173"	"2.183"	"13.201"
"1920"	"35.753"	"27.485"	"28.874"	"22.304"	"19.989"	"67.322"	"90.588"	"112.606"	"112.126"	"1.326"	"0"	"0.615"
"1921"	"22.673"	"1.859"	"5.11"	"7.621"	"28.95"	"93.54"	"194.351"	"236.325"	"104.501"	"17.02"	"0"	"26.84"
"1922"	"30.952"	"32.712"	"17.55"	"9.65"	"20.121"	"65.739"	"128.308"	"194.403"	"319.434"	"6.038"	"2.952"	"51.907"
"1923"	"34.018"	"57.814"	"8.389"	"23.435"	"20.797"	"11.041"	"380.556"	"266.769"	"71.955"	"16.192"	"11.878"	"33.502"
"1924"	"52.093"	"63.5"	"15.187"	"6.946"	"27.727"	"12.702"	"269.042"	"96.035"	"263.44"	"12.86"	"1.5"	"60.949"
"1925"	"18.01"	"4.816"	"5.831"	"5.815"	"23.248"	"163.403"	"265.982"	"279.997"	"45.985"	"2.898"	"21.146"	"0.148"
"1926"	"21.284"	"7.638"	"54.276"	"21.297"	"17.013"	"36.513"	"177.286"	"250.196"	"111.875"	"1.389"	"7.367"	"16.586"
"1927"	"2.379"	"28.811"	"26.52"	"10.397"	"25.301"	"40.543"	"109.919"	"298.272"	"74.467"	"17.921"	"0.059"	"31.358"
"1928"	"29.097"	"39.627"	"14.342"	"22.933"	"4.936"	"38.695"	"164.474"	"148.223"	"293.315"	"0.187"	"20.378"	"23.651"
"1929"	"33.395"	"3.112"	"5.638"	"12.497"	"6.551"	"142.991"	"194.56"	"282.124"	"21.424"	"6.924"	"0"	"60.609"
"1930"	"48.896"	"12.106"	"6.439"	"24.885"	"8.55"	"35.202"	"263.815"	"137.9"	"36.347"	"5.348"	"8.386"	"11.501"
"1931"	"39.825"	"47.923"	"20.096"	"25.897"	"27.563"	"30.096"	"464.322"	"224.9"	"182.927"	"26.111"	"0.984"	"0.148"
"1932"	"20.893"	"4.205"	"19.448"	"12.253"	"9.027"	"82.413"	"120.678"	"137.379"	"86.467"	"1.235"	"0.488"	"36.115"
"1933"	"17.364"	"25.659"	"24.426"	"19.096"	"15.628"	"69.797"	"173.302"	"393.774"	"154.734"	"17.24"	"10.937"	"1.786"
"1934"	"25.981"	"10.667"	"21.561"	"2.391"	"6.787"	"45.703"	"243.554"	"301.701"	"21.903"	"0"	"0"	"21.888"
"1935"	"71.818"	"57.631"	"15.474"	"28.744"	"19.559"	"4.593"	"95.121"	"136.998"	"76.346"	"1.951"	"19.466"	"13.579"
"1936"	"12.597"	"50.322"	"54.98"	"24.198"	"14.399"	"277.811"	"424.464"	"179.816"	"86.802"	"16.431"	"2.464"	"39.721"
"1937"	"12.206"	"80.836"	"18.425"	"32.123"	"17.826"	"51.79"	"346.248"	"62.541"	"118.187"	"14.848"	"1.299"	"23.627"
"1938"	"59.343"	"28.628"	"3.415"	"8.35"	"1.589"	"183.294"	"157.578"	"191.755"	"28.405"	"8.688"	"1.191"	"4.052"
"1939"	"27.283"	"57.378"	"38.479"	"16.729"	"7.756"	"56.63"	"159.25"	"93.184"	"56.02"	"11.814"	"0.008"	"0.153"
"1940"	"40.837"	"45.858"	"32.936"	"17.571"	"16.987"	"127.373"	"108.48"	"211.576"	"114.405"	"1.809"	"1.939"	"9.287"
"1941"	"32.858"	"21.862"	"10.063"	"15.88"	"32.576"	"69.952"	"142.191"	"71.292"	"249.05"	"1.155"	"3.264"	"18.559"
"1942"	"53.465"	"62.239"	"14.994"	"31.435"	"26.869"	"69.81"	"317.295"	"210.61"	"107.926"	"3.82"	"2.993"	"30.305"
"1943"	"28.286"	"4.538"	"14.431"	"20.002"	"7.31"	"104.658"	"89.65"	"124.652"	"133.039"	"0"	"0"	"0.148"
"1944"	"45.052"	"43.747"	"27.727"	"24.017"	"5.783"	"102.821"	"151.9"	"237.247"	"128.067"	"1.414"	"7.205"	"13.752"
"1945"	"45.328"	"3.677"	"34.067"	"49.802"	"14.158"	"116.371"	"333.366"	"124.779"	"220.116"	"17.722"	"0.216"	"6.86"
"1946"	"3.882"	"16.722"	"11.488"	"17.1"	"26.253"	"87.929"	"176.521"	"147.094"	"42.271"	"15.828"	"11.179"	"15.074"
"1947"	"20.265"	"24.452"	"21.504"	"2.857"	"14.71"	"34.072"	"174.689"	"281.846"	"94.256"	"16.079"	"1.182"	"24.888"
"1948"	"8.481"	"46.648"	"65.316"	"18.122"	"16.859"	"121.769"	"357.751"	"283.223"	"116.086"	"5.279"	"2.284"	"16.86"
"1949"	"17.884"	"61.932"	"21.56"	"17.287"	"18.296"	"56.189"	"280.744"	"135.88"	"121.692"	"8.323"	"1.192"	"3.308"
"1950"	"114.345"	"29.636"	"53.445"	"12.613"	"21.879"	"66.027"	"359.367"	"218.076"	"356.997"	"1.502"	"0.808"	"1.665"
"1951"	"34.563"	"39.328"	"38.726"	"22.123"	"26.732"	"97.897"	"139.796"	"202.961"	"80.649"	"7.132"	"23.571"	"5.211"
"1952"	"30.997"	"27.317"	"44.766"	"10.673"	"19.958"	"58.494"	"113.506"	"110.188"	"10.735"	"1.28"	"8.086"	"19.939"
"1953"	"49.408"	"22.409"	"28.574"	"15.37"	"4.532"	"73.507"	"405.019"	"212.02"	"221.613"	"10.61"	"3.222"	"19.787"
"1954"	"37.319"	"80.229"	"8.177"	"3.343"	"24.493"	"61.469"	"217.697"	"99.452"	"455.366"	"14.576"	"0"	"4.01"
"1955"	"34.032"	"2.919"	"55.199"	"18.442"	"26.78"	"46.262"	"143.029"	"210.857"	"242.838"	"29.585"	"0"	"5.078"
"1956"	"30.731"	"22.81"	"38.509"	"30.907"	"19.168"	"151.877"	"184.435"	"221.671"	"23.267"	"38.629"	"0"	"8.932"
"1957"	"93.438"	"12.634"	"38.212"	"52.115"	"17.485"	"61.209"	"116.772"	"435.548"	"76.173"	"22.979"	"19.878"	"32.875"
"1958"	"18.91"	"9.593"	"17.527"	"14.559"	"12.26"	"51.608"	"151.342"	"220.736"	"258.666"	"20.434"	"1.967"	"42.321"
"1959"	"41.478"	"21.526"	"25.046"	"9.011"	"59.795"	"20.156"	"516.153"	"197.014"	"64.39"	"16.413"	"31.938"	"2.057"
"1960"	"26.338"	"6.219"	"32.572"	"17.914"	"20.01"	"77.299"	"235.842"	"180.628"	"80.977"	"13.589"	"0"	"10.639"
"1961"	"113.363"	"35.022"	"18.019"	"20.72"	"10.628"	"35.805"	"286.071"	"143.272"	"160.77"	"16.956"	"3.321"	"23.19"
"1962"	"47.879"	"31.837"	"26.085"	"4.586"	"10.913"	"2.982"	"185.434"	"132.323"	"283.802"	"0"	"12.025"	"26.101"
"1963"	"0.639"	"41.436"	"80.923"	"7.264"	"27.122"	"15.002"	"108.583"	"103.865"	"93.53"	"0.712"	"1.087"	"29.85"
"1964"	"36.615"	"14.063"	"14.841"	"20.098"	"18.204"	"90.951"	"320.285"	"221.13"	"96.053"	"0"	"3.419"	"12.508"
"1965"	"13.296"	"39.397"	"27.889"	"55.125"	"19.772"	"6.143"	"210.104"	"162.092"	"5.82"	"21.612"	"11.828"	"0.148"
"1966"	"3.372"	"71.654"	"52.612"	"27.476"	"29.363"	"137.264"	"147.392"	"173.111"	"282.832"	"23.811"	"21.229"	"0.619"
"1967"	"0.803"	"39.351"	"59.177"	"9.848"	"15.665"	"5.58"	"106.195"	"341.934"	"46.365"	"5.422"	"2.552"	"64.242"
"1968"	"31.962"	"41.738"	"15.135"	"7.684"	"7.871"	"15.479"	"191.759"	"250.851"	"1.369"	"14.72"	"0.219"	"14.606"
"1969"	"9.786"	"22.002"	"39.178"	"69.625"	"35.251"	"16.918"	"231.816"	"181.125"	"184.797"	"7.923"	"0.008"	"0.148"
"1970"	"30.872"	"31.761"	"16.094"	"2.245"	"11.123"	"60.352"	"60.17"	"224.227"	"75.688"	"3.222"	"0"	"0.354"
"1971"	"3.517"	"19.789"	"5.352"	"31.529"	"72.181"	"103.591"	"203.604"	"303.282"	"54.293"	"14.761"	"0.137"	"0.148"
"1972"	"19.948"	"21.744"	"22.685"	"6.714"	"20.338"	"19.839"	"117.037"	"160.466"	"277.996"	"32.262"	"17.987"	"14.621"
"1973"	"29.15"	"21.571"	"18.31"	"7.358"	"19.468"	"83.762"	"213.177"	"356.405"	"102.973"	"9.435"	"0"	"22.595"
"1974"	"30.181"	"32.394"	"10.213"	"1.606"	"29.96"	"63.908"	"226.75"	"103.103"	"58.798"	"1.209"	"0.148"	"12.894"
"1975"	"38.195"	"37.941"	"54.323"	"6.758"	"4.249"	"143.445"	"261.164"	"270.495"	"236.662"	"6.558"	"0"	"0.913"
"1976"	"21.812"	"41.814"	"20.123"	"12.365"	"17.909"	"224.199"	"199.544"	"633.275"	"174.482"	"17.6"	"0"	"0.552"
"1977"	"56.187"	"3.923"	"2.37"	"68.856"	"48.093"	"207.061"	"232.38"	"161.944"	"81.065"	"31.436"	"1.578"	"13.248"
"1978"	"9.977"	"11.007"	"84.673"	"18.658"	"3.173"	"126.295"	"415.154"	"434.418"	"260.289"	"0.008"	"18.837"	"1.622"
"1979"	"16.781"	"67.061"	"48.446"	"7.772"	"28.357"	"50.11"	"207.65"	"88.581"	"159.023"	"10.206"	"8.892"	"2.732"
"1980"	"18.281"	"33.374"	"26.15"	"8.533"	"17.493"	"127.272"	"501.165"	"311.187"	"122.686"	"8.489"	"10.489"	"14.686"
"1981"	"102.929"	"27.097"	"49.122"	"20.54"	"17.014"	"17.151"	"411.867"	"144.963"	"5.792"	"9.636"	"46.06"	"0.767"
"1982"	"29.179"	"27.972"	"110.241"	"26.01"	"44.836"	"15.101"	"51.217"	"204.876"	"2.73"	"6.638"	"32.087"	"32.296"
"1983"	"54.761"	"33.632"	"84.933"	"57.205"	"78.394"	"109.799"	"241.664"	"268.675"	"76.295"	"26.922"	"0"	"1.606"
"1984"	"0.576"	"69.078"	"13.07"	"24.507"	"7.177"	"23.796"	"501.284"	"280.733"	"217.221"	"0"	"0.316"	"29.116"
"1985"	"25.179"	"2.16"	"16.971"	"42.568"	"22.632"	"105.705"	"438.101"	"227.1"	"126.255"	"25.327"	"2.134"	"29.347"
"1986"	"4.068"	"47.577"	"32.1"	"15.576"	"33.888"	"107.675"	"288.953"	"241.562"	"175.833"	"10.281"	"6.563"	"41.822"
"1987"	"51.778"	"29.309"	"28.392"	"19.961"	"25.022"	"98.705"	"102.973"	"125.838"	"2.868"	"22.853"	"0"	"21.163"
"1988"	"15.966"	"17.342"	"87.704"	"12.593"	"1.354"	"97.567"	"366.787"	"186.083"	"220.107"	"30.547"	"0"	"40.604"
"1989"	"67.122"	"10.481"	"22.323"	"5.784"	"12.184"	"32.499"	"307.812"	"149.976"	"61.961"	"2.36"	"10.542"	"4.674"
"1990"	"14.455"	"95.699"	"89.859"	"19.509"	"53.399"	"22.113"	"245.318"	"261.72"	"274.632"	"3.9"	"13.049"	"50.436"
"1991"	"7.391"	"28.75"	"17.388"	"58.333"	"28.358"	"137.374"	"26.22"	"175.718"	"96.875"	"4.099"	"0.319"	"12.427"
"1992"	"79.697"	"56.208"	"34.836"	"14.361"	"41.613"	"37.375"	"162.075"	"212.879"	"163.616"	"4.754"	"28.919"	"3.85"
"1993"	"19.086"	"23.458"	"33.66"	"30.882"	"17.734"	"61.05"	"197.082"	"24.179"	"167.398"	"0"	"0"	"0.148"
"1994"	"40.691"	"24.589"	"13.465"	"9.783"	"65.216"	"42.852"	"206.874"	"157.07"	"166.129"	"2.745"	"0"	"15.991"
"1995"	"49.609"	"128.198"	"16.963"	"6.668"	"1.64"	"108.875"	"254.141"	"363.487"	"121.482"	"3.346"	"26.704"	"3.123"
"1996"	"61.259"	"60.085"	"44.913"	"21.775"	"38.889"	"251.817"	"152.634"	"445.961"	"69.277"	"11.82"	"0.109"	"6.728"
"1997"	"25.07"	"15.133"	"27.436"	"51.343"	"24.545"	"160.64"	"254.776"	"375.57"	"101.432"	"17.413"	"20.831"	"7.777"
"1998"	"50.03"	"51.89"	"48.84"	"39.118"	"32.452"	"25.522"	"195.869"	"150.468"	"144.478"	"21.215"	"3.468"	"6.834"
"1999"	"31.646"	"23.992"	"14.758"	"20.912"	"24.167"	"76.42"	"136.391"	"230.861"	"88.636"	"4.428"	"5.274"	"4.263"
"2000"	"28.041"	"42.657"	"17.565"	"5.745"	"21.927"	"90.244"	"188.515"	"143.288"	"76.795"	"0"	"3.477"	"2.417"
"2001"	"11.104"	"16.172"	"18.052"	"18.349"	"31.185"	"82.331"	"296.083"	"116.62"	"84.141"	"2.113"	"5.426"	"4.053"
"2002"	"22.962"	"48.557"	"48.201"	"12.771"	"14.908"	"88.567"	"93.495"	"178.26"	"219.356"	"1.548"	"0"	"3.788"
