
"Year"	"Jan"	"Feb"	"Mar"	"Apr"	"May"	"Jun"	"Jul"	"Aug"	"Sep"	"Oct"	"Nov"	"Dec"
"1901"	"37.711"	"12.751"	"7.194"	"0.083"	"5.517"	"16.69"	"131.866"	"303.15"	"94.581"	"3.634"	"0"	"5.643"
"1902"	"3.851"	"0.841"	"0.189"	"1.512"	"5.569"	"48.287"	"351.357"	"190.888"	"153.38"	"3.561"	"0.378"	"0"
"1903"	"4.931"	"1.713"	"5.711"	"0.64"	"1.727"	"12.122"	"113.993"	"344.557"	"73.863"	"73.595"	"0"	"0.084"
"1904"	"7.39"	"0.107"	"8.528"	"0.23"	"4.639"	"71.473"	"321.304"	"434.18"	"55.669"	"41.143"	"8.821"	"20.325"
"1905"	"22.239"	"12.917"	"11.943"	"1.65"	"1.499"	"22.924"	"171.521"	"127.84"	"93.889"	"0.289"	"0"	"1.686"
"1906"	"3.33"	"16.247"	"11.718"	"0.23"	"3.698"	"131.835"	"167.833"	"180.615"	"190.474"	"1.108"	"0"	"4.952"
"1907"	"5.211"	"44.041"	"7.6"	"17.963"	"6.432"	"21.161"	"131.672"	"381.168"	"1.907"	"0.289"	"0.012"	"0"
"1908"	"22.3"	"3.741"	"0.113"	"0.869"	"5.221"	"28.597"	"398.852"	"386.634"	"35.774"	"10.061"	"0.083"	"1.463"
"1909"	"17.89"	"3.839"	"0"	"14.983"	"10.911"	"144.85"	"411.436"	"162.78"	"103.767"	"0.835"	"0"	"23.719"
"1910"	"10.356"	"2.564"	"0"	"1.625"	"5.937"	"70.991"	"179.444"	"232.522"	"170.167"	"33.361"	"13.622"	"0.147"
"1911"	"24.8"	"0"	"22.586"	"2.065"	"0"	"39.151"	"46.679"	"165.619"	"315.896"	"41.848"	"30.625"	"5.845"
"1912"	"19.598"	"1.974"	"8.679"	"1.321"	"2.504"	"27.511"	"223.989"	"243.443"	"183.965"	"0.415"	"11.547"	"2.64"
"1913"	"0.231"	"33.47"	"9.834"	"0.325"	"19.479"	"94.398"	"119.495"	"120.063"	"28.859"	"0.562"	"0.964"	"10.394"
"1914"	"1.818"	"5.114"	"7.095"	"7.792"	"19.142"	"83.491"	"414.239"	"196.878"	"190.505"	"14.59"	"0"	"0"
"1915"	"12.374"	"23.146"	"40.125"	"3.871"	"2.493"	"57.747"	"214.513"	"271.271"	"108.869"	"56.067"	"0"	"1.856"
"1916"	"0.001"	"11.226"	"0"	"1.129"	"3.273"	"106.87"	"284.851"	"382.116"	"133.006"	"33.918"	"1.927"	"0"
"1917"	"3.082"	"17.494"	"18.314"	"11.248"	"33.873"	"94.229"	"359.39"	"293.071"	"269.575"	"63.489"	"0"	"6.601"
"1918"	"13.149"	"0"	"3.082"	"1.674"	"1.275"	"93.679"	"52.898"	"234.957"	"59.119"	"0.647"	"2.898"	"0.201"
"1919"	"29.418"	"4.219"	"1.821"	"6.558"	"3.953"	"32.542"	"244.798"	"399.937"	"97.284"	"15.219"	"2.078"	"5.531"
"1920"	"5.046"	"13.05"	"10.804"	"0.083"	"7.69"	"93.969"	"393.25"	"105.824"	"69.175"	"1.144"	"0"	"0"
"1921"	"35.87"	"0.373"	"0.083"	"0.404"	"0.083"	"57.856"	"123.173"	"215.183"	"268.176"	"10.462"	"0"	"0"
"1922"	"19.541"	"1.957"	"0.457"	"2.503"	"0.126"	"54.364"	"279.199"	"332.83"	"236.798"	"4.217"	"0.627"	"32.767"
"1923"	"0.942"	"11.109"	"0.024"	"0"	"2.049"	"6.588"	"172.887"	"319.4"	"226.167"	"27.783"	"2.388"	"8.226"
"1924"	"15.897"	"7.742"	"0.272"	"0.23"	"1.108"	"13.657"	"227.536"	"310.811"	"302.66"	"24.773"	"2.199"	"21.375"
"1925"	"1.458"	"0"	"0.168"	"0.504"	"20.448"	"161.897"	"589.193"	"147.706"	"148.873"	"1.475"	"26.877"	"0"
"1926"	"6.633"	"3.568"	"37.32"	"8.112"	"16.483"	"21.878"	"221.599"	"288.705"	"179.83"	"10.129"	"1.33"	"0.625"
"1927"	"3.104"	"17.873"	"8.474"	"1.616"	"6.455"	"30.021"	"274.651"	"297.999"	"121.316"	"35.369"	"23.005"	"10.181"
"1928"	"11.04"	"21.629"	"0.427"	"6.223"	"1.924"	"27.445"	"219.882"	"83.915"	"59.236"	"83.426"	"7.439"	"31.549"
"1929"	"24.335"	"1.023"	"0.325"	"1.847"	"0.545"	"60.625"	"266.814"	"217.265"	"35.508"	"23.462"	"0"	"26.529"
"1930"	"9.472"	"9.8"	"1.407"	"1.157"	"2.878"	"103.366"	"425.013"	"225.373"	"77.541"	"32.99"	"4.127"	"7.907"
"1931"	"0.126"	"9.492"	"0.628"	"0.363"	"2.194"	"37.349"	"163.897"	"202.506"	"295.526"	"95.737"	"0.347"	"0"
"1932"	"0.001"	"1.595"	"8.441"	"1.594"	"2.838"	"28.698"	"121.527"	"333.025"	"178.264"	"10.53"	"1.069"	"0.934"
"1933"	"1.417"	"9.169"	"3.263"	"15.203"	"25.236"	"226.133"	"147.214"	"277.29"	"201.033"	"52.628"	"0"	"0.084"
"1934"	"15.47"	"0.126"	"18.091"	"0"	"0.763"	"105.651"	"135.163"	"242.174"	"111.413"	"0.652"	"0.812"	"25.812"
"1935"	"21.827"	"6.657"	"0.766"	"7.627"	"0.611"	"52.126"	"323.317"	"227.866"	"122.959"	"3.877"	"1.33"	"9.327"
"1936"	"1.731"	"16.468"	"12.111"	"1.032"	"4.239"	"267.287"	"317.025"	"356.486"	"152.706"	"1.824"	"12.246"	"20.49"
"1937"	"0.126"	"34.112"	"3.201"	"3.5"	"6.616"	"57.737"	"170.327"	"185.322"	"140.932"	"20.624"	"2.521"	"17.671"
"1938"	"22.385"	"3.141"	"0"	"2.334"	"1.404"	"94.707"	"323.36"	"206.972"	"114.898"	"18.539"	"0.189"	"0"
"1939"	"15.451"	"8.3"	"1.595"	"3.313"	"0.366"	"112.943"	"280.263"	"171.226"	"184.545"	"8.749"	"0"	"0"
"1940"	"13.16"	"13.455"	"17.317"	"6.629"	"8.298"	"47.901"	"117.042"	"292.469"	"71.94"	"1.99"	"1.8"	"4.244"
"1941"	"20.009"	"1.323"	"1.083"	"0"	"11.176"	"40.502"	"148.176"	"151.532"	"83.947"	"1.203"	"0.189"	"0.934"
"1942"	"32.549"	"13.649"	"0.126"	"4.167"	"2.727"	"49.757"	"358.005"	"303.161"	"280.246"	"0.289"	"0"	"9.181"
"1943"	"17.862"	"0.73"	"1.311"	"15.927"	"10.029"	"70.725"	"143.181"	"475.867"	"184.557"	"1.573"	"0"	"0"
"1944"	"19.467"	"16.79"	"36.257"	"15.659"	"0"	"31.506"	"203.341"	"323.44"	"63.469"	"5.172"	"0.083"	"1.265"
"1945"	"23.385"	"0.167"	"0.367"	"8.928"	"10.555"	"31.791"	"163.946"	"326.345"	"241.583"	"18.633"	"0"	"10.472"
"1946"	"0.001"	"10.171"	"0.189"	"2.252"	"10.039"	"75.673"	"278.194"	"322.159"	"9.271"	"16.282"	"5.802"	"6.456"
"1947"	"7.981"	"5.731"	"7.023"	"1.475"	"1.323"	"36.263"	"317.293"	"308.56"	"289.172"	"47.726"	"1.39"	"3.157"
"1948"	"31.539"	"9.552"	"1.716"	"0.774"	"3.549"	"73.252"	"335.458"	"371.197"	"194.06"	"29.404"	"10.098"	"0.147"
"1949"	"0.084"	"16.269"	"2.042"	"1.09"	"1.88"	"9.207"	"358.455"	"405.281"	"205.83"	"33.908"	"0.084"	"0.084"
"1950"	"7.739"	"2.431"	"19.064"	"0.126"	"10.035"	"42.04"	"248.641"	"356.8"	"146.542"	"0.289"	"0.083"	"8.601"
"1951"	"11.285"	"5.252"	"22.784"	"4.109"	"2.567"	"93.346"	"137.597"	"340.448"	"220.654"	"5.187"	"16.909"	"0"
"1952"	"1.144"	"12.841"	"15.665"	"4.372"	"5.377"	"88.308"	"183.209"	"510.56"	"40.242"	"0.289"	"1.414"	"21.409"
"1953"	"33.265"	"7.727"	"0.126"	"1.522"	"0.272"	"56.557"	"253.617"	"256.972"	"79.501"	"0.327"	"0"	"2.909"
"1954"	"15.008"	"24.967"	"6.342"	"0"	"0.083"	"25.755"	"263.701"	"267.425"	"172.31"	"54.478"	"0"	"0.084"
"1955"	"35.141"	"6.944"	"1.812"	"1.048"	"1.652"	"129.929"	"339.525"	"362.556"	"158.4"	"117.07"	"0"	"0.472"
"1956"	"11.271"	"6.872"	"17.19"	"0"	"3.195"	"116.335"	"351.62"	"250.128"	"120.595"	"131.166"	"13.564"	"13.705"
"1957"	"22.014"	"0.209"	"27.678"	"4.796"	"5.042"	"43.505"	"341.408"	"227.766"	"193.918"	"12.525"	"2.959"	"5.899"
"1958"	"8.573"	"4.389"	"15.093"	"0.857"	"0.126"	"17.085"	"336.23"	"335.696"	"233.454"	"46.739"	"0.326"	"5.603"
"1959"	"23.622"	"2.253"	"0.587"	"0.569"	"35.359"	"24.831"	"222.187"	"277.825"	"54.551"	"57.799"	"5.001"	"0"
"1960"	"5.596"	"0"	"22.555"	"1.06"	"7.133"	"25.873"	"313.618"	"492.167"	"92.108"	"84.891"	"0"	"5.982"
"1961"	"32.287"	"19.364"	"0"	"1.95"	"2.738"	"66.115"	"193.799"	"546.383"	"96.175"	"55.762"	"3.067"	"3.022"
"1962"	"24.154"	"3.699"	"8.601"	"5.664"	"2.118"	"27.733"	"259.866"	"283.325"	"246.546"	"0.331"	"0.869"	"2.307"
"1963"	"16.205"	"3.153"	"8.702"	"5.196"	"11.182"	"57.181"	"282.28"	"310.479"	"324.801"	"2.381"	"6.451"	"9.585"
"1964"	"0.588"	"1.885"	"1.93"	"1.74"	"10.491"	"17.271"	"390.045"	"279.81"	"297.742"	"4.176"	"0"	"3.806"
"1965"	"1.412"	"5.277"	"9.291"	"12.499"	"2.515"	"8.793"	"260.951"	"157.652"	"131.011"	"44.304"	"0.083"	"1.682"
"1966"	"0.74"	"4.638"	"0.126"	"0"	"18.341"	"152.923"	"152.998"	"309.537"	"27.955"	"3.554"	"30.63"	"4.767"
"1967"	"0.6"	"0.23"	"23.369"	"1.933"	"0.857"	"38.005"	"247.115"	"580.087"	"163.753"	"0.877"	"0.326"	"35.673"
"1968"	"29.565"	"4.449"	"5.124"	"0.504"	"0.125"	"45.71"	"220.983"	"153.177"	"53.266"	"35.606"	"0"	"2.672"
"1969"	"4.86"	"7.861"	"0.587"	"1.09"	"20.63"	"15.765"	"371.503"	"227.58"	"153.142"	"0.562"	"4.248"	"0"
"1970"	"29.849"	"30.688"	"2.034"	"0"	"29.138"	"92.981"	"174.373"	"334.226"	"307.813"	"18.927"	"0"	"0"
"1971"	"15.482"	"9.11"	"1.821"	"10.725"	"21.763"	"180.933"	"252.295"	"304.158"	"163.575"	"77.402"	"2.893"	"0"
"1972"	"9.269"	"19.058"	"0.272"	"1.225"	"0.101"	"23.161"	"102.137"	"277.6"	"161.93"	"37.967"	"6.014"	"4.027"
"1973"	"11.913"	"7.968"	"0.859"	"0"	"1.203"	"28.549"	"280.82"	"413.525"	"157.738"	"81.032"	"0"	"0.079"
"1974"	"0.819"	"0.451"	"0.189"	"0.083"	"5.81"	"20.451"	"182.852"	"150.575"	"26.463"	"64.283"	"0.084"	"1.531"
"1975"	"6.823"	"2.555"	"7.267"	"2.601"	"0.314"	"121.074"	"316.008"	"196.269"	"172.717"	"30.822"	"0"	"0"
"1976"	"8.491"	"3.375"	"1.036"	"2.866"	"3.522"	"96.239"	"176.405"	"259.638"	"158.024"	"0.835"	"10.065"	"0"
"1977"	"22.066"	"5.18"	"0.012"	"10.935"	"7.011"	"44.416"	"382.672"	"203.51"	"203.65"	"56.636"	"0.157"	"3.891"
"1978"	"7.998"	"20.155"	"29.812"	"1.795"	"0.23"	"141.353"	"176.257"	"211.413"	"216.213"	"5.172"	"0.597"	"10.028"
"1979"	"11.765"	"28.315"	"1.869"	"2.013"	"11.303"	"57.884"	"168.209"	"96.189"	"19.038"	"0.675"	"19.824"	"4.766"
"1980"	"0.367"	"3.67"	"13.842"	"0.582"	"1.678"	"106.427"	"326.58"	"434.333"	"101.333"	"19.736"	"1.385"	"31.982"
"1981"	"10.186"	"0.776"	"18.588"	"0.083"	"16.498"	"217.312"	"367.091"	"266.658"	"90.82"	"0.289"	"7.666"	"1.338"
"1982"	"31.266"	"5.294"	"24.629"	"4.588"	"21.568"	"38.176"	"152.239"	"429.097"	"150.683"	"2.725"	"29.434"	"11.064"
"1983"	"14.19"	"2.704"	"0.723"	"25.742"	"31.59"	"83.695"	"106.796"	"322.129"	"169.888"	"36.037"	"0"	"3.344"
"1984"	"9.975"	"11.309"	"0.189"	"26.052"	"1.391"	"98.308"	"150.173"	"238.558"	"129.783"	"9.232"	"0"	"0.42"
"1985"	"7.505"	"0"	"2.631"	"10.089"	"2.069"	"48.098"	"377.955"	"293.394"	"185.543"	"114.749"	"0"	"16.424"
"1986"	"11.593"	"18.708"	"5.211"	"1.183"	"34.171"	"79.728"	"186.556"	"207.31"	"111.193"	"39.888"	"1.141"	"26.242"
"1987"	"18.381"	"6.728"	"6.342"	"0.272"	"26.649"	"7.774"	"82.851"	"159.952"	"21.235"	"32.58"	"0"	"6.282"
"1988"	"6.05"	"2.488"	"14.295"	"9.727"	"5.178"	"105.038"	"277.207"	"291.723"	"63.435"	"5.956"	"0.083"	"9.154"
"1989"	"10.752"	"0.451"	"11.32"	"0.588"	"0.995"	"37.502"	"240.067"	"229.926"	"131.463"	"13.791"	"7.266"	"12.934"
"1990"	"0.001"	"17.884"	"1.97"	"4.41"	"17.441"	"108.773"	"296.917"	"316.126"	"269.558"	"2.714"	"1.414"	"9.599"
"1991"	"3.854"	"12.224"	"4.587"	"5.108"	"21.249"	"15.262"	"24.677"	"189.567"	"113.834"	"0.289"	"6.605"	"31.318"
"1992"	"19.669"	"7.353"	"9.444"	"2.814"	"13.198"	"24.439"	"87.154"	"211.489"	"140.332"	"67.659"	"19.331"	"0"
"1993"	"8.434"	"0.166"	"11.847"	"2.609"	"14.568"	"91.871"	"229.301"	"162.169"	"258.619"	"13.626"	"0"	"0"
"1994"	"26.55"	"13.777"	"16.738"	"5.99"	"4.098"	"101.368"	"444.172"	"290.592"	"74.407"	"1.997"	"0"	"0"
"1995"	"28.683"	"6.839"	"4.522"	"9.497"	"0.462"	"28.32"	"163.771"	"310.426"	"156.803"	"0.332"	"6.727"	"8.33"
"1996"	"16.872"	"6.598"	"0.884"	"1.189"	"11.113"	"170.051"	"186.038"	"287.98"	"283.671"	"56.501"	"0"	"0"
"1997"	"5.356"	"0.23"	"3.477"	"3.772"	"16.767"	"119.271"	"37.916"	"202.581"	"197.042"	"45.966"	"19.476"	"17.074"
"1998"	"0.463"	"4.817"	"19.351"	"9.276"	"17.826"	"101.444"	"223.4"	"332.337"	"72.736"	"43.527"	"0.73"	"0.216"
"1999"	"17.124"	"13.916"	"0"	"0"	"8.471"	"126.938"	"247.172"	"240.265"	"245.93"	"66.003"	"0"	"2.755"
"2000"	"10.176"	"4.493"	"1.674"	"1.612"	"8.915"	"33.314"	"220.114"	"168.503"	"142.905"	"0.289"	"0"	"0"
"2001"	"5.802"	"4.371"	"4.312"	"12.171"	"18.754"	"106.972"	"152.936"	"236.509"	"76.957"	"37.68"	"1.773"	"0.147"
"2002"	"15.599"	"11.11"	"1.742"	"0.652"	"6.708"	"35.072"	"51.943"	"207.052"	"190.209"	"38.825"	"3.049"	"6.224"
