
"Year"	"Jan"	"Feb"	"Mar"	"Apr"	"May"	"Jun"	"Jul"	"Aug"	"Sep"	"Oct"	"Nov"	"Dec"
"1901"	"39.745"	"58.697"	"29.208"	"41.252"	"8.639"	"128.11"	"234.977"	"409.125"	"155.8"	"5.914"	"3.633"	"0.006"
"1902"	"14.989"	"1.458"	"0.321"	"2.309"	"1.938"	"50.778"	"314.023"	"300.809"	"191.801"	"14.628"	"4.777"	"23.216"
"1903"	"7.642"	"4.983"	"1.213"	"1.385"	"40.898"	"153.241"	"611.271"	"398.447"	"160.252"	"88.659"	"0.433"	"0.278"
"1904"	"0.934"	"5.011"	"37.219"	"0"	"25.653"	"198.224"	"227.895"	"467.948"	"167.982"	"36.834"	"0.446"	"2.394"
"1905"	"10.057"	"17.561"	"17.408"	"21.445"	"7.967"	"141.244"	"314.21"	"465.651"	"502.985"	"1.83"	"0"	"1.577"
"1906"	"3.744"	"30.609"	"21.566"	"0"	"10.631"	"367.462"	"494.93"	"490.971"	"153.989"	"18.974"	"0.918"	"6.919"
"1907"	"0.943"	"53.132"	"11.834"	"47.52"	"3.453"	"332.114"	"244.836"	"453.004"	"136.706"	"0.909"	"6.451"	"8.086"
"1908"	"25.774"	"18.822"	"13.444"	"0.594"	"2.481"	"252.678"	"395.79"	"462.179"	"214.676"	"27.696"	"0"	"3.413"
"1909"	"5.072"	"7.249"	"1.066"	"38.49"	"30.603"	"204.703"	"618.063"	"271.595"	"123.688"	"1.815"	"0"	"26.941"
"1910"	"3.722"	"1.33"	"5.211"	"3.65"	"3.328"	"249.183"	"345.316"	"364.618"	"313.897"	"90.531"	"29.286"	"0.006"
"1911"	"12.928"	"0.975"	"16.13"	"0.363"	"3.94"	"340.337"	"169.954"	"372.888"	"268.507"	"74.623"	"20.811"	"0.208"
"1912"	"8.245"	"40.07"	"0.796"	"8.515"	"6.625"	"47.533"	"439.483"	"425.851"	"195.646"	"7.696"	"17.741"	"3.586"
"1913"	"0.118"	"43.706"	"20.39"	"2.047"	"25.642"	"231.962"	"325.232"	"453.504"	"149.004"	"25.783"	"0.895"	"16.003"
"1914"	"1.733"	"13.305"	"26.539"	"39.671"	"9.869"	"195.411"	"419.949"	"324.215"	"220.337"	"14.889"	"0"	"20.212"
"1915"	"50.339"	"29.652"	"31.805"	"10.427"	"11.155"	"151.47"	"347.451"	"358.583"	"252.154"	"96.915"	"11.31"	"1.702"
"1916"	"0.118"	"16.254"	"0.124"	"3.778"	"16.364"	"201.789"	"277.456"	"447.067"	"256.124"	"98.274"	"6.959"	"0.006"
"1917"	"1.327"	"55.499"	"7.333"	"5.684"	"42.683"	"201.216"	"392.003"	"340.462"	"328.585"	"135.109"	"0.238"	"0.473"
"1918"	"28.845"	"5.362"	"5.494"	"4.672"	"39.89"	"375.741"	"185.416"	"403.673"	"99.211"	"4.355"	"3.195"	"19.646"
"1919"	"88.518"	"65.363"	"24.824"	"4.195"	"18.478"	"250.194"	"369.991"	"568.426"	"196.956"	"88.694"	"24.032"	"11.979"
"1920"	"19.401"	"4.458"	"27.559"	"3.146"	"6.966"	"90.715"	"465.331"	"377.939"	"112.376"	"6.524"	"0"	"0.006"
"1921"	"28.436"	"4.292"	"0.124"	"2.705"	"0"	"246.048"	"426.605"	"345.249"	"309.89"	"8.302"	"0"	"0.006"
"1922"	"21.458"	"0.142"	"0.124"	"2.758"	"2.761"	"261.575"	"354.44"	"328.953"	"282.526"	"27.599"	"29.618"	"0.473"
"1923"	"0.475"	"20.8"	"25.761"	"12.373"	"1.769"	"73.957"	"456.534"	"432.458"	"252.424"	"15.328"	"2.952"	"0.006"
"1924"	"58.64"	"11.54"	"13.772"	"7.661"	"4.208"	"47.069"	"364.633"	"324.458"	"217.68"	"45.484"	"10.253"	"10.935"
"1925"	"0.118"	"1.076"	"1.624"	"2.185"	"38.295"	"168.365"	"385.01"	"743.644"	"141.202"	"11.529"	"15.886"	"0.006"
"1926"	"16.719"	"2.559"	"57.815"	"23.763"	"44.14"	"88.004"	"401.181"	"643.882"	"346.221"	"107.493"	"2.4"	"6.953"
"1927"	"11.727"	"17.378"	"34.285"	"0.492"	"3.677"	"213.16"	"546.323"	"423.553"	"72.185"	"89.638"	"23.395"	"7.623"
"1928"	"7.706"	"25.854"	"7.515"	"3.784"	"8.981"	"144.906"	"652.396"	"225.891"	"191.999"	"123.2"	"0"	"14.04"
"1929"	"22.624"	"30.649"	"1.151"	"7.528"	"2.295"	"158.716"	"728.062"	"475.05"	"258.878"	"56.826"	"0"	"38.654"
"1930"	"1.255"	"0.265"	"10.682"	"19.925"	"9.767"	"183.758"	"362.568"	"254.297"	"186.084"	"58.59"	"15.342"	"6.318"
"1931"	"2.002"	"25.006"	"18.548"	"7.464"	"8.599"	"62.059"	"515.448"	"454.02"	"223.95"	"153.033"	"14.783"	"4.4"
"1932"	"0.118"	"24.66"	"9.644"	"3.722"	"10.749"	"135.913"	"561.199"	"292.293"	"252.634"	"16.608"	"13.356"	"0.849"
"1933"	"0.859"	"7.841"	"18.498"	"44.157"	"38.53"	"190.81"	"406.857"	"446.261"	"204.729"	"85.186"	"3.273"	"10.025"
"1934"	"9.381"	"0.951"	"2.823"	"6.162"	"0.193"	"221.539"	"436.758"	"586.254"	"275.487"	"50.746"	"25.911"	"5.125"
"1935"	"4.746"	"5.56"	"0.93"	"18.427"	"2.001"	"143.535"	"468.999"	"334.793"	"216.588"	"6.439"	"0"	"0.148"
"1936"	"2.413"	"47.991"	"25.226"	"5.732"	"20.622"	"279.824"	"411.993"	"371.711"	"237.637"	"90.367"	"10.736"	"6.963"
"1937"	"0.118"	"57.297"	"29.24"	"48.659"	"4.241"	"209.815"	"518.494"	"227.955"	"190.668"	"93.867"	"0"	"0.006"
"1938"	"18.41"	"17.122"	"6.898"	"10.836"	"15.278"	"285.763"	"341.692"	"397.345"	"190.116"	"134.492"	"3.057"	"0.006"
"1939"	"10.067"	"10.379"	"43.596"	"17.499"	"0.232"	"117.654"	"410.619"	"478.977"	"132.718"	"54.907"	"2.123"	"0.139"
"1940"	"0.311"	"21.969"	"25.924"	"17.239"	"9.567"	"135.282"	"579.016"	"446.592"	"82.061"	"61.434"	"9.376"	"11.338"
"1941"	"22.075"	"17.521"	"18.17"	"3.673"	"8.72"	"219.94"	"242.667"	"323.251"	"107.263"	"14.428"	"2.602"	"0.006"
"1942"	"19.047"	"64.076"	"6.44"	"18.815"	"3.741"	"119.044"	"551.696"	"383.593"	"204.516"	"22.003"	"0.408"	"2.155"
"1943"	"65.781"	"2.02"	"0.367"	"10.885"	"25.081"	"109.157"	"391.166"	"422.446"	"286.284"	"116.468"	"2.012"	"0.006"
"1944"	"22.402"	"65.771"	"68.988"	"6.018"	"5.182"	"130.662"	"637.552"	"502.124"	"228.691"	"103.426"	"1.318"	"0.006"
"1945"	"51.49"	"5.167"	"0.124"	"18.631"	"9.665"	"220.35"	"557.074"	"244.416"	"289.799"	"58.4"	"3.628"	"3.892"
"1946"	"0.118"	"18.307"	"5.36"	"20.733"	"15.732"	"233.184"	"451.923"	"358.094"	"173.947"	"38.032"	"13.062"	"1.67"
"1947"	"51.48"	"17.662"	"34.835"	"7.071"	"1.33"	"95.07"	"597.153"	"411.666"	"354.177"	"25.195"	"2.888"	"8.56"
"1948"	"24.048"	"9.109"	"20.814"	"9.032"	"5.229"	"229.101"	"302.671"	"381.55"	"288.974"	"36.158"	"46.984"	"0.849"
"1949"	"0.118"	"14.789"	"3.43"	"7.059"	"36.721"	"215.765"	"329.462"	"500.292"	"294.562"	"192.06"	"0"	"0.006"
"1950"	"5.573"	"42.174"	"28.992"	"3.265"	"4.49"	"114.859"	"488.111"	"226.365"	"137.506"	"4.735"	"7.9"	"8.361"
"1951"	"8.885"	"3.654"	"36.978"	"11.397"	"18.646"	"132.51"	"460.091"	"314.921"	"166.765"	"73.271"	"0.337"	"0.006"
"1952"	"0.242"	"17.881"	"16.196"	"8.152"	"9.702"	"116.916"	"287.758"	"293.232"	"218.44"	"22.626"	"0"	"11.244"
"1953"	"23.177"	"0.142"	"0.124"	"18.008"	"1.475"	"94.866"	"407.099"	"446.624"	"238.381"	"32.49"	"0.637"	"0.006"
"1954"	"4.429"	"3.578"	"8.665"	"3.882"	"5.011"	"131.709"	"420.863"	"380.911"	"326.708"	"18.572"	"0"	"0.473"
"1955"	"26.267"	"2.668"	"17.153"	"8.123"	"3.256"	"115.212"	"424.28"	"579.238"	"343.994"	"138.806"	"0.603"	"0.006"
"1956"	"8.893"	"4.436"	"1.395"	"0.728"	"39.412"	"229.024"	"598.882"	"360.903"	"251.596"	"34.821"	"32.643"	"11.397"
"1957"	"5.508"	"1.258"	"30.735"	"38.406"	"6.11"	"175.588"	"504.179"	"345.584"	"134.876"	"25.457"	"0"	"4.963"
"1958"	"9.629"	"14.357"	"14.565"	"15.126"	"4.63"	"70.201"	"474.267"	"357.336"	"257.022"	"98.154"	"18.294"	"0.006"
"1959"	"25.153"	"12.571"	"0.124"	"17.274"	"40.848"	"180.759"	"346.471"	"383.755"	"254.703"	"65.312"	"0"	"2.155"
"1960"	"22.471"	"0.142"	"13.364"	"17.307"	"19.505"	"195.265"	"473.693"	"348.071"	"120.503"	"96.022"	"0"	"0.006"
"1961"	"16.797"	"35.14"	"15.059"	"6.063"	"15.672"	"95.409"	"468.112"	"452.275"	"365.985"	"91.284"	"6.69"	"25.608"
"1962"	"10.581"	"34.363"	"18.634"	"13.094"	"12.143"	"114.211"	"326.196"	"391.865"	"261.256"	"8.199"	"8.578"	"66.978"
"1963"	"5.42"	"12.768"	"16.21"	"18.083"	"15.124"	"122.317"	"361.664"	"393.936"	"287.223"	"78.082"	"0.479"	"0.006"
"1964"	"0.118"	"37.383"	"8.117"	"11.429"	"3.975"	"138.538"	"377.309"	"515.577"	"167.602"	"40.936"	"5.124"	"0.006"
"1965"	"11.582"	"0.309"	"24.131"	"12.163"	"7.054"	"143.937"	"336.635"	"226.446"	"209.482"	"6.549"	"0"	"2.174"
"1966"	"49.662"	"0.536"	"10.511"	"7.727"	"26.272"	"206.275"	"320.573"	"271.234"	"131.76"	"11.754"	"15.833"	"17.724"
"1967"	"1.223"	"0.142"	"49.295"	"9.055"	"10.818"	"193.021"	"385.627"	"534.87"	"185.505"	"7.304"	"0"	"102.694"
"1968"	"29.525"	"16.461"	"21.653"	"21.809"	"2.749"	"143.673"	"363.808"	"345.962"	"333.321"	"37.971"	"2.051"	"2.657"
"1969"	"1.88"	"0.794"	"6.769"	"2.977"	"12.685"	"101.485"	"641.336"	"403.843"	"241.711"	"9.416"	"7.01"	"33.962"
"1970"	"23.277"	"19.71"	"27.723"	"4.984"	"20.85"	"210.108"	"440.201"	"595.838"	"244.753"	"8.33"	"0"	"0.006"
"1971"	"12.557"	"11.56"	"9.106"	"13.018"	"14.631"	"315.876"	"283.461"	"440.632"	"162.335"	"110.441"	"0"	"0.006"
"1972"	"6.562"	"25.464"	"0.187"	"10.202"	"1.737"	"102.117"	"334.267"	"459.571"	"159.143"	"36.736"	"15.323"	"2.461"
"1973"	"2.273"	"11.909"	"2.374"	"3.559"	"0.741"	"113.699"	"479.03"	"400.781"	"205.546"	"64.278"	"0.321"	"0.612"
"1974"	"0.118"	"2.367"	"2.892"	"1.89"	"7.923"	"181.352"	"376.441"	"322.972"	"116.321"	"143.494"	"3.218"	"0.006"
"1975"	"8.405"	"26.224"	"21.748"	"2.55"	"4.878"	"264.573"	"345.405"	"334.572"	"265.249"	"83.305"	"0.559"	"0.006"
"1976"	"9.557"	"1.28"	"8.691"	"40.031"	"19.272"	"78.349"	"383.694"	"442.122"	"302.15"	"0.4"	"20.131"	"1.62"
"1977"	"6.596"	"2.655"	"6.108"	"14.607"	"27.754"	"249.535"	"403.287"	"388.319"	"224.887"	"31.003"	"43.153"	"38.703"
"1978"	"31.49"	"44.974"	"30.772"	"37.044"	"9.354"	"242.908"	"301.639"	"431.519"	"163.27"	"24.877"	"7.104"	"36.009"
"1979"	"31.631"	"23.086"	"0.124"	"3.479"	"6.179"	"154.401"	"372.478"	"443.687"	"203.602"	"41.704"	"14.625"	"6.604"
"1980"	"0.699"	"4.009"	"3.585"	"2.936"	"2.795"	"266.154"	"324.127"	"393.618"	"105.545"	"9.693"	"0"	"13.827"
"1981"	"24.524"	"1.711"	"35.182"	"12.367"	"13.966"	"119.747"	"427.249"	"294.462"	"307.206"	"10.914"	"4.011"	"20.282"
"1982"	"32.241"	"11.266"	"24.73"	"5.911"	"12.903"	"157.703"	"375.75"	"444.988"	"266.09"	"19.67"	"14.993"	"4.266"
"1983"	"2.342"	"13.946"	"5.345"	"7.541"	"14.073"	"157.08"	"344.86"	"375.156"	"231.105"	"50.841"	"0.494"	"7.234"
"1984"	"33.381"	"30.338"	"1.463"	"7.395"	"4.517"	"217.701"	"406.681"	"309.555"	"114.768"	"21.59"	"0"	"0.006"
"1985"	"28.348"	"3.769"	"0.401"	"7.936"	"7.856"	"173.352"	"466.92"	"436.166"	"121.763"	"166.656"	"0"	"1.665"
"1986"	"37.757"	"39.632"	"1.349"	"3.493"	"11.468"	"190.839"	"308.467"	"430.332"	"132.871"	"5.921"	"9.381"	"36.949"
"1987"	"11.488"	"9.728"	"17.929"	"0.744"	"10.857"	"101.361"	"313.091"	"499.947"	"191.42"	"46.854"	"28.491"	"6.186"
"1988"	"3.538"	"6.294"	"17.643"	"22.841"	"6.298"	"194.181"	"309.979"	"339.619"	"238.767"	"32.495"	"8.856"	"0.83"
"1989"	"0.318"	"0.142"	"46.655"	"0.296"	"9.532"	"193.013"	"287.017"	"353.339"	"134.576"	"18.69"	"2.926"	"38.404"
"1990"	"2.624"	"33.426"	"20.855"	"0.849"	"39.248"	"304.892"	"450.6"	"484.493"	"138.678"	"70.908"	"1.02"	"14.767"
"1991"	"26.261"	"6.131"	"15.421"	"12.35"	"1.904"	"193.96"	"424.68"	"491.647"	"125.047"	"9.403"	"3.505"	"22.093"
"1992"	"13.371"	"6.461"	"0.124"	"6.577"	"4.44"	"84.451"	"272.207"	"409.617"	"225.354"	"45.112"	"4.392"	"0.006"
"1993"	"2.446"	"14.943"	"51.225"	"2.407"	"18.11"	"142.477"	"423.629"	"278.476"	"310.401"	"59.216"	"0"	"1.059"
"1994"	"39.699"	"42.767"	"32.353"	"10.766"	"5.721"	"213.65"	"695.822"	"466.913"	"238.179"	"115.218"	"0.627"	"0.006"
"1995"	"30.925"	"3.56"	"69.699"	"7.876"	"7.157"	"147.657"	"424.759"	"342.835"	"266.663"	"28.955"	"2.066"	"0.018"
"1996"	"18.849"	"11.466"	"4.744"	"29.595"	"0.677"	"105.632"	"335.442"	"359.536"	"143.664"	"67.484"	"9.001"	"0.006"
"1997"	"25.414"	"0.142"	"6.872"	"6.69"	"12.684"	"61.002"	"274.451"	"341.049"	"197.163"	"55.503"	"35.659"	"64.972"
"1998"	"11.82"	"38.771"	"26.861"	"10.158"	"18.254"	"80.001"	"248.979"	"356.594"	"198.718"	"73.728"	"41.618"	"0.006"
"1999"	"13.932"	"17.487"	"0.124"	"0"	"21.868"	"121.44"	"311.16"	"475.828"	"219.668"	"70.931"	"0"	"0.006"
"2000"	"2.639"	"28.65"	"0.124"	"3.807"	"20.871"	"197.926"	"377.181"	"194.106"	"138.295"	"14.891"	"0"	"0.006"
"2001"	"3.142"	"0.142"	"24.794"	"17.549"	"18.177"	"196.663"	"330.782"	"412.835"	"93.585"	"108.239"	"2.375"	"0.006"
"2002"	"53.309"	"14.353"	"2.817"	"7.079"	"17.98"	"233.054"	"173.145"	"433.701"	"143.275"	"49.364"	"3.933"	"0.009"
