
"Year"	"Jan"	"Feb"	"Mar"	"Apr"	"May"	"Jun"	"Jul"	"Aug"	"Sep"	"Oct"	"Nov"	"Dec"
"1901"	"24.038"	"24.874"	"26.009"	"27.315"	"26.567"	"24.508"	"24.087"	"24.018"	"24.565"	"24.623"	"24.041"	"23.22"
"1902"	"23.551"	"24.449"	"26.499"	"27.393"	"27.04"	"24.967"	"23.946"	"24.598"	"24.064"	"24.677"	"24.343"	"23.831"
"1903"	"24.016"	"24.6"	"26.058"	"27.156"	"26.227"	"24.692"	"23.611"	"23.923"	"23.82"	"24.212"	"23.393"	"22.565"
"1904"	"23.012"	"23.989"	"25.443"	"26.797"	"25.938"	"23.659"	"23.292"	"23.946"	"24.258"	"24.702"	"23.643"	"23.143"
"1905"	"23.221"	"24.817"	"25.529"	"26.321"	"26.258"	"24.862"	"24.13"	"24.141"	"24.501"	"24.689"	"24.434"	"22.934"
"1906"	"23.726"	"24.349"	"25.758"	"27.535"	"26.854"	"24.268"	"23.488"	"23.832"	"23.938"	"24.598"	"24.19"	"23.358"
"1907"	"23.47"	"24.473"	"25.869"	"25.963"	"26.157"	"24.314"	"23.67"	"23.132"	"24.258"	"24.715"	"24.19"	"23.208"
"1908"	"23.577"	"24.279"	"25.391"	"26.993"	"25.984"	"24.39"	"22.935"	"23.591"	"24.258"	"24.713"	"23.473"	"22.741"
"1909"	"22.888"	"24.151"	"26.006"	"26.523"	"26.144"	"24.267"	"23.121"	"23.774"	"23.859"	"24.531"	"23.882"	"23.232"
"1910"	"23.427"	"24.403"	"25.914"	"26.842"	"26.362"	"23.912"	"23.762"	"23.465"	"23.684"	"24.072"	"23.202"	"22.627"
"1911"	"23.485"	"23.543"	"25.698"	"26.778"	"26.157"	"24.051"	"23.475"	"23.832"	"24.658"	"24.609"	"24.434"	"23.747"
"1912"	"23.136"	"24.996"	"26.25"	"27.269"	"26.762"	"24.367"	"23.728"	"23.739"	"24.441"	"24.426"	"23.885"	"22.901"
"1913"	"23.185"	"24.507"	"25.711"	"27.156"	"26.87"	"24.326"	"23.535"	"24.016"	"24.547"	"24.576"	"24.08"	"23.568"
"1914"	"23.367"	"24.541"	"25.966"	"26.871"	"26.809"	"24.816"	"23.842"	"23.774"	"24.716"	"25.057"	"24.618"	"23.6"
"1915"	"23.794"	"24.52"	"25.719"	"27.13"	"26.626"	"25.049"	"24.071"	"24.186"	"24.454"	"24.806"	"24.19"	"22.994"
"1916"	"23.125"	"24.153"	"26.25"	"27.248"	"26.488"	"23.832"	"24.098"	"23.946"	"24.064"	"24.165"	"23.897"	"22.901"
"1917"	"23.427"	"24.326"	"25.411"	"26.857"	"25.952"	"23.763"	"24.373"	"23.865"	"23.891"	"23.786"	"23.485"	"22.743"
"1918"	"23.118"	"23.231"	"25.456"	"26.746"	"25.206"	"24.293"	"24.243"	"24.129"	"24.441"	"25.264"	"24.847"	"23.313"
"1919"	"23.988"	"24.611"	"25.619"	"27.361"	"26.305"	"24.222"	"23.67"	"23.772"	"24.441"	"24.864"	"23.928"	"23.463"
"1920"	"23.643"	"24.631"	"26.49"	"26.799"	"26.717"	"24.175"	"23.853"	"23.772"	"24.337"	"24.794"	"24.008"	"23.003"
"1921"	"23.805"	"24.233"	"26.341"	"26.602"	"26.717"	"24.508"	"23.58"	"23.533"	"23.938"	"24.609"	"23.853"	"22.992"
"1922"	"23.426"	"24.371"	"26.006"	"27.109"	"25.983"	"24.051"	"23.213"	"23.51"	"23.982"	"24.507"	"23.825"	"22.625"
"1923"	"23.183"	"23.852"	"25.548"	"26.938"	"26.376"	"24.598"	"23.179"	"23.499"	"23.971"	"24.61"	"24.093"	"23.726"
"1924"	"23.404"	"24.669"	"26.304"	"27.381"	"26.749"	"24.233"	"23.395"	"23.955"	"24.247"	"24.439"	"23.714"	"23.072"
"1925"	"23.143"	"23.995"	"25.707"	"27.152"	"26.03"	"23.971"	"23.762"	"23.864"	"24.625"	"25.012"	"24.226"	"23.162"
"1926"	"23.701"	"24.667"	"26.25"	"26.778"	"26.73"	"24.94"	"24.416"	"24.395"	"24.43"	"24.577"	"24.08"	"23.371"
"1927"	"23.692"	"24.703"	"26.263"	"27.19"	"26.087"	"24.083"	"23.211"	"23.97"	"24.35"	"24.484"	"23.589"	"23.555"
"1928"	"24.003"	"24.304"	"25.687"	"27.177"	"26.914"	"24.6"	"23.946"	"23.591"	"24.362"	"24.395"	"24.332"	"23.406"
"1929"	"23.438"	"24.383"	"26.041"	"26.601"	"26.599"	"23.901"	"23.854"	"24.083"	"24.545"	"24.518"	"24.515"	"23.555"
"1930"	"23.53"	"24.382"	"25.942"	"26.81"	"25.961"	"24.268"	"24.007"	"23.936"	"24.441"	"24.781"	"24.219"	"23.668"
"1931"	"23.929"	"24.657"	"26.171"	"27.358"	"27.175"	"24.956"	"23.867"	"23.899"	"24.154"	"24.785"	"24.343"	"23.51"
"1932"	"23.124"	"24.233"	"25.398"	"27.036"	"25.819"	"24.484"	"23.396"	"23.991"	"24.154"	"24.61"	"24.192"	"23.266"
"1933"	"23.598"	"24.507"	"25.594"	"26.717"	"25.36"	"23.58"	"23.324"	"23.316"	"23.637"	"23.897"	"24.354"	"23.175"
"1934"	"23.405"	"23.85"	"25.333"	"26.705"	"26.384"	"24.247"	"23.67"	"23.719"	"24.637"	"24.794"	"23.346"	"22.888"
"1935"	"23.649"	"24.486"	"25.974"	"26.536"	"26.903"	"24.509"	"23.305"	"23.348"	"23.617"	"24.518"	"23.596"	"23.463"
"1936"	"23.866"	"24.703"	"25.515"	"26.881"	"26.258"	"23.375"	"23.384"	"23.486"	"24.199"	"24.518"	"24.262"	"23.831"
"1937"	"23.557"	"24.945"	"26.079"	"26.501"	"26.258"	"24.143"	"23.121"	"23.97"	"24.443"	"24.335"	"23.997"	"23.096"
"1938"	"23.739"	"24.887"	"26.25"	"26.831"	"26.521"	"23.755"	"23.213"	"23.314"	"23.799"	"23.674"	"23.714"	"23.634"
"1939"	"23.287"	"24.002"	"25.412"	"26.352"	"26.441"	"24.256"	"23.018"	"23.499"	"24.043"	"24.588"	"23.976"	"23.254"
"1940"	"22.89"	"24.127"	"25.7"	"26.155"	"26.429"	"24.235"	"23.477"	"23.486"	"24.409"	"24.702"	"24.055"	"23.451"
"1941"	"23.752"	"24.678"	"26.524"	"27.622"	"26.891"	"24.484"	"24.372"	"24.222"	"24.156"	"24.964"	"24.823"	"23.472"
"1942"	"23.074"	"24.848"	"26.5"	"27.326"	"26.981"	"24.348"	"23.467"	"23.478"	"24.146"	"24.723"	"23.885"	"24.02"
"1943"	"23.688"	"24.221"	"26.228"	"26.67"	"25.606"	"23.409"	"22.937"	"23.739"	"23.251"	"23.753"	"23.938"	"23.509"
"1944"	"23.76"	"24.211"	"25.485"	"26.43"	"26.463"	"24.235"	"23.364"	"24.05"	"24.429"	"24.67"	"24.433"	"23.62"
"1945"	"23.325"	"24.873"	"26.239"	"26.855"	"26.717"	"24.509"	"23.58"	"23.612"	"24.054"	"24.53"	"24.126"	"23.371"
"1946"	"22.771"	"24.461"	"26.086"	"26.866"	"26.478"	"23.971"	"23.456"	"23.073"	"23.892"	"24.794"	"24.158"	"23.711"
"1947"	"24.126"	"24.368"	"26.053"	"26.134"	"27.085"	"24.39"	"23.216"	"23.624"	"23.707"	"23.981"	"23.785"	"23.704"
"1948"	"23.945"	"24.611"	"26.295"	"27.109"	"26.397"	"24.506"	"23.396"	"23.407"	"23.78"	"24.704"	"24.721"	"23.339"
"1949"	"23.3"	"24.198"	"26.4"	"27.235"	"25.904"	"23.881"	"23.306"	"23.762"	"23.767"	"24.589"	"23.944"	"22.902"
"1950"	"23.3"	"24.153"	"25.711"	"26.992"	"26.788"	"24.143"	"22.847"	"23.761"	"23.343"	"23.936"	"23.44"	"23.025"
"1951"	"23.669"	"24.403"	"26.126"	"26.513"	"26.594"	"23.853"	"23.305"	"24.141"	"24.646"	"24.979"	"24.984"	"23.096"
"1952"	"23.943"	"25.043"	"25.894"	"27.189"	"26.705"	"24.156"	"23.762"	"23.728"	"24.075"	"24.06"	"23.502"	"23.735"
"1953"	"23.59"	"24.3"	"26.879"	"26.671"	"27.154"	"25.334"	"23.064"	"24.018"	"24.135"	"24.702"	"24.127"	"23.521"
"1954"	"24.106"	"24.873"	"25.962"	"27.156"	"26.424"	"24.238"	"22.918"	"23.375"	"23.746"	"23.968"	"23.588"	"23.635"
"1955"	"23.913"	"25.136"	"26.066"	"26.776"	"25.583"	"23.878"	"23.488"	"23.173"	"24.441"	"24.437"	"23.53"	"23.041"
"1956"	"23.19"	"24.306"	"26.524"	"27.471"	"25.275"	"23.752"	"22.643"	"23.459"	"23.76"	"23.878"	"24.16"	"23.42"
"1957"	"23.465"	"24.671"	"25.405"	"27.098"	"26.716"	"24.296"	"23.717"	"23.721"	"24.239"	"24.906"	"24.433"	"24.368"
"1958"	"23.956"	"24.967"	"26.263"	"27.177"	"26.155"	"24.805"	"23.821"	"23.774"	"24.043"	"24.186"	"24.468"	"23.989"
"1959"	"24.159"	"24.885"	"26.492"	"27.416"	"26.547"	"24.122"	"23.181"	"23.741"	"24.077"	"24.531"	"24.528"	"23.872"
"1960"	"24.159"	"24.863"	"26.08"	"26.992"	"25.834"	"24.52"	"23.763"	"24.071"	"23.629"	"24.439"	"23.872"	"23.634"
"1961"	"24.095"	"24.624"	"26.477"	"27.358"	"25.813"	"23.88"	"22.659"	"23.741"	"23.812"	"24.166"	"24.401"	"23.931"
"1962"	"23.558"	"24.861"	"25.973"	"26.913"	"26.062"	"25.56"	"24.037"	"23.707"	"24.316"	"24.676"	"24.937"	"24.171"
"1963"	"24.253"	"24.54"	"26.203"	"26.685"	"26.775"	"24.467"	"24.129"	"23.721"	"24.774"	"24.76"	"25.211"	"24.021"
"1964"	"23.427"	"24.963"	"26.453"	"28.09"	"27.507"	"24.69"	"23.795"	"23.57"	"23.753"	"24.621"	"23.609"	"23.356"
"1965"	"23.551"	"24.642"	"26.052"	"26.876"	"26.622"	"24.077"	"23.319"	"23.259"	"23.847"	"25.206"	"25.014"	"24.039"
"1966"	"24.08"	"25.332"	"26.464"	"27.04"	"26.42"	"24.965"	"24.116"	"24.677"	"24.69"	"24.779"	"24.283"	"23.577"
"1967"	"23.506"	"24.299"	"25.594"	"27.256"	"26.816"	"24.884"	"23.35"	"23.896"	"24.304"	"24.61"	"24.716"	"24.293"
"1968"	"23.519"	"24.731"	"25.963"	"26.262"	"26.416"	"24.39"	"23.001"	"24.129"	"24.165"	"24.852"	"24.788"	"23.726"
"1969"	"23.85"	"25.075"	"26.82"	"27.472"	"26.966"	"25.065"	"23.258"	"24.069"	"23.707"	"24.426"	"24.192"	"23.805"
"1970"	"23.794"	"24.526"	"25.653"	"26.611"	"25.742"	"23.901"	"23.43"	"23.145"	"23.631"	"23.923"	"23.534"	"22.913"
"1971"	"23.673"	"24.414"	"25.573"	"26.9"	"25.974"	"23.147"	"23.335"	"23.439"	"24.186"	"23.96"	"23.722"	"23.194"
"1972"	"22.933"	"23.83"	"25.605"	"27.135"	"25.718"	"25.181"	"23.782"	"23.888"	"24.605"	"24.884"	"24.638"	"24.021"
"1973"	"23.773"	"25.054"	"26.411"	"27.93"	"26.995"	"24.467"	"23.777"	"23.019"	"24.167"	"24.599"	"24.341"	"23.542"
"1974"	"23.496"	"24.565"	"26.341"	"27.338"	"25.925"	"24.287"	"23.238"	"23.356"	"24.384"	"24.133"	"23.969"	"23.502"
"1975"	"23.313"	"25.138"	"26.081"	"27.282"	"25.995"	"24.52"	"23.121"	"23.407"	"23.524"	"23.968"	"23.774"	"22.913"
"1976"	"22.647"	"24.388"	"26.452"	"26.612"	"26.548"	"24.797"	"23.534"	"23.611"	"24.329"	"25.36"	"24.659"	"24.134"
"1977"	"23.669"	"25.156"	"26.703"	"27.497"	"26.22"	"24.509"	"23.58"	"24.051"	"24.621"	"24.852"	"24.751"	"23.874"
"1978"	"24.033"	"24.859"	"26.18"	"26.803"	"25.818"	"23.58"	"23.107"	"23.486"	"24.054"	"24.864"	"24.823"	"24.24"
"1979"	"24.79"	"25.39"	"26.31"	"26.897"	"26.532"	"25.202"	"23.198"	"23.923"	"24.336"	"24.963"	"24.636"	"24.641"
"1980"	"23.839"	"24.974"	"26.51"	"27.256"	"26.921"	"24.134"	"23.764"	"23.871"	"24.008"	"24.562"	"24.349"	"23.785"
"1981"	"23.705"	"24.511"	"25.792"	"26.73"	"26.463"	"24.351"	"23.792"	"23.051"	"23.863"	"24.792"	"24.132"	"23.975"
"1982"	"23.91"	"25.056"	"26.464"	"27.341"	"26.362"	"24.819"	"23.946"	"24.018"	"24.535"	"25.618"	"25.135"	"24.263"
"1983"	"23.956"	"24.935"	"26.332"	"27.275"	"27.673"	"25.786"	"24.384"	"24.018"	"24.214"	"24.866"	"24.244"	"24.264"
"1984"	"24.138"	"25.25"	"26.269"	"26.684"	"27.622"	"24.039"	"23.317"	"23.762"	"24.239"	"24.518"	"24.69"	"23.941"
"1985"	"24.79"	"25.332"	"27.041"	"27.511"	"26.547"	"23.742"	"23.821"	"23.753"	"24.626"	"24.498"	"24.494"	"24.571"
"1986"	"24.173"	"24.808"	"27.048"	"27.706"	"27.085"	"24.679"	"24.375"	"23.591"	"24.612"	"25.342"	"24.791"	"24.702"
"1987"	"24.205"	"24.515"	"26.296"	"27.177"	"26.889"	"24.692"	"24.994"	"24.13"	"25.451"	"25.252"	"25.259"	"24.518"
"1988"	"24.113"	"25.7"	"26.81"	"27.334"	"26.876"	"25.12"	"24.179"	"24.109"	"24.246"	"25.141"	"24.712"	"24.092"
"1989"	"24.205"	"24.618"	"25.983"	"27.152"	"26.706"	"24.214"	"23.567"	"23.832"	"24.35"	"24.977"	"24.881"	"24.092"
"1990"	"24.111"	"24.885"	"26.092"	"27.352"	"25.86"	"24.629"	"23.842"	"23.708"	"24.567"	"24.977"	"24.46"	"24.184"
"1991"	"24.702"	"25.24"	"26.739"	"27.113"	"27.386"	"24.91"	"23.456"	"23.395"	"24.96"	"24.702"	"24.513"	"23.281"
"1992"	"23.3"	"24.532"	"26.365"	"27.419"	"26.764"	"25.174"	"23.669"	"23.854"	"24.441"	"24.439"	"24.71"	"23.337"
"1993"	"23.852"	"24.871"	"25.873"	"27.329"	"27.014"	"24.711"	"23.58"	"24.141"	"24.377"	"24.723"	"24.71"	"23.805"
"1994"	"24.035"	"24.885"	"26.785"	"26.626"	"26.982"	"24.467"	"23.58"	"23.878"	"24.593"	"24.704"	"24.554"	"23.51"
"1995"	"23.924"	"25.344"	"26.147"	"27.177"	"26.444"	"25.745"	"24.361"	"24.325"	"24.593"	"25.22"	"25.009"	"23.93"
"1996"	"24.323"	"25.226"	"26.818"	"27.109"	"27.53"	"25.107"	"24.132"	"23.957"	"24.42"	"24.511"	"24.906"	"23.39"
"1997"	"23.937"	"24.885"	"26.42"	"26.338"	"26.96"	"25.437"	"24.314"	"24.12"	"24.911"	"25.421"	"25.566"	"25.179"
"1998"	"24.781"	"25.803"	"26.917"	"27.819"	"27.378"	"25.366"	"24.23"	"24.415"	"24.33"	"24.866"	"24.997"	"24.196"
"1999"	"24.14"	"25.306"	"27.054"	"27.13"	"25.492"	"24.145"	"23.763"	"24.212"	"24.88"	"25.069"	"24.894"	"24"
"2000"	"24.505"	"25.082"	"26.231"	"27.177"	"26.148"	"24.039"	"23.741"	"23.739"	"24.547"	"24.864"	"25.167"	"23.797"
"2001"	"24.599"	"25.886"	"26.458"	"27.177"	"26.626"	"24.713"	"24.13"	"23.865"	"24.912"	"24.704"	"25.096"	"24.242"
"2002"	"24.579"	"25.031"	"27.172"	"27.564"	"26.91"	"24.692"	"24.384"	"24.305"	"25.351"	"25.434"	"25.167"	"24.53"
