
"Year"	"Jan"	"Feb"	"Mar"	"Apr"	"May"	"Jun"	"Jul"	"Aug"	"Sep"	"Oct"	"Nov"	"Dec"
"1901"	"22.507"	"22.737"	"25.45"	"27.475"	"27.51"	"25.418"	"24.357"	"24.248"	"24.94"	"25.216"	"24.705"	"23.402"
"1902"	"23.327"	"23.667"	"26.204"	"27.5"	"28.014"	"26.1"	"24.949"	"25.032"	"24.268"	"25.684"	"24.62"	"23.485"
"1903"	"22.759"	"22.965"	"24.802"	"26.949"	"27.046"	"25.624"	"24.375"	"24.326"	"24.365"	"24.796"	"23.472"	"22.502"
"1904"	"22.739"	"23.538"	"25.268"	"27.185"	"27.259"	"25.083"	"24.311"	"24.475"	"24.605"	"25.493"	"23.786"	"22.84"
"1905"	"22.205"	"22.799"	"24.321"	"25.808"	"27.498"	"26.484"	"24.732"	"24.638"	"24.599"	"25.641"	"24.751"	"22.791"
"1906"	"22.636"	"22.964"	"24.823"	"27.21"	"28"	"25.419"	"24.336"	"24.384"	"24.05"	"25.174"	"24.875"	"23.519"
"1907"	"23.201"	"23.544"	"25.322"	"25.803"	"26.949"	"25.362"	"24.375"	"23.729"	"24.639"	"25.498"	"24.851"	"22.92"
"1908"	"22.863"	"23.067"	"24.573"	"27.326"	"26.973"	"25.802"	"23.91"	"23.925"	"24.638"	"25.39"	"23.679"	"22.174"
"1909"	"22.245"	"23.169"	"25.674"	"26.48"	"27.405"	"25.433"	"23.843"	"24.417"	"23.914"	"24.993"	"24.263"	"23.142"
"1910"	"22.751"	"23.7"	"25.587"	"27.209"	"27.327"	"25.208"	"24.681"	"24.022"	"23.897"	"24.614"	"22.504"	"22.165"
"1911"	"23.029"	"22.742"	"25.003"	"26.561"	"27.322"	"25.26"	"24.648"	"24.11"	"24.787"	"25.572"	"24.937"	"24.076"
"1912"	"23.121"	"24.187"	"25.6"	"27.632"	"27.857"	"25.994"	"24.563"	"24.331"	"24.817"	"25.315"	"24.067"	"22.799"
"1913"	"22.428"	"23.677"	"24.875"	"27.142"	"27.632"	"25.181"	"24.183"	"24.403"	"24.742"	"25.206"	"24.108"	"23.168"
"1914"	"22.949"	"23.551"	"24.932"	"26.496"	"27.821"	"26.042"	"24.411"	"24.286"	"24.801"	"25.806"	"25.084"	"23.358"
"1915"	"23.138"	"23.298"	"25.346"	"27.315"	"27.705"	"26.104"	"24.954"	"24.778"	"24.644"	"25.17"	"24.916"	"22.645"
"1916"	"22.784"	"22.844"	"25.905"	"27.37"	"27.468"	"24.906"	"24.811"	"24.36"	"24.447"	"24.906"	"24.344"	"22.616"
"1917"	"22.764"	"23.228"	"24.903"	"26.642"	"26.639"	"24.71"	"24.864"	"24.292"	"24.219"	"24.192"	"23.336"	"22.316"
"1918"	"22.443"	"22.987"	"25.161"	"26.264"	"26.324"	"25.132"	"25.33"	"24.815"	"24.779"	"25.88"	"25.43"	"23.073"
"1919"	"23.261"	"23.477"	"25.125"	"27.03"	"27.305"	"25.428"	"24.535"	"24.334"	"24.79"	"25.465"	"24.87"	"23.018"
"1920"	"23.487"	"23.554"	"25.786"	"26.959"	"27.391"	"25.583"	"24.311"	"24.437"	"24.881"	"25.76"	"24.694"	"22.888"
"1921"	"23.21"	"23.365"	"25.864"	"27.223"	"27.739"	"25.626"	"24.432"	"24.13"	"24.02"	"25.317"	"23.886"	"23.021"
"1922"	"23.035"	"23.62"	"25.662"	"27.364"	"27.332"	"25.328"	"23.99"	"24.105"	"24.244"	"25.279"	"24.505"	"22.43"
"1923"	"22.677"	"22.771"	"25.462"	"26.814"	"27.025"	"26.27"	"23.949"	"24.25"	"24.259"	"25.284"	"24.03"	"23.531"
"1924"	"22.89"	"23.658"	"26.247"	"27.773"	"27.865"	"25.9"	"24.629"	"24.704"	"24.452"	"24.797"	"23.602"	"22.888"
"1925"	"22.007"	"22.338"	"25.778"	"27.735"	"27.283"	"24.884"	"24.547"	"24.569"	"24.922"	"25.999"	"25.178"	"23.534"
"1926"	"23.27"	"24.011"	"25.705"	"26.281"	"27.454"	"26.615"	"25.094"	"24.571"	"24.605"	"25.258"	"24.043"	"22.914"
"1927"	"22.639"	"23.356"	"25.482"	"26.937"	"27.305"	"25.333"	"24.145"	"24.317"	"24.812"	"25.196"	"23.172"	"23.149"
"1928"	"23.183"	"23.005"	"25.351"	"27.325"	"27.683"	"25.651"	"24.496"	"24.203"	"24.263"	"25.08"	"24.72"	"23.133"
"1929"	"22.748"	"23.266"	"26.027"	"27.21"	"27.675"	"24.966"	"24.461"	"24.545"	"24.905"	"25.091"	"24.94"	"23.013"
"1930"	"22.652"	"22.93"	"25.234"	"26.856"	"27.25"	"25.437"	"24.206"	"24.206"	"24.571"	"25.655"	"24.14"	"23.67"
"1931"	"23.655"	"23.612"	"25.277"	"27.873"	"27.999"	"26.546"	"24.42"	"24.593"	"24.619"	"24.767"	"24.721"	"23.178"
"1932"	"23.339"	"23.251"	"25.337"	"27.182"	"27.317"	"25.553"	"24.027"	"24.613"	"24.594"	"25.617"	"24.711"	"23.264"
"1933"	"22.999"	"23.271"	"25.274"	"27.163"	"26.814"	"24.86"	"24.508"	"24.006"	"24.151"	"24.857"	"24.753"	"22.944"
"1934"	"22.033"	"23.26"	"24.714"	"27.04"	"27.393"	"25.127"	"24.176"	"23.862"	"24.501"	"25.523"	"23.405"	"23.035"
"1935"	"22.199"	"23.041"	"25.37"	"26.35"	"27.6"	"25.626"	"23.939"	"24.056"	"23.761"	"25.394"	"23.988"	"23.292"
"1936"	"22.534"	"23.276"	"25.136"	"26.809"	"27.581"	"24.465"	"24.194"	"24.105"	"24.599"	"25.258"	"24.747"	"23.146"
"1937"	"22.305"	"23.377"	"24.938"	"26.346"	"27.172"	"25.311"	"23.718"	"24.302"	"24.373"	"24.85"	"24.536"	"22.578"
"1938"	"22.826"	"23.054"	"25.673"	"27.42"	"27.554"	"24.27"	"23.843"	"24.07"	"24.039"	"23.774"	"23.597"	"23.305"
"1939"	"23.118"	"23.375"	"24.711"	"26.632"	"27.139"	"25.573"	"23.748"	"24.07"	"24.138"	"25.109"	"24.21"	"23.057"
"1940"	"22.047"	"23.463"	"24.693"	"26.38"	"27.636"	"25.368"	"24.092"	"24.001"	"24.56"	"25.303"	"25.021"	"23.076"
"1941"	"22.595"	"24.274"	"26.219"	"28.004"	"28.319"	"25.988"	"24.694"	"25.073"	"25.224"	"26.246"	"25.596"	"24.874"
"1942"	"23.193"	"23.959"	"26.542"	"26.818"	"28.087"	"25.525"	"23.614"	"23.612"	"23.66"	"25.83"	"24.238"	"23.619"
"1943"	"23.429"	"23.1"	"25.211"	"26.583"	"26.718"	"24.465"	"23.762"	"24.037"	"23.642"	"24.573"	"24.869"	"22.55"
"1944"	"22.94"	"22.565"	"24.091"	"26.311"	"28.105"	"25.76"	"24.194"	"24.244"	"24.638"	"25.12"	"24.675"	"23.848"
"1945"	"22.046"	"23.214"	"25.76"	"26.178"	"27.319"	"25.547"	"24.182"	"24.578"	"23.94"	"24.985"	"23.966"	"22.403"
"1946"	"22.27"	"23.408"	"25.44"	"26.406"	"26.675"	"24.706"	"23.965"	"23.945"	"24.18"	"25.739"	"24.592"	"24.296"
"1947"	"23.084"	"23.185"	"25.369"	"25.951"	"27.394"	"26.033"	"24.376"	"25.003"	"23.976"	"24.256"	"24.049"	"23.42"
"1948"	"23.585"	"23.252"	"25.434"	"26.779"	"27.541"	"25.731"	"24.382"	"24.445"	"23.772"	"25.274"	"25.533"	"22.296"
"1949"	"23.045"	"22.902"	"25.584"	"26.585"	"26.873"	"25.276"	"24.651"	"24.611"	"23.978"	"25.074"	"23.751"	"23.144"
"1950"	"22.877"	"22.608"	"24.902"	"26.788"	"27.171"	"25.632"	"24.033"	"24.662"	"24.007"	"24.393"	"23.833"	"23.22"
"1951"	"22.893"	"23.404"	"25.254"	"26.06"	"27.612"	"25.083"	"24.543"	"24.291"	"25.581"	"25.718"	"25.597"	"22.62"
"1952"	"23.305"	"23.912"	"24.537"	"27.453"	"27.97"	"25.441"	"24.465"	"24.023"	"24.458"	"25.302"	"23.511"	"24.847"
"1953"	"22.726"	"24.149"	"27.127"	"26.42"	"27.753"	"26.026"	"24.309"	"24.044"	"24.393"	"25.349"	"24.237"	"22.905"
"1954"	"22.584"	"24.358"	"25.376"	"26.932"	"27.567"	"25.532"	"23.775"	"24.103"	"23.372"	"24.48"	"23.639"	"23.757"
"1955"	"23.703"	"24.397"	"25.59"	"26.457"	"26.905"	"24.915"	"24.335"	"23.662"	"24.864"	"24.974"	"23.237"	"22.712"
"1956"	"22.735"	"22.963"	"25.982"	"27.447"	"25.822"	"24.423"	"23.193"	"23.501"	"23.484"	"24.625"	"24.529"	"23.022"
"1957"	"23.222"	"23.211"	"24.449"	"27.036"	"27.627"	"26.05"	"24.369"	"24.211"	"24.48"	"25.917"	"24.955"	"24.836"
"1958"	"23.483"	"23.549"	"25.624"	"27.687"	"27.998"	"26.549"	"24.306"	"24.436"	"23.949"	"25.108"	"25.449"	"23.96"
"1959"	"23.714"	"24.221"	"25.942"	"27.228"	"28.159"	"25.498"	"23.706"	"24.254"	"24.34"	"24.843"	"24.753"	"24.315"
"1960"	"23.541"	"24.241"	"25.291"	"27.155"	"27.298"	"25.397"	"24.583"	"24.087"	"24.381"	"25.019"	"24.903"	"24.13"
"1961"	"23.597"	"22.737"	"26.43"	"27.533"	"26.446"	"24.76"	"23.491"	"24.175"	"23.704"	"24.63"	"24.829"	"24.099"
"1962"	"21.992"	"24.053"	"25.356"	"26.913"	"27.609"	"25.874"	"24.057"	"24.061"	"24.203"	"25.433"	"24.202"	"23.316"
"1963"	"23.533"	"23.598"	"25.76"	"26.16"	"27.388"	"24.927"	"24.423"	"23.634"	"24.274"	"25.117"	"25.122"	"24.506"
"1964"	"22.714"	"23.906"	"26.052"	"27.678"	"27.317"	"25.588"	"24.32"	"23.546"	"23.803"	"24.95"	"23.992"	"22.927"
"1965"	"23.049"	"23.31"	"25.093"	"26.704"	"27.257"	"25.288"	"23.844"	"24.541"	"24.89"	"26.305"	"25.633"	"24.694"
"1966"	"23.449"	"24.581"	"25.884"	"27.519"	"26.76"	"26.072"	"24.848"	"24.945"	"24.838"	"25.784"	"25.255"	"23.834"
"1967"	"23.129"	"24.093"	"25.503"	"27.517"	"28.368"	"26.28"	"24.369"	"24.131"	"24.277"	"25.217"	"24.796"	"25.179"
"1968"	"22.677"	"23.904"	"25.42"	"27.216"	"27.897"	"26.021"	"24.375"	"24.291"	"25.071"	"24.787"	"24.479"	"23.949"
"1969"	"22.914"	"24.584"	"26.79"	"28.06"	"28.616"	"26.083"	"24.195"	"24.547"	"24.163"	"25.706"	"25.869"	"24.391"
"1970"	"23.572"	"24.299"	"25.746"	"27.808"	"27.806"	"25.063"	"24.347"	"23.937"	"24.095"	"25.356"	"24.345"	"22.234"
"1971"	"22.511"	"23.897"	"25.354"	"27.405"	"27.443"	"24.851"	"24.419"	"24.191"	"24.734"	"24.15"	"24.427"	"22.938"
"1972"	"23.038"	"22.904"	"25.871"	"27.315"	"27.523"	"26.683"	"24.972"	"24.965"	"25.175"	"26.421"	"25.113"	"24.684"
"1973"	"23.067"	"24.578"	"26.227"	"28.285"	"28.598"	"25.8"	"24.598"	"24.195"	"23.97"	"24.95"	"24.859"	"24.015"
"1974"	"23.468"	"23.966"	"26.65"	"28"	"27.325"	"24.797"	"24.341"	"24.158"	"24.686"	"24.728"	"23.844"	"22.974"
"1975"	"22.7"	"23.978"	"25.307"	"27.652"	"27.803"	"25.158"	"24.093"	"24.334"	"24.318"	"24.896"	"23.201"	"22.394"
"1976"	"22.471"	"23.571"	"25.792"	"26.315"	"26.966"	"25.379"	"24.541"	"24.075"	"24.911"	"26.552"	"25.811"	"24.423"
"1977"	"23.132"	"24.234"	"26.497"	"27.206"	"27.497"	"25.685"	"23.904"	"24.576"	"25.079"	"25.67"	"25.479"	"23.246"
"1978"	"22.834"	"23.245"	"24.75"	"27.066"	"27.462"	"24.469"	"23.949"	"23.64"	"24.21"	"25.571"	"25.247"	"24.54"
"1979"	"23.912"	"22.87"	"25.316"	"27.296"	"27.052"	"25.411"	"24.659"	"23.909"	"24.776"	"26.324"	"25.569"	"24.397"
"1980"	"23.304"	"24.307"	"25.707"	"27.464"	"27.892"	"24.807"	"24.23"	"24.048"	"24.824"	"26.362"	"26.04"	"23.333"
"1981"	"22.489"	"24.327"	"25.854"	"26.751"	"27.221"	"25.367"	"24.534"	"23.863"	"24.302"	"25.821"	"24.646"	"23.471"
"1982"	"23.503"	"24.22"	"25.621"	"26.755"	"27.677"	"25.969"	"24.698"	"24.433"	"24.383"	"26.349"	"24.999"	"24.227"
"1983"	"22.802"	"22.465"	"24.968"	"26.618"	"28.013"	"27.017"	"24.746"	"24.531"	"24.258"	"24.968"	"23.528"	"23.446"
"1984"	"22.91"	"24.331"	"26.479"	"27.959"	"28.423"	"25.65"	"24.285"	"24.099"	"24.45"	"25.212"	"24.555"	"23.982"
"1985"	"23.668"	"23.926"	"26.665"	"27.283"	"27.402"	"25.059"	"24.083"	"24.132"	"25.044"	"24.635"	"24.766"	"24.42"
"1986"	"23.389"	"23.84"	"26.271"	"27.746"	"28.046"	"25.795"	"24.887"	"23.906"	"25.37"	"26.215"	"25.384"	"23.884"
"1987"	"23.691"	"24.157"	"25.835"	"27.437"	"27.797"	"25.936"	"25.041"	"24.815"	"25.808"	"25.613"	"25.633"	"24.147"
"1988"	"23.626"	"24.237"	"25.575"	"27.715"	"28.266"	"25.859"	"24.348"	"24.388"	"24.753"	"25.477"	"24.689"	"23.616"
"1989"	"23.18"	"23.828"	"25.224"	"27.258"	"27.88"	"24.919"	"24.206"	"24.006"	"24.474"	"25.2"	"25.314"	"23.927"
"1990"	"24.011"	"23.587"	"24.804"	"26.903"	"26.821"	"24.978"	"24.274"	"23.84"	"24.438"	"25.279"	"25.229"	"24.155"
"1991"	"22.874"	"23.896"	"25.593"	"27.35"	"28.068"	"25.869"	"23.968"	"24.204"	"24.883"	"25.701"	"25.351"	"22.945"
"1992"	"22.813"	"22.801"	"25.723"	"26.743"	"27.734"	"26.514"	"24.999"	"24.334"	"25.058"	"25.345"	"25.734"	"23.249"
"1993"	"23.492"	"23.667"	"25.021"	"27.19"	"28.043"	"26.383"	"24.403"	"24.438"	"24.218"	"25.411"	"25.661"	"23.3"
"1994"	"23.416"	"23.444"	"26.565"	"26.969"	"27.896"	"25.242"	"24.248"	"24.503"	"24.654"	"25.508"	"24.964"	"22.933"
"1995"	"21.856"	"23.73"	"25.43"	"27.486"	"27.584"	"27.012"	"24.753"	"25.237"	"24.993"	"25.468"	"24.736"	"24.067"
"1996"	"23.732"	"24.646"	"26.821"	"27.393"	"28.033"	"26.349"	"24.487"	"24.374"	"24.64"	"24.836"	"24.822"	"23.87"
"1997"	"22.338"	"22.543"	"26.023"	"26.241"	"27.814"	"25.951"	"24.763"	"24.244"	"24.97"	"26.256"	"26.459"	"25.388"
"1998"	"23.749"	"23.388"	"26.055"	"28.177"	"28.76"	"26.788"	"24.845"	"25.051"	"24.877"	"25.306"	"25.057"	"23.162"
"1999"	"22.078"	"24.994"	"26.429"	"27.623"	"27.331"	"24.872"	"24.235"	"24.395"	"24.272"	"25.374"	"24.905"	"23.474"
"2000"	"23.724"	"23.086"	"25.198"	"27.746"	"27.277"	"25.419"	"24.048"	"24.544"	"25.065"	"25.808"	"25.16"	"23.3"
"2001"	"23.561"	"24.376"	"25.042"	"27.54"	"27.844"	"25.7"	"24.201"	"24.206"	"25.048"	"25.223"	"25.597"	"24.04"
"2002"	"22.545"	"24.953"	"26.747"	"28.029"	"28.306"	"25.84"	"24.721"	"24.2"	"24.903"	"26.22"	"25.413"	"24.293"
