
"Year"	"Jan"	"Feb"	"Mar"	"Apr"	"May"	"Jun"	"Jul"	"Aug"	"Sep"	"Oct"	"Nov"	"Dec"
"1901"	"19.106"	"22.6"	"27.495"	"31.686"	"31.392"	"31.296"	"29.594"	"28.997"	"28.898"	"28.2"	"23.303"	"19.906"
"1902"	"20.504"	"22.6"	"28.591"	"29.488"	"30.49"	"30.694"	"28.995"	"29.397"	"29.299"	"27.601"	"23.204"	"19.907"
"1903"	"20.406"	"22.202"	"27.594"	"31.288"	"32.691"	"30.797"	"29.993"	"28.7"	"28.697"	"27.5"	"22.905"	"19.007"
"1904"	"19.604"	"22.4"	"27.791"	"31.283"	"30.492"	"29.996"	"28.796"	"29.097"	"28.997"	"27.401"	"23.204"	"20.406"
"1905"	"19.405"	"20.601"	"25.694"	"28.389"	"30.094"	"32.396"	"28.995"	"29.1"	"28.7"	"27.6"	"23.305"	"19.907"
"1906"	"19.504"	"22.301"	"25.595"	"31.586"	"32.192"	"30.994"	"29.595"	"28.898"	"28.897"	"27.401"	"23.504"	"20.409"
"1907"	"20.703"	"22.503"	"25.596"	"28.988"	"30.69"	"29.993"	"28.999"	"28.697"	"28.999"	"27.8"	"23.504"	"19.507"
"1908"	"18.604"	"22.901"	"27.791"	"32.583"	"31.186"	"30.293"	"28.893"	"28.597"	"28.697"	"27.499"	"22.703"	"19.007"
"1909"	"21.505"	"22.7"	"28.591"	"28.686"	"31.187"	"29.196"	"28.894"	"28.2"	"28.697"	"27.3"	"23.901"	"20.007"
"1910"	"19.505"	"22.2"	"27.291"	"30.582"	"31.191"	"29.796"	"29.093"	"28.697"	"28.697"	"27.1"	"22.703"	"18.906"
"1911"	"21.505"	"22.002"	"26.793"	"30.185"	"31.285"	"29.594"	"29.495"	"28.697"	"28.598"	"27.4"	"23.604"	"18.707"
"1912"	"20.304"	"23.6"	"27.594"	"29.288"	"30.793"	"30.494"	"29.094"	"28.697"	"29.097"	"27.3"	"22.703"	"19.304"
"1913"	"19.603"	"22.5"	"26.095"	"31.283"	"30.291"	"28.397"	"29.093"	"28.399"	"28.897"	"26.8"	"22.304"	"19.407"
"1914"	"19.803"	"23.601"	"27.293"	"28.788"	"30.189"	"29.696"	"28.894"	"28.697"	"28.597"	"27.002"	"23.404"	"20.205"
"1915"	"20.103"	"22.7"	"26.494"	"30.686"	"30.989"	"29.996"	"29.594"	"29.199"	"28.498"	"28.598"	"24.902"	"19.904"
"1916"	"19.403"	"22.699"	"28.491"	"30.786"	"32.586"	"29.196"	"28.999"	"28.498"	"28.696"	"27.6"	"23.404"	"19.406"
"1917"	"19.202"	"22.4"	"26.592"	"30.289"	"29.791"	"29.495"	"28.996"	"28.399"	"28.297"	"27.5"	"23.204"	"19.406"
"1918"	"18.402"	"22.4"	"27.991"	"29.387"	"29.889"	"28.394"	"29.893"	"28.499"	"28.997"	"27.702"	"23.605"	"19.405"
"1919"	"20.603"	"22.002"	"28.091"	"30.187"	"31.186"	"29.594"	"29.094"	"28.596"	"28.597"	"27.5"	"23.404"	"19.505"
"1920"	"20.103"	"22.5"	"26.994"	"30.185"	"31.19"	"31.792"	"28.996"	"28.697"	"28.697"	"27.699"	"23.503"	"19.505"
"1921"	"20.103"	"22.4"	"28.39"	"30.284"	"32.589"	"30.192"	"29.291"	"28.297"	"28.596"	"26.5"	"22.701"	"20.404"
"1922"	"20.103"	"22.999"	"28.492"	"31.084"	"31.788"	"28.996"	"29.093"	"28.498"	"28.196"	"26.4"	"23.102"	"19.904"
"1923"	"19.602"	"22.298"	"26.589"	"30.483"	"31.789"	"31.494"	"28.993"	"28.197"	"28.996"	"26.9"	"23.302"	"20.203"
"1924"	"20.001"	"22.7"	"28.689"	"31.785"	"32.088"	"32.093"	"28.995"	"28.597"	"27.998"	"27.5"	"22.903"	"19.405"
"1925"	"18.603"	"21.3"	"27.094"	"29.687"	"30.993"	"30.095"	"28.495"	"28.697"	"28.498"	"26.599"	"23.003"	"19.303"
"1926"	"19.001"	"22.898"	"25.792"	"29.386"	"31.186"	"32.092"	"28.995"	"28.295"	"28.397"	"26.899"	"22.003"	"20.005"
"1927"	"19.804"	"22"	"25.794"	"30.884"	"30.593"	"30.595"	"29.093"	"28.496"	"28.696"	"27.598"	"23.101"	"20.203"
"1928"	"20.303"	"23"	"28.392"	"29.985"	"30.789"	"29.295"	"28.894"	"28.894"	"29.298"	"27.8"	"23.704"	"20.406"
"1929"	"20.505"	"21.7"	"27.393"	"30.289"	"32.191"	"30.687"	"28.594"	"28.597"	"28.697"	"26.801"	"23.003"	"19.407"
"1930"	"19.004"	"22.2"	"27.692"	"30.686"	"31.186"	"30.49"	"28.794"	"28.498"	"28.897"	"28"	"22.803"	"19.204"
"1931"	"21.304"	"22.602"	"27.096"	"31.184"	"30.79"	"31.595"	"29.094"	"29.196"	"28.897"	"27.3"	"22.805"	"20.206"
"1932"	"21.002"	"22.1"	"28.19"	"30.686"	"30.99"	"30.293"	"28.894"	"28.596"	"28.697"	"28"	"23.204"	"20.404"
"1933"	"18.504"	"22.997"	"27.593"	"29.489"	"30.386"	"29.795"	"28.795"	"28.297"	"28.496"	"27.101"	"23.204"	"19.904"
"1934"	"19.204"	"22.202"	"27.794"	"30.588"	"31.592"	"30.095"	"28.995"	"28.597"	"28.697"	"27.202"	"22.401"	"20.205"
"1935"	"19.103"	"22.8"	"27.691"	"29.686"	"32.988"	"31.394"	"29.393"	"28.499"	"28.697"	"27.502"	"23.203"	"20.008"
"1936"	"19.706"	"22.4"	"28.591"	"31.184"	"29.992"	"28.798"	"29.094"	"28.897"	"28.498"	"27.1"	"23.904"	"20.406"
"1937"	"18.603"	"22"	"26.794"	"30.186"	"30.989"	"29.896"	"28.995"	"28.697"	"28.696"	"27.1"	"23.104"	"19.306"
"1938"	"21.001"	"21.1"	"29.291"	"31.882"	"29.793"	"29.394"	"29.093"	"28.498"	"29.194"	"27.798"	"22.703"	"19.405"
"1939"	"20.702"	"23.598"	"27.395"	"31.586"	"31.889"	"30.49"	"28.695"	"27.999"	"28.498"	"27.6"	"23.203"	"20.403"
"1940"	"19.201"	"22.499"	"25.893"	"30.686"	"30.989"	"30.589"	"28.893"	"28.697"	"28.696"	"27.899"	"25.103"	"20.404"
"1941"	"20.304"	"23"	"29.292"	"31.885"	"31.789"	"30.095"	"29.094"	"28.897"	"29.196"	"27.1"	"23.101"	"21.304"
"1942"	"19.903"	"22.598"	"28.493"	"30.285"	"33.089"	"31.893"	"28.995"	"28.197"	"27.996"	"27.5"	"24.2"	"20.305"
"1943"	"21.101"	"21.1"	"27.392"	"29.087"	"31.389"	"30.096"	"28.795"	"28.496"	"28.697"	"27.999"	"23.503"	"21.202"
"1944"	"20.403"	"22.197"	"26.892"	"28.688"	"32.385"	"31.693"	"28.995"	"28.597"	"29.097"	"27"	"23.201"	"21.204"
"1945"	"18.903"	"22.002"	"28.193"	"29.188"	"30.891"	"30.996"	"29.394"	"29.298"	"28.894"	"26.7"	"23.101"	"19.204"
"1946"	"19.8"	"24.499"	"27.893"	"28.089"	"30.69"	"30.295"	"28.894"	"28.697"	"28.496"	"26.798"	"24.203"	"20.907"
"1947"	"20.803"	"22.798"	"27.892"	"32.386"	"32.391"	"31.394"	"29.795"	"28.697"	"28.897"	"27.3"	"24.003"	"20.404"
"1948"	"21.5"	"23.098"	"26.794"	"30.582"	"31.292"	"30.796"	"28.995"	"28.701"	"28.996"	"27.6"	"24.204"	"19.409"
"1949"	"20.603"	"22.601"	"28.093"	"28.991"	"29.796"	"30.494"	"28.995"	"29.196"	"28.697"	"28.2"	"22.302"	"19.304"
"1950"	"20.702"	"22.9"	"27.291"	"31.086"	"31.891"	"30.696"	"28.894"	"28.499"	"28.697"	"26.801"	"22.904"	"20.303"
"1951"	"19.602"	"23.199"	"27.593"	"31.085"	"32.289"	"30.793"	"28.995"	"29.396"	"29.598"	"28.699"	"23.902"	"21.703"
"1952"	"21"	"24.598"	"26.787"	"29.793"	"31.292"	"30.994"	"28.796"	"28.997"	"29.098"	"27.4"	"23.703"	"20.906"
"1953"	"20.304"	"24.2"	"29.69"	"32.088"	"32.191"	"30.297"	"28.999"	"28.897"	"29.098"	"27.9"	"23.703"	"22.404"
"1954"	"19.604"	"25.1"	"28.293"	"32.685"	"31.789"	"30.096"	"29.897"	"28.898"	"29.098"	"26.801"	"22.305"	"20.706"
"1955"	"20.103"	"23.1"	"28.991"	"30.488"	"32.787"	"30.894"	"28.995"	"28.399"	"29.298"	"27.099"	"23.901"	"20.005"
"1956"	"21.004"	"21.798"	"28.091"	"31.286"	"31.589"	"28.496"	"28.996"	"28.7"	"28.697"	"27.399"	"23.203"	"21.005"
"1957"	"21.004"	"22.202"	"26.592"	"31.286"	"33.786"	"31.596"	"29.396"	"29.298"	"29.197"	"27.9"	"23.804"	"21.407"
"1958"	"22.203"	"23.401"	"28.39"	"31.385"	"32.886"	"32.393"	"29.793"	"28.999"	"28.997"	"28.399"	"24.804"	"21.505"
"1959"	"20.903"	"22.1"	"27.693"	"31.387"	"32.389"	"30.194"	"29.694"	"28.697"	"28.297"	"27.499"	"23.003"	"20.303"
"1960"	"20.101"	"24.297"	"26.594"	"31.986"	"32.392"	"31.296"	"28.795"	"29.197"	"28.7"	"27.7"	"23.004"	"20.805"
"1961"	"20.703"	"21"	"29.093"	"31.684"	"31.789"	"30.293"	"28.995"	"28.997"	"28.696"	"27.5"	"22.803"	"18.405"
"1962"	"18.801"	"22.799"	"27.794"	"30.587"	"30.989"	"30.193"	"29.894"	"28.898"	"28.997"	"27"	"23.503"	"20.705"
"1963"	"19.303"	"24.4"	"27.793"	"30.087"	"30.092"	"30.295"	"29.295"	"29.097"	"29.097"	"27.8"	"24.302"	"21.304"
"1964"	"21.105"	"24.1"	"29.093"	"30.587"	"30.989"	"31.295"	"28.495"	"28.897"	"28.997"	"27.9"	"24.004"	"20.804"
"1965"	"20.702"	"22.898"	"26.293"	"30.085"	"31.788"	"31.592"	"28.894"	"28.596"	"28.596"	"27.298"	"24.302"	"20.406"
"1966"	"19.902"	"24.499"	"28.19"	"31.482"	"32.889"	"30.091"	"29.295"	"28.7"	"28.197"	"26.6"	"24.103"	"19.406"
"1967"	"20.3"	"24.299"	"26.593"	"29.588"	"31.49"	"31.194"	"29.295"	"28.597"	"28.596"	"27.5"	"23.104"	"21.906"
"1968"	"20.303"	"22.601"	"28.293"	"30.285"	"31.986"	"28.596"	"28.796"	"28.397"	"29.396"	"27"	"23.204"	"20.797"
"1969"	"19.804"	"24.203"	"29.192"	"30.785"	"30.989"	"31.196"	"29.094"	"28.298"	"28.598"	"27.503"	"24.504"	"20.406"
"1970"	"20.403"	"23.403"	"27.594"	"30.983"	"32.188"	"29.795"	"28.995"	"28.997"	"28.397"	"27.6"	"23.104"	"19.505"
"1971"	"19.904"	"22.401"	"26.293"	"27.589"	"27.889"	"29.194"	"27.596"	"27.498"	"28.697"	"27.4"	"22.806"	"20.206"
"1972"	"19.405"	"20.303"	"27.594"	"30.788"	"32.692"	"30.797"	"29.094"	"28.098"	"28.704"	"27.503"	"23.908"	"20.809"
"1973"	"21.51"	"23.602"	"26.497"	"31.589"	"30.192"	"29.4"	"29.094"	"28.498"	"27.999"	"27.202"	"23.403"	"19.406"
"1974"	"19.208"	"22.401"	"27.593"	"29.986"	"30.292"	"30.595"	"28.596"	"28.999"	"28.499"	"27.6"	"24.405"	"19.208"
"1975"	"19.602"	"22.7"	"27.793"	"30.286"	"31.49"	"30.496"	"28.295"	"28.397"	"28.297"	"28.298"	"22.9"	"19.406"
"1976"	"19.902"	"23.699"	"28.393"	"30.087"	"29.69"	"30.295"	"29.295"	"28.396"	"28.498"	"28.401"	"26.002"	"20.705"
"1977"	"19.803"	"23"	"28.89"	"29.485"	"28.893"	"29.093"	"28.995"	"28.996"	"28.997"	"27.6"	"25.003"	"19.909"
"1978"	"19.004"	"22.5"	"26.594"	"29.288"	"30.89"	"29.996"	"28.894"	"28.696"	"28.098"	"27.801"	"25.204"	"20.406"
"1979"	"21.101"	"21.202"	"27.193"	"30.286"	"32.691"	"30.091"	"30.296"	"29.296"	"27.597"	"28.3"	"26.501"	"20.705"
"1980"	"20.106"	"23.401"	"26.895"	"31.585"	"30.591"	"28.394"	"27.995"	"27.795"	"29.398"	"27.099"	"24.003"	"20.904"
"1981"	"19.702"	"23.101"	"26.893"	"28.492"	"28.794"	"30.293"	"27.894"	"27.996"	"28.096"	"27.5"	"24.004"	"19.704"
"1982"	"20.803"	"22.701"	"25.996"	"29.687"	"32.487"	"30.494"	"30.593"	"28.697"	"29.497"	"28.101"	"23.704"	"20.305"
"1983"	"19.904"	"22.301"	"27.693"	"30.088"	"30.792"	"31.394"	"29.894"	"28.894"	"29.097"	"27.6"	"24.103"	"19.804"
"1984"	"19.804"	"21.702"	"28.193"	"30.585"	"31.589"	"29.097"	"29.094"	"28.697"	"28.897"	"28.1"	"23.105"	"20.409"
"1985"	"20.703"	"22.803"	"29.093"	"31.285"	"30.69"	"30.593"	"28.593"	"28.894"	"28.697"	"27.296"	"23.9"	"21.503"
"1986"	"19.998"	"23.199"	"28.195"	"30.087"	"30.091"	"30.89"	"28.993"	"29.199"	"28.697"	"26.699"	"24.302"	"21.004"
"1987"	"19.9"	"23.496"	"27.491"	"30.185"	"30.989"	"31.293"	"29.295"	"29.098"	"29.298"	"28.197"	"24.398"	"21.198"
"1988"	"20.497"	"23.497"	"27.793"	"30.882"	"30.987"	"29.893"	"29.292"	"29.197"	"29.594"	"28.397"	"24.503"	"21.903"
"1989"	"19.102"	"23.396"	"27.692"	"31.485"	"31.49"	"30.096"	"29.296"	"28.897"	"28.894"	"27.899"	"24.302"	"20.406"
"1990"	"20.705"	"23.598"	"25.491"	"29.485"	"30.291"	"30.595"	"28.893"	"29.594"	"28.996"	"26.8"	"25.001"	"21.004"
"1991"	"19.304"	"24.7"	"28.594"	"30.588"	"31.388"	"30.194"	"29.995"	"29.1"	"29.499"	"27.499"	"23.4"	"19.904"
"1992"	"19.504"	"22.301"	"28.291"	"31.385"	"30.691"	"30.694"	"29.291"	"29.097"	"28.997"	"27.9"	"24.401"	"20.205"
"1993"	"20.502"	"23.897"	"26.693"	"29.288"	"30.589"	"30.092"	"29.493"	"28.898"	"28.597"	"27.699"	"24.204"	"20.904"
"1994"	"20.702"	"22.4"	"28.093"	"29.886"	"31.99"	"30.095"	"29.495"	"28.897"	"28.997"	"27.9"	"24.201"	"20.705"
"1995"	"19.202"	"22.7"	"27.495"	"31.388"	"31.79"	"30.691"	"28.995"	"29.398"	"28.697"	"27.7"	"24.201"	"21.005"
"1996"	"20.703"	"22.701"	"28.693"	"30.187"	"32.491"	"29.595"	"29.996"	"28.298"	"29.595"	"27.3"	"24.203"	"20.406"
"1997"	"19.503"	"22.5"	"28.193"	"28.785"	"31.591"	"31.194"	"28.999"	"28.897"	"28.399"	"27.7"	"25.304"	"20.406"
"1998"	"18.704"	"23.2"	"25.895"	"30.488"	"31.792"	"31.991"	"29.595"	"29.397"	"29.097"	"28.898"	"25.202"	"21.403"
"1999"	"20.103"	"24.5"	"28.995"	"32.585"	"30.989"	"30.295"	"28.996"	"28.697"	"28.397"	"27.999"	"24.302"	"21.903"
"2000"	"20.903"	"22.301"	"27.893"	"31.186"	"30.89"	"29.995"	"29.291"	"29.499"	"28.7"	"27.699"	"25.201"	"20.406"
"2001"	"19.701"	"23.901"	"27.893"	"31.487"	"31.19"	"29.296"	"28.796"	"29.597"	"29.798"	"28.598"	"25.701"	"21.002"
"2002"	"20.904"	"24.1"	"28.593"	"30.486"	"31.689"	"30.293"	"29.693"	"28.697"	"28.7"	"27.8"	"24.203"	"20.904"
