
"Year"	"Jan"	"Feb"	"Mar"	"Apr"	"May"	"Jun"	"Jul"	"Aug"	"Sep"	"Oct"	"Nov"	"Dec"
"1901"	"21.385"	"22.404"	"25.637"	"28.364"	"29.841"	"28.594"	"25.819"	"25.037"	"25.979"	"25.039"	"22.206"	"19.704"
"1902"	"21.018"	"22.712"	"26.276"	"28.655"	"30.286"	"29.23"	"25.576"	"25.908"	"25.468"	"25.013"	"22.121"	"19.944"
"1903"	"20.901"	"22.252"	"25.843"	"28.481"	"29.023"	"28.131"	"25.473"	"25.564"	"25.358"	"24.337"	"21.101"	"19.194"
"1904"	"20.596"	"22.009"	"25.582"	"28.912"	"29.256"	"27.321"	"25.642"	"25.401"	"25.348"	"24.564"	"21.922"	"19.821"
"1905"	"20.461"	"21.564"	"25.534"	"27.772"	"29.303"	"29.144"	"25.835"	"25.366"	"24.874"	"24.602"	"22.297"	"19.578"
"1906"	"21.282"	"23.089"	"24.968"	"28.91"	"30.743"	"27.337"	"25.449"	"25.2"	"25.738"	"24.785"	"22.198"	"20.706"
"1907"	"20.596"	"22.632"	"25.291"	"27.105"	"29.215"	"27.534"	"25.734"	"24.248"	"25.88"	"25.122"	"22.664"	"19.394"
"1908"	"19.283"	"22.513"	"25.369"	"28.882"	"29.991"	"28.828"	"25.459"	"24.618"	"25.564"	"24.688"	"21.59"	"18.799"
"1909"	"21.085"	"22.798"	"25.893"	"26.856"	"29.34"	"26.922"	"25.208"	"25.045"	"25.196"	"24.12"	"21.662"	"20.378"
"1910"	"20.402"	"21.882"	"25.899"	"29.037"	"30.175"	"28.209"	"25.868"	"25.724"	"25.763"	"24.817"	"20.403"	"17.972"
"1911"	"20.511"	"21.823"	"25.544"	"28.512"	"30.174"	"27.018"	"25.993"	"24.965"	"25.571"	"24.591"	"22.459"	"19.173"
"1912"	"20.124"	"23.189"	"26.789"	"27.992"	"30.395"	"29.936"	"25.291"	"25.079"	"25.467"	"24.833"	"21.614"	"18.574"
"1913"	"19.263"	"23.101"	"25.827"	"29.103"	"29.728"	"27.318"	"25.539"	"25.501"	"25.818"	"24.335"	"21.397"	"19.977"
"1914"	"19.468"	"23.402"	"26.13"	"26.504"	"28.919"	"27.466"	"25.432"	"25.234"	"25.371"	"24.598"	"22.072"	"20.038"
"1915"	"20.124"	"22.46"	"25.228"	"28.285"	"30.175"	"29.078"	"26.393"	"25.823"	"25.579"	"25.422"	"23.548"	"19.554"
"1916"	"19.874"	"22.877"	"25.78"	"28.831"	"29.702"	"26.43"	"25.9"	"25.63"	"25.684"	"25.01"	"22.484"	"18.929"
"1917"	"19.774"	"21.753"	"24.833"	"27.735"	"27.96"	"26.172"	"25.34"	"25.553"	"25.165"	"24.313"	"21.734"	"18.916"
"1918"	"19.633"	"21.601"	"25.315"	"27.699"	"28.259"	"26.012"	"26.227"	"25.108"	"25.963"	"24.549"	"23.316"	"20.544"
"1919"	"21.775"	"23.39"	"26.003"	"28.281"	"29.233"	"26.677"	"25.95"	"25.495"	"25.775"	"24.604"	"22.407"	"19.548"
"1920"	"20.508"	"22.838"	"26.39"	"28.255"	"29.265"	"28.625"	"25.984"	"25.841"	"26.246"	"25.255"	"22.116"	"19.008"
"1921"	"20.947"	"22.356"	"26.695"	"28.549"	"32.51"	"28.579"	"26.136"	"25.599"	"25.357"	"24.076"	"20.166"	"19.459"
"1922"	"20.438"	"22.439"	"26.575"	"29.216"	"30.576"	"28.343"	"25.525"	"26.166"	"25.536"	"24.376"	"22.463"	"18.52"
"1923"	"19.733"	"22.339"	"25.104"	"28.398"	"30.467"	"30.839"	"25.73"	"25.574"	"25.665"	"24.288"	"21.779"	"19.581"
"1924"	"20.475"	"23.381"	"26.47"	"29.315"	"30.35"	"29.807"	"26.211"	"25.944"	"25.292"	"24.577"	"21.642"	"18.955"
"1925"	"19.921"	"21.863"	"25.602"	"28.615"	"28.48"	"27.249"	"25.014"	"25.389"	"25.946"	"24.586"	"22.566"	"19.238"
"1926"	"21.128"	"23.065"	"25.994"	"27.67"	"29.185"	"30.761"	"25.974"	"25.313"	"25.653"	"24.387"	"21.349"	"19.668"
"1927"	"22.183"	"23.542"	"26.571"	"29.449"	"30.514"	"28.316"	"25.448"	"25.231"	"25.788"	"24.345"	"21.347"	"19.607"
"1928"	"20.237"	"22.532"	"25.811"	"28.366"	"30.57"	"28.268"	"25.49"	"26.085"	"25.669"	"25.124"	"21.533"	"20.075"
"1929"	"21.208"	"21.41"	"25.483"	"27.275"	"30.448"	"27.657"	"25.505"	"25.324"	"25.759"	"23.934"	"20.932"	"20.262"
"1930"	"20.119"	"21.179"	"25.619"	"28.127"	"29.693"	"28.129"	"25.771"	"25.409"	"25.327"	"24.634"	"20.899"	"19.528"
"1931"	"19.642"	"22.945"	"25.681"	"28.706"	"30.226"	"29.671"	"25.635"	"25.712"	"25.966"	"24.808"	"21.467"	"19.46"
"1932"	"19.495"	"21.402"	"25.873"	"28.447"	"29.51"	"28.866"	"25.242"	"25.738"	"25.632"	"25.439"	"22.725"	"19.326"
"1933"	"20.448"	"23.363"	"25.577"	"28.064"	"28.464"	"26.251"	"25.811"	"25.434"	"25.486"	"24.522"	"21.924"	"19.873"
"1934"	"19.809"	"21.999"	"25.713"	"28.638"	"30.923"	"28.212"	"25.536"	"25.338"	"25.4"	"24.063"	"20.809"	"19.183"
"1935"	"20.318"	"22.706"	"25.713"	"27.572"	"31.22"	"29.57"	"25.249"	"25.593"	"25.456"	"24.971"	"21.245"	"20.272"
"1936"	"22.503"	"22.19"	"25.935"	"28.42"	"29.631"	"25.992"	"25.95"	"25.101"	"25.79"	"24.697"	"23.186"	"20.271"
"1937"	"19.657"	"23.079"	"25.578"	"28.052"	"30.37"	"28.939"	"25.447"	"25.724"	"25.605"	"24.441"	"21.872"	"19.31"
"1938"	"22.199"	"22.566"	"26.916"	"28.526"	"30.109"	"25.916"	"25.544"	"25.868"	"25.459"	"24.308"	"20.684"	"18.802"
"1939"	"20.406"	"22.531"	"25.29"	"28.599"	"31.113"	"29.124"	"25.255"	"25.711"	"25.668"	"25.083"	"21.147"	"19.131"
"1940"	"18.553"	"22.4"	"25.124"	"28.01"	"29.417"	"27.543"	"24.918"	"25.317"	"26.027"	"25.008"	"23.028"	"20.462"
"1941"	"21.517"	"23.178"	"26.809"	"29.972"	"30.416"	"27.308"	"26.132"	"26.282"	"26.009"	"24.463"	"20.512"	"20.424"
"1942"	"20.361"	"22.551"	"26.227"	"28.397"	"30.89"	"29.425"	"25.263"	"25.697"	"26.196"	"23.907"	"21.47"	"20.472"
"1943"	"21.7"	"21.099"	"25.727"	"27.836"	"29.213"	"27.167"	"25.765"	"25.346"	"25.718"	"24.75"	"21.899"	"18.475"
"1944"	"20.518"	"22.254"	"24.462"	"27.384"	"30.266"	"29.067"	"25.047"	"25.374"	"25.493"	"24.598"	"21.237"	"19.553"
"1945"	"19.863"	"21.968"	"25.844"	"27.9"	"30.788"	"28.904"	"25.373"	"25.67"	"24.873"	"23.649"	"20.516"	"17.946"
"1946"	"18.208"	"21.262"	"26.636"	"27.075"	"30.127"	"27.217"	"25.667"	"25.327"	"26.053"	"25.339"	"23.85"	"21.831"
"1947"	"22.033"	"21.919"	"26.815"	"30.328"	"31.488"	"29.154"	"24.988"	"25.837"	"25.706"	"24.318"	"21.405"	"19.871"
"1948"	"21.163"	"23.618"	"25.417"	"29.078"	"31.196"	"29.631"	"26.389"	"25.732"	"25.817"	"25.155"	"23.676"	"18.806"
"1949"	"20.034"	"22"	"26.39"	"28.538"	"29.889"	"27.965"	"25.526"	"25.929"	"25.724"	"25.024"	"22.136"	"17.967"
"1950"	"20.054"	"22.498"	"25.068"	"29.022"	"30.668"	"28.093"	"24.969"	"26.022"	"25.892"	"24.397"	"21.056"	"18.961"
"1951"	"19.857"	"22.673"	"25.94"	"28.49"	"29.529"	"27.889"	"26.089"	"25.391"	"26.584"	"26.043"	"22.724"	"20.378"
"1952"	"20.851"	"23.451"	"25.923"	"28.988"	"30.453"	"29.725"	"26.391"	"25.889"	"25.748"	"24.909"	"21.623"	"21.285"
"1953"	"20.389"	"22.95"	"27.509"	"28.933"	"32.242"	"29.983"	"26.231"	"25.325"	"26.365"	"25.258"	"21.712"	"19.32"
"1954"	"19.941"	"23.492"	"26.151"	"29.775"	"30.841"	"28.919"	"25.897"	"26.04"	"25.313"	"24.016"	"20.242"	"20.272"
"1955"	"20.357"	"23.612"	"26.678"	"28.544"	"29.34"	"28.979"	"26.009"	"25.728"	"25.479"	"24.555"	"20.764"	"18.974"
"1956"	"20.714"	"21.387"	"26.899"	"29.627"	"30.104"	"27.123"	"25.116"	"25.545"	"25.57"	"24.189"	"22.412"	"20.219"
"1957"	"21.229"	"22.616"	"25.25"	"28.246"	"30.262"	"28.876"	"25.423"	"25.535"	"26.368"	"25.775"	"22.15"	"20.609"
"1958"	"20.938"	"23.235"	"26.368"	"29.187"	"30.582"	"30.817"	"25.41"	"26.092"	"25.788"	"24.836"	"23.007"	"20.289"
"1959"	"20.767"	"23.23"	"26.365"	"29.015"	"30.935"	"28.251"	"25.409"	"25.042"	"25.486"	"24.918"	"21.419"	"19.595"
"1960"	"20.578"	"22.301"	"25.44"	"29.018"	"30.187"	"28.592"	"25.739"	"25.853"	"26.106"	"24.452"	"21.926"	"20.895"
"1961"	"20.797"	"22.067"	"27.317"	"29.31"	"30.412"	"27.729"	"24.991"	"25.718"	"24.905"	"24.338"	"20.881"	"18.737"
"1962"	"18.545"	"21.618"	"25.855"	"28.099"	"30.03"	"27.463"	"25.341"	"25.399"	"25.859"	"24.711"	"21.527"	"19.95"
"1963"	"19.035"	"22.052"	"25.933"	"27.148"	"30.001"	"28.291"	"25.729"	"25.448"	"25.944"	"25.045"	"22.495"	"20.069"
"1964"	"21.535"	"23.522"	"26.994"	"29.364"	"31.266"	"28.429"	"25.987"	"24.764"	"25.57"	"24.921"	"22.038"	"19.794"
"1965"	"20.638"	"22.792"	"25.848"	"28.428"	"30.425"	"29.47"	"25.861"	"26.366"	"25.97"	"25.418"	"22.448"	"21.128"
"1966"	"20.539"	"23.31"	"26.745"	"29.229"	"31.857"	"28.708"	"26.752"	"26.133"	"26.012"	"24.792"	"23.647"	"19.802"
"1967"	"20.759"	"23.134"	"25.098"	"28.653"	"31.35"	"29.239"	"26.366"	"25.405"	"25.92"	"24.474"	"21.8"	"21.833"
"1968"	"20.109"	"23.163"	"25.431"	"27.255"	"30.174"	"29.11"	"26.322"	"26.137"	"25.889"	"24.349"	"22.436"	"20.347"
"1969"	"20.473"	"24.052"	"27.844"	"30.052"	"29.275"	"28.668"	"25.402"	"25.691"	"25.652"	"24.829"	"23.021"	"19.503"
"1970"	"20.453"	"24.181"	"26.636"	"28.592"	"30.33"	"26.831"	"25.691"	"25.394"	"25.816"	"24.678"	"21.134"	"18.016"
"1971"	"20.551"	"23.436"	"25.179"	"27.183"	"28.332"	"26.258"	"25.76"	"25.46"	"25.845"	"24.494"	"20.382"	"18.474"
"1972"	"19.237"	"22.246"	"26.713"	"28.745"	"31.423"	"30.763"	"26.537"	"26.136"	"25.883"	"24.329"	"22.28"	"21.509"
"1973"	"21.912"	"24.275"	"26.781"	"30.683"	"32.248"	"29.526"	"25.742"	"25.593"	"26.165"	"25.063"	"21.548"	"19.735"
"1974"	"19.728"	"23.449"	"27.395"	"29.968"	"30.355"	"28.806"	"26.64"	"25.924"	"26.253"	"24.89"	"21.781"	"18.978"
"1975"	"19.364"	"23.275"	"27.091"	"29.875"	"31.839"	"27.737"	"25.626"	"25.886"	"25.176"	"25.223"	"20.989"	"18.61"
"1976"	"18.639"	"22.47"	"26.583"	"28.784"	"30.572"	"28.688"	"25.25"	"25.439"	"25.763"	"25.359"	"23.979"	"21.026"
"1977"	"20.524"	"23.273"	"27.419"	"28.029"	"29.026"	"29.098"	"26.055"	"25.601"	"25.451"	"24.221"	"23.612"	"19.096"
"1978"	"20.116"	"22.412"	"25.949"	"28.611"	"31.414"	"28.849"	"25.546"	"24.909"	"26.228"	"25.515"	"23.704"	"20.592"
"1979"	"21.256"	"23.399"	"26.147"	"29.269"	"30.001"	"29.211"	"27.15"	"26.127"	"26.442"	"25.568"	"24.064"	"20.975"
"1980"	"21.813"	"23.813"	"27.128"	"29.72"	"30.946"	"27.491"	"25.684"	"25.7"	"25.971"	"24.903"	"23.519"	"21.193"
"1981"	"20.189"	"23.51"	"25.794"	"29.256"	"30.104"	"28.912"	"26.142"	"25.654"	"26.321"	"25.388"	"22.276"	"20.83"
"1982"	"21.936"	"24.071"	"27.049"	"28.934"	"29.996"	"29.225"	"27.004"	"25.275"	"26.225"	"25.35"	"23.151"	"20.952"
"1983"	"21.157"	"24.14"	"27.419"	"29.699"	"30.523"	"30.136"	"26.763"	"26.095"	"26.063"	"25.21"	"21.732"	"20.166"
"1984"	"22.297"	"23.218"	"26.174"	"28.369"	"31.315"	"27.477"	"25.733"	"25.749"	"25.86"	"25.432"	"21.17"	"21.14"
"1985"	"22.039"	"22.946"	"27.281"	"29.79"	"31.021"	"28.212"	"25.666"	"25.727"	"25.824"	"24.198"	"21.76"	"20.973"
"1986"	"20.144"	"23.149"	"26.693"	"28.952"	"31.074"	"27.584"	"26.219"	"25.851"	"26.756"	"25.48"	"22.771"	"21.569"
"1987"	"21.025"	"22.085"	"25.366"	"28.99"	"28.976"	"29.658"	"26.609"	"26.341"	"27.174"	"25.548"	"23.23"	"21.107"
"1988"	"21.456"	"23.721"	"27.037"	"28.649"	"31.059"	"29.001"	"25.653"	"25.83"	"26.284"	"24.69"	"22.324"	"21.183"
"1989"	"20.666"	"22.802"	"25.774"	"29.365"	"31.21"	"27.889"	"26.213"	"26.05"	"26.061"	"25.479"	"22.81"	"20.229"
"1990"	"21.365"	"23.415"	"25.582"	"28.744"	"27.573"	"27.109"	"25.544"	"25.946"	"26.477"	"24.914"	"23.705"	"21.479"
"1991"	"21.903"	"24.286"	"27.509"	"28.995"	"30.589"	"28.207"	"26.391"	"26.175"	"26.451"	"25.529"	"22.187"	"20.211"
"1992"	"19.711"	"22.819"	"26.573"	"28.98"	"30.441"	"28.365"	"26.765"	"25.544"	"25.989"	"25.073"	"23.389"	"19.607"
"1993"	"21.206"	"22.125"	"26.13"	"29.109"	"30.504"	"29.123"	"26.629"	"26.395"	"25.852"	"25.701"	"22.473"	"19.715"
"1994"	"21.409"	"23.026"	"27.528"	"28.952"	"30.655"	"28.333"	"25.326"	"25.018"	"25.844"	"25.242"	"22.189"	"19.658"
"1995"	"19.862"	"22.908"	"26.442"	"28.774"	"28.285"	"30.06"	"26.065"	"26.688"	"26.27"	"24.918"	"22.919"	"20.8"
"1996"	"21.818"	"22.467"	"27.051"	"28.641"	"31.334"	"29.001"	"26.725"	"25.668"	"26.59"	"25.043"	"22.994"	"20.091"
"1997"	"19.844"	"22.346"	"26.503"	"27.432"	"29.744"	"29.771"	"27.026"	"25.943"	"26.267"	"25.135"	"24.527"	"22.685"
"1998"	"22.353"	"23.71"	"26.744"	"28.931"	"30.947"	"29.742"	"26.738"	"26.424"	"26.607"	"26.102"	"23.865"	"19.479"
"1999"	"19.517"	"24.154"	"27.14"	"30.599"	"29.59"	"28.025"	"26.431"	"25.695"	"25.775"	"25.634"	"22.224"	"19.805"
"2000"	"22.203"	"23.471"	"26.112"	"30.031"	"30.478"	"27.443"	"26.185"	"25.89"	"26.374"	"26.095"	"23.034"	"19.778"
"2001"	"20.99"	"23.786"	"27.338"	"28.304"	"30.885"	"27.25"	"26.278"	"25.584"	"26.989"	"25.682"	"23.943"	"20.417"
"2002"	"21.241"	"23.518"	"27.138"	"29.359"	"31.676"	"28.184"	"27.152"	"25.453"	"26.538"	"25.691"	"22.333"	"21.199"
