
"Year"	"Jan"	"Feb"	"Mar"	"Apr"	"May"	"Jun"	"Jul"	"Aug"	"Sep"	"Oct"	"Nov"	"Dec"
"1901"	"16.026"	"18.5"	"23.792"	"28.88"	"32.331"	"32.562"	"27.487"	"25.6"	"25.595"	"24.679"	"19.617"	"16.393"
"1902"	"17.869"	"19.366"	"26.691"	"30.057"	"33.653"	"32.977"	"27.198"	"26.764"	"25.791"	"24.163"	"19.123"	"16.12"
"1903"	"17.366"	"18.096"	"24.435"	"29.71"	"31.97"	"31.943"	"27.816"	"26.532"	"26.169"	"23.589"	"18.159"	"15.545"
"1904"	"17.226"	"18.862"	"24.707"	"30.688"	"32.391"	"29.783"	"26.019"	"25.636"	"25.574"	"24.009"	"18.81"	"17.32"
"1905"	"16.202"	"16.08"	"23.521"	"26.982"	"32.686"	"33.919"	"26.718"	"26.229"	"25.444"	"23.579"	"19.812"	"16.538"
"1906"	"16.453"	"19.143"	"23.569"	"29.963"	"34.119"	"30.84"	"26.588"	"26.08"	"25.767"	"24.007"	"19.914"	"17.244"
"1907"	"17.3"	"18.418"	"23.294"	"26.826"	"31.443"	"30.672"	"28.156"	"25.379"	"26.427"	"24.869"	"20.014"	"15.646"
"1908"	"15.32"	"19.494"	"23.977"	"31.058"	"33.745"	"32.426"	"26.717"	"25.806"	"26.416"	"23.86"	"18.899"	"15.491"
"1909"	"18.52"	"19.026"	"24.735"	"27.203"	"32.669"	"28.492"	"25.823"	"26.149"	"25.667"	"23.647"	"19.895"	"17.3"
"1910"	"16.485"	"18.79"	"24.707"	"30.011"	"32.795"	"29.309"	"26.722"	"25.832"	"25.83"	"23.807"	"18.59"	"16.252"
"1911"	"18.976"	"18.344"	"23.517"	"29.441"	"34.019"	"29.064"	"28.148"	"25.499"	"25.517"	"24.29"	"20.201"	"16.07"
"1912"	"17.133"	"20.143"	"24.655"	"29.339"	"32.946"	"33.061"	"27.147"	"25.8"	"25.724"	"24.194"	"19.274"	"15.821"
"1913"	"16.376"	"19.564"	"23.277"	"30.56"	"31.412"	"27.946"	"26.643"	"25.784"	"26.059"	"24.382"	"19.329"	"16.691"
"1914"	"17.37"	"20.263"	"24.008"	"28.206"	"31.729"	"30.163"	"26.58"	"26.16"	"25.862"	"23.731"	"20.801"	"16.872"
"1915"	"17.148"	"19.02"	"23.866"	"29.335"	"34.035"	"32.426"	"27.652"	"26.247"	"25.852"	"25.193"	"21.123"	"16.274"
"1916"	"16.105"	"19.542"	"25.617"	"30.838"	"33.2"	"27.762"	"26.799"	"25.816"	"25.824"	"24.628"	"19.77"	"15.222"
"1917"	"16.647"	"18.739"	"23.432"	"27.508"	"29.228"	"28.777"	"26.367"	"25.884"	"25.503"	"24.389"	"18.492"	"16.753"
"1918"	"15.673"	"19.447"	"24.69"	"28.835"	"32.338"	"27.549"	"28.066"	"25.502"	"26.176"	"23.637"	"19.598"	"16.297"
"1919"	"18.703"	"18.398"	"24.705"	"28.576"	"31.66"	"29.533"	"26.022"	"25.646"	"25.823"	"23.515"	"20.193"	"16.273"
"1920"	"16.704"	"19.274"	"24.867"	"29.19"	"30.744"	"32.023"	"26.051"	"26.084"	"26.476"	"25.03"	"20.197"	"16.701"
"1921"	"17.697"	"18.847"	"26.651"	"31.141"	"35.223"	"30.265"	"27.388"	"25.418"	"25.472"	"23.658"	"18.239"	"17.523"
"1922"	"16.697"	"19.896"	"25.39"	"29.655"	"33.713"	"29.039"	"25.752"	"25.287"	"25.079"	"22.885"	"19.048"	"15.872"
"1923"	"16.73"	"18.841"	"23.789"	"29.957"	"33.338"	"33.651"	"26.27"	"25.254"	"25.918"	"22.907"	"19.396"	"17.496"
"1924"	"17.099"	"20.025"	"26.194"	"30.642"	"32.096"	"33.247"	"26.155"	"26.029"	"25.596"	"23.91"	"19.237"	"16.718"
"1925"	"15.75"	"18.347"	"24.324"	"30.291"	"31.442"	"29.291"	"25.224"	"26.033"	"26.15"	"24.461"	"19.84"	"16.107"
"1926"	"16.919"	"20.066"	"24.039"	"26.739"	"30.608"	"33.546"	"27.468"	"25.877"	"25.523"	"23.462"	"17.891"	"16.223"
"1927"	"17.235"	"19.295"	"23.144"	"29.414"	"32.263"	"31.441"	"26.496"	"25.781"	"26.524"	"24.163"	"18.884"	"17.455"
"1928"	"17.536"	"19.344"	"25.036"	"28.792"	"33.428"	"29.869"	"26.12"	"26.465"	"26.473"	"24.859"	"20.322"	"17.265"
"1929"	"17.187"	"18.022"	"25.219"	"29.563"	"33.812"	"30.663"	"26.119"	"25.236"	"26.389"	"23.597"	"19.391"	"16.452"
"1930"	"16.718"	"18.342"	"25.174"	"28.759"	"32.195"	"31.173"	"26.071"	"25.702"	"26.199"	"24.938"	"19.422"	"16.803"
"1931"	"18.277"	"19.898"	"24.24"	"30.46"	"33.654"	"32.082"	"26.643"	"25.981"	"26.226"	"24.037"	"19.524"	"16.968"
"1932"	"18.081"	"18.394"	"24.705"	"29.308"	"32.394"	"32.37"	"26.736"	"26.029"	"26.187"	"24.712"	"19.997"	"16.754"
"1933"	"16.584"	"20.298"	"25.056"	"27.516"	"29.658"	"29.043"	"26.5"	"25.735"	"25.786"	"23.926"	"19.243"	"16.69"
"1934"	"16.15"	"19.198"	"24.522"	"29.762"	"33.06"	"30.748"	"26.37"	"25.732"	"25.69"	"23.207"	"19.062"	"17.171"
"1935"	"16.152"	"19.545"	"24.594"	"27.162"	"33.394"	"31.768"	"26.369"	"25.483"	"25.526"	"23.892"	"19.773"	"17.67"
"1936"	"17.007"	"18.765"	"25.136"	"28.711"	"33.042"	"28.242"	"26.268"	"25.681"	"25.589"	"23.33"	"20.346"	"17.222"
"1937"	"15.353"	"19.767"	"23.291"	"28.203"	"31.812"	"31.121"	"26.413"	"25.461"	"25.803"	"23.338"	"20.093"	"15.853"
"1938"	"18.233"	"17.938"	"26.22"	"29.758"	"32.642"	"27.755"	"26.119"	"25.761"	"26.076"	"24.177"	"19.303"	"16.077"
"1939"	"17.797"	"20.273"	"23.636"	"28.861"	"33.842"	"30.242"	"26.068"	"25.463"	"25.521"	"24.462"	"19.247"	"16.5"
"1940"	"16.055"	"19.383"	"23.69"	"28.541"	"32.742"	"31.094"	"26.039"	"25.75"	"25.824"	"24.264"	"20.511"	"17.154"
"1941"	"17.581"	"19.147"	"25.988"	"31.159"	"33.726"	"30.101"	"26.991"	"26.248"	"26.472"	"24.433"	"19.677"	"17.655"
"1942"	"16.8"	"19.114"	"24.897"	"29.411"	"33.942"	"32.342"	"25.766"	"25.635"	"25.24"	"24.012"	"20.342"	"16.889"
"1943"	"18.765"	"18.069"	"25.063"	"28.46"	"33.044"	"30.412"	"26.267"	"24.931"	"25.789"	"24.076"	"19.841"	"16.385"
"1944"	"16.954"	"18.856"	"23.033"	"27.512"	"33.694"	"31.042"	"26.036"	"25.597"	"26.151"	"23.277"	"19.844"	"18.68"
"1945"	"16.079"	"18.469"	"25.022"	"27.611"	"32.697"	"31.541"	"26.452"	"26.828"	"25.819"	"23.294"	"19.041"	"15.46"
"1946"	"16.755"	"20.241"	"24.51"	"28.944"	"32.508"	"29.062"	"25.874"	"25.7"	"25.413"	"24.544"	"20.404"	"18.716"
"1947"	"16.871"	"19.097"	"24.942"	"30.032"	"33.194"	"32.125"	"26.35"	"26.13"	"25.789"	"23.714"	"20.295"	"17.603"
"1948"	"17.946"	"19.514"	"24.073"	"30.405"	"34.394"	"31.51"	"26.287"	"25.779"	"25.374"	"24.664"	"20.818"	"16.138"
"1949"	"17.437"	"19.212"	"25.039"	"29.977"	"32.61"	"30.741"	"26.54"	"25.699"	"25.623"	"24.607"	"18.108"	"16.432"
"1950"	"17.48"	"18.645"	"23.556"	"28.719"	"33.322"	"30.02"	"26.022"	"25.8"	"25.739"	"23.513"	"18.978"	"16.84"
"1951"	"15.997"	"19.294"	"24.683"	"28.092"	"32.544"	"31.325"	"27.025"	"26.024"	"26.356"	"26.063"	"20.682"	"16.723"
"1952"	"17.819"	"21.114"	"24.31"	"30.589"	"34.278"	"31.329"	"27.03"	"25.695"	"26.127"	"24.561"	"19.624"	"17.954"
"1953"	"17.346"	"21.522"	"27.823"	"30.187"	"34.092"	"32.247"	"26.167"	"25.527"	"25.829"	"23.909"	"19.193"	"18.097"
"1954"	"16.252"	"21.374"	"25.073"	"30.692"	"34.394"	"31.089"	"26.916"	"26.229"	"25.49"	"22.662"	"18.826"	"17.304"
"1955"	"17.533"	"20.05"	"26.589"	"28.377"	"33.234"	"31.316"	"26.001"	"25.681"	"25.725"	"23.89"	"18.988"	"17.12"
"1956"	"17.694"	"19.422"	"26.336"	"30.936"	"33.608"	"28.097"	"25.921"	"25.384"	"25.239"	"23.386"	"18.866"	"18.215"
"1957"	"18.479"	"18.64"	"23.305"	"28.955"	"32.788"	"31.922"	"26.3"	"26.153"	"25.794"	"24.458"	"20.572"	"18.654"
"1958"	"18.546"	"20.622"	"26.165"	"31.135"	"33.772"	"33.475"	"26.895"	"26.182"	"25.69"	"24.437"	"21.172"	"17.966"
"1959"	"18.084"	"19.442"	"25.54"	"30.011"	"33.389"	"31.008"	"26.322"	"25.525"	"25.52"	"24.575"	"20.097"	"17.172"
"1960"	"16.802"	"20.736"	"24.158"	"29.228"	"32.843"	"31.56"	"26.27"	"25.646"	"26.171"	"24.056"	"19.062"	"18.176"
"1961"	"18.081"	"18.294"	"25.912"	"29.891"	"33.288"	"29.48"	"26.025"	"25.779"	"25.242"	"23.68"	"19.147"	"14.894"
"1962"	"15.383"	"19.296"	"24.027"	"29.26"	"32.038"	"31.534"	"27.187"	"25.815"	"25.32"	"22.761"	"19.925"	"17.483"
"1963"	"15.572"	"20.52"	"24.36"	"28.803"	"31.696"	"29.615"	"26.318"	"26.084"	"25.605"	"24.559"	"21.097"	"17.297"
"1964"	"17.191"	"19.324"	"25.914"	"30.376"	"32.166"	"30.493"	"25.128"	"25.65"	"25.824"	"24.462"	"19.295"	"17.366"
"1965"	"17.566"	"19.711"	"23.962"	"27.838"	"32.351"	"31.943"	"27.019"	"26.234"	"25.298"	"24.561"	"20.962"	"17.338"
"1966"	"17.137"	"21.363"	"25.264"	"30.838"	"33.056"	"31.326"	"28.35"	"26.077"	"26.322"	"25.145"	"22.45"	"16.948"
"1967"	"17.463"	"21.121"	"24.034"	"28.613"	"32.662"	"32.334"	"27.194"	"25.33"	"25.523"	"23.65"	"20.116"	"18.653"
"1968"	"16.547"	"18.749"	"23.886"	"28.261"	"32.209"	"30.409"	"26.492"	"25.398"	"26.727"	"23.782"	"19.898"	"16.871"
"1969"	"17.154"	"21.524"	"27.028"	"30.691"	"32.128"	"31.753"	"26.553"	"25.529"	"25.272"	"25.07"	"21.754"	"17.083"
"1970"	"18.18"	"19.952"	"24.486"	"30.085"	"32.995"	"28.41"	"26.224"	"25.7"	"25.326"	"24.216"	"19.012"	"16.246"
"1971"	"16.925"	"19.033"	"24.01"	"29.018"	"29.492"	"27.697"	"25.452"	"24.964"	"25.867"	"24.412"	"19.418"	"16.369"
"1972"	"17.078"	"18.449"	"25.514"	"28.855"	"33.345"	"33.497"	"27.526"	"25.413"	"25.531"	"23.764"	"20.739"	"18.429"
"1973"	"17.851"	"21.345"	"24.839"	"30.761"	"34.328"	"30.949"	"27.11"	"25.758"	"25.658"	"23.758"	"19.65"	"17.003"
"1974"	"16.327"	"19.118"	"25.692"	"30.795"	"32.279"	"30.92"	"26.507"	"25.881"	"26.428"	"24.806"	"19.594"	"16.929"
"1975"	"16.057"	"20.098"	"24.427"	"30.413"	"34.245"	"30.827"	"25.636"	"25.382"	"25.422"	"24.906"	"18.787"	"16.19"
"1976"	"16.974"	"20.243"	"25.091"	"28.107"	"32.955"	"30.083"	"25.957"	"25.853"	"25.323"	"25.165"	"23.144"	"18.423"
"1977"	"17.38"	"20.544"	"26.442"	"29.111"	"30.344"	"30.577"	"26.017"	"25.8"	"25.741"	"24.837"	"21.934"	"17.272"
"1978"	"16.103"	"18.486"	"22.308"	"28.407"	"34.244"	"30.286"	"26.049"	"25.361"	"25.983"	"24.401"	"21.397"	"16.537"
"1979"	"17.95"	"16.892"	"23.838"	"28.655"	"31.334"	"30.638"	"26.512"	"26.072"	"26.093"	"25.714"	"23.688"	"18.537"
"1980"	"18.188"	"21.065"	"24.139"	"31.008"	"33.825"	"28.578"	"25.589"	"25.059"	"25.232"	"24.807"	"21.409"	"17.717"
"1981"	"16.67"	"20.501"	"23.936"	"28.156"	"31.583"	"31.042"	"25.838"	"26.021"	"25.809"	"24.157"	"20.126"	"16.722"
"1982"	"18.665"	"19.242"	"23.167"	"29.395"	"31.042"	"30.151"	"28.667"	"25.828"	"26.475"	"24.514"	"20.592"	"18.676"
"1983"	"16.735"	"18.991"	"24.97"	"28.41"	"31.36"	"31.745"	"27.372"	"26.631"	"26.187"	"23.258"	"18.992"	"16.97"
"1984"	"17.295"	"17.843"	"25.19"	"29.771"	"34.025"	"29.172"	"26.121"	"25.255"	"25.169"	"24.662"	"19.497"	"18.393"
"1985"	"18.047"	"19.929"	"27.186"	"30.84"	"33.393"	"31.77"	"25.721"	"25.726"	"26.241"	"23.739"	"20.511"	"18.765"
"1986"	"17.297"	"19.196"	"24.042"	"30.121"	"31.617"	"30.775"	"25.571"	"25.688"	"26.174"	"23.992"	"21.268"	"17.347"
"1987"	"16.85"	"20.186"	"24.765"	"30.364"	"31.038"	"32.522"	"26.867"	"26.576"	"26.375"	"24.378"	"20.444"	"17.172"
"1988"	"17.849"	"20.873"	"24.69"	"29.86"	"34.572"	"29.883"	"26.167"	"26.33"	"27.051"	"23.829"	"20.384"	"18.441"
"1989"	"16.453"	"20.479"	"24.229"	"29.966"	"33.79"	"29.312"	"26.673"	"26.084"	"26.119"	"24.51"	"21.227"	"17.521"
"1990"	"19.101"	"20.391"	"24.519"	"29.571"	"30.311"	"29.391"	"25.472"	"26.053"	"25.718"	"23.836"	"20.74"	"18.02"
"1991"	"16.656"	"21.464"	"24.811"	"28.962"	"34.607"	"29.696"	"27.423"	"25.531"	"26.381"	"24.143"	"20.045"	"17.141"
"1992"	"17.133"	"18.903"	"25.945"	"29.807"	"32.195"	"31.754"	"28.019"	"25.93"	"25.845"	"24.931"	"21.39"	"17.387"
"1993"	"18.295"	"20.74"	"23.918"	"29.307"	"33.943"	"31.891"	"27.75"	"26.587"	"25.646"	"25.33"	"20.498"	"17.137"
"1994"	"18.949"	"19.868"	"26.745"	"28.793"	"34.432"	"29.989"	"26.222"	"25.667"	"26.043"	"24.589"	"20.819"	"17.765"
"1995"	"16.001"	"19.989"	"23.832"	"29.526"	"31.846"	"33.09"	"26.719"	"25.984"	"25.974"	"24.782"	"20.82"	"18.429"
"1996"	"18.074"	"19.67"	"25.987"	"28.669"	"34.077"	"30.69"	"26.622"	"25.333"	"26.547"	"24.256"	"20.371"	"16.538"
"1997"	"16.3"	"18.497"	"25.091"	"27.078"	"31.922"	"31.701"	"26.632"	"25.905"	"25.674"	"24.657"	"21.641"	"18.04"
"1998"	"17.038"	"19.786"	"22.249"	"28.304"	"32.036"	"32.353"	"26.324"	"26.465"	"26.287"	"26.206"	"21.385"	"17.712"
"1999"	"15.999"	"20.6"	"25.109"	"30.88"	"32.111"	"29.852"	"26.372"	"25.681"	"25.426"	"25.259"	"21.923"	"17.97"
"2000"	"17.212"	"19.161"	"24.138"	"30.809"	"32.14"	"28.559"	"26.644"	"26.402"	"25.27"	"25.859"	"22.595"	"17.353"
"2001"	"16.684"	"20.201"	"25.092"	"28.604"	"33.055"	"28.148"	"25.569"	"26.152"	"26.779"	"25.733"	"22.47"	"18.792"
"2002"	"17.119"	"20.256"	"25.695"	"30.03"	"33.942"	"30.793"	"27.94"	"25.649"	"25.922"	"24.71"	"21.274"	"19.216"
