
"Year"	"Jan"	"Feb"	"Mar"	"Apr"	"May"	"Jun"	"Jul"	"Aug"	"Sep"	"Oct"	"Nov"	"Dec"
"1901"	"9.557"	"4.454"	"3.183"	"11.997"	"19.337"	"36.663"	"28.015"	"16.326"	"28.379"	"13.054"	"26.442"	"8.284"
"1902"	"4.405"	"0.58"	"4.548"	"9.644"	"19.179"	"34.44"	"83.545"	"19.474"	"18.898"	"40.216"	"12.452"	"28.897"
"1903"	"0.272"	"0.17"	"0.001"	"2.995"	"24.779"	"32.093"	"52.117"	"39.349"	"21.631"	"23.141"	"22.104"	"6.291"
"1904"	"5.047"	"0"	"0.243"	"3.825"	"16.484"	"47.501"	"36.605"	"18.241"	"12.978"	"27.009"	"0.944"	"0.426"
"1905"	"0.142"	"4.768"	"0.024"	"5.254"	"19.259"	"54.999"	"25.462"	"14.553"	"11.516"	"34.129"	"5.778"	"0.066"
"1906"	"1.723"	"0.419"	"0.87"	"2.757"	"8.899"	"32.731"	"41.425"	"63.005"	"11.962"	"20.635"	"8.405"	"6.646"
"1907"	"0.671"	"0"	"4.05"	"15.309"	"7.909"	"45.939"	"36.876"	"50.561"	"10.366"	"19.062"	"16.695"	"9.637"
"1908"	"1.35"	"5.972"	"3.559"	"6.689"	"15.057"	"20.887"	"38.19"	"16.613"	"12.13"	"32.829"	"2.124"	"0.46"
"1909"	"8.251"	"0.008"	"0.032"	"9.721"	"33.904"	"42.022"	"37.342"	"42.365"	"11.528"	"21.064"	"10.131"	"4.443"
"1910"	"0"	"2.698"	"0.399"	"3.826"	"6.16"	"26.005"	"39.262"	"48.718"	"9.939"	"37.32"	"17.323"	"0.066"
"1911"	"0.442"	"1.104"	"1.738"	"1.796"	"12.724"	"98.241"	"65.566"	"7.052"	"6.137"	"28.644"	"18.372"	"7.335"
"1912"	"0.445"	"0.313"	"1.721"	"7.481"	"13.13"	"47.767"	"43.64"	"17.496"	"20.017"	"28.949"	"17.469"	"1.351"
"1913"	"0"	"0"	"0.11"	"3.691"	"15.389"	"23.511"	"45.075"	"17.519"	"12.858"	"23.779"	"12.063"	"7.161"
"1914"	"0.233"	"0"	"0.504"	"2.805"	"10.616"	"25.598"	"57.056"	"22.823"	"18.907"	"33.537"	"7.614"	"9.614"
"1915"	"1.979"	"1.315"	"5.282"	"4.209"	"8.716"	"78.994"	"25.464"	"28.273"	"27.537"	"10.427"	"28.242"	"2.015"
"1916"	"0"	"0.236"	"0.026"	"4.131"	"15.052"	"48.717"	"42.766"	"70.377"	"22.099"	"32.634"	"18.943"	"1.821"
"1917"	"2.052"	"4.739"	"1.702"	"3.891"	"9.975"	"20.657"	"13.784"	"32.272"	"33.316"	"22.159"	"20.189"	"1.492"
"1918"	"6.175"	"0"	"4.111"	"4.799"	"30.026"	"15.866"	"5.425"	"28.336"	"5.885"	"12.488"	"42.479"	"4.786"
"1919"	"3.655"	"0"	"1.184"	"6.186"	"17.959"	"31.513"	"19.127"	"23.925"	"30.62"	"19.191"	"18.562"	"4.673"
"1920"	"11.348"	"0.014"	"1.497"	"10.405"	"5.222"	"43.212"	"33.783"	"12.436"	"7.673"	"24.121"	"21.849"	"0.066"
"1921"	"4.963"	"0"	"0.001"	"12.964"	"9.816"	"26.606"	"35.812"	"35.269"	"4.784"	"20.463"	"13.524"	"0.307"
"1922"	"2.367"	"0.516"	"0.008"	"2.885"	"19.621"	"31.104"	"48.124"	"18.45"	"7.682"	"20.491"	"20.413"	"7.703"
"1923"	"4.24"	"0"	"4.418"	"6.04"	"4.376"	"39.337"	"32.18"	"67.224"	"28.482"	"12.481"	"8.782"	"1.521"
"1924"	"1.604"	"0.02"	"3.885"	"9.153"	"13.646"	"84.059"	"60.762"	"43.166"	"18.818"	"15.306"	"15.97"	"5.198"
"1925"	"4.317"	"1.203"	"4.841"	"3.509"	"13.286"	"30.77"	"31.365"	"35.846"	"15.443"	"15.864"	"22.124"	"20.378"
"1926"	"11.108"	"0.002"	"4.669"	"0.957"	"8.999"	"18.193"	"36.823"	"26.389"	"13.51"	"14.841"	"5.818"	"3.761"
"1927"	"0.103"	"2.534"	"1.832"	"7.071"	"14.428"	"35.181"	"41.879"	"20.664"	"19.014"	"12.626"	"14.534"	"1.146"
"1928"	"5.74"	"8.745"	"4.253"	"6.278"	"6.465"	"32.829"	"20.57"	"24.338"	"3.227"	"29.001"	"11.013"	"3.324"
"1929"	"0.612"	"1.365"	"1.209"	"15.738"	"4.388"	"51.864"	"34.405"	"15.806"	"17.235"	"33.098"	"7.603"	"2.059"
"1930"	"2.209"	"1.051"	"2.236"	"7.687"	"27.098"	"35.51"	"15.128"	"22.683"	"20.91"	"46.762"	"18.459"	"12.897"
"1931"	"0.372"	"0"	"0.017"	"5.125"	"15.963"	"13.625"	"27.275"	"47.972"	"11.938"	"12.994"	"13.615"	"18.772"
"1932"	"0"	"1.021"	"0.366"	"10.296"	"34.009"	"15.998"	"32.22"	"46.027"	"18.53"	"36.269"	"20.572"	"0.708"
"1933"	"0.869"	"0.271"	"5.496"	"13.231"	"29.246"	"25.369"	"30.816"	"45.122"	"21.076"	"25.745"	"8.52"	"2.214"
"1934"	"9.525"	"0"	"0.045"	"6.943"	"13.86"	"49.994"	"27.454"	"13.458"	"1.799"	"26.897"	"9.787"	"1.362"
"1935"	"7.308"	"0.008"	"0.269"	"9.682"	"3.778"	"24.639"	"31.734"	"28.157"	"6.977"	"22.716"	"1.528"	"1.052"
"1936"	"0"	"6.386"	"8.563"	"3.626"	"22.278"	"34.311"	"42.571"	"26.354"	"21.697"	"17.194"	"18.457"	"1.657"
"1937"	"0.129"	"0.291"	"3.378"	"12.241"	"7.121"	"26.515"	"37.55"	"27.705"	"12.493"	"30.856"	"19.876"	"0.418"
"1938"	"0"	"2.121"	"1.251"	"12.96"	"8.762"	"22.774"	"36.581"	"46.601"	"23.048"	"11.682"	"2.581"	"3.201"
"1939"	"6.237"	"0.345"	"1.087"	"11.633"	"4.992"	"17.132"	"27.767"	"42.061"	"13.213"	"32.793"	"23.858"	"1.159"
"1940"	"0"	"0"	"0.266"	"12.968"	"40.079"	"26.609"	"29.405"	"28.634"	"8.889"	"19.49"	"28.695"	"2.572"
"1941"	"6.143"	"0"	"0.01"	"7.738"	"25.99"	"35.248"	"23.764"	"32.552"	"14.79"	"16.736"	"19.579"	"21.824"
"1942"	"0"	"0.007"	"0.911"	"15.368"	"21.264"	"32.926"	"40.935"	"34.279"	"11.91"	"28.847"	"7.762"	"12.161"
"1943"	"11.212"	"5.874"	"0.5"	"10.523"	"26.755"	"30.807"	"40.14"	"8.949"	"16.426"	"36.523"	"24.207"	"0.908"
"1944"	"5.835"	"8.745"	"2.555"	"7.669"	"14.921"	"14.389"	"30.559"	"22.67"	"12.467"	"22.095"	"37.219"	"8.04"
"1945"	"0.115"	"0.684"	"0.001"	"10.208"	"3.98"	"22.06"	"44.063"	"14.714"	"5.886"	"31.2"	"20.002"	"0.08"
"1946"	"2.899"	"0"	"3.871"	"11.056"	"17.812"	"34.677"	"26.997"	"35.977"	"17.581"	"20.206"	"32.976"	"24.215"
"1947"	"5.35"	"3.51"	"3.301"	"12.752"	"4.571"	"28.484"	"31.542"	"21.674"	"17.465"	"16.707"	"0.799"	"6.151"
"1948"	"5.788"	"0.091"	"2.809"	"3.004"	"16.685"	"42.131"	"32.851"	"25.691"	"8.258"	"9.459"	"23.823"	"2.954"
"1949"	"0"	"0"	"0.01"	"9.132"	"25.549"	"10.213"	"38.512"	"45.535"	"13.026"	"18.591"	"4.06"	"0.066"
"1950"	"0.017"	"3.63"	"0.136"	"2.877"	"12.195"	"26.251"	"41.501"	"39.55"	"19.131"	"23.493"	"9.704"	"2.179"
"1951"	"0.113"	"1.465"	"0.785"	"17.435"	"8.884"	"31.646"	"56.408"	"6.801"	"22.114"	"13.622"	"21.663"	"3.322"
"1952"	"4.637"	"6.34"	"0.902"	"6.135"	"5.11"	"27.33"	"30.883"	"17.208"	"8.397"	"18.653"	"0.556"	"18.731"
"1953"	"0.208"	"5.389"	"0.435"	"9.347"	"12.562"	"48.32"	"54.294"	"28.088"	"8.159"	"36.209"	"4.196"	"0.147"
"1954"	"6.04"	"0.421"	"6.761"	"15.723"	"20.019"	"35.117"	"33.617"	"23.159"	"6.743"	"24.372"	"7.009"	"7.649"
"1955"	"2.848"	"0.026"	"0.303"	"14.897"	"41.039"	"31.133"	"20.428"	"15.271"	"31.989"	"43.654"	"12.087"	"2.944"
"1956"	"1.156"	"0.018"	"0.003"	"12.459"	"18.567"	"44.421"	"22.747"	"14.507"	"6.294"	"41.152"	"11.647"	"0.745"
"1957"	"0"	"1.12"	"0.415"	"2.688"	"30.244"	"36.657"	"35.81"	"9.15"	"2.617"	"24.664"	"21.351"	"5.359"
"1958"	"0.777"	"1.072"	"0.724"	"9.667"	"24.258"	"17.971"	"38.254"	"39.501"	"7.121"	"12.777"	"22.962"	"1.862"
"1959"	"0"	"1.5"	"0.001"	"8.261"	"13.276"	"86.47"	"48.627"	"17.31"	"26.574"	"26.242"	"24.001"	"7.221"
"1960"	"0.064"	"0.366"	"2.049"	"9.655"	"19.884"	"14.088"	"62.29"	"9.754"	"19.618"	"23.303"	"27.861"	"0.706"
"1961"	"7.332"	"3.826"	"0.283"	"6.478"	"36.147"	"73.213"	"75.013"	"32.404"	"21.761"	"22.478"	"8.561"	"5.046"
"1962"	"6.57"	"7.882"	"1.289"	"7.329"	"34.801"	"10.525"	"59.517"	"38.275"	"19.76"	"30.156"	"2.209"	"11.403"
"1963"	"5.488"	"1.43"	"2.471"	"6.241"	"9.02"	"10.784"	"35.07"	"35.779"	"7.699"	"27.842"	"9.419"	"8.445"
"1964"	"0"	"0"	"4.016"	"1.136"	"12.053"	"17.828"	"81.779"	"49.072"	"20.084"	"25.571"	"17.371"	"3.592"
"1965"	"0"	"0"	"0.112"	"3.181"	"13.979"	"12.75"	"19.949"	"24.06"	"13.104"	"14.393"	"10.207"	"16.655"
"1966"	"3.388"	"0"	"1.063"	"5.504"	"4.134"	"20.8"	"23.9"	"10.123"	"26.004"	"32.623"	"14.632"	"12.712"
"1967"	"2.436"	"0"	"0.763"	"6.945"	"15.318"	"49.822"	"42.4"	"27.988"	"4.185"	"6.835"	"11.257"	"3.886"
"1968"	"0"	"2.475"	"7.974"	"12.597"	"7.919"	"19.666"	"49.496"	"24.245"	"18.934"	"7.829"	"4.361"	"3.153"
"1969"	"0"	"1.047"	"0.051"	"6.114"	"9.827"	"14.651"	"39.356"	"63.502"	"10.789"	"25.984"	"14.882"	"7.049"
"1970"	"3.406"	"0.666"	"2.745"	"11.959"	"25.165"	"23.813"	"17.203"	"34.425"	"6.569"	"17.298"	"11.53"	"0.946"
"1971"	"0.49"	"0"	"0.705"	"2.892"	"9.581"	"30.208"	"24.577"	"26.587"	"29.772"	"23.668"	"3.131"	"10.54"
"1972"	"0.193"	"0.01"	"0.001"	"5.645"	"36.979"	"32.032"	"42.541"	"12.555"	"31.971"	"25.043"	"22.28"	"26.585"
"1973"	"0"	"0"	"0.141"	"6.388"	"12.198"	"32.637"	"86.663"	"27.126"	"7.136"	"30.169"	"6.02"	"7.011"
"1974"	"0"	"0"	"0.008"	"7.372"	"15.709"	"7.286"	"46.915"	"28.667"	"28.176"	"13.047"	"4.838"	"0.173"
"1975"	"0"	"0.44"	"5.476"	"6.884"	"21.096"	"47.712"	"24.588"	"36.377"	"32.34"	"19.254"	"12.318"	"1.153"
"1976"	"0"	"0"	"0.402"	"15.352"	"14.892"	"11.268"	"16.699"	"28.106"	"11.885"	"25.582"	"24.338"	"1.736"
"1977"	"0"	"2.926"	"1.574"	"5.896"	"22.633"	"38.758"	"33.521"	"15.658"	"24.433"	"43.777"	"32.126"	"0.434"
"1978"	"0.48"	"2.296"	"0.01"	"5.16"	"13.4"	"35.679"	"28.83"	"25.498"	"6.144"	"15.346"	"21.277"	"6.348"
"1979"	"1.005"	"8.36"	"1.026"	"5.208"	"21.557"	"37.299"	"32.538"	"24.962"	"24.503"	"18.831"	"33.093"	"2.471"
"1980"	"0.115"	"0.14"	"1.968"	"7.847"	"15.075"	"37.376"	"33.974"	"18.095"	"18.723"	"23.767"	"19.572"	"7.901"
"1981"	"0.163"	"0"	"3.721"	"6.035"	"17.849"	"46.054"	"26.952"	"37.231"	"24.837"	"22.308"	"10.411"	"3.816"
"1982"	"0"	"0"	"0.221"	"7.625"	"15.504"	"34.463"	"20.805"	"30.954"	"9.913"	"14.135"	"18.375"	"1.168"
"1983"	"0.143"	"0"	"0.001"	"0.95"	"12.184"	"24.078"	"29.778"	"32.584"	"21.172"	"12.935"	"17.991"	"12.647"
"1984"	"2.01"	"4.075"	"4.894"	"8.474"	"5.813"	"39.816"	"38.494"	"9.613"	"14.777"	"39.905"	"5.073"	"4.508"
"1985"	"1.725"	"0"	"3.498"	"1.959"	"13.163"	"32.349"	"24.078"	"20.108"	"13.776"	"10.05"	"18.739"	"2.635"
"1986"	"9.97"	"2.786"	"0.857"	"1.342"	"12.183"	"46.576"	"20.824"	"27.187"	"34.08"	"20.518"	"18.171"	"2.899"
"1987"	"0.025"	"0"	"1.114"	"5.463"	"8.299"	"29.882"	"16.773"	"34.557"	"8.84"	"32.302"	"6.924"	"17.842"
"1988"	"0"	"0.127"	"1.192"	"12.864"	"18.743"	"29.703"	"49.889"	"33.607"	"32.331"	"3.812"	"9.743"	"3.841"
"1989"	"0.905"	"0"	"0.867"	"4.157"	"11.144"	"38.114"	"39.974"	"17.831"	"17.196"	"28.558"	"4.758"	"0.823"
"1990"	"0.271"	"0.178"	"0.306"	"1.564"	"35.593"	"22.368"	"32.083"	"16.762"	"7.436"	"24.072"	"16.046"	"1.281"
"1991"	"0.127"	"0.216"	"0.737"	"5.734"	"10.008"	"61.348"	"38.592"	"26.052"	"3.808"	"26.806"	"6.806"	"0.129"
"1992"	"0.229"	"0"	"0.001"	"5.648"	"15.032"	"49.979"	"48.957"	"26.247"	"14.458"	"29.33"	"21.976"	"0.435"
"1993"	"0"	"0.038"	"1.389"	"2.723"	"10.818"	"38.301"	"36.732"	"18.645"	"8.235"	"30.048"	"19.708"	"13.638"
"1994"	"0.305"	"0.638"	"1.114"	"9.637"	"8.639"	"32.003"	"54.686"	"23.973"	"10.189"	"34.191"	"8.356"	"2.503"
"1995"	"4.587"	"0"	"0.795"	"6.251"	"19.258"	"31"	"33.361"	"30.572"	"16.997"	"17.868"	"7.2"	"0.066"
"1996"	"0.433"	"0.191"	"2.822"	"8.339"	"6.346"	"47.75"	"33.772"	"34.094"	"20.812"	"26.058"	"2.825"	"11.225"
"1997"	"1.679"	"0"	"2.203"	"3.519"	"7.111"	"35.097"	"43.726"	"34.826"	"21.982"	"29.678"	"29.332"	"8.732"
"1998"	"0.038"	"1.962"	"0.767"	"5.588"	"19.301"	"33.866"	"49.318"	"41.288"	"31.262"	"34.932"	"10.448"	"14.623"
"1999"	"0.127"	"2.564"	"2.21"	"7.391"	"28.614"	"29.776"	"33.836"	"15.802"	"5.804"	"35.643"	"8.162"	"0.829"
"2000"	"0"	"1.416"	"0.245"	"7.634"	"6.312"	"28.63"	"25.032"	"42.954"	"11.421"	"28.668"	"11.932"	"12.691"
"2001"	"0.229"	"1.255"	"0.109"	"18.708"	"16.653"	"21.049"	"40.947"	"24.134"	"19.65"	"22.671"	"8.101"	"1.374"
"2002"	"0"	"0.165"	"0.611"	"2.271"	"26.08"	"37.248"	"16.107"	"18.99"	"7.425"	"41.188"	"14.487"	"0.435"
