
"Year"	"Jan"	"Feb"	"Mar"	"Apr"	"May"	"Jun"	"Jul"	"Aug"	"Sep"	"Oct"	"Nov"	"Dec"
"1901"	"54.147"	"17.447"	"22.24"	"12.725"	"35.486"	"52.062"	"282.904"	"169.103"	"58.373"	"1.313"	"0.317"	"11.262"
"1902"	"3.959"	"10.965"	"24.783"	"49.575"	"37.176"	"89.966"	"242.005"	"128.235"	"73.182"	"13.483"	"10.161"	"1.378"
"1903"	"44.695"	"26.54"	"30.555"	"10.887"	"14.374"	"51.218"	"112.033"	"121.337"	"28.819"	"25.229"	"0.202"	"2.862"
"1904"	"41.508"	"8.412"	"51.532"	"17.044"	"46.703"	"90.573"	"202.47"	"151.639"	"89.76"	"17.641"	"36.09"	"14.259"
"1905"	"106.626"	"52.183"	"18.704"	"21.724"	"18.499"	"52.798"	"103.549"	"191.772"	"51.019"	"1.439"	"0.489"	"24.809"
"1906"	"24.481"	"108.189"	"21.98"	"23.374"	"103.618"	"80.006"	"85.332"	"267.513"	"80.576"	"3.134"	"0.232"	"2.433"
"1907"	"27.038"	"55.984"	"74.361"	"50.279"	"15.234"	"166.117"	"131.837"	"204.037"	"17.345"	"2.99"	"0.23"	"0.479"
"1908"	"41.946"	"36.658"	"4.475"	"29.622"	"86.055"	"74.759"	"98.016"	"197.923"	"289.861"	"0.839"	"1.664"	"3.846"
"1909"	"48.074"	"15.389"	"10.493"	"49.748"	"14.614"	"129.571"	"298.629"	"193.433"	"182.312"	"2.344"	"14.619"	"34.992"
"1910"	"48.867"	"25.815"	"16.205"	"59.989"	"37.786"	"128.795"	"228.824"	"212.804"	"95.28"	"6.829"	"2.979"	"12.977"
"1911"	"77.652"	"12.094"	"88.646"	"18.118"	"4.939"	"55.413"	"159.808"	"166.47"	"186.716"	"6.486"	"53.779"	"6.908"
"1912"	"57.648"	"33.28"	"22.665"	"29.849"	"59.056"	"56.832"	"129.165"	"109.051"	"77.65"	"1.576"	"40.656"	"25.05"
"1913"	"49.738"	"64.316"	"60.962"	"55.951"	"47.163"	"123.538"	"103.731"	"160.89"	"52.755"	"3.239"	"13.204"	"27.352"
"1914"	"32.13"	"57.525"	"54.966"	"31.19"	"23.257"	"77.916"	"201.25"	"177.728"	"217.461"	"12.669"	"25.699"	"9.487"
"1915"	"11.949"	"97.989"	"37.436"	"20.532"	"30.756"	"86.167"	"77.542"	"347.834"	"67.331"	"38.315"	"0.41"	"6.569"
"1916"	"9.427"	"16.687"	"5.409"	"24.068"	"33.541"	"156.178"	"244.046"	"159.577"	"118.574"	"14.073"	"0.303"	"0.762"
"1917"	"15.25"	"28.857"	"37.064"	"43.208"	"54.496"	"196.052"	"162.124"	"353.965"	"160.377"	"28.848"	"0.41"	"21.118"
"1918"	"4.612"	"2.611"	"37.206"	"43.968"	"9.033"	"70.765"	"119.756"	"63.737"	"48.505"	"1.636"	"39.519"	"24.635"
"1919"	"76.31"	"21.113"	"39.404"	"41.993"	"21.922"	"46.857"	"127.562"	"92.617"	"73.352"	"10.738"	"4.298"	"5.552"
"1920"	"37.567"	"35.184"	"45.344"	"51.33"	"32.933"	"118.685"	"99.667"	"52.413"	"123.418"	"3.562"	"0.317"	"1.384"
"1921"	"41.799"	"4.134"	"10.474"	"17.808"	"62.089"	"108.247"	"101.826"	"205.5"	"83.739"	"32.184"	"0.295"	"35.39"
"1922"	"46.706"	"53.234"	"29.448"	"18.946"	"43.231"	"58.609"	"145.096"	"202.054"	"156.181"	"15.226"	"8.099"	"56.248"
"1923"	"25.385"	"76.831"	"9.365"	"7.602"	"21.117"	"23.125"	"393.156"	"211.075"	"87.051"	"30.432"	"32.386"	"22.577"
"1924"	"49.179"	"70.782"	"23.003"	"16.383"	"32.599"	"24.24"	"181.45"	"92.639"	"265.132"	"33.125"	"4.266"	"44.287"
"1925"	"26.509"	"7.557"	"7.287"	"14.618"	"34.527"	"126.219"	"233.804"	"262.354"	"54.245"	"3.53"	"25.518"	"0.479"
"1926"	"25.659"	"14.395"	"61.463"	"35.514"	"30.318"	"61.291"	"177.254"	"123.406"	"107.181"	"3.904"	"19.345"	"16.492"
"1927"	"5.244"	"43.407"	"46.48"	"17.188"	"47.068"	"55.493"	"63.509"	"290.144"	"77.749"	"48.401"	"1.347"	"8.487"
"1928"	"47.718"	"66.006"	"22.501"	"35.789"	"4.405"	"33.957"	"144.02"	"108.157"	"243.69"	"0.783"	"22.487"	"26.489"
"1929"	"60.416"	"3.305"	"12.016"	"28.656"	"15.501"	"91.359"	"181.043"	"152.481"	"19"	"18.297"	"0.224"	"45.284"
"1930"	"70.835"	"19.134"	"13.136"	"19.626"	"12.535"	"44.185"	"190.333"	"139.707"	"22.844"	"14.345"	"21.513"	"20.665"
"1931"	"34.31"	"69.953"	"22.518"	"58.224"	"44.758"	"52.09"	"357.536"	"130.031"	"167.815"	"40.155"	"2.979"	"0.543"
"1932"	"12.143"	"8.069"	"24.631"	"23.908"	"15.684"	"124.811"	"64.569"	"137.283"	"97.011"	"3.528"	"1.671"	"22.128"
"1933"	"30.654"	"45.117"	"32.924"	"26.79"	"34.271"	"84.457"	"168.561"	"320.252"	"114.18"	"44.662"	"12.321"	"3.455"
"1934"	"35.989"	"17.726"	"23.67"	"5.517"	"14.807"	"45.089"	"239.825"	"289.901"	"27.17"	"0.385"	"0.341"	"31.789"
"1935"	"58.98"	"36.095"	"23.846"	"34.842"	"36.797"	"7.233"	"103.275"	"114.323"	"69.434"	"4.952"	"30.74"	"24.46"
"1936"	"12.726"	"52.673"	"70.921"	"42.345"	"34.563"	"285.221"	"452.728"	"158.879"	"62.047"	"18.854"	"7.153"	"52.662"
"1937"	"19.343"	"81.658"	"18.148"	"48.915"	"37.183"	"74.323"	"264.369"	"82.602"	"99.615"	"23.196"	"3.66"	"23.927"
"1938"	"71.481"	"30.657"	"5.439"	"9.526"	"5.792"	"147.559"	"151.246"	"179.212"	"32.977"	"11.273"	"4.38"	"6.405"
"1939"	"34.732"	"54.002"	"44.772"	"34.094"	"14.752"	"60.504"	"152.581"	"86.951"	"38.678"	"21.256"	"1.226"	"1.063"
"1940"	"37.822"	"59.892"	"46.826"	"34.778"	"31.549"	"116.574"	"105.412"	"172.823"	"95.991"	"4.692"	"3.344"	"15.603"
"1941"	"30.469"	"36.799"	"13.865"	"39.107"	"53.969"	"57.447"	"114.359"	"65.888"	"204.656"	"3.601"	"8.533"	"22.283"
"1942"	"63.042"	"81.062"	"10.6"	"44.666"	"60.839"	"75.305"	"260.907"	"128.624"	"80.655"	"4.183"	"4.097"	"30.113"
"1943"	"25.24"	"7.965"	"26.307"	"43.487"	"4.409"	"87.188"	"74.564"	"152.366"	"153.404"	"0.173"	"0.036"	"0.196"
"1944"	"58.449"	"40.834"	"30.174"	"24.018"	"9.458"	"121.068"	"105.862"	"172.901"	"84.397"	"2.581"	"14.388"	"8.995"
"1945"	"33.234"	"7.21"	"53.833"	"47.404"	"21.801"	"125.355"	"329.96"	"103.24"	"189.812"	"42.203"	"0.04"	"10.506"
"1946"	"5.771"	"26.389"	"11.259"	"39.628"	"40.896"	"80.497"	"152.586"	"73.479"	"46.744"	"13.038"	"27.436"	"16.624"
"1947"	"25.97"	"36.145"	"40.993"	"7.447"	"35.935"	"55.954"	"157.927"	"223.83"	"73.461"	"16.988"	"2.643"	"22.232"
"1948"	"7.081"	"52.397"	"81.086"	"20.033"	"24.464"	"122.256"	"300.049"	"226.095"	"79.47"	"11.045"	"0.036"	"10.829"
"1949"	"20.654"	"67.066"	"19.027"	"38.453"	"42.703"	"63.907"	"176.487"	"159.79"	"97.182"	"16.451"	"2.135"	"3.735"
"1950"	"135.032"	"67.176"	"52.099"	"17.558"	"46.32"	"96.108"	"232.444"	"141.885"	"191.654"	"2.082"	"12.057"	"2.11"
"1951"	"32.41"	"56.416"	"58.214"	"24.947"	"34.454"	"115.139"	"85.879"	"259.968"	"72.376"	"8.667"	"72.295"	"0.447"
"1952"	"32.531"	"34.209"	"50.001"	"19.505"	"38.328"	"60.035"	"63.197"	"113.685"	"14.353"	"4.375"	"20.227"	"32.542"
"1953"	"60.568"	"35.191"	"61.219"	"28.54"	"4.648"	"102.556"	"396.595"	"128.603"	"145.134"	"28.335"	"11.142"	"21.294"
"1954"	"52.747"	"116.148"	"14.945"	"6.24"	"44.432"	"86.864"	"146.364"	"108.196"	"297.849"	"19.518"	"0.036"	"7.762"
"1955"	"47.483"	"3.811"	"70.045"	"35.375"	"40.091"	"64.385"	"133.963"	"201.904"	"94.756"	"47.283"	"0.036"	"2.334"
"1956"	"39.38"	"36.772"	"47.129"	"68.333"	"47.399"	"116.282"	"123.209"	"153.876"	"27.464"	"51.001"	"0.036"	"17.649"
"1957"	"94.917"	"21.409"	"40.447"	"77.427"	"24.901"	"93.817"	"91.548"	"352.515"	"92.59"	"47.129"	"32.196"	"56.963"
"1958"	"30.975"	"15.237"	"29.04"	"31.767"	"26.429"	"46.574"	"111.711"	"222.637"	"122.081"	"41.915"	"5.353"	"37.769"
"1959"	"37.444"	"26.3"	"33.78"	"23.666"	"124.525"	"34.74"	"369.756"	"83.387"	"38.511"	"23.868"	"38.405"	"4.435"
"1960"	"25.443"	"11.106"	"31.859"	"29.279"	"46.171"	"101.494"	"245.026"	"170.379"	"53.085"	"35.554"	"0.41"	"7.527"
"1961"	"125.172"	"45.167"	"28.972"	"22.865"	"14.877"	"37.181"	"220.39"	"98.345"	"83.899"	"17.195"	"8.502"	"36.132"
"1962"	"62.343"	"24.189"	"32.669"	"11.332"	"11.007"	"5.165"	"133.923"	"76.158"	"203.373"	"0.176"	"12.251"	"41.869"
"1963"	"1.286"	"70.669"	"156.511"	"12.325"	"29.272"	"11.655"	"79.978"	"95.99"	"78.415"	"0.79"	"2.584"	"30.573"
"1964"	"40.037"	"22.708"	"23.276"	"27.425"	"23.707"	"96.713"	"221.083"	"161.484"	"56.92"	"0.173"	"3.35"	"15.925"
"1965"	"14.413"	"53.677"	"40.339"	"68.222"	"22.086"	"10.294"	"159.6"	"143.542"	"7.09"	"50.085"	"11.786"	"0.196"
"1966"	"6.726"	"74.911"	"91.674"	"61.277"	"34.197"	"144.446"	"99.332"	"157.423"	"180.617"	"38.879"	"61.427"	"0.737"
"1967"	"1.244"	"54.079"	"61.199"	"14.899"	"28.555"	"5.634"	"81.497"	"206.174"	"25.183"	"6.167"	"3.035"	"54.284"
"1968"	"34.272"	"46.868"	"16.24"	"18.005"	"7.748"	"12.694"	"180.27"	"183.833"	"1.508"	"14.938"	"0.491"	"13.345"
"1969"	"14.309"	"30.631"	"45.03"	"153.275"	"59.311"	"14.31"	"156.53"	"193.742"	"185.923"	"17.542"	"0.075"	"0.196"
"1970"	"39.945"	"38.951"	"13.618"	"4.591"	"15.475"	"58.876"	"51.323"	"167.906"	"66.581"	"6.553"	"0.036"	"0.677"
"1971"	"7.01"	"22.545"	"5.875"	"44.483"	"143.503"	"111.695"	"184.39"	"181.503"	"61.066"	"34.311"	"0.385"	"0.199"
"1972"	"26.569"	"27.509"	"32.875"	"13.668"	"47.498"	"25.951"	"89.123"	"126.232"	"268.702"	"68.21"	"30.637"	"11.502"
"1973"	"37.899"	"21.718"	"22.993"	"15.408"	"24.478"	"142.82"	"173.828"	"298.021"	"62.949"	"26.102"	"0.036"	"15.711"
"1974"	"49.167"	"53.238"	"16.18"	"2.33"	"60.935"	"89.293"	"160.455"	"84.943"	"68.921"	"3.323"	"0.39"	"15.035"
"1975"	"54.473"	"40.963"	"78.297"	"9.162"	"9.513"	"116.98"	"191.891"	"247.127"	"172.179"	"18.03"	"0.036"	"1.485"
"1976"	"19.004"	"55.232"	"16.432"	"15.734"	"22.735"	"349.195"	"138.503"	"445.342"	"90.597"	"19.332"	"0.036"	"0.914"
"1977"	"77.751"	"7.855"	"2.361"	"131.649"	"62.727"	"288.898"	"187.261"	"107.237"	"67.193"	"35.842"	"2.285"	"16.151"
"1978"	"10.547"	"11.199"	"92.666"	"36.782"	"6.756"	"135.379"	"338.986"	"316.711"	"226.998"	"0.226"	"37.827"	"2.93"
"1979"	"18.746"	"85.642"	"42.434"	"9.123"	"35.72"	"42.439"	"181.013"	"51.087"	"137.066"	"13.448"	"13.303"	"4.636"
"1980"	"15.409"	"60.465"	"30.67"	"9.594"	"42.806"	"98.885"	"352.073"	"197.806"	"97.264"	"9.692"	"10.865"	"13.896"
"1981"	"79.184"	"27.582"	"47.622"	"57.766"	"39.882"	"29.203"	"235.979"	"113.868"	"6.602"	"9.466"	"66.786"	"1.495"
"1982"	"22.986"	"23.103"	"90.767"	"45.475"	"52.062"	"11.559"	"39.261"	"123.304"	"2.952"	"15.257"	"38.615"	"30.537"
"1983"	"48.048"	"30.936"	"120.014"	"80.044"	"78.531"	"178.362"	"214.513"	"162.169"	"57.839"	"30.62"	"0.036"	"1.667"
"1984"	"0.961"	"82.813"	"11.411"	"29.617"	"14.533"	"20.491"	"354.092"	"197.04"	"180.588"	"0.176"	"0.749"	"25.917"
"1985"	"47.171"	"2.233"	"26.383"	"76.826"	"24.468"	"130.347"	"428.075"	"176.032"	"64.422"	"34.92"	"2.146"	"32.973"
"1986"	"2.934"	"40.72"	"48.893"	"19.06"	"47.934"	"88.661"	"226.801"	"148.849"	"161.901"	"18.609"	"16.137"	"68.968"
"1987"	"71.703"	"30.612"	"26.55"	"39.158"	"37.638"	"90.24"	"56.48"	"121.142"	"1.747"	"26.178"	"0.036"	"41.035"
"1988"	"21.172"	"20.498"	"109.117"	"21.336"	"3.494"	"130.678"	"316.952"	"149.521"	"145.498"	"30.372"	"0.057"	"44.037"
"1989"	"83.852"	"14.325"	"21.014"	"10.119"	"18.817"	"27.521"	"232.752"	"97.907"	"34.978"	"5.703"	"12.526"	"8.954"
"1990"	"21.323"	"118.069"	"103.367"	"23.41"	"130.544"	"23.71"	"193.461"	"186.001"	"156.77"	"4.416"	"18.34"	"43.943"
"1991"	"13.176"	"25.146"	"19.703"	"67.336"	"44.868"	"114.442"	"14.729"	"125.996"	"79.129"	"4.026"	"0.755"	"10.222"
"1992"	"75.054"	"78.125"	"58.257"	"15.952"	"44.395"	"46.754"	"149.457"	"123.191"	"106.624"	"5.59"	"62.03"	"3.537"
"1993"	"23.179"	"32.312"	"39.42"	"31.979"	"19.987"	"115.001"	"130.746"	"11.939"	"118.789"	"0.173"	"0.036"	"0.196"
"1994"	"53.81"	"34.949"	"21.193"	"13.767"	"70.828"	"31.555"	"183.756"	"152.187"	"89.37"	"2.69"	"0.036"	"17.549"
"1995"	"68.229"	"145.46"	"13.602"	"8.888"	"3.688"	"118.274"	"220.693"	"280.185"	"67.034"	"4.334"	"66.528"	"3.509"
"1996"	"82.095"	"82.036"	"61.781"	"51.374"	"46.241"	"210.996"	"153.495"	"340.681"	"61.22"	"20.597"	"0.37"	"11.939"
"1997"	"18.416"	"15.496"	"24.34"	"94.17"	"31.232"	"161.458"	"111.448"	"184.789"	"74.445"	"11.527"	"31"	"13.446"
"1998"	"44.729"	"56.711"	"66.326"	"65.866"	"31.283"	"32.375"	"118.706"	"146.039"	"131.459"	"30.19"	"9.388"	"11.949"
"1999"	"49.607"	"36.145"	"13.163"	"53.037"	"38.943"	"60.638"	"131.072"	"192.163"	"59.662"	"10.465"	"11.814"	"7.857"
"2000"	"25.583"	"57.154"	"22.093"	"13.315"	"41.384"	"119.965"	"103.262"	"120.885"	"53.799"	"0.173"	"2.472"	"2.346"
"2001"	"11.614"	"19.49"	"13.304"	"36.802"	"54.822"	"69.73"	"203.953"	"109.594"	"53.967"	"12.441"	"7.371"	"20.221"
"2002"	"66.886"	"63.373"	"67.961"	"28.889"	"11.548"	"78.703"	"162.14"	"117.227"	"166.08"	"2.619"	"0.046"	"3.402"
