
"Year"	"Jan"	"Feb"	"Mar"	"Apr"	"May"	"Jun"	"Jul"	"Aug"	"Sep"	"Oct"	"Nov"	"Dec"
"1901"	"18.937"	"21.879"	"26.451"	"30.984"	"31.58"	"31.873"	"28.071"	"27.27"	"27.27"	"26.718"	"21.886"	"18.857"
"1902"	"19.885"	"22.351"	"27.871"	"29.534"	"31.294"	"30.938"	"27.599"	"27.81"	"27.54"	"26.114"	"21.825"	"18.945"
"1903"	"20.096"	"21.282"	"27.102"	"31.146"	"32.748"	"30.178"	"28.399"	"27.478"	"27.121"	"25.74"	"21.483"	"18.074"
"1904"	"19.198"	"21.579"	"27.034"	"31.136"	"30.636"	"29.095"	"27.148"	"26.983"	"27.113"	"25.936"	"21.695"	"19.481"
"1905"	"19.14"	"20.223"	"25.543"	"28.36"	"30.226"	"32.64"	"27.485"	"27.748"	"27.056"	"25.917"	"21.945"	"18.657"
"1906"	"19.547"	"21.897"	"25.158"	"31.379"	"32.378"	"30.546"	"28.077"	"27.45"	"27.572"	"26.025"	"22.057"	"19.602"
"1907"	"19.902"	"22.227"	"25.316"	"28.299"	"30.675"	"29.711"	"27.991"	"26.745"	"27.222"	"26.2"	"22.57"	"18.391"
"1908"	"17.856"	"22.157"	"26.57"	"31.994"	"31.752"	"29.947"	"27.358"	"26.555"	"27.132"	"25.919"	"21.185"	"17.8"
"1909"	"20.698"	"22.082"	"27.351"	"27.888"	"31.413"	"28.62"	"27.09"	"27.001"	"27.021"	"25.682"	"22.484"	"19.245"
"1910"	"19.262"	"21.857"	"26.628"	"30.435"	"31.632"	"29.43"	"27.402"	"27.047"	"27.013"	"25.452"	"20.852"	"17.979"
"1911"	"20.766"	"21.255"	"25.942"	"29.852"	"31.529"	"28.634"	"28.432"	"26.805"	"26.848"	"25.694"	"22.397"	"18.116"
"1912"	"19.769"	"22.723"	"27.11"	"29.41"	"31.787"	"30.355"	"27.415"	"27.071"	"27.172"	"25.713"	"20.987"	"17.637"
"1913"	"18.643"	"21.886"	"25.696"	"30.763"	"30.458"	"28.179"	"27.403"	"26.837"	"27.314"	"25.239"	"20.892"	"18.513"
"1914"	"19.186"	"22.504"	"26.125"	"28.359"	"29.697"	"29.013"	"27.146"	"27.011"	"26.75"	"25.472"	"22.062"	"19.136"
"1915"	"19.585"	"22.084"	"25.947"	"30.219"	"31.284"	"30.096"	"28.359"	"27.93"	"27.046"	"26.739"	"23.372"	"18.438"
"1916"	"18.776"	"22.307"	"27.331"	"30.355"	"32.823"	"28.831"	"27.867"	"27.179"	"27.121"	"25.992"	"22.054"	"18.171"
"1917"	"18.626"	"21.295"	"25.245"	"29.742"	"29.341"	"28.852"	"27.661"	"27.068"	"26.882"	"25.723"	"21.63"	"18.478"
"1918"	"17.986"	"21.611"	"26.898"	"29.391"	"30.285"	"27.953"	"28.852"	"26.946"	"27.476"	"26.286"	"22.813"	"18.926"
"1919"	"20.391"	"21.583"	"27.232"	"30.245"	"31.458"	"29.015"	"27.674"	"26.932"	"27.118"	"25.685"	"22.084"	"18.505"
"1920"	"19.248"	"21.887"	"26.415"	"29.827"	"31.066"	"30.629"	"27.023"	"27.066"	"27.046"	"25.993"	"22.127"	"18.163"
"1921"	"19.247"	"21.287"	"27.314"	"30.3"	"33.778"	"29.742"	"27.624"	"26.732"	"26.667"	"24.642"	"20.473"	"19.064"
"1922"	"18.79"	"21.956"	"27.332"	"30.726"	"32.205"	"28.481"	"26.835"	"26.473"	"26.086"	"24.318"	"21.147"	"17.834"
"1923"	"18.274"	"21.256"	"25.15"	"30.067"	"32.082"	"31.519"	"27.398"	"26.458"	"27.02"	"25.256"	"21.187"	"18.792"
"1924"	"19.049"	"22.009"	"27.365"	"31.448"	"31.311"	"31.847"	"27.732"	"27.068"	"26.545"	"25.718"	"21.417"	"18.095"
"1925"	"18.083"	"20.887"	"26.536"	"29.694"	"31.688"	"29.853"	"26.623"	"27.202"	"26.986"	"24.987"	"21.615"	"17.666"
"1926"	"18.611"	"22.346"	"25.593"	"29.472"	"31.409"	"32.489"	"27.792"	"26.759"	"26.989"	"25.01"	"20.608"	"19"
"1927"	"19.646"	"22.298"	"25.907"	"31.199"	"31.663"	"31.01"	"27.464"	"27.041"	"27.279"	"25.946"	"21.774"	"19.298"
"1928"	"19.588"	"22.575"	"27.463"	"29.828"	"31.483"	"28.749"	"27.387"	"27.335"	"27.479"	"26.05"	"21.989"	"19.241"
"1929"	"19.831"	"21.02"	"26.941"	"30.591"	"32.752"	"30.665"	"26.83"	"26.691"	"27.114"	"24.874"	"21.462"	"18.848"
"1930"	"18.748"	"21.078"	"26.941"	"30.211"	"31.351"	"30.357"	"27.3"	"26.772"	"27.118"	"26.168"	"21.24"	"18.203"
"1931"	"20.267"	"22.344"	"26.631"	"31.522"	"31.687"	"32.222"	"27.306"	"27.152"	"27.201"	"25.594"	"21.521"	"18.901"
"1932"	"20.002"	"21.212"	"26.962"	"30.308"	"31.63"	"30.57"	"27.145"	"27.068"	"27.176"	"26.423"	"21.977"	"19.23"
"1933"	"18.335"	"21.723"	"26.745"	"29.492"	"30.659"	"29.362"	"27.132"	"26.845"	"26.939"	"25.685"	"21.72"	"18.905"
"1934"	"18.531"	"21.429"	"26.787"	"30.935"	"32.887"	"29.671"	"27.522"	"26.87"	"27.085"	"25.334"	"20.906"	"19.204"
"1935"	"18.788"	"22.381"	"27.12"	"29.572"	"33.44"	"31.152"	"27.356"	"26.785"	"27.044"	"25.82"	"21.789"	"19.334"
"1936"	"19.95"	"21.768"	"27.492"	"30.972"	"30.372"	"29.11"	"27.402"	"27.058"	"27.007"	"25.145"	"22.691"	"19.555"
"1937"	"18.115"	"21.781"	"26.116"	"29.216"	"31.081"	"29.676"	"27.535"	"27.069"	"26.848"	"25.26"	"21.807"	"18.131"
"1938"	"20.579"	"20.75"	"28.237"	"31.286"	"30.18"	"28.475"	"27.17"	"26.784"	"27.179"	"25.7"	"20.939"	"18.298"
"1939"	"19.77"	"22.632"	"26.151"	"31.073"	"32.22"	"30.144"	"26.897"	"26.869"	"26.911"	"26.064"	"21.361"	"18.865"
"1940"	"18.177"	"21.707"	"25.302"	"30.632"	"31.061"	"30.224"	"26.939"	"26.93"	"27.36"	"26.149"	"23.863"	"19.477"
"1941"	"20.107"	"22.306"	"27.933"	"31.653"	"31.92"	"29.459"	"27.402"	"27.411"	"27.344"	"25.533"	"21.088"	"20.09"
"1942"	"19.551"	"22.105"	"27.569"	"30.194"	"33.429"	"31.546"	"27.402"	"26.612"	"26.571"	"25.696"	"22.014"	"19.131"
"1943"	"20.255"	"20.411"	"26.674"	"28.915"	"32.105"	"30.209"	"27.362"	"26.503"	"27.111"	"26.313"	"22.236"	"19.642"
"1944"	"19.867"	"21.336"	"25.722"	"28.516"	"33.04"	"31.035"	"27.236"	"26.883"	"27.518"	"25.673"	"22.074"	"20.585"
"1945"	"18.664"	"21.686"	"27.791"	"29.447"	"32.26"	"31.193"	"27.864"	"27.707"	"27.383"	"25.283"	"21.705"	"18.084"
"1946"	"19.124"	"23.427"	"27.49"	"27.782"	"30.63"	"29.343"	"27.208"	"26.918"	"26.983"	"25.636"	"23.077"	"20.234"
"1947"	"20.023"	"22.165"	"27.261"	"32.033"	"32.499"	"30.665"	"27.523"	"27.323"	"27.417"	"25.622"	"22.47"	"19.286"
"1948"	"20.258"	"22.375"	"26.212"	"30.502"	"31.605"	"30.962"	"27.281"	"26.927"	"26.982"	"25.865"	"22.882"	"18.089"
"1949"	"19.854"	"21.829"	"27.277"	"29.371"	"30.272"	"30.683"	"27.714"	"26.988"	"27.118"	"26.289"	"20.816"	"18.883"
"1950"	"19.854"	"22.114"	"25.872"	"30.713"	"31.861"	"29.496"	"27.091"	"26.782"	"27.018"	"25.294"	"21.098"	"18.759"
"1951"	"18.673"	"22.215"	"26.578"	"29.72"	"31.928"	"30.381"	"27.599"	"27.531"	"27.929"	"26.823"	"22.294"	"19.702"
"1952"	"20.084"	"23.371"	"26.355"	"29.151"	"31.612"	"30.735"	"27.403"	"26.754"	"27.047"	"25.691"	"22.153"	"20.156"
"1953"	"19.5"	"23.585"	"29.224"	"31.793"	"33.004"	"30.279"	"27.58"	"26.987"	"27.037"	"26.06"	"21.792"	"20.146"
"1954"	"18.694"	"23.961"	"26.741"	"32.216"	"32.148"	"28.957"	"27.836"	"27.219"	"26.734"	"24.845"	"20.576"	"19.317"
"1955"	"19.265"	"22.791"	"27.817"	"30.38"	"32.03"	"30.579"	"27.367"	"27.068"	"27.056"	"25.479"	"21.708"	"19.084"
"1956"	"20.395"	"21.215"	"27.535"	"31.318"	"31.637"	"27.55"	"27.018"	"27.039"	"26.825"	"25.318"	"21.62"	"19.834"
"1957"	"20.491"	"21.885"	"25.765"	"30.846"	"34.112"	"31.637"	"27.474"	"27.32"	"27.333"	"26.388"	"22.536"	"20.476"
"1958"	"21.355"	"22.866"	"27.254"	"31.517"	"33.593"	"32.671"	"27.744"	"27.372"	"27.08"	"26.51"	"22.706"	"20.358"
"1959"	"20.137"	"22.271"	"27.144"	"30.848"	"32.747"	"29.976"	"27.717"	"27.031"	"26.892"	"25.743"	"21.518"	"18.833"
"1960"	"19.082"	"23.183"	"25.961"	"31.598"	"32.572"	"30.715"	"27.044"	"27.146"	"27.652"	"26.027"	"21.633"	"20.17"
"1961"	"19.944"	"20.277"	"28.021"	"31.342"	"32.341"	"29.661"	"27.077"	"27.378"	"26.576"	"25.113"	"21.111"	"17.276"
"1962"	"17.81"	"21.917"	"26.587"	"29.973"	"32.08"	"29.822"	"28.07"	"27.077"	"27.349"	"25.274"	"21.911"	"19.739"
"1963"	"18.477"	"23.321"	"26.877"	"29.793"	"30.594"	"29.816"	"27.402"	"27.412"	"27.39"	"25.989"	"23.487"	"19.837"
"1964"	"20.66"	"23.126"	"28.236"	"30.582"	"31.196"	"31.137"	"26.961"	"27.008"	"27.192"	"26.134"	"22.553"	"19.698"
"1965"	"20.106"	"22.537"	"25.909"	"29.729"	"32.311"	"31.607"	"27.243"	"27.068"	"27.074"	"25.885"	"22.775"	"19.207"
"1966"	"18.85"	"23.472"	"27.038"	"30.441"	"33.209"	"30.259"	"28.37"	"27.965"	"27.892"	"25.979"	"23.737"	"19.274"
"1967"	"19.5"	"23.747"	"25.765"	"29.403"	"32.277"	"31.432"	"27.999"	"27.069"	"27.115"	"26.054"	"22.433"	"21.666"
"1968"	"20.053"	"22.395"	"27.198"	"30.452"	"32.67"	"28.962"	"27.776"	"27.041"	"27.638"	"25.125"	"21.667"	"20.242"
"1969"	"19.72"	"24.197"	"28.603"	"31.136"	"30.845"	"30.834"	"27.606"	"26.85"	"27.108"	"26.53"	"23.453"	"19.599"
"1970"	"20.254"	"23.399"	"26.939"	"30.674"	"32.106"	"29.282"	"27.402"	"27.375"	"26.951"	"25.756"	"21.327"	"18.099"
"1971"	"19.468"	"21.792"	"25.568"	"27.243"	"28.277"	"27.917"	"26.128"	"25.569"	"26.827"	"25.737"	"22.325"	"18.835"
"1972"	"19.753"	"20.745"	"27.315"	"30.626"	"33"	"31.693"	"27.777"	"27.269"	"26.787"	"26.038"	"22.521"	"20.319"
"1973"	"21.118"	"23.458"	"26.118"	"31.298"	"30.923"	"30.139"	"27.415"	"27.081"	"26.794"	"25.694"	"21.668"	"18.833"
"1974"	"19.496"	"22.151"	"26.782"	"30.146"	"30.901"	"30.525"	"27.398"	"27.683"	"27.337"	"26.121"	"22.099"	"17.929"
"1975"	"18.616"	"22.283"	"26.777"	"30.484"	"32.049"	"30.09"	"26.866"	"26.972"	"26.617"	"26.425"	"20.758"	"18.236"
"1976"	"18.782"	"22.846"	"27.238"	"29.497"	"30.165"	"29.989"	"27.364"	"26.826"	"26.829"	"26.653"	"24.64"	"19.964"
"1977"	"19.383"	"22.708"	"27.965"	"29.077"	"29.202"	"29.287"	"27.363"	"27.097"	"27.19"	"25.722"	"23.483"	"18.895"
"1978"	"18.547"	"21.877"	"25.667"	"29.03"	"31.489"	"29.78"	"27.196"	"26.708"	"26.782"	"26.11"	"23.754"	"19.394"
"1979"	"20.483"	"20.868"	"26.277"	"29.829"	"32.101"	"29.849"	"28.607"	"27.511"	"26.198"	"26.618"	"24.834"	"19.801"
"1980"	"20.114"	"23.074"	"26.417"	"30.942"	"31.093"	"27.936"	"26.431"	"26.409"	"27.484"	"25.431"	"22.71"	"19.867"
"1981"	"19.084"	"22.993"	"26.181"	"28.718"	"29.578"	"30.17"	"27.45"	"27.349"	"27.045"	"26.25"	"22.555"	"19.283"
"1982"	"21.111"	"22.72"	"25.557"	"29.826"	"32.433"	"30.003"	"29.466"	"26.973"	"27.975"	"26.776"	"23.215"	"20.216"
"1983"	"20.096"	"22.062"	"27.144"	"29.559"	"30.79"	"31.471"	"28.203"	"27.464"	"27.46"	"25.758"	"22.553"	"19.13"
"1984"	"19.712"	"21.295"	"27.246"	"30.803"	"32.165"	"28.886"	"27.635"	"27.071"	"27.187"	"26.335"	"21.623"	"19.941"
"1985"	"20.19"	"22.039"	"27.328"	"30.223"	"29.871"	"29.615"	"26.118"	"25.947"	"27.121"	"24.118"	"21.552"	"19.882"
"1986"	"18.564"	"21.891"	"26.198"	"28.999"	"29.182"	"29.207"	"26.735"	"26.558"	"26.49"	"24.401"	"21.756"	"19.184"
"1987"	"18.371"	"21.564"	"25.336"	"28.798"	"30.291"	"30.241"	"26.696"	"26.327"	"26.658"	"25.482"	"21.504"	"18.737"
"1988"	"18.916"	"21.554"	"25.632"	"28.884"	"29.886"	"27.735"	"26.737"	"27.895"	"27.983"	"26.854"	"23.099"	"21.227"
"1989"	"19.462"	"23.41"	"27.274"	"31.484"	"31.429"	"29.112"	"27.864"	"27.33"	"27.321"	"26.656"	"22.807"	"19.293"
"1990"	"20.788"	"22.723"	"24.942"	"29.086"	"29.876"	"29.615"	"27.18"	"27.747"	"27.22"	"25.022"	"22.874"	"19.73"
"1991"	"19.469"	"24.042"	"27.645"	"29.959"	"31.331"	"29.721"	"28.164"	"27.327"	"27.729"	"25.796"	"21.601"	"18.997"
"1992"	"18.896"	"21.749"	"27.367"	"30.649"	"30.943"	"29.948"	"27.925"	"27.358"	"27.319"	"26.145"	"23.01"	"19.1"
"1993"	"20.121"	"22.804"	"25.971"	"29.321"	"31.025"	"30.045"	"27.908"	"27.378"	"27.017"	"26.106"	"22.322"	"19.4"
"1994"	"20.311"	"22.057"	"27.446"	"29.526"	"31.802"	"29.658"	"27.372"	"26.944"	"27.124"	"26.167"	"22.417"	"19.417"
"1995"	"18.654"	"22.206"	"26.56"	"30.489"	"30.901"	"30.815"	"27.535"	"27.813"	"27.134"	"25.954"	"22.55"	"20"
"1996"	"20.419"	"21.98"	"27.715"	"29.54"	"32.53"	"29.652"	"28.271"	"26.931"	"27.98"	"25.625"	"22.62"	"19.357"
"1997"	"18.852"	"21.633"	"27.103"	"28.099"	"31.298"	"31.054"	"27.737"	"27.191"	"27.015"	"26.02"	"23.98"	"20.269"
"1998"	"19.088"	"22.747"	"25.38"	"29.879"	"31.694"	"31.643"	"28.031"	"27.831"	"27.618"	"27.181"	"23.515"	"19.745"
"1999"	"18.964"	"23.751"	"27.812"	"31.977"	"30.919"	"29.716"	"27.402"	"27.071"	"26.764"	"26.326"	"22.468"	"20.295"
"2000"	"20.613"	"21.957"	"26.619"	"30.884"	"30.946"	"29.2"	"27.688"	"27.794"	"27.187"	"26.326"	"23.393"	"19.236"
"2001"	"19.254"	"23.149"	"27.114"	"30.397"	"31.338"	"28.498"	"27.05"	"27.669"	"28.118"	"26.76"	"24.045"	"19.959"
"2002"	"20.189"	"23.397"	"27.683"	"30.15"	"31.999"	"29.8"	"28.206"	"27.032"	"27.14"	"26.166"	"22.61"	"20.194"
