
"Year"	"Jan"	"Feb"	"Mar"	"Apr"	"May"	"Jun"	"Jul"	"Aug"	"Sep"	"Oct"	"Nov"	"Dec"
"1901"	"25.868"	"13.347"	"48.309"	"161.039"	"148.178"	"390.226"	"299.922"	"311.1"	"259.904"	"163.828"	"135.173"	"2.427"
"1902"	"11.933"	"17.26"	"40.36"	"192.665"	"228.408"	"421.081"	"515.885"	"386.025"	"407.771"	"59.362"	"10.461"	"1.161"
"1903"	"21.635"	"22.337"	"83.294"	"129.069"	"170.343"	"479.828"	"285.562"	"486.102"	"168.767"	"131.518"	"71.056"	"1.884"
"1904"	"21.901"	"47.542"	"86.698"	"315.75"	"226.312"	"198.946"	"285.082"	"436.05"	"151.951"	"48.415"	"50.896"	"2.131"
"1905"	"21.146"	"13.93"	"154.515"	"114.439"	"182.553"	"260.36"	"376.311"	"481.903"	"143.648"	"156.205"	"36.016"	"22.028"
"1906"	"15.366"	"66.905"	"77.843"	"288.443"	"139.401"	"317.472"	"391.052"	"450.548"	"152.896"	"81.66"	"34.635"	"0.081"
"1907"	"17.725"	"60.651"	"87.144"	"185.454"	"138.07"	"368.552"	"442.929"	"256.821"	"248.873"	"31.706"	"2.412"	"6.006"
"1908"	"15.9"	"25.789"	"23.805"	"199.576"	"249.828"	"518.267"	"499.599"	"177.277"	"295.241"	"94.736"	"5.529"	"1.089"
"1909"	"42.065"	"10.795"	"7.538"	"139.499"	"313.939"	"531.72"	"283.87"	"430.814"	"113.86"	"85.844"	"13.934"	"2.837"
"1910"	"9.768"	"38.135"	"139.809"	"130.511"	"154.068"	"671.44"	"447.556"	"356.717"	"130.327"	"241.696"	"31.432"	"20.121"
"1911"	"38.807"	"28.521"	"53.936"	"189.644"	"397.427"	"461.486"	"402.475"	"332.096"	"239.39"	"324.311"	"42.311"	"3.845"
"1912"	"13.286"	"62.173"	"67.004"	"118.515"	"143.447"	"324.8"	"438.255"	"341.787"	"253.598"	"195.726"	"65.525"	"16.043"
"1913"	"13.575"	"63.563"	"66.233"	"277.046"	"377.132"	"355.16"	"271.345"	"312.046"	"186.871"	"261.284"	"9.113"	"26.646"
"1914"	"3.564"	"48.867"	"69.457"	"103.655"	"200.993"	"332.21"	"359.194"	"432.596"	"136.149"	"75.123"	"10.639"	"12.872"
"1915"	"8.476"	"42.33"	"90.162"	"92.314"	"444.402"	"377.106"	"579.887"	"418.637"	"203.009"	"145.309"	"18.107"	"4.357"
"1916"	"16.392"	"20.405"	"97.961"	"170.841"	"413.385"	"366.847"	"361.066"	"339.559"	"173.943"	"188.452"	"63.735"	"7.901"
"1917"	"7.829"	"91.449"	"34.263"	"151.758"	"222.371"	"490.615"	"413.609"	"304.902"	"155.326"	"138.557"	"80.505"	"0.081"
"1918"	"7.945"	"10.26"	"93.757"	"85.484"	"232.644"	"626.671"	"414.913"	"351.134"	"227.929"	"82.806"	"2.722"	"0.329"
"1919"	"11.376"	"16.171"	"8.061"	"86.305"	"268.743"	"398.244"	"454.68"	"190.122"	"270.056"	"300.461"	"42.549"	"2.274"
"1920"	"5.384"	"38.322"	"148.085"	"83.659"	"215.853"	"356.698"	"279.657"	"414.223"	"230.718"	"70.119"	"1.225"	"7.323"
"1921"	"31.467"	"17.809"	"97.773"	"172.791"	"439.777"	"397.965"	"342.21"	"412.209"	"288.469"	"167.609"	"10.012"	"11.276"
"1922"	"18.147"	"6.023"	"63.682"	"165.462"	"172.236"	"412.109"	"408.557"	"348.408"	"158.31"	"182.42"	"16.788"	"6.557"
"1923"	"0.742"	"74.867"	"9.495"	"139.194"	"314.152"	"425.47"	"456.412"	"235.343"	"268.189"	"58.102"	"9.909"	"5.232"
"1924"	"10.048"	"20.666"	"26.303"	"126.803"	"262.248"	"421.593"	"580.651"	"415.977"	"260.749"	"144.498"	"101.945"	"0.228"
"1925"	"20.803"	"33.128"	"70.185"	"142.866"	"405.221"	"306.079"	"381.926"	"342.241"	"253.878"	"75.773"	"6.856"	"1.39"
"1926"	"20.051"	"21.464"	"75.311"	"97.143"	"210.279"	"405.872"	"507.484"	"227.613"	"149.915"	"226.865"	"43.338"	"14.713"
"1927"	"30.272"	"41.363"	"76.174"	"208.32"	"161.645"	"385.123"	"369.927"	"279.239"	"483.644"	"284.685"	"21.214"	"0.081"
"1928"	"6.555"	"20.419"	"72.934"	"73.223"	"315.799"	"411.296"	"408.401"	"342.209"	"315.135"	"245.468"	"27.868"	"3.643"
"1929"	"13.942"	"7.504"	"41.393"	"172.055"	"544.613"	"405.848"	"296.862"	"266.604"	"194.485"	"92.105"	"52.163"	"3.075"
"1930"	"15.748"	"19.383"	"52.646"	"185.04"	"106.452"	"463.179"	"164.503"	"391.367"	"355.683"	"264.9"	"117.019"	"5.343"
"1931"	"7.054"	"43.609"	"28.689"	"287.958"	"239.233"	"588.861"	"513.484"	"196.587"	"200.167"	"115.173"	"21.132"	"31.414"
"1932"	"22.786"	"30.488"	"40.622"	"81.504"	"485.611"	"502.934"	"331.831"	"468.837"	"201.362"	"107.463"	"127.102"	"18.645"
"1933"	"9.915"	"28.95"	"27.868"	"150.029"	"218.455"	"450.389"	"308.287"	"427.856"	"123.309"	"63.249"	"5.011"	"2.925"
"1934"	"19.398"	"54.385"	"20.136"	"220.623"	"294.681"	"591.052"	"410.925"	"239.542"	"217.916"	"200.732"	"40.046"	"5.968"
"1935"	"7.405"	"35.528"	"48.238"	"80.586"	"227.37"	"588.576"	"328.164"	"485.242"	"276.591"	"28.598"	"21.04"	"3.32"
"1936"	"25.313"	"57.455"	"43.201"	"129.603"	"262.277"	"427.223"	"406.925"	"260.59"	"271.955"	"153.284"	"36.146"	"23.551"
"1937"	"10.373"	"36.918"	"35.025"	"92.484"	"261.074"	"275.499"	"305.798"	"422.63"	"158.045"	"78.329"	"6.564"	"5.594"
"1938"	"44.765"	"25.836"	"89.585"	"139.197"	"186.084"	"495.339"	"425.672"	"432.335"	"320.95"	"190.962"	"80.413"	"4.52"
"1939"	"5.344"	"38.252"	"24.213"	"143.5"	"236.749"	"502.681"	"359.665"	"209.092"	"279.276"	"123.957"	"3.952"	"1.343"
"1940"	"2.444"	"49.494"	"163.442"	"42.172"	"284.929"	"383.343"	"282.679"	"207.101"	"266.946"	"102.059"	"14.482"	"31.236"
"1941"	"12.61"	"39.688"	"89.334"	"83.939"	"347.587"	"416.531"	"285.098"	"318.188"	"349.286"	"73.25"	"4.771"	"10.996"
"1942"	"11.769"	"23.549"	"113.632"	"120.066"	"389.56"	"502.636"	"256.886"	"289.726"	"268.525"	"9.379"	"12.926"	"0.081"
"1943"	"33.178"	"39.385"	"108.378"	"105.035"	"354.767"	"361.589"	"304.429"	"394.233"	"275.465"	"114.922"	"6.238"	"4.287"
"1944"	"29.193"	"26.957"	"47.927"	"78.425"	"368.538"	"426.831"	"320.839"	"277.169"	"278.914"	"144.283"	"17.602"	"27.824"
"1945"	"28.472"	"34.545"	"74.443"	"89.795"	"249.74"	"467.789"	"470.399"	"338.626"	"197.003"	"179.104"	"0.299"	"15.89"
"1946"	"1.078"	"16.056"	"49.554"	"84.045"	"189.93"	"460.934"	"424.809"	"344.018"	"211.611"	"219.099"	"7.218"	"0.481"
"1947"	"10.632"	"14.352"	"45.93"	"216.992"	"232.089"	"320.674"	"502.723"	"342.672"	"450.879"	"351.826"	"12.074"	"19.36"
"1948"	"13.182"	"51.472"	"61.516"	"235.841"	"542.523"	"428.091"	"642.628"	"323.786"	"147.008"	"135.369"	"23.4"	"6.814"
"1949"	"20.594"	"11.659"	"131.463"	"240.242"	"297.622"	"466.781"	"419.77"	"340.812"	"315.909"	"188.289"	"21.906"	"13.981"
"1950"	"11.945"	"51.207"	"75.211"	"90.606"	"210.877"	"464.852"	"325.825"	"384.096"	"220.07"	"220.469"	"48.731"	"7.429"
"1951"	"8.257"	"8.011"	"66.243"	"173.869"	"207.459"	"567.398"	"452.293"	"258.312"	"221.134"	"185.444"	"61.755"	"33.007"
"1952"	"18.035"	"3.919"	"85.664"	"183.761"	"228.058"	"425.561"	"398.624"	"393.027"	"437.828"	"211.1"	"62.91"	"2.172"
"1953"	"13.091"	"21.452"	"135.331"	"89.791"	"344.963"	"537.369"	"450.97"	"254.585"	"227.871"	"211.955"	"5.01"	"1.956"
"1954"	"18.576"	"79.612"	"56.477"	"189.905"	"312.381"	"542.39"	"414.791"	"381.476"	"311.678"	"197.129"	"0.89"	"29.128"
"1955"	"5.233"	"22.616"	"140.706"	"71.88"	"267.054"	"380.43"	"644.832"	"292.493"	"172.817"	"128.779"	"38.142"	"6.776"
"1956"	"32.987"	"5.139"	"135.93"	"117.344"	"328.975"	"482.278"	"273.962"	"241.315"	"186.363"	"153.74"	"62.677"	"7.421"
"1957"	"42.358"	"55.208"	"27.364"	"130.629"	"298.341"	"489.898"	"359.488"	"339.922"	"244.783"	"78.36"	"31.509"	"15.422"
"1958"	"13.045"	"62.262"	"21.69"	"80.915"	"470.526"	"304.011"	"447.91"	"509.582"	"232.737"	"291.068"	"1.023"	"11.487"
"1959"	"26.088"	"59.086"	"107.976"	"127.638"	"465.661"	"499.493"	"305.335"	"282.025"	"196.975"	"219.566"	"22.582"	"15.117"
"1960"	"0.139"	"11.468"	"29.146"	"72.431"	"233.979"	"370.11"	"524.275"	"341.848"	"250.665"	"36.998"	"21.79"	"11.923"
"1961"	"12.24"	"14.15"	"129.851"	"163.322"	"249.625"	"319.817"	"369.809"	"324.238"	"207.437"	"181.587"	"26.652"	"7.88"
"1962"	"22.902"	"34.515"	"24.133"	"97.691"	"191.148"	"366.591"	"290.891"	"412.082"	"80.524"	"90.522"	"15.411"	"9.153"
"1963"	"2.798"	"12.416"	"44.544"	"144.769"	"182.563"	"349.847"	"400.323"	"289.129"	"155.202"	"111.061"	"23.384"	"5.174"
"1964"	"28.7"	"44.541"	"95.502"	"161.033"	"160.523"	"501.557"	"538.503"	"321.955"	"252.662"	"229.368"	"10.675"	"25.501"
"1965"	"4.615"	"39.174"	"39.934"	"105.254"	"108.798"	"492.757"	"415.501"	"426.51"	"266.614"	"51.633"	"129.252"	"19.006"
"1966"	"11.776"	"13.735"	"28.115"	"98.642"	"241.381"	"556.444"	"357.515"	"501.071"	"246.316"	"121.403"	"43.637"	"27.756"
"1967"	"34.061"	"14.108"	"101.006"	"84.928"	"168.406"	"324.738"	"293.778"	"237.586"	"255.893"	"71.625"	"15.413"	"2.168"
"1968"	"25.451"	"32.392"	"62.333"	"142.2"	"396.225"	"320"	"470.985"	"404.965"	"261.788"	"75.169"	"6.62"	"0.139"
"1969"	"32.987"	"1.912"	"101.446"	"141.585"	"205.362"	"367.384"	"455.277"	"440.251"	"158.391"	"63.531"	"18.069"	"2.763"
"1970"	"39.249"	"44.725"	"117.411"	"155.573"	"374.017"	"251.837"	"443.453"	"362.107"	"214.916"	"176.483"	"18.408"	"0.576"
"1971"	"22.745"	"22.698"	"15.307"	"100.23"	"162.412"	"305.278"	"392.17"	"329.748"	"192.025"	"282.459"	"68.715"	"14.168"
"1972"	"23.704"	"37.31"	"67.105"	"197.57"	"234.92"	"297.86"	"384.054"	"224.028"	"85.387"	"46.794"	"1.76"	"6.926"
"1973"	"21.886"	"36.397"	"33.302"	"187.635"	"261.944"	"635.473"	"230.419"	"286.982"	"301.114"	"103.589"	"53.555"	"16.907"
"1974"	"25.399"	"11.865"	"74.238"	"233.093"	"179.992"	"371"	"564.722"	"302.977"	"320.069"	"103.052"	"28.606"	"2.23"
"1975"	"8.655"	"38.458"	"36.665"	"117.473"	"270.692"	"265.278"	"362.515"	"381.043"	"178.511"	"130.546"	"37.72"	"10.368"
"1976"	"1.512"	"42.324"	"113.681"	"132.508"	"166.818"	"463.854"	"521.311"	"264.878"	"65.562"	"51.646"	"21.526"	"4.022"
"1977"	"8.17"	"64.105"	"67.117"	"300.172"	"272.997"	"431.396"	"445.854"	"402.847"	"149.065"	"153.716"	"40.454"	"34.707"
"1978"	"4.224"	"26.952"	"33.933"	"101.129"	"213.783"	"401.061"	"362.743"	"126.379"	"164.791"	"74.795"	"73.195"	"0.258"
"1979"	"11.581"	"6.704"	"32.204"	"40.855"	"129.641"	"234.344"	"364.624"	"293.642"	"264.889"	"228.46"	"18.649"	"41.794"
"1980"	"8.131"	"24.12"	"105.461"	"214.787"	"221.804"	"239.259"	"404.214"	"426.46"	"217.048"	"161.104"	"0.299"	"1.805"
"1981"	"26.449"	"33.933"	"111.411"	"186.457"	"284.212"	"364.348"	"451.056"	"397.06"	"182.31"	"68.497"	"2.251"	"41.526"
"1982"	"1.145"	"37.657"	"40.471"	"205.66"	"160.426"	"370.091"	"285.719"	"382.099"	"206.577"	"14.664"	"83.472"	"22.202"
"1983"	"29.746"	"63.269"	"68.922"	"123.018"	"231.356"	"364.694"	"523.255"	"307.068"	"304.749"	"122.739"	"10.279"	"37.525"
"1984"	"14.048"	"9.378"	"40.678"	"182.14"	"362.246"	"327.676"	"406.31"	"258.513"	"306.597"	"138.542"	"0.885"	"36.108"
"1985"	"8.859"	"13.923"	"123.038"	"208.226"	"133.239"	"450.601"	"379.793"	"272.484"	"193.594"	"63.222"	"11.675"	"9.497"
"1986"	"7.587"	"15.919"	"34.901"	"202.496"	"69.526"	"199.68"	"381.325"	"261.856"	"280.059"	"169.826"	"50.811"	"3.738"
"1987"	"2.124"	"20.029"	"101.528"	"171.401"	"178.276"	"204.937"	"407.329"	"294.194"	"331.638"	"79.77"	"20.551"	"24.755"
"1988"	"7.459"	"23.638"	"89.096"	"107.225"	"372.515"	"240.85"	"497.206"	"517.784"	"242.782"	"227.922"	"33.538"	"11.163"
"1989"	"7.563"	"56.238"	"29.474"	"122.338"	"169.741"	"330.204"	"377.748"	"229.078"	"289.702"	"241.75"	"24.664"	"9.7"
"1990"	"9.796"	"50.162"	"79.792"	"200.142"	"183.809"	"498.967"	"437.615"	"206.487"	"427.258"	"93.711"	"10.268"	"9.205"
"1991"	"13.904"	"11.393"	"71.442"	"90.419"	"398.258"	"357.646"	"348.061"	"351.992"	"284.705"	"285.726"	"23.353"	"41.239"
"1992"	"19.38"	"69.086"	"76.004"	"132.303"	"210.1"	"351.072"	"439.357"	"384.644"	"259.323"	"134.788"	"8.053"	"17.184"
"1993"	"41.661"	"87.127"	"91.713"	"67.846"	"294.987"	"500.034"	"362.152"	"445.709"	"329.765"	"77.605"	"1.736"	"0.163"
"1994"	"19.544"	"46.31"	"124.65"	"137.92"	"202.851"	"364.364"	"240.659"	"334.628"	"205.392"	"180.172"	"20.846"	"2.978"
"1995"	"15.641"	"41.694"	"51.245"	"73.382"	"263.151"	"430.162"	"373.2"	"239.37"	"319.563"	"55.014"	"80.264"	"9.869"
"1996"	"12.201"	"27.581"	"150.714"	"137.908"	"494.876"	"184.54"	"439.414"	"238.544"	"122.458"	"135.545"	"3.439"	"1.329"
"1997"	"9.679"	"29.922"	"77.416"	"68.284"	"181.974"	"348.905"	"358.211"	"226.462"	"281.942"	"31.384"	"16.698"	"38.537"
"1998"	"17.337"	"67.635"	"127.273"	"85.089"	"332.233"	"378.188"	"431.926"	"331.56"	"109.601"	"74.758"	"61.035"	"0.081"
"1999"	"0.742"	"7.803"	"23.135"	"133.111"	"291.719"	"290.375"	"396.342"	"325.769"	"149.321"	"169.263"	"17.564"	"2.059"
"2000"	"30.133"	"20.235"	"71.322"	"226.669"	"315.775"	"215.822"	"319.327"	"422.791"	"243.849"	"67.726"	"6.14"	"2.603"
"2001"	"1.433"	"23.028"	"46.707"	"156.327"	"287.398"	"291.288"	"385.984"	"345.234"	"242.149"	"178.092"	"23.47"	"2.193"
"2002"	"36.128"	"11.141"	"66.338"	"240.835"	"296.755"	"393.523"	"450.699"	"283.619"	"213.978"	"51.526"	"37.078"	"1.65"
