
"Year"	"Jan"	"Feb"	"Mar"	"Apr"	"May"	"Jun"	"Jul"	"Aug"	"Sep"	"Oct"	"Nov"	"Dec"
"1901"	"24.432"	"15.265"	"47.468"	"153.148"	"138.023"	"371.39"	"303.158"	"318.897"	"271.489"	"151.218"	"129.6"	"2.76"
"1902"	"14.222"	"21.388"	"35.404"	"184.099"	"229.148"	"387.254"	"525.943"	"381.831"	"449.524"	"64.399"	"11.164"	"1.274"
"1903"	"26.059"	"24.095"	"76.38"	"122.235"	"168.387"	"467.159"	"275.682"	"479.233"	"187.671"	"141.474"	"58.475"	"2.07"
"1904"	"26.01"	"42.253"	"88.068"	"279.775"	"212.278"	"183.474"	"286.124"	"453.247"	"162.099"	"44.768"	"48.669"	"1.962"
"1905"	"24.848"	"14.895"	"141.202"	"115.545"	"161.667"	"233.113"	"381.214"	"452.336"	"113.825"	"121.796"	"39.504"	"23.418"
"1906"	"16.216"	"61.282"	"78.024"	"287.043"	"133.416"	"322.741"	"353.898"	"424.105"	"142.129"	"75.927"	"32.333"	"0.083"
"1907"	"13.971"	"55.948"	"80.443"	"185.046"	"140.052"	"354.77"	"442.24"	"254.922"	"270.544"	"28.053"	"2.099"	"5.659"
"1908"	"17.137"	"30.227"	"24.852"	"209.458"	"245.975"	"539.616"	"537.276"	"175.756"	"302.252"	"98.256"	"5.627"	"1.047"
"1909"	"49.467"	"9.622"	"7.751"	"137.272"	"299.909"	"535.064"	"296.146"	"447.082"	"119.499"	"77.98"	"12.323"	"2.149"
"1910"	"10.982"	"39.796"	"116.488"	"122.234"	"143.778"	"684.072"	"426.56"	"346.311"	"131.094"	"259.705"	"27.99"	"24.467"
"1911"	"37.268"	"30.497"	"50.988"	"173.013"	"371.493"	"424.511"	"406.056"	"318.956"	"241.172"	"315.245"	"48.294"	"4.55"
"1912"	"14.703"	"61.886"	"52.34"	"108.553"	"147.639"	"314.86"	"467.368"	"348.793"	"276.554"	"178.332"	"55.015"	"14.095"
"1913"	"15.162"	"62.168"	"58.528"	"275.051"	"382.067"	"344.387"	"267.942"	"312.788"	"191.237"	"271.958"	"8.623"	"29.353"
"1914"	"4.642"	"46.408"	"68.153"	"105.238"	"181.202"	"298.131"	"379.869"	"415.945"	"141.548"	"79.625"	"13.085"	"11.885"
"1915"	"8.27"	"40.209"	"89.02"	"91.078"	"377.127"	"387.578"	"594.819"	"410.641"	"217.453"	"151.805"	"19.786"	"5.677"
"1916"	"19.698"	"21.896"	"84.203"	"157.874"	"373.222"	"378.969"	"372.493"	"333.664"	"167.799"	"151.327"	"46.441"	"8.939"
"1917"	"10.154"	"95.899"	"34.12"	"160.751"	"206.222"	"497.28"	"430.328"	"308.824"	"163.857"	"129.297"	"62.06"	"0.083"
"1918"	"9.449"	"12.693"	"90.123"	"84.291"	"211.101"	"608.059"	"402.638"	"324.663"	"225.797"	"84.68"	"3.354"	"0.244"
"1919"	"10.336"	"20.648"	"7.598"	"85.84"	"268.913"	"403"	"479.468"	"185.367"	"264.19"	"306.281"	"35.796"	"2.305"
"1920"	"6.73"	"42.661"	"134.279"	"76.235"	"202.868"	"358.532"	"295.962"	"400.514"	"213.464"	"68.447"	"1.48"	"9.457"
"1921"	"30.995"	"21.504"	"97.414"	"175.991"	"387.072"	"378.641"	"298.634"	"427.177"	"311.418"	"185.58"	"10.789"	"14.476"
"1922"	"20.972"	"7.687"	"51.082"	"142.061"	"165.764"	"384.307"	"423.749"	"364.412"	"169.511"	"154.884"	"17.54"	"6.357"
"1923"	"0.983"	"74.243"	"8.224"	"127.348"	"306.077"	"392.169"	"494.202"	"240.858"	"300.838"	"64.075"	"11.615"	"6.197"
"1924"	"10.659"	"23.736"	"27.465"	"110.045"	"273.502"	"396.411"	"598.864"	"422.84"	"257.705"	"161.458"	"85.686"	"0.205"
"1925"	"21.074"	"35.044"	"67.338"	"126.438"	"380.969"	"323.285"	"398.09"	"354.379"	"270.027"	"75.771"	"5.873"	"1.406"
"1926"	"18.284"	"21.967"	"70.193"	"98.11"	"221.376"	"375.166"	"516.864"	"219.455"	"145.78"	"236.579"	"50.086"	"12.978"
"1927"	"27.867"	"46.568"	"78.604"	"198.219"	"156.514"	"362.116"	"383.004"	"287.65"	"486.56"	"290.338"	"19.478"	"0.083"
"1928"	"6.862"	"22.284"	"69.45"	"76.973"	"306.387"	"421.014"	"405.807"	"361.216"	"335.588"	"231.472"	"32.188"	"4.702"
"1929"	"12.626"	"9.334"	"38.561"	"152.249"	"525.105"	"387.198"	"295.738"	"268.803"	"194.561"	"93.02"	"58.162"	"3.748"
"1930"	"14.961"	"17.331"	"46.833"	"190.455"	"95.986"	"438.23"	"165.744"	"379.108"	"401.142"	"286.198"	"103.862"	"6.37"
"1931"	"8.396"	"50.747"	"29.147"	"276.259"	"226.499"	"576.356"	"505.469"	"206.57"	"206.912"	"126.829"	"22.751"	"37.536"
"1932"	"27.737"	"31.876"	"41.989"	"78.958"	"437.681"	"509.798"	"341.593"	"444.655"	"210.162"	"122.628"	"123.728"	"23.617"
"1933"	"12.067"	"36.336"	"28.405"	"146.604"	"212.809"	"457.28"	"312.28"	"452.496"	"124.662"	"68.451"	"5.186"	"3.667"
"1934"	"18.01"	"52.024"	"20.302"	"216.922"	"289.366"	"552.031"	"395.638"	"229.422"	"229.197"	"163.716"	"40.295"	"6.505"
"1935"	"9.241"	"40.25"	"47.212"	"82.524"	"201.007"	"585.979"	"351.433"	"439.053"	"294.257"	"28.295"	"24.475"	"4.268"
"1936"	"27.978"	"63.332"	"39.652"	"124.66"	"238.401"	"455.966"	"415.776"	"263.556"	"276.628"	"131.882"	"44.07"	"25.359"
"1937"	"13.553"	"40.638"	"36.569"	"97.692"	"234.997"	"253.51"	"304.294"	"419.394"	"171.864"	"85.168"	"7.77"	"6.087"
"1938"	"46.478"	"31.645"	"77.147"	"141.976"	"165.386"	"456.661"	"432.24"	"422.944"	"293.716"	"208.78"	"83.477"	"5.472"
"1939"	"6.508"	"43.81"	"25.743"	"138.411"	"227.24"	"479.53"	"352.886"	"202.352"	"282.046"	"118.116"	"3.708"	"1.419"
"1940"	"2.986"	"49.804"	"156.169"	"44.428"	"271.607"	"376.312"	"275.389"	"194.605"	"245.929"	"100.484"	"16.07"	"37.685"
"1941"	"15.408"	"39.036"	"85.055"	"71.506"	"330.901"	"398.26"	"276.163"	"327.815"	"359.565"	"59.159"	"4.401"	"13.05"
"1942"	"8.419"	"25.121"	"101.317"	"122.124"	"379.969"	"465.604"	"274.233"	"296.299"	"265.314"	"9.091"	"12.692"	"0.083"
"1943"	"37.773"	"40.528"	"101.894"	"99.193"	"340.041"	"343.042"	"303.302"	"413.472"	"269.64"	"130.123"	"6.254"	"5.025"
"1944"	"23.755"	"32.216"	"45.726"	"78.419"	"296.335"	"437.97"	"340.871"	"286.898"	"277.629"	"152.613"	"19.36"	"33.263"
"1945"	"24.386"	"36.737"	"62.768"	"89.968"	"246.152"	"471.189"	"487.702"	"310.506"	"211.435"	"181.167"	"0.3"	"19.189"
"1946"	"1.052"	"13.502"	"41.233"	"78.074"	"171.419"	"461.302"	"422.908"	"349.523"	"210.35"	"185.497"	"7.234"	"0.592"
"1947"	"12.315"	"17.396"	"43.706"	"201.957"	"200.761"	"292.943"	"507.063"	"352.052"	"459.82"	"351.165"	"12.52"	"16.906"
"1948"	"15.358"	"47.283"	"55.765"	"217.87"	"530.728"	"394.76"	"614.648"	"325.286"	"127.896"	"131.621"	"22.827"	"7.901"
"1949"	"22.17"	"13.563"	"111.857"	"202.552"	"297.533"	"409.188"	"393.043"	"318.537"	"323.273"	"195.995"	"24.076"	"16.16"
"1950"	"13.667"	"55.404"	"71.378"	"92.023"	"211.841"	"458.054"	"333.112"	"373.978"	"236.701"	"218.381"	"42.549"	"8.77"
"1951"	"9.265"	"9.407"	"64.727"	"162.08"	"186.44"	"553.374"	"410.845"	"229.782"	"210.251"	"164.718"	"60.983"	"38.054"
"1952"	"17.785"	"5.192"	"83.775"	"152.406"	"214.308"	"373.638"	"376.669"	"395.668"	"437.458"	"197.246"	"55.267"	"2.436"
"1953"	"14.327"	"25.232"	"128.881"	"88.427"	"326.62"	"501.398"	"444.208"	"250.131"	"211.378"	"216.286"	"5.475"	"2.301"
"1954"	"19.566"	"83.589"	"46.125"	"185.355"	"302.431"	"481.386"	"412.962"	"388.07"	"323.616"	"196.341"	"1.019"	"31.977"
"1955"	"5.689"	"26.317"	"128.555"	"66.433"	"262.166"	"371.463"	"644.61"	"294.881"	"167.489"	"119.659"	"28.516"	"7.953"
"1956"	"35.851"	"5.505"	"124.892"	"111.878"	"306.428"	"424.463"	"260.338"	"229.766"	"170.778"	"156.324"	"64.113"	"7.886"
"1957"	"42.371"	"55.973"	"26.439"	"127.337"	"288.962"	"479.185"	"362.482"	"301.636"	"242.573"	"81.595"	"32.987"	"16.881"
"1958"	"13.688"	"51.866"	"15.452"	"74.668"	"474.707"	"297.753"	"466.875"	"494.297"	"233.872"	"290.402"	"0.724"	"12.358"
"1959"	"25.998"	"60.006"	"87.952"	"121.758"	"457.065"	"460.225"	"301.921"	"262.508"	"201.783"	"214.32"	"23.647"	"16.881"
"1960"	"0.202"	"13.988"	"23.729"	"70.912"	"226.989"	"354.673"	"518.801"	"347.754"	"237.616"	"31.734"	"19.081"	"13.233"
"1961"	"13.974"	"16.017"	"129.196"	"159.522"	"264.427"	"277.196"	"368.075"	"310.685"	"218.215"	"186.79"	"28.329"	"8.489"
"1962"	"28.68"	"40.885"	"30.27"	"115.572"	"167.616"	"350.889"	"275.398"	"433.971"	"86.329"	"84.09"	"16.2"	"10.222"
"1963"	"3.305"	"12.713"	"35.899"	"132.922"	"166.245"	"334.075"	"404.563"	"290.06"	"146.965"	"111.762"	"24.016"	"6.09"
"1964"	"28.104"	"46.093"	"87.759"	"142.518"	"143.167"	"469.426"	"506.343"	"315.63"	"246.931"	"207.159"	"8.785"	"28.665"
"1965"	"5.334"	"45.465"	"37.372"	"109.415"	"108.713"	"448.425"	"398.569"	"400.387"	"270.805"	"56.411"	"127.288"	"19.017"
"1966"	"10.326"	"16.185"	"23.888"	"97.686"	"240.455"	"523.456"	"364.522"	"521.442"	"229.285"	"106.02"	"43.224"	"21.9"
"1967"	"30.447"	"17.214"	"89.751"	"75.053"	"163.774"	"321.951"	"287.918"	"228.39"	"249.581"	"63.822"	"17.032"	"2.515"
"1968"	"25.688"	"36.679"	"57.554"	"139.744"	"387.812"	"299.164"	"439.616"	"387.387"	"278.012"	"75.046"	"4.554"	"0.202"
"1969"	"36.745"	"2.254"	"93.149"	"125.149"	"198.583"	"319.254"	"444.113"	"432.559"	"146.045"	"68.097"	"16.676"	"3.128"
"1970"	"38.715"	"50.108"	"105.879"	"146.829"	"395.298"	"245.37"	"423.787"	"373.534"	"229.772"	"166.034"	"15.838"	"1.316"
"1971"	"24.189"	"25.063"	"15.211"	"108.707"	"176.357"	"308.046"	"403.59"	"334.042"	"201.447"	"287.968"	"65.726"	"13.089"
"1972"	"26.848"	"32.474"	"64.082"	"194.633"	"232.931"	"276.965"	"398.252"	"216.714"	"88.064"	"44.873"	"2.514"	"7.884"
"1973"	"22.52"	"34.098"	"26.08"	"184.332"	"242.187"	"622.332"	"222.145"	"304.907"	"324.774"	"99.226"	"46.396"	"16.44"
"1974"	"29.15"	"14.028"	"65.001"	"218.116"	"160.885"	"345.403"	"538.009"	"310.572"	"304.731"	"62.708"	"26.563"	"2.556"
"1975"	"9.896"	"38.598"	"36.965"	"110.895"	"268.447"	"253.764"	"348.129"	"406.068"	"178.437"	"124.718"	"32.345"	"11.591"
"1976"	"2.413"	"49.662"	"103.425"	"136.797"	"157.381"	"439.164"	"522.866"	"251.667"	"73.762"	"48.42"	"22.823"	"4.54"
"1977"	"10.045"	"61.75"	"62.782"	"278.743"	"253.01"	"416.929"	"448.168"	"428.198"	"157.673"	"151.16"	"38.878"	"37.141"
"1978"	"5.002"	"32.953"	"32.22"	"99.46"	"183.173"	"386.222"	"372.591"	"126.818"	"175.881"	"77.682"	"80.557"	"0.32"
"1979"	"11.568"	"6.542"	"28.607"	"40.543"	"115.232"	"230.733"	"370.284"	"286.206"	"263.135"	"229.036"	"17.463"	"43.02"
"1980"	"9.401"	"18.975"	"100.641"	"215.69"	"202.941"	"241.808"	"402.712"	"438.639"	"228.103"	"163.017"	"0.3"	"1.366"
"1981"	"25.311"	"37.439"	"97.252"	"151.583"	"254.644"	"366.873"	"447.053"	"412.797"	"162.726"	"72.851"	"3.687"	"35.367"
"1982"	"1.271"	"44.007"	"39.735"	"195.45"	"144.876"	"338.372"	"286.136"	"373.211"	"213.138"	"14.875"	"86.36"	"24.322"
"1983"	"33.572"	"52.961"	"54.856"	"121.829"	"220.174"	"369.575"	"527.556"	"298.11"	"300.679"	"117.349"	"11.1"	"37.14"
"1984"	"13.386"	"10.224"	"39.658"	"181.53"	"319.24"	"315.669"	"399.032"	"247.932"	"285.957"	"136.947"	"0.837"	"38.453"
"1985"	"9.109"	"15.225"	"108.173"	"202.285"	"121.281"	"453.238"	"389.61"	"269.925"	"194.972"	"67.697"	"12.54"	"9.983"
"1986"	"7.295"	"18.968"	"35.359"	"189.096"	"66.356"	"193.261"	"386.729"	"265.653"	"276.651"	"167.181"	"42.303"	"3.924"
"1987"	"2.273"	"24.271"	"94.425"	"157.779"	"179.615"	"204.989"	"403.972"	"289.524"	"340.34"	"73.879"	"17.728"	"23.038"
"1988"	"8.213"	"24.193"	"82.454"	"110.659"	"353.455"	"220.479"	"498.924"	"519.896"	"250.433"	"223.435"	"28.705"	"9.055"
"1989"	"7.717"	"59.651"	"29.438"	"114.341"	"156.495"	"313.089"	"378.196"	"244.092"	"292.716"	"236.696"	"25.681"	"11.282"
"1990"	"9.75"	"51.735"	"69.108"	"176.883"	"178.68"	"518.801"	"450.55"	"219.024"	"433.707"	"87.916"	"7.798"	"10.117"
"1991"	"14.188"	"10.354"	"64.62"	"93.36"	"347.546"	"401.055"	"377.065"	"349.05"	"301.315"	"241.272"	"23.18"	"40.468"
"1992"	"22.087"	"78.381"	"78.977"	"135.377"	"191.8"	"341.07"	"415.903"	"319.253"	"276.738"	"134.963"	"8.407"	"12.683"
"1993"	"39.595"	"83.961"	"88.772"	"61.841"	"286.051"	"477.745"	"318.746"	"453.053"	"333.559"	"83.501"	"2.81"	"0.383"
"1994"	"19.77"	"45.967"	"111.953"	"136.342"	"202.369"	"337.042"	"234.344"	"294.241"	"227.186"	"220.934"	"20.92"	"2.546"
"1995"	"14.856"	"46.004"	"54.535"	"70.599"	"295.673"	"455.772"	"368.153"	"270.569"	"340.834"	"59.287"	"59.605"	"12.759"
"1996"	"14.653"	"29.367"	"136.77"	"129.821"	"500.209"	"160.752"	"414.629"	"206.537"	"131.046"	"147.77"	"3.021"	"1.306"
"1997"	"10.596"	"33.459"	"83.149"	"67.286"	"172.188"	"353.172"	"357.346"	"211.439"	"279.308"	"33.12"	"21.418"	"35.053"
"1998"	"17.954"	"67.436"	"117.319"	"84.012"	"318.924"	"496.272"	"419.628"	"313.61"	"108.765"	"83.494"	"43.662"	"0.083"
"1999"	"0.983"	"15.258"	"23.385"	"149.358"	"277.565"	"302.221"	"381.22"	"324.109"	"159.01"	"167.492"	"16.792"	"1.853"
"2000"	"31.935"	"18.155"	"65.189"	"214.53"	"290.455"	"239.922"	"334.368"	"406.441"	"255.927"	"64.617"	"6.591"	"1.581"
"2001"	"0.891"	"25.272"	"45.28"	"149.135"	"272.666"	"263.934"	"409.227"	"312.982"	"249.345"	"180.539"	"21.082"	"2.814"
"2002"	"34.753"	"14.958"	"59.144"	"227.765"	"306.577"	"344.321"	"430.902"	"288.461"	"250.481"	"49.042"	"38.211"	"1.556"
