
"Year"	"Jan"	"Feb"	"Mar"	"Apr"	"May"	"Jun"	"Jul"	"Aug"	"Sep"	"Oct"	"Nov"	"Dec"
"1901"	"13.109"	"14.64"	"17.578"	"20.778"	"22.032"	"23.84"	"23.84"	"23.939"	"23.543"	"21.832"	"17.291"	"14.104"
"1902"	"13.353"	"14.44"	"18.325"	"18.742"	"22.642"	"22.943"	"24.037"	"23.735"	"23.243"	"20.182"	"16.436"	"13.207"
"1903"	"12.154"	"14.177"	"17.382"	"20.329"	"22.09"	"23.539"	"24.539"	"23.29"	"23.798"	"22.133"	"17.437"	"14.063"
"1904"	"12.452"	"14.639"	"17.613"	"19.123"	"21.846"	"24.04"	"24.037"	"23.935"	"23.543"	"21.434"	"16.388"	"13.047"
"1905"	"12.098"	"12.072"	"16.087"	"18.339"	"22.543"	"24.397"	"24.293"	"22.939"	"24.143"	"21.333"	"17.138"	"13.607"
"1906"	"13.014"	"13.883"	"16.584"	"18.972"	"22.491"	"23.999"	"24.639"	"22.68"	"24.442"	"21.333"	"17.439"	"13.805"
"1907"	"13.601"	"14.033"	"16.185"	"18.485"	"21.332"	"22.543"	"22.988"	"24.134"	"22.692"	"21.734"	"17.738"	"14.002"
"1908"	"13"	"14.731"	"18.325"	"21.065"	"21.491"	"23.542"	"23.385"	"23.827"	"23.287"	"21.233"	"16.94"	"13.394"
"1909"	"12.503"	"14.481"	"19.007"	"19.179"	"20.674"	"22.544"	"24.084"	"23.139"	"24.443"	"22.634"	"18.836"	"14.496"
"1910"	"12.954"	"14.376"	"17.224"	"19.453"	"22.087"	"22.288"	"22.644"	"23.434"	"23.939"	"21.233"	"17.738"	"13.855"
"1911"	"13.863"	"13.779"	"16.824"	"19.494"	"21.133"	"23.039"	"23.139"	"23.337"	"23.443"	"21.279"	"17.141"	"13.158"
"1912"	"13.054"	"14.526"	"17.027"	"18.147"	"21.734"	"23.044"	"23.088"	"23.237"	"23.299"	"20.878"	"17.539"	"13.998"
"1913"	"13.102"	"14.771"	"16.709"	"18.557"	"20.035"	"22.743"	"23.74"	"23.535"	"23.243"	"21.287"	"16.485"	"13.104"
"1914"	"12.852"	"14.082"	"17.524"	"18.584"	"21.388"	"23.593"	"24.134"	"22.484"	"23.243"	"19.932"	"17.236"	"14.263"
"1915"	"14.198"	"15.036"	"17.739"	"20.003"	"21.132"	"22.188"	"22.74"	"22.884"	"23.043"	"23.237"	"19.18"	"14.859"
"1916"	"13.149"	"14.64"	"18.362"	"19.227"	"21.338"	"23.539"	"22.65"	"23.636"	"23.939"	"21.332"	"18.435"	"13.699"
"1917"	"12.356"	"13.878"	"17.02"	"18.27"	"21.938"	"22.839"	"23.538"	"23.736"	"23.439"	"21.871"	"18.498"	"13.992"
"1918"	"12.658"	"14.277"	"17.524"	"19.478"	"22.979"	"21.744"	"23.344"	"23.334"	"23.638"	"21.68"	"17.33"	"13.91"
"1919"	"13.662"	"14.437"	"19.262"	"19.625"	"21.992"	"23.184"	"23.623"	"24.926"	"22.445"	"20.932"	"18.43"	"14.597"
"1920"	"14.351"	"14.033"	"16.571"	"18.825"	"21.035"	"22.787"	"24.384"	"23.334"	"23.543"	"21.72"	"17.878"	"15.337"
"1921"	"14.198"	"14.633"	"17.937"	"19.385"	"21.533"	"22.09"	"23.63"	"23.638"	"23.243"	"20.175"	"17.54"	"14.195"
"1922"	"13.76"	"15.278"	"18.308"	"20.095"	"22.191"	"22.59"	"23.746"	"23.443"	"23.84"	"21.333"	"18.28"	"14.305"
"1923"	"13.997"	"14.236"	"18.875"	"20.32"	"20.732"	"23.143"	"23.544"	"24.674"	"23.25"	"20.972"	"18.335"	"14.797"
"1924"	"13.158"	"14.422"	"19.605"	"20.225"	"20.776"	"23.539"	"23.451"	"23.343"	"23.047"	"22.727"	"18.2"	"14.551"
"1925"	"11.914"	"13.531"	"17.526"	"19.738"	"20.484"	"23.539"	"23.731"	"23.339"	"22.256"	"20.668"	"17.133"	"13.157"
"1926"	"13.058"	"14.476"	"16.528"	"18.967"	"21.732"	"22.74"	"23.347"	"24.137"	"23.936"	"21.833"	"17.193"	"14.766"
"1927"	"12.81"	"13.244"	"15.826"	"18.511"	"21.233"	"22.644"	"23.895"	"23.738"	"22.546"	"21.43"	"17.434"	"14.053"
"1928"	"13.172"	"15.583"	"18.42"	"21.033"	"21.39"	"23.038"	"24.137"	"23.639"	"23.443"	"20.383"	"16.281"	"14.208"
"1929"	"12.825"	"13.835"	"18.179"	"19.48"	"20.542"	"22.331"	"23.844"	"23.936"	"23.442"	"21.142"	"17.036"	"13.368"
"1930"	"11.81"	"14.289"	"17.225"	"19.326"	"22.287"	"22.087"	"24.69"	"23.936"	"23.591"	"20.241"	"17.107"	"13.607"
"1931"	"13.267"	"13.995"	"17.937"	"19.988"	"21.106"	"22.644"	"23.239"	"24.234"	"22.947"	"22.475"	"17.478"	"14.304"
"1932"	"13.244"	"13.328"	"18.325"	"20.679"	"20.943"	"22.898"	"23.794"	"23.439"	"23.347"	"21.738"	"18.136"	"14.504"
"1933"	"12.773"	"14.636"	"18.822"	"19.482"	"20.931"	"23.348"	"23.84"	"23.634"	"24.08"	"21.975"	"16.693"	"13.943"
"1934"	"13.275"	"14.535"	"18.42"	"20.057"	"20.852"	"21.703"	"23.894"	"23.929"	"23.544"	"21.338"	"17.032"	"13.647"
"1935"	"12.3"	"14.186"	"18.424"	"19.779"	"21.841"	"21.91"	"24.04"	"23.039"	"23.049"	"21.934"	"18.43"	"13.22"
"1936"	"11.759"	"13.58"	"18.525"	"19.88"	"22.344"	"23.54"	"23.939"	"23.744"	"23.84"	"20.935"	"18.141"	"14.504"
"1937"	"11.614"	"14.642"	"17.825"	"20.823"	"22.227"	"23.939"	"24.194"	"23.736"	"23.598"	"21.83"	"16.854"	"14.66"
"1938"	"13.162"	"14.337"	"17.967"	"20.783"	"22.579"	"23.143"	"23.339"	"23.595"	"23.445"	"22.033"	"16.341"	"14.262"
"1939"	"13.49"	"14.686"	"18.319"	"19.77"	"21.887"	"22.901"	"23.542"	"24.435"	"23.442"	"21.192"	"17.799"	"14.304"
"1940"	"12.648"	"14.441"	"15.867"	"20.781"	"21.628"	"23.538"	"23.781"	"24.39"	"23.143"	"21.734"	"17.325"	"15.058"
"1941"	"12.56"	"14.58"	"18.828"	"20.734"	"21.743"	"23.677"	"24.43"	"24.036"	"23.187"	"21.435"	"16.793"	"15.003"
"1942"	"13.45"	"15.578"	"18.183"	"20.498"	"21.251"	"22.942"	"24.716"	"24.212"	"23.38"	"22.229"	"17.936"	"13.604"
"1943"	"13.438"	"13.775"	"17.023"	"18.799"	"21.239"	"23.421"	"24.175"	"23.33"	"23.383"	"20.937"	"18.531"	"14.437"
"1944"	"12.651"	"13.894"	"18.276"	"19.535"	"21.761"	"23.236"	"24.471"	"24.129"	"22.448"	"21.725"	"17.195"	"15.155"
"1945"	"13.271"	"13.185"	"18.221"	"20.948"	"21.351"	"23.916"	"23.742"	"23.436"	"23.946"	"20.831"	"17.398"	"13.663"
"1946"	"13.949"	"16.675"	"18.183"	"20.449"	"22.085"	"23.24"	"23.538"	"24.531"	"23.642"	"21.334"	"18.491"	"14.763"
"1947"	"13.159"	"15.234"	"18.779"	"19.568"	"21.851"	"23.335"	"23.537"	"23.935"	"23.795"	"20.732"	"17.731"	"15.119"
"1948"	"13.593"	"13.886"	"17.165"	"20.373"	"20.232"	"23.031"	"23.439"	"23.935"	"24.039"	"20.932"	"18.296"	"13.508"
"1949"	"13.494"	"14.676"	"17.351"	"18.293"	"21.383"	"22.645"	"23.28"	"23.234"	"23.497"	"22.133"	"17.236"	"13.259"
"1950"	"13.093"	"14.181"	"17.466"	"19.879"	"21.693"	"22.743"	"23.74"	"23.193"	"23.484"	"21.437"	"17.734"	"14.742"
"1951"	"13.236"	"14.883"	"18.365"	"19.009"	"21.387"	"22.6"	"22.999"	"24.334"	"23.685"	"22.029"	"18.032"	"15.109"
"1952"	"13.894"	"16.417"	"17.615"	"21.072"	"21.788"	"24.339"	"24.236"	"23.939"	"23.003"	"22.093"	"18.531"	"15.335"
"1953"	"13.054"	"15.58"	"18.669"	"20.384"	"21.683"	"23.799"	"23.399"	"24.534"	"23.446"	"21.138"	"17.539"	"15.606"
"1954"	"12.549"	"16.024"	"18.42"	"19.92"	"21.481"	"22.544"	"22.648"	"22.898"	"23.642"	"20.737"	"17.036"	"14.304"
"1955"	"13.551"	"14.735"	"17.769"	"19.923"	"22.086"	"22.648"	"23.235"	"23.136"	"24.434"	"21.937"	"18.677"	"13.982"
"1956"	"12.994"	"15.57"	"17.77"	"21.035"	"21.769"	"22.882"	"24.279"	"24.031"	"24.132"	"21.678"	"17.735"	"14.6"
"1957"	"13.652"	"13.583"	"18.016"	"20.227"	"21.396"	"23.835"	"24.376"	"24.53"	"23.995"	"20.732"	"18.025"	"14.505"
"1958"	"13.825"	"13.925"	"18.913"	"21.434"	"21.134"	"25.476"	"25.129"	"23.076"	"24.438"	"21.772"	"18.073"	"14.794"
"1959"	"13.549"	"13.525"	"17.464"	"20.872"	"21.488"	"23.574"	"25.188"	"24.868"	"23.538"	"21.13"	"17.332"	"15.155"
"1960"	"13.159"	"16.346"	"18.27"	"21.517"	"23.666"	"24.137"	"24.13"	"25.13"	"23.64"	"22.527"	"17.793"	"15.631"
"1961"	"14.427"	"13.837"	"17.208"	"21.015"	"22.232"	"24.473"	"24.972"	"24.772"	"24.235"	"21.734"	"16.639"	"12.526"
"1962"	"12.202"	"13.856"	"16.734"	"20.193"	"21.575"	"22.981"	"24.439"	"23.096"	"23.786"	"21.23"	"17.235"	"14.371"
"1963"	"12.698"	"15.368"	"18.228"	"19.716"	"21.584"	"23.077"	"23.74"	"23.38"	"24.243"	"20.578"	"16.382"	"14.377"
"1964"	"12.457"	"14.282"	"16.878"	"18.981"	"21.329"	"21.749"	"22.54"	"23.442"	"22.995"	"21.993"	"17.883"	"13.452"
"1965"	"12.698"	"13.821"	"16.228"	"19.825"	"21.937"	"23.451"	"23.393"	"22.835"	"22.886"	"21.432"	"16.189"	"14.704"
"1966"	"13.754"	"15.822"	"19.177"	"20.384"	"22.646"	"21.94"	"24.038"	"22.939"	"23.189"	"20.537"	"18.993"	"14.374"
"1967"	"13.967"	"15.324"	"16.984"	"20.238"	"22.09"	"22.951"	"23.843"	"24.593"	"23.101"	"20.932"	"16.499"	"14.797"
"1968"	"13.27"	"13.741"	"17.729"	"19.524"	"20.991"	"23.539"	"23.84"	"24.193"	"24.089"	"20.308"	"17.439"	"13.863"
"1969"	"12.557"	"14.941"	"18.623"	"20.736"	"22.726"	"23.448"	"24.143"	"23.239"	"23.942"	"21.44"	"17.4"	"14.38"
"1970"	"12.312"	"14.184"	"17.783"	"20.326"	"21.297"	"23.544"	"23.54"	"24.035"	"22.686"	"21.09"	"17.735"	"13.908"
"1971"	"12.817"	"13.842"	"18.539"	"20.427"	"22.21"	"23.536"	"23.74"	"23.134"	"23.502"	"20.978"	"16.501"	"13.625"
"1972"	"13.617"	"14.491"	"17.525"	"18.491"	"21.952"	"23.699"	"23.998"	"24.33"	"23.21"	"21.737"	"17.502"	"14.266"
"1973"	"13.97"	"15.086"	"18.694"	"21.681"	"22.54"	"23.244"	"24.838"	"24.129"	"23.941"	"21.176"	"17.32"	"13.563"
"1974"	"12.857"	"15.19"	"17.82"	"18.628"	"21.984"	"23.539"	"22.595"	"23.936"	"23.139"	"22.629"	"18.952"	"13.418"
"1975"	"13.071"	"15.177"	"18.283"	"21.376"	"21.589"	"24.693"	"23.334"	"23.745"	"23.439"	"22.033"	"17.434"	"13.265"
"1976"	"13.156"	"15.086"	"17.688"	"20.239"	"21.729"	"22.337"	"23.734"	"23.589"	"23.642"	"20.837"	"18.24"	"14"
"1977"	"12.408"	"14.591"	"18.961"	"18.57"	"20.741"	"21.845"	"24.134"	"23.336"	"23.799"	"20.336"	"17.181"	"14.377"
"1978"	"12.215"	"14.547"	"17.424"	"19.978"	"22.338"	"23.794"	"23.737"	"24.914"	"23.227"	"22.178"	"17.031"	"14.149"
"1979"	"13.601"	"14.74"	"18.084"	"21.58"	"22.894"	"24.934"	"23.745"	"24.334"	"23.143"	"20.836"	"18.701"	"14.606"
"1980"	"12.861"	"14.579"	"17.625"	"20.388"	"21.94"	"24.337"	"24.34"	"23.935"	"23.842"	"21.032"	"17.746"	"15.045"
"1981"	"13.753"	"15.531"	"17.427"	"19.318"	"22.341"	"24.279"	"23.944"	"24.235"	"23.885"	"21.976"	"18.281"	"14.604"
"1982"	"14.395"	"14.522"	"17.825"	"18.825"	"22.748"	"23.184"	"23.745"	"24.59"	"23.385"	"21.377"	"17.138"	"14.102"
"1983"	"12.189"	"13.566"	"17.01"	"18.866"	"21.444"	"23.54"	"23.541"	"24.175"	"23.186"	"22.571"	"18.18"	"13.35"
"1984"	"12.351"	"14.789"	"18.937"	"20.254"	"21.082"	"24.114"	"23.143"	"24.276"	"22.589"	"21.912"	"16.586"	"14.446"
"1985"	"13.414"	"14.384"	"18.139"	"19.936"	"22.325"	"22.982"	"23.044"	"24.53"	"23.343"	"22.29"	"17.236"	"15.251"
"1986"	"13.749"	"15.387"	"18.274"	"19.14"	"22.623"	"24.339"	"23.838"	"23.939"	"22.948"	"20.339"	"17.317"	"14.604"
"1987"	"13.899"	"16.135"	"17.121"	"19.617"	"21.891"	"24.224"	"23.402"	"23.598"	"23.243"	"21.33"	"18.44"	"14.745"
"1988"	"13.562"	"15.88"	"17.685"	"20.388"	"21.448"	"24.728"	"23.74"	"23.39"	"23.344"	"22.033"	"18.485"	"16.202"
"1989"	"12.862"	"14.448"	"18.472"	"19.833"	"23.29"	"23.639"	"23.241"	"24.229"	"23.399"	"22.129"	"17.138"	"13.852"
"1990"	"14.602"	"14.799"	"16.575"	"17.996"	"22.468"	"23.539"	"23.936"	"24.635"	"22.849"	"21.338"	"19.24"	"15.653"
"1991"	"13.148"	"16.135"	"18.924"	"19.841"	"20.703"	"23.336"	"24.04"	"23.98"	"23.303"	"22.136"	"17.235"	"13.803"
"1992"	"13.158"	"12.877"	"17.642"	"20.027"	"21.447"	"23.547"	"23.728"	"24.435"	"24.003"	"21.333"	"17.841"	"13.298"
"1993"	"12.854"	"15.569"	"17.08"	"20.582"	"21.279"	"22.937"	"23.998"	"23.736"	"23.597"	"22.137"	"18.739"	"16.001"
"1994"	"14.511"	"14.973"	"17.374"	"20.17"	"23.491"	"24.43"	"24.339"	"25.131"	"24.742"	"20.631"	"17.744"	"14.206"
"1995"	"13.159"	"15.18"	"18.57"	"20.883"	"22.537"	"24.037"	"23.994"	"24.689"	"23.443"	"22.433"	"19.144"	"14.546"
"1996"	"13.609"	"15.918"	"18.116"	"21.424"	"21.829"	"24.484"	"23.84"	"24.185"	"24.639"	"21.988"	"18.641"	"15.708"
"1997"	"13.153"	"13.484"	"17.366"	"19.517"	"22.233"	"23.884"	"24.276"	"25.071"	"23.087"	"21.517"	"18.088"	"14.82"
"1998"	"13.453"	"15.476"	"17.275"	"21.157"	"24.22"	"23.293"	"24.579"	"24.035"	"24.783"	"23.487"	"19.644"	"15.705"
"1999"	"14.356"	"18.679"	"20.062"	"21.765"	"23.181"	"24.776"	"24.638"	"23.926"	"24.438"	"21.993"	"19.032"	"15.342"
"2000"	"13.01"	"15.387"	"17.276"	"19.739"	"22.232"	"24.274"	"25.039"	"24.032"	"23.284"	"22.284"	"17.936"	"14.704"
"2001"	"14.296"	"16.234"	"19.016"	"20.384"	"22.33"	"24.77"	"24.291"	"25.03"	"24.349"	"21.942"	"18.794"	"15.163"
"2002"	"14.058"	"16.777"	"18.828"	"20.48"	"21.799"	"24.323"	"24.438"	"24.43"	"23.902"	"21.742"	"18.799"	"15.104"
