
"Year"	"Jan"	"Feb"	"Mar"	"Apr"	"May"	"Jun"	"Jul"	"Aug"	"Sep"	"Oct"	"Nov"	"Dec"
"1901"	"21.052"	"22.496"	"26.517"	"29.767"	"31.261"	"29.867"	"26.186"	"25.239"	"26.282"	"25.598"	"22.088"	"19.359"
"1902"	"21.168"	"23.076"	"27.597"	"30.177"	"31.886"	"30.416"	"26.088"	"26.199"	"25.908"	"25.407"	"21.942"	"19.477"
"1903"	"20.949"	"22.236"	"26.792"	"30.076"	"30.455"	"29.31"	"25.966"	"25.867"	"25.754"	"24.522"	"20.905"	"18.699"
"1904"	"20.576"	"22.373"	"26.653"	"30.653"	"30.845"	"28.185"	"25.931"	"25.57"	"25.676"	"25.037"	"21.733"	"19.616"
"1905"	"20.369"	"21.461"	"26.418"	"28.921"	"30.95"	"30.559"	"26.048"	"25.791"	"25.304"	"24.927"	"22.196"	"19.154"
"1906"	"20.975"	"23.259"	"25.883"	"30.671"	"32.346"	"28.351"	"25.757"	"25.577"	"25.986"	"25.075"	"22.102"	"20.272"
"1907"	"20.574"	"22.886"	"26.136"	"28.143"	"30.573"	"28.636"	"26.202"	"24.469"	"26.268"	"25.619"	"22.702"	"18.898"
"1908"	"19.167"	"22.877"	"26.291"	"30.608"	"31.703"	"29.769"	"25.641"	"24.844"	"25.855"	"25.027"	"21.414"	"18.246"
"1909"	"21.235"	"23.067"	"27.095"	"27.95"	"30.861"	"27.787"	"25.249"	"25.515"	"25.551"	"24.029"	"20.968"	"19.981"
"1910"	"20.042"	"21.992"	"27.051"	"30.809"	"31.783"	"28.852"	"26.482"	"25.962"	"26.039"	"25.098"	"20.121"	"17.276"
"1911"	"20.264"	"22.013"	"26.485"	"30.054"	"31.859"	"27.751"	"26.414"	"25.035"	"25.949"	"24.945"	"22.405"	"18.531"
"1912"	"19.904"	"23.365"	"27.814"	"29.329"	"31.908"	"31.389"	"25.72"	"25.524"	"25.951"	"25.257"	"21.575"	"18.108"
"1913"	"19.003"	"23.531"	"26.754"	"30.967"	"31.121"	"28.143"	"26.01"	"25.51"	"26.066"	"24.719"	"21.102"	"19.585"
"1914"	"19.259"	"23.92"	"27.184"	"27.676"	"30.281"	"28.556"	"25.782"	"25.73"	"25.671"	"24.781"	"21.887"	"19.501"
"1915"	"19.904"	"22.661"	"26.005"	"29.668"	"31.744"	"30.596"	"26.831"	"26.315"	"26.13"	"25.911"	"23.856"	"19.271"
"1916"	"19.516"	"22.915"	"26.775"	"30.451"	"31.008"	"27.066"	"26.665"	"25.939"	"26.122"	"25.716"	"22.827"	"18.289"
"1917"	"19.567"	"21.707"	"25.678"	"28.828"	"29.139"	"26.626"	"25.448"	"25.869"	"25.394"	"24.67"	"21.691"	"18.397"
"1918"	"19.26"	"21.904"	"26.249"	"28.974"	"29.335"	"26.321"	"26.617"	"25.241"	"26.239"	"24.629"	"23.492"	"20.19"
"1919"	"21.804"	"23.387"	"26.737"	"29.411"	"30.09"	"27.225"	"26.246"	"25.33"	"26.074"	"24.902"	"22.452"	"18.896"
"1920"	"20.295"	"22.88"	"27.28"	"29.492"	"30.28"	"29.75"	"25.908"	"25.863"	"26.522"	"25.712"	"21.75"	"18.47"
"1921"	"20.871"	"22.491"	"27.917"	"30.167"	"34.542"	"29.317"	"26.53"	"25.686"	"25.511"	"24.411"	"19.623"	"18.948"
"1922"	"20.363"	"22.473"	"27.625"	"30.825"	"32.136"	"28.955"	"25.514"	"26.171"	"25.679"	"24.646"	"22.401"	"17.78"
"1923"	"19.724"	"22.561"	"25.984"	"29.675"	"32.06"	"32.275"	"25.867"	"25.341"	"26.22"	"24.413"	"21.591"	"19.062"
"1924"	"20.522"	"23.607"	"27.628"	"30.735"	"31.822"	"31.178"	"26.447"	"26.263"	"25.75"	"24.594"	"21.335"	"18.442"
"1925"	"19.587"	"21.892"	"26.39"	"30.173"	"29.3"	"27.872"	"25.012"	"25.535"	"26.274"	"25.12"	"22.667"	"18.848"
"1926"	"21.241"	"23.522"	"27.007"	"28.646"	"30.123"	"32.211"	"26.405"	"25.47"	"26.048"	"24.579"	"21.053"	"19.253"
"1927"	"22.522"	"24.132"	"27.465"	"31.102"	"31.918"	"29.391"	"25.574"	"25.284"	"26.13"	"24.477"	"21.04"	"19.169"
"1928"	"20.418"	"22.618"	"26.798"	"29.767"	"31.985"	"29.099"	"25.849"	"26.319"	"26.029"	"25.739"	"21.135"	"19.601"
"1929"	"21.097"	"21.333"	"26.381"	"28.023"	"31.911"	"28.407"	"25.416"	"25.316"	"26.22"	"24.16"	"20.532"	"19.931"
"1930"	"19.999"	"21.377"	"26.756"	"29.207"	"31.285"	"29.199"	"25.814"	"25.511"	"25.734"	"25.198"	"20.681"	"19.149"
"1931"	"19.626"	"23.668"	"26.7"	"30.142"	"31.89"	"31.088"	"26.097"	"25.808"	"26.52"	"25.264"	"21.377"	"18.734"
"1932"	"19.527"	"21.433"	"26.691"	"29.694"	"31.169"	"30.173"	"25.477"	"26.129"	"25.881"	"25.938"	"22.761"	"18.94"
"1933"	"20.521"	"24.083"	"26.757"	"29.382"	"29.598"	"26.678"	"26.2"	"25.914"	"25.699"	"24.927"	"21.87"	"19.631"
"1934"	"19.792"	"22.321"	"26.87"	"30.16"	"32.61"	"29.193"	"25.926"	"25.716"	"25.668"	"24.296"	"20.771"	"18.842"
"1935"	"20.396"	"23.219"	"26.876"	"28.723"	"33.033"	"31.188"	"25.293"	"25.79"	"25.764"	"25.261"	"21.164"	"20.098"
"1936"	"22.736"	"22.463"	"27.152"	"29.842"	"31.166"	"26.428"	"26.25"	"25.319"	"26.241"	"25.072"	"23.425"	"19.954"
"1937"	"19.484"	"23.47"	"26.507"	"29.363"	"31.943"	"30.035"	"25.574"	"25.959"	"25.898"	"24.861"	"21.677"	"19.133"
"1938"	"22.666"	"22.695"	"28.232"	"29.975"	"31.474"	"26.388"	"25.949"	"26.208"	"25.929"	"24.578"	"20.558"	"18.622"
"1939"	"20.745"	"23.335"	"26.31"	"30.117"	"33.013"	"30.088"	"25.376"	"25.808"	"25.786"	"25.708"	"20.897"	"18.634"
"1940"	"18.411"	"22.721"	"25.965"	"29.347"	"30.66"	"28.392"	"24.995"	"25.542"	"26.62"	"25.609"	"22.922"	"20.153"
"1941"	"21.652"	"23.63"	"27.974"	"31.627"	"31.918"	"28.173"	"26.379"	"26.383"	"26.534"	"24.767"	"20.195"	"20.043"
"1942"	"20.284"	"22.993"	"27.451"	"29.832"	"32.369"	"30.65"	"25.213"	"25.878"	"26.814"	"23.992"	"21.203"	"20.098"
"1943"	"22.011"	"21.311"	"26.75"	"28.816"	"30.564"	"27.908"	"25.857"	"25.327"	"25.987"	"25.072"	"21.623"	"17.573"
"1944"	"20.569"	"22.253"	"25.05"	"28.208"	"31.688"	"29.904"	"25.183"	"25.411"	"25.781"	"24.767"	"20.82"	"19.219"
"1945"	"19.72"	"21.986"	"26.774"	"28.747"	"31.973"	"29.428"	"25.574"	"25.821"	"25.056"	"23.683"	"20.03"	"17.295"
"1946"	"17.979"	"21.52"	"27.661"	"28.079"	"31.22"	"27.634"	"25.867"	"25.481"	"26.387"	"25.831"	"24.085"	"21.986"
"1947"	"22.359"	"22.122"	"27.882"	"31.702"	"33.098"	"29.966"	"25.231"	"26.223"	"26.116"	"24.552"	"21.264"	"19.695"
"1948"	"21.274"	"23.95"	"26.19"	"30.598"	"32.67"	"30.526"	"26.74"	"25.881"	"26.085"	"25.611"	"24.028"	"18.373"
"1949"	"20.04"	"22.094"	"27.551"	"30.181"	"31.25"	"28.544"	"25.754"	"26.133"	"26.168"	"25.412"	"22.271"	"17.184"
"1950"	"20.138"	"22.705"	"26.084"	"30.615"	"32.437"	"29.003"	"25.176"	"26.255"	"26.425"	"24.575"	"20.999"	"18.715"
"1951"	"19.773"	"23.302"	"27.077"	"29.58"	"30.888"	"28.881"	"26.515"	"25.418"	"27.019"	"26.441"	"22.67"	"20.151"
"1952"	"21.11"	"23.929"	"26.71"	"30.382"	"31.945"	"30.777"	"26.573"	"25.879"	"25.869"	"25.423"	"21.319"	"21.192"
"1953"	"20.272"	"23.398"	"28.617"	"30.099"	"33.826"	"31.327"	"26.367"	"25.385"	"26.895"	"25.677"	"21.515"	"18.906"
"1954"	"19.715"	"23.757"	"26.968"	"30.997"	"32.271"	"29.788"	"26.273"	"26.263"	"25.561"	"24.296"	"20.087"	"20.041"
"1955"	"20.333"	"24.027"	"27.733"	"29.554"	"30.871"	"29.823"	"25.986"	"26.062"	"25.849"	"24.978"	"20.495"	"18.39"
"1956"	"20.783"	"21.638"	"28.032"	"31.186"	"31.303"	"27.552"	"25.341"	"25.681"	"25.86"	"24.557"	"22.383"	"20.048"
"1957"	"21.346"	"22.804"	"25.863"	"29.383"	"31.443"	"29.541"	"25.372"	"25.865"	"26.66"	"26.094"	"22.091"	"20.337"
"1958"	"20.856"	"23.529"	"27.17"	"30.433"	"31.65"	"31.792"	"25.448"	"26.441"	"26.061"	"25.157"	"22.979"	"19.786"
"1959"	"20.582"	"23.388"	"27.271"	"30.463"	"32.228"	"29.028"	"25.75"	"25.264"	"25.691"	"25.267"	"21.29"	"19.343"
"1960"	"20.463"	"22.732"	"26.211"	"30.307"	"31.627"	"29.231"	"25.949"	"25.567"	"26.568"	"24.605"	"21.633"	"20.726"
"1961"	"20.937"	"22.099"	"28.45"	"30.596"	"31.466"	"28.419"	"25.351"	"25.879"	"25.114"	"24.75"	"20.68"	"18.539"
"1962"	"18.296"	"21.934"	"26.688"	"29.092"	"31.056"	"27.867"	"25.455"	"25.589"	"26.186"	"25.166"	"21.532"	"19.668"
"1963"	"18.901"	"22.516"	"26.838"	"28.189"	"31.216"	"28.855"	"25.949"	"25.662"	"26.091"	"25.457"	"22.36"	"19.591"
"1964"	"21.68"	"23.861"	"27.918"	"30.828"	"32.718"	"29.23"	"26.179"	"24.943"	"26.13"	"25.27"	"21.916"	"19.538"
"1965"	"20.495"	"22.985"	"26.784"	"29.706"	"31.887"	"30.041"	"25.888"	"26.627"	"26.212"	"25.757"	"22.408"	"20.751"
"1966"	"20.403"	"23.811"	"27.692"	"30.622"	"33.331"	"29.485"	"27.189"	"26.281"	"26.282"	"25.379"	"23.897"	"19.56"
"1967"	"20.777"	"23.509"	"25.922"	"29.962"	"32.894"	"30.188"	"26.721"	"25.485"	"26.085"	"24.609"	"21.846"	"21.731"
"1968"	"19.994"	"23.222"	"25.719"	"28.081"	"31.44"	"29.996"	"26.387"	"25.778"	"26.148"	"24.577"	"22.315"	"20.051"
"1969"	"20.402"	"24.635"	"28.942"	"31.549"	"30.868"	"29.498"	"25.547"	"25.808"	"25.786"	"25.184"	"23.139"	"19.065"
"1970"	"20.364"	"24.643"	"27.507"	"29.707"	"32.326"	"27.385"	"25.792"	"25.641"	"26.066"	"25.063"	"20.668"	"17.83"
"1971"	"20.572"	"23.601"	"25.922"	"28.642"	"29.538"	"26.618"	"25.729"	"25.705"	"26.271"	"24.867"	"19.972"	"17.994"
"1972"	"19.278"	"22.309"	"27.931"	"29.926"	"32.625"	"31.862"	"26.471"	"25.963"	"25.944"	"24.488"	"21.955"	"21.158"
"1973"	"21.811"	"24.514"	"27.872"	"32.31"	"33.931"	"30.231"	"25.602"	"25.582"	"26.212"	"25.331"	"21.144"	"19.267"
"1974"	"19.462"	"23.936"	"28.18"	"31.615"	"31.299"	"29.422"	"26.716"	"25.911"	"26.715"	"25.259"	"21.429"	"18.621"
"1975"	"19.115"	"23.401"	"27.939"	"31.421"	"33.305"	"28.485"	"25.765"	"26.063"	"25.703"	"25.745"	"20.704"	"18.187"
"1976"	"18.393"	"22.974"	"27.41"	"29.932"	"31.823"	"29.477"	"25.425"	"25.674"	"25.911"	"25.815"	"24.472"	"21.191"
"1977"	"20.675"	"23.793"	"28.645"	"29.163"	"30.059"	"30.27"	"26.249"	"25.675"	"25.484"	"24.437"	"23.668"	"18.474"
"1978"	"19.767"	"22.455"	"26.585"	"29.79"	"32.656"	"29.521"	"25.638"	"24.992"	"26.467"	"25.776"	"23.828"	"20.05"
"1979"	"21.446"	"23.292"	"26.909"	"30.322"	"31.058"	"30.256"	"27.039"	"25.93"	"26.625"	"25.956"	"24.466"	"20.558"
"1980"	"21.865"	"23.98"	"27.985"	"31.103"	"32.312"	"27.799"	"25.682"	"25.846"	"26.149"	"25.237"	"23.834"	"20.918"
"1981"	"19.854"	"23.753"	"26.385"	"30.341"	"31.025"	"29.519"	"26.169"	"25.701"	"26.688"	"25.582"	"21.966"	"20.338"
"1982"	"22.156"	"24.298"	"27.799"	"30.262"	"31.085"	"30.186"	"27.399"	"25.226"	"26.631"	"25.76"	"23.175"	"20.807"
"1983"	"21.176"	"24.133"	"28.147"	"31.029"	"31.83"	"31.328"	"27.148"	"26.286"	"26.62"	"25.365"	"21.103"	"19.606"
"1984"	"22.305"	"23.358"	"26.997"	"29.407"	"32.922"	"27.865"	"25.949"	"25.682"	"26.026"	"25.857"	"20.818"	"20.793"
"1985"	"22.274"	"22.999"	"28.327"	"31.064"	"32.207"	"28.816"	"25.886"	"25.794"	"26.152"	"24.499"	"21.6"	"20.924"
"1986"	"20.071"	"23.452"	"27.53"	"30.526"	"32.527"	"28.432"	"26.28"	"25.832"	"27.133"	"25.867"	"22.856"	"21.419"
"1987"	"20.981"	"22.423"	"26.196"	"30.546"	"30.165"	"30.432"	"26.411"	"26.606"	"27.433"	"25.947"	"23.326"	"20.689"
"1988"	"21.59"	"24.116"	"27.792"	"29.958"	"32.776"	"29.529"	"25.842"	"26.132"	"26.73"	"24.867"	"21.85"	"20.838"
"1989"	"20.621"	"22.945"	"26.474"	"30.837"	"32.769"	"28.534"	"26.53"	"26.175"	"26.557"	"25.765"	"22.923"	"20.028"
"1990"	"21.467"	"23.717"	"26.333"	"30.22"	"28.317"	"27.374"	"25.538"	"26.215"	"26.779"	"25.18"	"23.79"	"21.24"
"1991"	"21.92"	"24.709"	"28.328"	"30.18"	"31.887"	"29.087"	"26.518"	"25.915"	"26.792"	"25.81"	"22.113"	"19.987"
"1992"	"19.636"	"22.888"	"27.921"	"30.524"	"31.903"	"29.083"	"27.033"	"25.684"	"26.261"	"25.214"	"23.73"	"19.231"
"1993"	"21.179"	"22.26"	"26.851"	"30.535"	"32.106"	"29.93"	"26.77"	"26.229"	"26.225"	"26.05"	"22.194"	"19.169"
"1994"	"21.587"	"23.266"	"28.543"	"30.2"	"31.894"	"28.778"	"25.369"	"25.063"	"25.889"	"25.659"	"22.16"	"19.251"
"1995"	"19.534"	"23.164"	"27.015"	"29.908"	"29.27"	"31.215"	"26.323"	"26.781"	"26.638"	"25.261"	"22.726"	"20.685"
"1996"	"22.075"	"22.638"	"28.072"	"29.878"	"32.727"	"30.378"	"26.961"	"25.943"	"27.128"	"25.357"	"22.876"	"19.752"
"1997"	"19.533"	"22.231"	"27.417"	"28.52"	"30.948"	"30.535"	"27.097"	"25.989"	"26.567"	"25.457"	"24.779"	"22.43"
"1998"	"22.218"	"23.822"	"27.342"	"30.275"	"32.263"	"30.802"	"27.173"	"26.746"	"27.042"	"26.614"	"23.634"	"18.833"
"1999"	"18.812"	"24.466"	"27.773"	"32.171"	"30.798"	"28.631"	"26.38"	"25.529"	"25.826"	"25.95"	"21.937"	"19.398"
"2000"	"22.392"	"23.442"	"26.75"	"31.453"	"31.396"	"27.969"	"26.307"	"26.137"	"26.502"	"26.458"	"22.987"	"19.442"
"2001"	"20.896"	"23.973"	"28.106"	"29.328"	"31.967"	"27.448"	"25.946"	"25.589"	"27.192"	"25.883"	"24.062"	"20.072"
"2002"	"20.828"	"23.829"	"27.841"	"30.747"	"33.019"	"28.84"	"27.267"	"25.324"	"26.38"	"26.055"	"22.341"	"21.168"
