
"Year"	"Jan"	"Feb"	"Mar"	"Apr"	"May"	"Jun"	"Jul"	"Aug"	"Sep"	"Oct"	"Nov"	"Dec"
"1901"	"23.764"	"24.62"	"27.287"	"30.743"	"30.886"	"29.391"	"26.8"	"26.231"	"27.659"	"26.438"	"23.71"	"22.033"
"1902"	"22.904"	"24.357"	"28.441"	"30.823"	"33.443"	"30.434"	"28.326"	"27.803"	"26.6"	"26.496"	"22.589"	"22.473"
"1903"	"22.919"	"24.714"	"28.255"	"31.076"	"31.072"	"30.845"	"26.45"	"26.091"	"26.419"	"25.428"	"22.494"	"21.156"
"1904"	"22.232"	"23.601"	"27.418"	"31.378"	"31.484"	"28.868"	"27.388"	"27.371"	"26.653"	"25.997"	"22.587"	"21.202"
"1905"	"22.169"	"23.821"	"27.844"	"29.919"	"31.916"	"30.774"	"28.323"	"26.682"	"26.775"	"26.186"	"24.029"	"21.466"
"1906"	"23.392"	"25.104"	"27.255"	"31.867"	"33.423"	"28.952"	"27.605"	"26.604"	"26.616"	"26.049"	"23.52"	"22.398"
"1907"	"22.286"	"24.885"	"27.404"	"29.378"	"31.608"	"29.216"	"27.468"	"25.595"	"27.099"	"26.722"	"24.591"	"21.744"
"1908"	"21.932"	"24.536"	"27.24"	"31.867"	"32.913"	"30.76"	"27.073"	"26.183"	"26.09"	"25.768"	"22.323"	"20.409"
"1909"	"23.156"	"24.933"	"27.963"	"29.284"	"32.121"	"28.36"	"26.351"	"26.782"	"26.398"	"26.4"	"24.016"	"23.241"
"1910"	"22.861"	"24.36"	"27.851"	"31.6"	"32.61"	"29.504"	"27.835"	"26.992"	"26.146"	"25.864"	"21.672"	"20.602"
"1911"	"22.651"	"23.457"	"27.778"	"31.531"	"33.08"	"29.465"	"27.834"	"26.034"	"27.521"	"26.961"	"24.399"	"22.183"
"1912"	"22.841"	"25.414"	"28.511"	"30.642"	"32.822"	"31.845"	"27.272"	"26.355"	"26.962"	"26.417"	"23.13"	"21.004"
"1913"	"21.365"	"25.333"	"27.853"	"31.559"	"31.837"	"29.282"	"26.997"	"27.282"	"27.582"	"26.151"	"23.519"	"22.86"
"1914"	"21.907"	"25.214"	"27.863"	"29.904"	"31.9"	"29.146"	"26.731"	"25.881"	"25.985"	"25.837"	"23.677"	"22.467"
"1915"	"22.204"	"24.445"	"26.624"	"30.516"	"32.108"	"30.708"	"27.732"	"26.668"	"26.438"	"26.429"	"24.527"	"20.845"
"1916"	"22.908"	"25.132"	"27.729"	"30.673"	"31.891"	"28.048"	"27.059"	"26.772"	"26.696"	"25.822"	"23.193"	"20.521"
"1917"	"21.374"	"23.275"	"25.917"	"29.284"	"31.02"	"27.656"	"27.039"	"26.599"	"25.998"	"25.715"	"22.75"	"21.153"
"1918"	"21.181"	"23.556"	"26.929"	"30.442"	"30.121"	"29.065"	"28.877"	"26.912"	"27.411"	"26.511"	"24.268"	"22.266"
"1919"	"23.903"	"25.925"	"28.268"	"31.079"	"32.099"	"28.341"	"27.72"	"27.201"	"27.213"	"25.638"	"23.49"	"21.348"
"1920"	"22.223"	"24.34"	"28.161"	"30.232"	"31.842"	"30.321"	"28.026"	"28.152"	"27.617"	"27.17"	"24.183"	"21.972"
"1921"	"23.108"	"24.402"	"28.874"	"31.064"	"34.437"	"29.52"	"27.114"	"26.735"	"26.731"	"25.119"	"21.473"	"21.184"
"1922"	"22.127"	"23.988"	"28.072"	"31.449"	"32.237"	"29.789"	"27.43"	"27.585"	"26.395"	"25.564"	"23.439"	"20.804"
"1923"	"21.633"	"24.119"	"26.795"	"31.291"	"32.566"	"32.186"	"27.041"	"27.097"	"26.317"	"25.308"	"23.359"	"21.992"
"1924"	"22.68"	"25.58"	"27.934"	"32.092"	"33.067"	"30.712"	"27.919"	"27.413"	"26.268"	"25.511"	"22.353"	"20.907"
"1925"	"21.778"	"23.927"	"27.452"	"31.438"	"30.882"	"29.561"	"27.573"	"26.235"	"27.017"	"25.322"	"23.347"	"20.908"
"1926"	"22.941"	"24.618"	"28.057"	"29.844"	"31.586"	"32.004"	"27.982"	"27.02"	"26.955"	"26.326"	"23.129"	"21.968"
"1927"	"24.145"	"25.652"	"29.104"	"31.987"	"32.753"	"29.664"	"26.862"	"27.03"	"27.455"	"26.116"	"22.395"	"22.163"
"1928"	"23.158"	"25.081"	"27.745"	"30.649"	"33.453"	"29.858"	"27.332"	"27.224"	"26.915"	"26.155"	"24.034"	"22.468"
"1929"	"23.764"	"24.205"	"27.81"	"30.121"	"33.487"	"29.806"	"28.037"	"27.478"	"26.801"	"26.202"	"23.878"	"23.593"
"1930"	"23.424"	"23.915"	"28.091"	"30.317"	"32.436"	"30.484"	"28.022"	"27.47"	"26.999"	"26.012"	"22.895"	"22.841"
"1931"	"22.018"	"25.598"	"27.906"	"31.481"	"32.688"	"29.791"	"26.798"	"26.935"	"26.526"	"25.808"	"22.633"	"21.602"
"1932"	"21.214"	"23.77"	"26.608"	"30.223"	"31.164"	"29.793"	"26.787"	"27.09"	"26.636"	"26.642"	"24.093"	"21.651"
"1933"	"22.442"	"25.56"	"26.886"	"29.783"	"29.622"	"29.041"	"26.335"	"25.937"	"27.096"	"25.104"	"23.289"	"21.333"
"1934"	"21.519"	"24.014"	"27.215"	"31.003"	"33.073"	"30.178"	"26.913"	"26.304"	"26.707"	"26.07"	"22.205"	"21.027"
"1935"	"22.862"	"24.89"	"27.428"	"29.607"	"33.543"	"30.273"	"27.057"	"27"	"26.24"	"26.266"	"22.764"	"22.494"
"1936"	"24.401"	"24.603"	"26.885"	"30.564"	"31.861"	"28.426"	"27.752"	"26.632"	"27.46"	"26.354"	"23.463"	"22.097"
"1937"	"21.706"	"25.318"	"27.348"	"30.416"	"32.605"	"30.817"	"27.049"	"27.483"	"27.31"	"25.612"	"23.589"	"21.772"
"1938"	"23.756"	"25.086"	"28.574"	"31.003"	"32.462"	"27.172"	"26.47"	"26.455"	"26.115"	"25.19"	"22.076"	"20.85"
"1939"	"21.823"	"23.994"	"26.846"	"30.38"	"33.205"	"30.381"	"27.226"	"27.127"	"26.837"	"26.155"	"21.913"	"20.939"
"1940"	"20.614"	"24.357"	"27.341"	"30.168"	"31.499"	"29.56"	"26.189"	"26.266"	"26.92"	"25.838"	"24.248"	"22.566"
"1941"	"23.404"	"25.131"	"29.298"	"32.275"	"33.22"	"29.929"	"28.665"	"27.306"	"26.948"	"26.651"	"23.716"	"23.5"
"1942"	"23.075"	"24.979"	"28.133"	"31.053"	"33.139"	"30.073"	"27.189"	"26.451"	"26.387"	"25.458"	"23.229"	"22.688"
"1943"	"23.775"	"22.908"	"27.541"	"30.309"	"30.779"	"28.27"	"26.753"	"26.731"	"25.822"	"25.528"	"23.679"	"20.641"
"1944"	"22.983"	"24.759"	"25.922"	"29.972"	"32.768"	"30.223"	"26.818"	"27.251"	"26.765"	"25.963"	"23.221"	"21.835"
"1945"	"22.456"	"24.386"	"27.923"	"30.058"	"33.261"	"29.798"	"26.794"	"26.131"	"26.065"	"25.602"	"22.063"	"20.416"
"1946"	"20.666"	"23.505"	"28.262"	"30.48"	"32.586"	"28.659"	"27.271"	"26.633"	"26.977"	"27.026"	"24.258"	"22.972"
"1947"	"23.676"	"24.725"	"28.587"	"31.608"	"33.108"	"30.729"	"26.759"	"26.572"	"26.123"	"24.873"	"22.88"	"21.603"
"1948"	"22.969"	"25.29"	"27.268"	"30.676"	"33.411"	"30.631"	"27.738"	"26.733"	"26.289"	"26.443"	"24.676"	"20.206"
"1949"	"21.784"	"23.785"	"27.827"	"30.926"	"31.552"	"28.936"	"26.765"	"26.84"	"26.285"	"26.47"	"22.424"	"21.493"
"1950"	"21.775"	"24.192"	"26.706"	"30.798"	"32.403"	"29.407"	"27.044"	"27.566"	"26.164"	"25.564"	"22.732"	"21.052"
"1951"	"22.373"	"23.986"	"28.008"	"30.915"	"32.056"	"29.56"	"27.334"	"27.035"	"27.36"	"27.193"	"24.492"	"21.606"
"1952"	"22.589"	"25.256"	"27.76"	"31.588"	"32.719"	"30.75"	"28.549"	"27.044"	"27.261"	"26.031"	"22.335"	"22.904"
"1953"	"22.914"	"25.407"	"29.614"	"31.647"	"34.92"	"31.377"	"27.799"	"26.761"	"26.538"	"26.269"	"23.105"	"21.098"
"1954"	"22.323"	"25.654"	"27.925"	"31.96"	"33.88"	"30.326"	"26.896"	"27.075"	"26.31"	"25.009"	"22.045"	"22.448"
"1955"	"22.482"	"25.31"	"28.237"	"30.919"	"31.737"	"29.594"	"27.058"	"25.783"	"26.622"	"25.868"	"21.996"	"21.158"
"1956"	"22.376"	"23.696"	"28.46"	"31.508"	"32.258"	"29.09"	"25.782"	"26.393"	"26.336"	"25.089"	"23.607"	"21.748"
"1957"	"22.937"	"24.747"	"26.752"	"30.276"	"32.245"	"30.508"	"27.155"	"25.826"	"27.081"	"27.029"	"24.158"	"22.674"
"1958"	"22.976"	"25.419"	"28.399"	"31.121"	"32.868"	"32.392"	"26.596"	"26.517"	"26.863"	"26.167"	"24.444"	"22.242"
"1959"	"23.213"	"26.221"	"28.326"	"31.219"	"33.184"	"29.395"	"26.837"	"26.55"	"27.011"	"26.495"	"23.889"	"22.405"
"1960"	"23.465"	"24.523"	"27.868"	"30.783"	"32.496"	"29.763"	"27.946"	"28.193"	"27.082"	"26.122"	"23.658"	"22.66"
"1961"	"23.066"	"24.959"	"29.319"	"31.855"	"31.882"	"29.295"	"26.886"	"26.783"	"26.609"	"25.603"	"22.952"	"21.526"
"1962"	"21.261"	"24.319"	"27.542"	"30.232"	"31.7"	"30.043"	"27.296"	"26.706"	"26.304"	"26.026"	"22.962"	"21.467"
"1963"	"21.22"	"23.448"	"27.767"	"29.384"	"32.256"	"28.873"	"27.5"	"26.126"	"27.061"	"25.999"	"23.717"	"22.39"
"1964"	"23.088"	"25.73"	"29.155"	"31.534"	"33.555"	"29.983"	"27.237"	"26.213"	"25.893"	"26.156"	"22.823"	"21.115"
"1965"	"22.488"	"24.762"	"27.752"	"30.041"	"32.268"	"30.181"	"26.99"	"27.202"	"27.03"	"26.917"	"24.638"	"23.619"
"1966"	"23.653"	"25.806"	"29.319"	"31.617"	"33.236"	"30.602"	"28.307"	"27.728"	"26.548"	"26.085"	"24.651"	"21.899"
"1967"	"22.949"	"24.792"	"27.469"	"31.382"	"33.004"	"30.418"	"27.132"	"26.793"	"26.555"	"25.718"	"23.221"	"23.248"
"1968"	"21.93"	"25.601"	"27.479"	"30.238"	"32.43"	"30.154"	"27.598"	"27.502"	"26.473"	"25.29"	"23.641"	"23.178"
"1969"	"22.612"	"25.946"	"29.713"	"32.325"	"32.018"	"30.825"	"27.432"	"27.527"	"26.277"	"25.986"	"24.423"	"21.461"
"1970"	"23.021"	"25.909"	"29.449"	"31.526"	"32.804"	"28.433"	"27.695"	"26.177"	"26.719"	"25.932"	"22.971"	"20.161"
"1971"	"22.567"	"25.91"	"27.677"	"31.492"	"31.844"	"28.113"	"28.627"	"27.729"	"27.379"	"25.92"	"22.371"	"20.839"
"1972"	"21.697"	"25.082"	"28.548"	"31.716"	"33.329"	"32.102"	"28.542"	"28.045"	"28.404"	"26.547"	"24.152"	"23.62"
"1973"	"24.225"	"26.604"	"29.564"	"33.197"	"34.571"	"30.387"	"27.981"	"26.957"	"27.516"	"26.081"	"23.148"	"22.102"
"1974"	"22.328"	"25.711"	"28.985"	"32.024"	"31.915"	"29.487"	"28.788"	"27.413"	"27.202"	"26.067"	"22.997"	"21.073"
"1975"	"21.997"	"25.625"	"28.343"	"31.825"	"33.814"	"29.49"	"27.403"	"27.24"	"26.183"	"26.305"	"22.5"	"20.492"
"1976"	"21.448"	"24.541"	"28.932"	"31.244"	"32.759"	"30.185"	"26.813"	"26.557"	"26.785"	"26.906"	"24.845"	"22.647"
"1977"	"22.261"	"25.741"	"28.901"	"31.326"	"31.466"	"30.213"	"28.005"	"26.816"	"27.988"	"26.591"	"25.496"	"22.245"
"1978"	"23.493"	"25.197"	"28.681"	"31.628"	"33.189"	"29.183"	"26.956"	"25.998"	"26.928"	"26.807"	"25.301"	"23.196"
"1979"	"23.633"	"26.116"	"28.61"	"31.822"	"31.999"	"31.24"	"29.022"	"27.837"	"27.558"	"27.331"	"25.288"	"23.434"
"1980"	"24.267"	"27.155"	"29.435"	"32.067"	"34.281"	"29.255"	"27.693"	"26.615"	"27.473"	"27.384"	"24.871"	"23.231"
"1981"	"22.98"	"26.316"	"28.437"	"32.026"	"33.126"	"30.169"	"28.172"	"26.55"	"26.917"	"26.502"	"23.997"	"22.681"
"1982"	"23.823"	"26.986"	"29.655"	"31.45"	"31.974"	"30.324"	"28.208"	"27.473"	"27.436"	"26.784"	"24.595"	"22.859"
"1983"	"23.221"	"26.937"	"30.122"	"32.205"	"33.193"	"31.498"	"28.479"	"27.078"	"26.619"	"26.133"	"23.405"	"22.437"
"1984"	"24.323"	"25.557"	"28.589"	"31.569"	"34.376"	"30.321"	"27.31"	"27.696"	"27.796"	"26.712"	"23.47"	"23.72"
"1985"	"24.406"	"26.601"	"29.77"	"32.415"	"33.569"	"29.031"	"27.545"	"27.334"	"28.304"	"25.701"	"24.078"	"23.366"
"1986"	"22.309"	"25.566"	"29.393"	"31.953"	"33.755"	"29.973"	"28.409"	"27.17"	"28.684"	"27.856"	"25.255"	"23.896"
"1987"	"23.708"	"24.915"	"28.25"	"32.327"	"32.077"	"31.352"	"28.038"	"27.492"	"28.863"	"26.955"	"24.541"	"23.136"
"1988"	"23.745"	"26.76"	"29.777"	"31.062"	"34.532"	"31.078"	"27.302"	"27.184"	"27.257"	"26.725"	"24.164"	"22.767"
"1989"	"23.578"	"25.513"	"27.785"	"31.916"	"33.822"	"29.446"	"27.232"	"27.005"	"27.267"	"27.01"	"24.378"	"22.685"
"1990"	"23.573"	"26.327"	"29.151"	"32.426"	"29.692"	"28.348"	"27.724"	"27.064"	"27.681"	"25.903"	"25.096"	"23.362"
"1991"	"24.134"	"26.535"	"29.85"	"31.835"	"33.765"	"29.026"	"27.473"	"27.252"	"28.242"	"27.108"	"23.688"	"22.449"
"1992"	"22.288"	"25.828"	"29.425"	"31.752"	"33.172"	"30.732"	"28.775"	"26.775"	"27.366"	"26.964"	"24.854"	"21.745"
"1993"	"23.586"	"24.913"	"28.974"	"31.516"	"33.475"	"31.42"	"28.357"	"27.602"	"27.495"	"26.884"	"24.522"	"21.468"
"1994"	"23.506"	"26.022"	"29.821"	"31.08"	"33.91"	"30.21"	"27.236"	"27.008"	"27.768"	"26.487"	"23.257"	"21.319"
"1995"	"21.825"	"25.738"	"28.913"	"31.415"	"31.128"	"31.564"	"27.798"	"28.148"	"27.608"	"26.412"	"25.21"	"23.259"
"1996"	"24.345"	"25.962"	"29.434"	"30.683"	"33.947"	"30.607"	"28.296"	"27.06"	"27.483"	"26.156"	"24.485"	"22.478"
"1997"	"22.502"	"25.222"	"28.807"	"29.918"	"32.912"	"31.503"	"28.598"	"27.88"	"27.669"	"26.976"	"26.023"	"24.736"
"1998"	"25.076"	"27.004"	"29.921"	"32.623"	"34.204"	"32.164"	"28.999"	"27.622"	"27.644"	"26.831"	"25.08"	"21.983"
"1999"	"22.777"	"26.228"	"29.732"	"32.629"	"31.775"	"29.441"	"27.946"	"27.268"	"26.983"	"26.766"	"24.753"	"22.666"
"2000"	"24"	"26.256"	"28.596"	"32.625"	"32.268"	"28.333"	"27.268"	"26.974"	"27.481"	"27.577"	"25.084"	"22.51"
"2001"	"23.834"	"26.797"	"29.398"	"31.191"	"33.949"	"29.311"	"28.598"	"27.037"	"28.203"	"26.678"	"25.553"	"22.964"
"2002"	"23.599"	"25.985"	"29.705"	"32.725"	"33.64"	"29.664"	"28.984"	"26.847"	"28.044"	"26.986"	"24.038"	"23.116"
