
"Year"	"Jan"	"Feb"	"Mar"	"Apr"	"May"	"Jun"	"Jul"	"Aug"	"Sep"	"Oct"	"Nov"	"Dec"
"1901"	"26.232"	"8.1"	"11.374"	"0.75"	"16.925"	"22.707"	"175.801"	"167.643"	"7.448"	"0.047"	"0"	"1.453"
"1902"	"0.051"	"0.269"	"3.595"	"4.898"	"10.714"	"79.087"	"173.921"	"127.22"	"59.526"	"1.752"	"0"	"0"
"1903"	"4.549"	"0.343"	"4.891"	"0.293"	"8.424"	"5.444"	"110.53"	"97.444"	"47.495"	"6.003"	"0"	"1.425"
"1904"	"8.159"	"0.098"	"31.17"	"1.2"	"17.994"	"32.55"	"105.833"	"144.226"	"114.919"	"0.291"	"25.345"	"10.203"
"1905"	"33.321"	"13.444"	"5.427"	"1.389"	"2.242"	"15.868"	"103.313"	"14.476"	"111.806"	"1.396"	"0"	"2.987"
"1906"	"1.123"	"36.723"	"16.392"	"0.671"	"2.02"	"77.244"	"122.771"	"92.386"	"193.996"	"0.193"	"0"	"5.66"
"1907"	"14.246"	"29.441"	"11.594"	"28.418"	"2.248"	"14.902"	"41.984"	"140.268"	"0.795"	"0.622"	"0.153"	"0"
"1908"	"29.741"	"8.414"	"0.171"	"4.83"	"6.903"	"18.231"	"241.968"	"463.828"	"21.074"	"0.273"	"0.098"	"1.375"
"1909"	"9.766"	"11.307"	"0.051"	"25.804"	"22.072"	"137.786"	"235.239"	"87.482"	"122.592"	"0.491"	"0"	"26.922"
"1910"	"18.661"	"7.324"	"1.496"	"4.533"	"2.878"	"44.521"	"136.03"	"125.94"	"95.468"	"3.336"	"0.195"	"0.871"
"1911"	"45.348"	"0.55"	"27.883"	"1.865"	"3.188"	"63.295"	"30.754"	"59.962"	"129.508"	"8.448"	"59.437"	"0"
"1912"	"34.713"	"11.949"	"3.606"	"19.659"	"9.663"	"24.405"	"114.131"	"198.623"	"124.727"	"0"	"5.202"	"1.416"
"1913"	"1.595"	"26.679"	"11.386"	"1.966"	"32.013"	"92.418"	"105.618"	"113.299"	"11.827"	"0.494"	"0.954"	"8.23"
"1914"	"4.418"	"9.511"	"3.244"	"14.905"	"20.999"	"21.632"	"242.017"	"72.959"	"198.94"	"12.004"	"18.161"	"2.979"
"1915"	"19.198"	"43.252"	"46.97"	"19.325"	"1.571"	"27.807"	"55.045"	"81.437"	"84.079"	"5.527"	"0"	"1.141"
"1916"	"0.051"	"21.274"	"0.501"	"2.866"	"4.324"	"37.469"	"200.547"	"220.88"	"78.451"	"6.454"	"0.229"	"0"
"1917"	"6.666"	"6.96"	"8"	"12.949"	"16.741"	"82.89"	"172.614"	"149.767"	"162.359"	"17.377"	"0"	"2.605"
"1918"	"5.247"	"0.375"	"11.909"	"9.634"	"2.585"	"32.638"	"21.393"	"152.495"	"8.141"	"0.121"	"3.777"	"1.222"
"1919"	"47.995"	"4.195"	"5.503"	"3.92"	"8.249"	"4.174"	"141.106"	"159.043"	"18.904"	"0.507"	"3.016"	"8.185"
"1920"	"10.743"	"7.087"	"16.143"	"0.498"	"13.029"	"59.932"	"178.671"	"115.963"	"4.901"	"0.295"	"0"	"0.047"
"1921"	"20.694"	"0.195"	"0.171"	"2.173"	"0.876"	"21.914"	"111.038"	"240.407"	"102.578"	"6.935"	"0"	"1.902"
"1922"	"15.19"	"2.207"	"0.476"	"0.923"	"0.948"	"43.071"	"94.094"	"139.085"	"165.931"	"1.719"	"0.562"	"18.011"
"1923"	"11.64"	"40.148"	"1.401"	"5.243"	"11.774"	"2.134"	"161.69"	"243.963"	"23.246"	"5.59"	"2.274"	"24.828"
"1924"	"35.198"	"19.108"	"2.638"	"0.468"	"16.851"	"17.063"	"115.827"	"176.306"	"158.401"	"13.372"	"3.014"	"14.047"
"1925"	"7.129"	"0.299"	"0.92"	"0.713"	"20.379"	"93.403"	"199.002"	"120.958"	"3.982"	"1.114"	"42.311"	"0"
"1926"	"7.999"	"0.489"	"39.146"	"11.044"	"11.402"	"2.356"	"192.745"	"249.665"	"28.868"	"0.193"	"5.149"	"2.348"
"1927"	"0.123"	"15.576"	"15.592"	"3.641"	"17.756"	"13.777"	"146.812"	"156.899"	"8.841"	"13.128"	"0"	"17.13"
"1928"	"17.625"	"29.633"	"8.849"	"11.651"	"5.428"	"35.766"	"70.909"	"46.469"	"46.09"	"4.185"	"26.277"	"10.871"
"1929"	"6.218"	"0.599"	"0.562"	"13.025"	"0.931"	"53.438"	"84.613"	"170.431"	"6.886"	"1.731"	"0"	"22.639"
"1930"	"31.992"	"15.32"	"0.636"	"5.101"	"8.165"	"49.8"	"256.56"	"50.644"	"26.89"	"5.65"	"2.369"	"1.697"
"1931"	"9.602"	"16.151"	"7.675"	"4.15"	"9.091"	"2.518"	"213.059"	"139.554"	"90.701"	"20.023"	"0.195"	"0"
"1932"	"5.424"	"1.241"	"12.688"	"5.671"	"5.008"	"10.965"	"90.856"	"74.134"	"146.192"	"0.242"	"0.098"	"7.337"
"1933"	"2.248"	"10.676"	"5.639"	"3.511"	"30.844"	"128.203"	"112.964"	"362.582"	"168.203"	"10.55"	"4.065"	"0.047"
"1934"	"21.208"	"0.599"	"36.307"	"0.171"	"3.255"	"40.583"	"215.248"	"192.976"	"4.419"	"0"	"0"	"6.206"
"1935"	"33.474"	"31.026"	"4.909"	"11.488"	"1.503"	"33.19"	"111.662"	"97.282"	"111.147"	"1.288"	"12.237"	"4.513"
"1936"	"2.049"	"17.18"	"10.114"	"2.91"	"2.551"	"198.035"	"154.34"	"149.399"	"96.448"	"4.052"	"2.479"	"30.63"
"1937"	"0.171"	"51.69"	"0.95"	"16.305"	"4.264"	"27.607"	"181.591"	"21.911"	"85.681"	"1.155"	"0.25"	"5.947"
"1938"	"44.121"	"5.98"	"8.61"	"2.301"	"0.941"	"72.933"	"85.252"	"42.9"	"18.037"	"3.301"	"0.195"	"0"
"1939"	"2.088"	"25.736"	"9.48"	"1.184"	"2.219"	"68.848"	"70.992"	"85.523"	"56.941"	"1.349"	"0"	"0"
"1940"	"36.694"	"28.719"	"3.518"	"1.188"	"1.425"	"31.542"	"139.008"	"149.732"	"14.53"	"0.121"	"0"	"1.052"
"1941"	"40.154"	"4.508"	"3.092"	"0.25"	"16.226"	"54.139"	"32.977"	"82.539"	"55.345"	"0.193"	"0.195"	"6.817"
"1942"	"12.95"	"12.863"	"3.753"	"11.688"	"9.898"	"30.679"	"261.535"	"154.428"	"79.32"	"0.622"	"0"	"10.825"
"1943"	"12.241"	"0.269"	"0.91"	"12.234"	"4.68"	"48.141"	"122.412"	"73.531"	"55.918"	"0"	"0"	"0"
"1944"	"23.911"	"34.245"	"38.35"	"35.385"	"0.2"	"51.174"	"249.285"	"66.355"	"97.538"	"15.529"	"0.098"	"2.503"
"1945"	"25.667"	"0"	"1.941"	"11.302"	"8.351"	"32.092"	"131.698"	"221.676"	"103.547"	"3.798"	"0.153"	"0.051"
"1946"	"0.123"	"7.224"	"1.922"	"2.07"	"13.899"	"85.411"	"157.131"	"166.683"	"27.244"	"6.2"	"2.14"	"3.402"
"1947"	"8.485"	"7.118"	"8.422"	"0.473"	"3.408"	"3.598"	"64.887"	"98.628"	"142.492"	"11.537"	"0.195"	"5.262"
"1948"	"31.936"	"23.622"	"18.509"	"2.556"	"4.085"	"19.648"	"183.144"	"253.249"	"107.791"	"3.549"	"3.055"	"4.503"
"1949"	"2.703"	"16.637"	"6.019"	"1.326"	"7.016"	"5.538"	"375.15"	"78.634"	"79.18"	"1.313"	"0.098"	"0.171"
"1950"	"22.593"	"6.166"	"17.739"	"0.424"	"8.924"	"15.806"	"339.584"	"157.81"	"157.522"	"0"	"0.098"	"0.098"
"1951"	"18.325"	"1.726"	"33.762"	"16.844"	"6.912"	"12.098"	"113.149"	"79.793"	"48.175"	"2.292"	"33.085"	"0"
"1952"	"7.189"	"9.169"	"31.43"	"3.486"	"18.603"	"32.327"	"72.586"	"190.527"	"2.282"	"0.523"	"1.848"	"0.375"
"1953"	"48.849"	"0.447"	"0.195"	"3.84"	"3.248"	"27.524"	"187.421"	"205.884"	"65.953"	"0.445"	"1.665"	"1.251"
"1954"	"21.242"	"36.994"	"6.625"	"0.25"	"2.431"	"20.082"	"199.972"	"32.615"	"101.512"	"15.419"	"0"	"0.098"
"1955"	"21.947"	"0.871"	"9.929"	"13.399"	"8.504"	"32.585"	"98.665"	"156.787"	"175.828"	"27.998"	"0"	"1.076"
"1956"	"23.407"	"1.267"	"14.889"	"2.049"	"3.806"	"51.446"	"214.763"	"175.329"	"12.226"	"30.566"	"1.538"	"0.861"
"1957"	"45.695"	"0.375"	"28.113"	"7.624"	"8.941"	"27.874"	"179.785"	"148.393"	"99.896"	"10.15"	"20.04"	"8.893"
"1958"	"15.183"	"1.315"	"10.992"	"1.613"	"4.773"	"18.256"	"283.644"	"161.742"	"188.847"	"5.094"	"3.414"	"8.794"
"1959"	"30.232"	"3.161"	"4.081"	"0.562"	"16.182"	"13.294"	"140.841"	"209.122"	"63.302"	"4.147"	"18.149"	"0"
"1960"	"12.26"	"0"	"18.633"	"6.168"	"0.515"	"24.53"	"149.877"	"210.802"	"28.96"	"23.471"	"0"	"1.822"
"1961"	"23.747"	"25.312"	"0.927"	"4.922"	"17.11"	"42.436"	"183.896"	"348.652"	"72.411"	"25.656"	"1.738"	"5.658"
"1962"	"25.025"	"12.063"	"8.089"	"0.39"	"4.93"	"17.169"	"161.92"	"101.312"	"129.765"	"0"	"8.597"	"10.783"
"1963"	"0.709"	"7.915"	"5.265"	"4.104"	"16.636"	"58.616"	"60.357"	"183.842"	"134.559"	"0.46"	"3.323"	"13.912"
"1964"	"5.484"	"1.272"	"2.277"	"5.052"	"14.904"	"27.729"	"389.661"	"279.824"	"100.256"	"0"	"1.312"	"7.712"
"1965"	"7.195"	"9.266"	"4.126"	"15.126"	"9.204"	"2.696"	"143.451"	"134.618"	"79.686"	"1.61"	"4.768"	"0"
"1966"	"2.066"	"21.814"	"2.473"	"2.028"	"38.977"	"98.44"	"101.871"	"160.655"	"82.85"	"10.732"	"2.589"	"0.293"
"1967"	"0.051"	"4.027"	"36.573"	"1.797"	"1.426"	"14.707"	"154.212"	"399.416"	"66.543"	"6.915"	"15.001"	"35.825"
"1968"	"14.193"	"10.18"	"7.155"	"1.288"	"6.033"	"19.47"	"199.633"	"192.296"	"4.392"	"4.024"	"0"	"2.072"
"1969"	"2.618"	"6.316"	"13.825"	"5.238"	"22.973"	"32.183"	"193.93"	"104.589"	"112.315"	"0.446"	"0.195"	"0"
"1970"	"32.256"	"29.63"	"34.918"	"0.051"	"32.962"	"68.7"	"47.449"	"169.624"	"73.044"	"2.377"	"0"	"0"
"1971"	"8.726"	"8.679"	"1.953"	"11.117"	"39.64"	"56.109"	"154.356"	"300.445"	"75.68"	"5.634"	"1.687"	"0"
"1972"	"7.8"	"8.94"	"1.991"	"6.876"	"0.272"	"19.343"	"191.157"	"222.669"	"53.475"	"10.453"	"9.616"	"2.201"
"1973"	"19.808"	"6.759"	"3.071"	"0.25"	"14.113"	"18.658"	"122.314"	"254.493"	"52.505"	"11.645"	"0"	"6.547"
"1974"	"1.736"	"1.716"	"2.763"	"0.197"	"6.391"	"17.094"	"264.868"	"82.127"	"4.03"	"4.923"	"0"	"5.756"
"1975"	"18.366"	"7.96"	"10.521"	"0.778"	"0.664"	"77.476"	"289.258"	"200.839"	"173.211"	"13.468"	"0"	"0"
"1976"	"3.765"	"16.995"	"10.03"	"6.278"	"42.185"	"52.467"	"257.822"	"365.909"	"71.923"	"3.981"	"0"	"0.622"
"1977"	"25.096"	"0.621"	"0.348"	"27.879"	"32.188"	"69.914"	"292.745"	"97.305"	"76.513"	"14.029"	"0.43"	"7.81"
"1978"	"1.549"	"14.605"	"22.371"	"7.818"	"0.37"	"72.43"	"222.482"	"304.488"	"139.022"	"0.242"	"2.352"	"1.386"
"1979"	"13.684"	"29.717"	"19.711"	"4.165"	"17.043"	"54.614"	"107.202"	"64.502"	"40.142"	"2.611"	"4.824"	"3.579"
"1980"	"6.029"	"5.929"	"18.858"	"1.924"	"6.745"	"69.93"	"345.228"	"164.605"	"57.724"	"4.647"	"5.745"	"4.936"
"1981"	"38.367"	"11.689"	"15.511"	"0.098"	"4.545"	"90.944"	"227.781"	"66.541"	"35.038"	"2.291"	"56.376"	"7.127"
"1982"	"17.067"	"7.383"	"48.145"	"34.609"	"52.304"	"44.863"	"155.864"	"213.88"	"3.299"	"7.323"	"15.58"	"8.476"
"1983"	"40.798"	"15.694"	"12.606"	"28.497"	"58.635"	"38.471"	"191.738"	"191.943"	"88.422"	"13.887"	"0"	"3.651"
"1984"	"1.111"	"12.507"	"1.922"	"19.379"	"1.775"	"25.263"	"207.586"	"252.084"	"82.217"	"0"	"0"	"4.295"
"1985"	"2.072"	"0.299"	"0.952"	"14.065"	"10.152"	"45.784"	"315.996"	"208.28"	"62.986"	"22.62"	"0.86"	"17.932"
"1986"	"15.502"	"28.002"	"8.827"	"6.154"	"22.352"	"46.15"	"110.926"	"161.627"	"59.698"	"2.026"	"1.126"	"16.588"
"1987"	"21.606"	"14.546"	"14.484"	"3.768"	"37.073"	"24.584"	"53.252"	"106.814"	"14.409"	"4.594"	"0"	"4.076"
"1988"	"1.621"	"12.938"	"34.06"	"5.253"	"3.647"	"43.391"	"212.751"	"306.24"	"110.805"	"6.546"	"0.098"	"6.304"
"1989"	"53.181"	"3.263"	"25.295"	"0.524"	"4.778"	"21.293"	"96.267"	"107.404"	"67.133"	"1.059"	"13.241"	"2.681"
"1990"	"0.804"	"30.885"	"12.356"	"4.974"	"26.998"	"37.997"	"146.948"	"241.024"	"170.051"	"1.232"	"8.003"	"21.188"
"1991"	"0.146"	"28.791"	"4.998"	"10.479"	"28.514"	"53.826"	"65.052"	"248.673"	"57.963"	"0.925"	"18.147"	"14.305"
"1992"	"17.532"	"19.847"	"2.038"	"6.397"	"13.043"	"12.65"	"81.339"	"182.557"	"74.185"	"2.497"	"41.934"	"0.427"
"1993"	"11.089"	"7.033"	"7.864"	"8.137"	"13.672"	"82.156"	"248.722"	"100.372"	"131.535"	"0"	"0"	"0"
"1994"	"20.996"	"4.054"	"13.324"	"6.664"	"28.084"	"39.681"	"308.849"	"168.941"	"40.369"	"0.648"	"0"	"2.424"
"1995"	"43.84"	"30.17"	"25.987"	"1.912"	"0.32"	"33.97"	"73.524"	"391.03"	"115.33"	"0.869"	"5.566"	"0.648"
"1996"	"11.242"	"15.54"	"6.24"	"1.389"	"11.854"	"141.698"	"132.698"	"266.981"	"75.184"	"6.435"	"0"	"0"
"1997"	"10.827"	"3.124"	"8.886"	"31.387"	"36.011"	"103.281"	"122.87"	"222.591"	"49.993"	"20.509"	"28.441"	"7.017"
"1998"	"2.637"	"19.231"	"20.989"	"7.279"	"10.552"	"60.343"	"147.031"	"164.99"	"126.421"	"18.385"	"23.657"	"0.375"
"1999"	"33.553"	"1.994"	"1.629"	"0"	"12.461"	"53.841"	"81.57"	"78.95"	"54.443"	"6.722"	"0"	"0.486"
"2000"	"21.582"	"33.297"	"12.717"	"0.693"	"11.857"	"74.844"	"246.945"	"114.204"	"21.634"	"0"	"3.732"	"15.852"
"2001"	"9.122"	"8.207"	"5.849"	"19.835"	"47.013"	"76.018"	"165.376"	"144.987"	"28.288"	"1.609"	"0"	"0.146"
"2002"	"12.093"	"10.919"	"4.414"	"1.313"	"6.175"	"35.477"	"33.63"	"109.128"	"121.231"	"0.319"	"0"	"7.633"
