
"Year"	"Jan"	"Feb"	"Mar"	"Apr"	"May"	"Jun"	"Jul"	"Aug"	"Sep"	"Oct"	"Nov"	"Dec"
"1901"	"0.379"	"0"	"0.212"	"0"	"7.396"	"12.948"	"93.556"	"87.701"	"7.381"	"8.795"	"0.054"	"0.215"
"1902"	"0.099"	"0"	"0"	"0"	"3.249"	"18.733"	"30.27"	"149.522"	"192.333"	"0.13"	"0.054"	"0.791"
"1903"	"0.652"	"0.09"	"0.672"	"0"	"2.27"	"0.955"	"293.36"	"120.496"	"29.338"	"0.571"	"0.054"	"0"
"1904"	"2.112"	"0.269"	"14.832"	"0"	"0.001"	"3.784"	"169.274"	"5.198"	"14.777"	"0.136"	"0.054"	"0"
"1905"	"0.129"	"0.143"	"12.248"	"0.001"	"0"	"3.346"	"384.132"	"4.867"	"25.466"	"0.127"	"0.054"	"0.254"
"1906"	"0.082"	"15.054"	"26.446"	"0"	"0"	"139.542"	"116.71"	"138.687"	"118.246"	"20.262"	"0.054"	"0.014"
"1907"	"0.342"	"4.627"	"0.672"	"0.453"	"0"	"41.824"	"181.266"	"401.671"	"19.444"	"0.127"	"0.054"	"0"
"1908"	"3.275"	"0.01"	"0"	"0"	"0.047"	"8.344"	"304.561"	"374.35"	"19.175"	"0.158"	"0.054"	"0"
"1909"	"0.057"	"0.005"	"0"	"0.191"	"0.921"	"44.738"	"215.746"	"232.775"	"109.086"	"0.353"	"0.054"	"4.798"
"1910"	"0.343"	"0"	"0"	"0.01"	"0.006"	"188.159"	"97.381"	"268.156"	"10.741"	"5.543"	"0.054"	"0"
"1911"	"0.14"	"0"	"45.623"	"0"	"0.001"	"98.043"	"9.606"	"6.717"	"14.941"	"0.127"	"0.175"	"0"
"1912"	"0"	"0"	"0"	"0.081"	"0"	"36.006"	"294.356"	"178.27"	"24.427"	"23.388"	"3.482"	"0"
"1913"	"0"	"0"	"5.898"	"0"	"2.765"	"110.893"	"418.569"	"216.446"	"106.036"	"0.128"	"0.063"	"0.286"
"1914"	"0"	"4.362"	"0.167"	"0"	"4.116"	"91.667"	"336.346"	"64.791"	"98.034"	"6.463"	"2.033"	"0"
"1915"	"3.134"	"0.571"	"11.477"	"0"	"0"	"34.102"	"73.123"	"7.384"	"11.749"	"96.901"	"0.054"	"0"
"1916"	"0"	"0"	"0"	"0"	"1.002"	"43.729"	"43.937"	"465.145"	"110.019"	"25.797"	"0.054"	"0"
"1917"	"0"	"3.518"	"0.014"	"0.017"	"34.753"	"44.648"	"307.67"	"287.474"	"236.497"	"86.737"	"0.054"	"0.166"
"1918"	"0"	"0"	"0.072"	"0"	"7.511"	"23.311"	"13.968"	"241.658"	"37.117"	"0.127"	"0.054"	"0.406"
"1919"	"2.907"	"0"	"0"	"0.095"	"3.878"	"29.373"	"192.094"	"323.52"	"16.701"	"0.73"	"9.029"	"0.072"
"1920"	"0.07"	"0.165"	"0"	"0"	"30.128"	"171.721"	"214.8"	"38.906"	"1.417"	"0.127"	"0.054"	"0"
"1921"	"0"	"0"	"0"	"0"	"0"	"1.66"	"415.509"	"109.368"	"250.632"	"0.203"	"0.054"	"0"
"1922"	"0.029"	"0"	"0"	"0"	"0"	"26.26"	"250.213"	"72.957"	"243.832"	"0.143"	"0.064"	"0"
"1923"	"0"	"1.316"	"0"	"0.789"	"0.844"	"0.776"	"56.917"	"83.662"	"30.307"	"21.102"	"0.054"	"0"
"1924"	"1.365"	"0"	"0"	"0"	"12.406"	"26.451"	"311.401"	"140.206"	"194.728"	"0.881"	"0.054"	"0.174"
"1925"	"0"	"0"	"0"	"0"	"2.22"	"111.328"	"86.02"	"30.844"	"0.843"	"0.432"	"3.177"	"0"
"1926"	"0.15"	"0"	"1.053"	"0.079"	"34.999"	"5.081"	"224.989"	"298.426"	"348.994"	"0.127"	"0.054"	"0"
"1927"	"0"	"6.525"	"0"	"0"	"0.104"	"100.05"	"589.731"	"106.258"	"63.4"	"5.861"	"0.807"	"10.175"
"1928"	"0"	"0"	"0"	"0"	"0"	"2.573"	"246.417"	"91.133"	"245.57"	"34.576"	"25.508"	"0.004"
"1929"	"3.707"	"0"	"0"	"0.274"	"4.135"	"53.183"	"166.127"	"160.825"	"1.789"	"0.167"	"4.275"	"2.591"
"1930"	"4.557"	"0"	"0.009"	"0.002"	"0.432"	"44.732"	"291.325"	"64.795"	"16.765"	"55.718"	"0.054"	"0.08"
"1931"	"0"	"0.284"	"0"	"0.001"	"7.945"	"1.308"	"115.797"	"406.613"	"26.588"	"44.336"	"0.609"	"0.001"
"1932"	"0"	"0"	"0.284"	"0"	"0.01"	"19.206"	"373.828"	"98.735"	"22.918"	"11.743"	"0.054"	"0"
"1933"	"0"	"0.421"	"0.357"	"0.13"	"35.742"	"16.864"	"160.667"	"399.878"	"62.579"	"0.247"	"0.075"	"0.004"
"1934"	"0"	"0"	"1.427"	"0"	"0"	"147.009"	"188.344"	"227.982"	"26.213"	"0.132"	"0.461"	"0"
"1935"	"10.776"	"0"	"0"	"0.77"	"0.01"	"31.625"	"188.773"	"31.439"	"88.856"	"9.764"	"0.054"	"0"
"1936"	"0"	"0.713"	"6.325"	"0"	"0"	"56.031"	"65.104"	"14.087"	"121.102"	"0.127"	"21.194"	"0.596"
"1937"	"0"	"2.952"	"0"	"0"	"0"	"187.685"	"498.759"	"1.777"	"242.926"	"10.942"	"0.054"	"3.914"
"1938"	"0.099"	"0"	"0"	"0"	"14.265"	"101.11"	"211.692"	"72.275"	"8.608"	"2.363"	"0.054"	"0"
"1939"	"0"	"2.434"	"32.899"	"0"	"0"	"4.243"	"36.823"	"130.608"	"38.91"	"0.18"	"0.054"	"0"
"1940"	"8.461"	"0.628"	"7.724"	"2.177"	"0"	"104.593"	"58.55"	"97.136"	"5.477"	"0.845"	"47.696"	"0"
"1941"	"0.099"	"7.095"	"6.913"	"0"	"0.471"	"5.025"	"524.99"	"87.148"	"6.541"	"0.283"	"0.054"	"0.558"
"1942"	"1.538"	"4.653"	"0"	"0.001"	"18.008"	"48.017"	"190.372"	"223.766"	"70.037"	"0.127"	"0.054"	"0"
"1943"	"0"	"0"	"0"	"0.001"	"4.093"	"83.722"	"347.983"	"37.124"	"49.084"	"12.773"	"2.069"	"0"
"1944"	"1.681"	"0"	"0.001"	"0.179"	"1.487"	"84.037"	"373.693"	"328.502"	"8.448"	"0.6"	"0.054"	"0"
"1945"	"4.138"	"0"	"0.001"	"0.003"	"1.016"	"108.929"	"288.71"	"161.812"	"97.349"	"0.361"	"0.054"	"0"
"1946"	"0"	"1.007"	"0"	"0.009"	"0.565"	"72.787"	"165.659"	"354.257"	"78.101"	"0.479"	"7.776"	"2.005"
"1947"	"0.089"	"0"	"0"	"0.005"	"0"	"2.334"	"88.508"	"140.034"	"145.724"	"2.934"	"11.673"	"0"
"1948"	"5.384"	"0.071"	"0.072"	"0"	"0.173"	"43.973"	"139.496"	"39.541"	"87.433"	"10.817"	"4.185"	"0.143"
"1949"	"0"	"0"	"0"	"0"	"0"	"10.184"	"168.069"	"156.867"	"54.296"	"2.545"	"0.847"	"0"
"1950"	"0"	"0"	"0"	"0"	"0"	"10.244"	"566.642"	"33.917"	"150.463"	"0.127"	"0.054"	"0"
"1951"	"0"	"0"	"0.041"	"0.246"	"0.264"	"31.66"	"169.066"	"141.087"	"3.399"	"14.559"	"6.939"	"0"
"1952"	"0"	"0.071"	"0"	"0"	"0"	"88.905"	"326.484"	"67.554"	"0.844"	"0.356"	"0.054"	"0"
"1953"	"8.398"	"0"	"0"	"0"	"0.102"	"62.992"	"112.52"	"308.65"	"28.752"	"0.127"	"0.054"	"0.19"
"1954"	"0.406"	"0.09"	"29.385"	"0"	"0"	"48.661"	"180.344"	"173.331"	"244.792"	"0.971"	"0.054"	"0"
"1955"	"0.072"	"0"	"0.215"	"0"	"0"	"36.852"	"14.51"	"254.571"	"254.595"	"25.338"	"0.054"	"0"
"1956"	"0"	"0.072"	"1.032"	"0"	"0.139"	"91.519"	"435.077"	"367.366"	"93.592"	"95.125"	"0.786"	"0.501"
"1957"	"5.966"	"0"	"0.098"	"0.006"	"1.941"	"64.514"	"51.141"	"125.085"	"1.058"	"6.95"	"8.311"	"0.302"
"1958"	"0.74"	"0"	"0"	"0.014"	"0"	"54.477"	"233.278"	"182.879"	"282.836"	"93.982"	"2.977"	"0.071"
"1959"	"0.072"	"0"	"0"	"0.122"	"0"	"41.688"	"410.344"	"116.192"	"395.588"	"40.234"	"3.579"	"0"
"1960"	"1.503"	"0"	"0.003"	"0"	"0.019"	"58.105"	"70.692"	"112.129"	"9.949"	"2.22"	"0.054"	"0.887"
"1961"	"0.12"	"0.61"	"0"	"0.002"	"1.68"	"121.892"	"296.914"	"51.531"	"262.831"	"22.236"	"0.054"	"0"
"1962"	"0"	"0"	"13.118"	"0"	"0.009"	"20.873"	"156.497"	"116.59"	"87.088"	"0.127"	"0.704"	"0.16"
"1963"	"0"	"0"	"0.088"	"0.216"	"2.203"	"7.198"	"99.796"	"150.876"	"294.751"	"7.365"	"37.843"	"0.497"
"1964"	"0"	"0"	"0"	"0"	"4.06"	"59.112"	"310.825"	"239.927"	"91.497"	"0.127"	"0.054"	"0"
"1965"	"13.851"	"0"	"0.131"	"0.005"	"0.898"	"3.282"	"314.102"	"133.924"	"11.64"	"0.127"	"0.317"	"0"
"1966"	"0.832"	"0.096"	"0"	"0"	"0.024"	"66.021"	"156.418"	"10.454"	"114.905"	"0.127"	"0.054"	"0"
"1967"	"0"	"0"	"35.697"	"0"	"0"	"66.481"	"258.613"	"112.36"	"82.735"	"8.954"	"0.054"	"9.167"
"1968"	"0.238"	"0"	"2.316"	"0"	"0"	"0.992"	"110.894"	"81.852"	"2.397"	"0.136"	"0.054"	"0"
"1969"	"0"	"3.324"	"0"	"0"	"0"	"18.719"	"100.059"	"65.126"	"21.123"	"0.127"	"1.939"	"0.376"
"1970"	"0.136"	"0.144"	"0.359"	"0.095"	"0.025"	"85.272"	"47.035"	"284.79"	"242.111"	"71.411"	"5.151"	"0"
"1971"	"0"	"0"	"0"	"0"	"3.093"	"74.163"	"321.008"	"85.179"	"80.893"	"3.812"	"0.054"	"0"
"1972"	"0"	"3.26"	"0"	"0"	"0.006"	"40.648"	"74.279"	"95.409"	"1.215"	"0.127"	"0.054"	"0"
"1973"	"3.918"	"0.538"	"0"	"0"	"5.281"	"143.149"	"146.377"	"284.23"	"232.772"	"8.57"	"0.054"	"0.002"
"1974"	"0"	"0"	"0"	"0"	"33.448"	"22.04"	"26.894"	"42.149"	"9.491"	"10.086"	"0.054"	"0.442"
"1975"	"0.267"	"0"	"0"	"0"	"0"	"249.804"	"137.483"	"179.95"	"236.39"	"89.74"	"0.054"	"0"
"1976"	"3.146"	"0.19"	"0"	"0"	"0"	"59.346"	"125.364"	"292.667"	"77.862"	"0.127"	"35.162"	"0"
"1977"	"13.428"	"0.191"	"0"	"0.001"	"43.558"	"200.261"	"522.581"	"125.475"	"75.401"	"0.128"	"0.572"	"0"
"1978"	"0"	"0.524"	"0"	"0.015"	"0"	"112.446"	"177.864"	"175.872"	"8.998"	"0.89"	"24.734"	"2.648"
"1979"	"0"	"6.865"	"0"	"0"	"3.339"	"28.01"	"61.354"	"249.696"	"7.74"	"40.66"	"60.9"	"0.047"
"1980"	"0.001"	"1.102"	"0"	"0"	"0"	"247.1"	"112.103"	"96.685"	"5.982"	"0.128"	"1.548"	"5.912"
"1981"	"0.017"	"0.072"	"5.763"	"0"	"3.14"	"20.002"	"176.181"	"258.703"	"76.693"	"16.005"	"78.776"	"0"
"1982"	"0.996"	"0.096"	"0.669"	"0.298"	"30.125"	"38.472"	"178.255"	"81.674"	"0.874"	"4.063"	"128.602"	"0"
"1983"	"1.345"	"0.072"	"0"	"1.169"	"1.675"	"28.139"	"204.396"	"120.015"	"50.036"	"37.767"	"0.054"	"0"
"1984"	"0"	"0"	"0"	"0"	"0"	"18.801"	"112.471"	"400.81"	"23.248"	"0.127"	"0.054"	"0"
"1985"	"0"	"0"	"0.001"	"0.004"	"4.881"	"50.178"	"146.354"	"163.898"	"13.396"	"40.867"	"0.054"	"0"
"1986"	"0"	"0.007"	"0.228"	"0.123"	"6.714"	"177.003"	"43.941"	"111.261"	"0.853"	"0.296"	"0.054"	"0.106"
"1987"	"0.112"	"0.887"	"1.402"	"0"	"5.017"	"12.181"	"18.896"	"98.545"	"1.086"	"0.129"	"0.055"	"9.46"
"1988"	"0.112"	"0"	"0.146"	"0.927"	"0"	"24.594"	"301.139"	"158.763"	"62.732"	"1.505"	"0.054"	"0"
"1989"	"1.891"	"0"	"0.021"	"0"	"0.002"	"69.146"	"157.708"	"212.187"	"4.886"	"0.127"	"0.054"	"0"
"1990"	"0"	"1.901"	"0"	"0"	"16.826"	"11.38"	"122.648"	"321.509"	"119.758"	"16.973"	"0.054"	"11.708"
"1991"	"0.195"	"0.072"	"0"	"0"	"0.041"	"14.096"	"218.704"	"53.941"	"14.946"	"8.767"	"0.057"	"1.037"
"1992"	"0.745"	"2.126"	"0.01"	"0"	"0.022"	"23.967"	"188.852"	"95.732"	"123.62"	"0.685"	"2.955"	"0"
"1993"	"0"	"4.417"	"0"	"0"	"1.801"	"10.428"	"330.395"	"34.031"	"56.524"	"9.544"	"20.127"	"0.066"
"1994"	"6.029"	"0"	"2.092"	"0"	"0.008"	"54.987"	"274.389"	"215.649"	"397.4"	"0.127"	"0.054"	"0"
"1995"	"1.247"	"0.12"	"0.114"	"0.131"	"0.014"	"6.169"	"178.151"	"42.558"	"39.609"	"27.014"	"2.966"	"1.947"
"1996"	"0.435"	"0"	"0.001"	"0.001"	"0.337"	"109.272"	"230.037"	"138.399"	"50.177"	"66.898"	"0.054"	"0"
"1997"	"7.714"	"0"	"2.732"	"0.778"	"10.997"	"117.583"	"104.802"	"206.856"	"103.802"	"20.03"	"3.637"	"0.001"
"1998"	"0"	"0.548"	"7.715"	"0.012"	"0.002"	"86.928"	"281.389"	"129.296"	"255.102"	"113.436"	"0.054"	"0"
"1999"	"0.04"	"1.985"	"0"	"0"	"6.277"	"122.947"	"158.223"	"28.804"	"10.253"	"71.949"	"0.054"	"0"
"2000"	"0"	"0.015"	"0"	"0"	"8.809"	"36.115"	"305.6"	"84.642"	"2.645"	"0.135"	"0.086"	"0"
"2001"	"0"	"0"	"0"	"0.16"	"29.495"	"199.901"	"188.042"	"93.349"	"0.919"	"32.784"	"1.28"	"0"
"2002"	"0"	"0.001"	"0"	"0.001"	"0.007"	"97.542"	"49.854"	"65.549"	"37.461"	"0.127"	"1.466"	"0.681"
