
"Year"	"Jan"	"Feb"	"Mar"	"Apr"	"May"	"Jun"	"Jul"	"Aug"	"Sep"	"Oct"	"Nov"	"Dec"
"1901"	"2.584"	"13.564"	"40.693"	"80.175"	"105.245"	"297.044"	"77.874"	"103.025"	"108.394"	"79.691"	"117.235"	"8.639"
"1902"	"19.014"	"0.202"	"35.203"	"67.136"	"58.416"	"221.552"	"130.88"	"89.097"	"112.027"	"216.021"	"75.452"	"31.327"
"1903"	"13.968"	"2.503"	"0.202"	"61.443"	"119.738"	"65.965"	"139.56"	"136.613"	"133.948"	"195.069"	"106.093"	"30.681"
"1904"	"17.642"	"1.251"	"11.667"	"42.106"	"52.522"	"257.521"	"172.34"	"70.486"	"73.03"	"154.174"	"3.795"	"15.664"
"1905"	"0.323"	"0.484"	"4.32"	"63.825"	"109.726"	"254.171"	"63.018"	"134.069"	"43.317"	"140.569"	"29.955"	"0.242"
"1906"	"5.248"	"8.599"	"9.729"	"35.243"	"34.557"	"120.061"	"131.042"	"134.191"	"33.265"	"154.86"	"67.983"	"46.829"
"1907"	"29.026"	"0.888"	"30.52"	"92.206"	"50.342"	"141.336"	"173.39"	"95.153"	"100.683"	"175.126"	"51.189"	"35.849"
"1908"	"4.32"	"28.461"	"23.051"	"59.829"	"76.865"	"107.99"	"113.44"	"118.648"	"143.072"	"167.617"	"26.2"	"10.335"
"1909"	"16.834"	"15.3"	"21.598"	"27.452"	"158.978"	"111.704"	"118.89"	"143.96"	"69.76"	"70.486"	"57.931"	"15.623"
"1910"	"7.953"	"13.484"	"4.239"	"126.601"	"69.396"	"193.575"	"179.486"	"278.877"	"58.012"	"178.234"	"112.229"	"0.242"
"1911"	"0.646"	"8.881"	"6.257"	"63.825"	"73.595"	"298.578"	"123.896"	"36.131"	"74.806"	"195.634"	"73.756"	"57.77"
"1912"	"1.211"	"13.524"	"10.94"	"75.25"	"131.688"	"411.09"	"89.904"	"131.526"	"74.079"	"351.624"	"62.533"	"19.014"
"1913"	"7.146"	"2.866"	"9.124"	"42.55"	"78.964"	"138.995"	"117.962"	"44.649"	"40.411"	"220.704"	"44.044"	"19.539"
"1914"	"1.05"	"2.341"	"12.111"	"34.678"	"125.713"	"136.653"	"125.107"	"72.505"	"60.353"	"253.242"	"61.766"	"66.167"
"1915"	"5.934"	"5.531"	"43.559"	"107.223"	"64.713"	"309.115"	"157.605"	"89.299"	"191.274"	"57.77"	"105.77"	"26.039"
"1916"	"0.081"	"6.661"	"9.245"	"70.446"	"155.062"	"175.812"	"282.591"	"94.749"	"124.098"	"140.69"	"61.766"	"4.118"
"1917"	"1.09"	"17.077"	"46.547"	"25.231"	"136.613"	"198.944"	"51.916"	"140.569"	"112.592"	"79.691"	"137.299"	"26.483"
"1918"	"29.712"	"6.459"	"29.349"	"48.242"	"192.203"	"78.197"	"59.223"	"74.846"	"24.061"	"169.878"	"107.748"	"52.764"
"1919"	"15.018"	"4.885"	"4.4"	"25.312"	"109.847"	"179.688"	"100.36"	"74.725"	"191.557"	"112.956"	"136.048"	"46.91"
"1920"	"26.806"	"1.211"	"12.03"	"139.156"	"24.182"	"317.471"	"161.562"	"85.504"	"52.078"	"157.565"	"158.372"	"6.863"
"1921"	"17.521"	"2.341"	"4.037"	"107.223"	"29.268"	"320.176"	"116.63"	"183.079"	"90.793"	"220.542"	"105.649"	"16.552"
"1922"	"12.353"	"12.918"	"6.217"	"92.65"	"134.998"	"221.713"	"190.103"	"53.046"	"43.035"	"146.1"	"126.722"	"16.552"
"1923"	"14.453"	"1.857"	"41.137"	"23.778"	"33.548"	"166.608"	"114.651"	"172.784"	"92.327"	"168.182"	"18.893"	"19.458"
"1924"	"13.241"	"0.121"	"29.511"	"80.014"	"79.893"	"293.047"	"345.892"	"90.066"	"132.737"	"153.326"	"90.066"	"17.723"
"1925"	"7.468"	"7.63"	"68.105"	"84.858"	"78.48"	"158.574"	"54.338"	"99.513"	"100.199"	"177.952"	"154.335"	"24.101"
"1926"	"20.347"	"0.646"	"22.042"	"14.937"	"151.388"	"118.365"	"137.097"	"67.741"	"109.686"	"136.895"	"32.821"	"9.083"
"1927"	"6.984"	"19.943"	"36.777"	"114.127"	"94.143"	"239.96"	"84.253"	"52.522"	"164.589"	"106.295"	"74.039"	"5.652"
"1928"	"6.459"	"77.349"	"9.971"	"77.228"	"43.115"	"111.18"	"150.944"	"78.56"	"81.588"	"112.552"	"114.651"	"36.051"
"1929"	"14.574"	"36.616"	"32.579"	"142.628"	"101.127"	"261.72"	"118.285"	"39.442"	"111.947"	"163.661"	"92.246"	"27.936"
"1930"	"6.944"	"33.709"	"40.734"	"73.03"	"218.08"	"214.648"	"33.265"	"68.993"	"133.302"	"191.96"	"75.21"	"20.387"
"1931"	"13.807"	"0.121"	"1.292"	"84.212"	"49.413"	"169.474"	"112.189"	"149.491"	"35.324"	"76.017"	"62.695"	"71.092"
"1932"	"0.081"	"8.397"	"9.003"	"63.745"	"183.604"	"91.277"	"86.11"	"174.884"	"51.997"	"218.161"	"95.677"	"19.741"
"1933"	"0.323"	"8.114"	"30.035"	"73.595"	"276.576"	"266.403"	"155.183"	"170.241"	"142.87"	"132.495"	"63.866"	"14.13"
"1934"	"37.464"	"0.121"	"32.982"	"41.945"	"43.842"	"177.508"	"59.667"	"60.394"	"7.226"	"156.273"	"51.109"	"0.242"
"1935"	"23.576"	"7.226"	"16.269"	"74.967"	"27.371"	"351.301"	"92.488"	"130.234"	"49.171"	"164.226"	"132.858"	"9.931"
"1936"	"0.807"	"31.65"	"37.262"	"30.924"	"164.67"	"138.147"	"148.966"	"43.681"	"162.45"	"72.909"	"110.614"	"10.012"
"1937"	"5.733"	"16.552"	"20.871"	"114.853"	"69.598"	"64.956"	"145.454"	"88.774"	"74.523"	"186.43"	"89.218"	"9.366"
"1938"	"0.363"	"58.133"	"37.464"	"35.243"	"35.041"	"104.155"	"207.866"	"171.493"	"66.167"	"90.187"	"31.973"	"15.058"
"1939"	"14.13"	"11.183"	"20.831"	"130.154"	"132.212"	"134.796"	"93.094"	"127.893"	"54.258"	"140.004"	"154.86"	"3.633"
"1940"	"0.202"	"2.18"	"7.67"	"117.881"	"128.014"	"134.958"	"160.027"	"97.373"	"82.234"	"160.512"	"132.172"	"23.98"
"1941"	"13.04"	"5.934"	"1.171"	"86.675"	"85.383"	"228.576"	"63.906"	"84.333"	"106.698"	"161.642"	"105.649"	"16.148"
"1942"	"0.081"	"0.404"	"3.351"	"89.541"	"118.204"	"221.713"	"113.884"	"104.922"	"42.025"	"163.217"	"38.594"	"64.39"
"1943"	"29.914"	"10.456"	"14.453"	"66.126"	"129.386"	"248.64"	"63.179"	"31.166"	"44.084"	"173.39"	"90.55"	"21.114"
"1944"	"0.969"	"27.088"	"43.317"	"43.923"	"141.175"	"408.062"	"80.942"	"52.118"	"99.351"	"154.456"	"85.262"	"35.647"
"1945"	"3.593"	"2.382"	"9.406"	"96.687"	"34.839"	"126.601"	"102.5"	"59.748"	"21.921"	"179.203"	"108.354"	"10.214"
"1946"	"1.332"	"0.484"	"74.604"	"71.899"	"51.311"	"305.602"	"55.428"	"134.917"	"72.465"	"188.004"	"124.381"	"58.416"
"1947"	"6.701"	"13.726"	"68.75"	"178.315"	"61.807"	"157.565"	"199.51"	"215.94"	"93.538"	"146.221"	"16.431"	"10.375"
"1948"	"15.623"	"10.093"	"26.16"	"34.961"	"106.335"	"222.521"	"150.339"	"126.197"	"42.389"	"143.274"	"108.878"	"17.48"
"1949"	"5.208"	"0.807"	"0.242"	"63.018"	"183.119"	"114.853"	"204.677"	"153.124"	"81.306"	"89.339"	"67.983"	"1.453"
"1950"	"0.242"	"54.136"	"28.824"	"65.965"	"112.714"	"124.744"	"64.229"	"153.124"	"113.642"	"154.456"	"57.406"	"4.077"
"1951"	"2.866"	"0.404"	"18.934"	"147.311"	"62.009"	"222.722"	"134.392"	"81.225"	"166.204"	"149.773"	"110.937"	"2.745"
"1952"	"6.782"	"50.543"	"19.66"	"82.678"	"199.59"	"138.631"	"41.299"	"98.544"	"11.667"	"131.365"	"61.282"	"19.822"
"1953"	"11.788"	"9.608"	"8.639"	"105.931"	"13.766"	"236.61"	"276.213"	"51.149"	"85.746"	"223.651"	"71.415"	"0.929"
"1954"	"20.266"	"2.382"	"66.772"	"141.376"	"103.146"	"125.067"	"105.366"	"194.907"	"47.274"	"143.274"	"10.9"	"24.182"
"1955"	"4.804"	"6.177"	"5.329"	"129.709"	"196.522"	"233.582"	"100.683"	"33.588"	"124.744"	"129.386"	"105.487"	"31.045"
"1956"	"9.326"	"36.374"	"2.705"	"34.476"	"109.242"	"387.796"	"48"	"182.029"	"84.414"	"162.369"	"105.245"	"5.329"
"1957"	"0.525"	"3.068"	"12.111"	"62.13"	"203.304"	"475.561"	"220.179"	"64.431"	"40.895"	"146.1"	"88.451"	"11.102"
"1958"	"1.574"	"37.948"	"34.638"	"86.594"	"179.446"	"213.841"	"68.952"	"157.484"	"23.415"	"90.873"	"52.522"	"5.854"
"1959"	"0.646"	"18.167"	"2.947"	"111.664"	"168.949"	"271.247"	"178.113"	"94.305"	"99.997"	"111.543"	"54.984"	"16.552"
"1960"	"0.848"	"16.592"	"11.465"	"81.911"	"181.706"	"40.855"	"265.434"	"43.398"	"71.738"	"92.448"	"164.266"	"7.024"
"1961"	"25.918"	"38.069"	"11.465"	"62.735"	"143.072"	"367.207"	"156.556"	"88.047"	"82.799"	"113.682"	"34.839"	"12.353"
"1962"	"12.757"	"21.517"	"17.036"	"52.037"	"252.637"	"33.305"	"122.847"	"148.118"	"116.831"	"180.616"	"22.85"	"14.897"
"1963"	"15.664"	"7.388"	"69.517"	"62.735"	"32.861"	"236.287"	"217.434"	"132.374"	"86.756"	"103.348"	"112.794"	"23.899"
"1964"	"1.05"	"3.31"	"45.659"	"26.442"	"31.65"	"32.498"	"373.99"	"86.231"	"96.525"	"98.382"	"61.524"	"20.871"
"1965"	"0.686"	"13.928"	"25.03"	"76.623"	"111.825"	"61.807"	"70.285"	"98.342"	"103.671"	"103.065"	"70.002"	"70.446"
"1966"	"3.391"	"11.707"	"13.322"	"63.099"	"13.161"	"237.458"	"88.209"	"129.064"	"145.898"	"126.843"	"131.526"	"26.2"
"1967"	"26.967"	"1.009"	"66.409"	"24.141"	"136.613"	"258.208"	"108.717"	"86.11"	"75.21"	"201.165"	"36.858"	"20.952"
"1968"	"0.081"	"17.4"	"31.771"	"129.629"	"12.394"	"89.259"	"177.064"	"46.587"	"55.186"	"106.577"	"64.956"	"13.685"
"1969"	"9.81"	"10.093"	"13.766"	"99.432"	"76.703"	"95.112"	"127.408"	"76.219"	"61.282"	"135.886"	"40.451"	"13.968"
"1970"	"20.468"	"10.012"	"28.542"	"127.974"	"88.451"	"131.122"	"92.771"	"106.335"	"93.618"	"171.129"	"67.822"	"4.077"
"1971"	"12.959"	"24.424"	"33.871"	"46.506"	"95.274"	"155.385"	"116.307"	"182.029"	"114.692"	"81.104"	"18.732"	"42.348"
"1972"	"5.49"	"0.363"	"0.807"	"39.805"	"244.724"	"308.105"	"78.803"	"62.412"	"128.7"	"221.39"	"58.739"	"63.502"
"1973"	"0.081"	"1.494"	"1.292"	"75.129"	"53.531"	"122.079"	"180.374"	"75.169"	"43.882"	"151.186"	"58.012"	"16.35"
"1974"	"0.081"	"42.268"	"14.654"	"104.761"	"164.953"	"45.053"	"146.665"	"105.568"	"167.133"	"56.922"	"61.201"	"6.015"
"1975"	"0.444"	"15.462"	"39.199"	"100.845"	"76.703"	"118.365"	"320.216"	"133.746"	"136.007"	"148.482"	"110.13"	"9.648"
"1976"	"0.283"	"0.121"	"24.505"	"57.164"	"26.16"	"269.754"	"76.663"	"108.878"	"78.601"	"117.195"	"135.967"	"22.688"
"1977"	"0.081"	"13.04"	"36.252"	"66.772"	"218.685"	"150.702"	"86.231"	"157.565"	"92.327"	"201.165"	"167.375"	"10.658"
"1978"	"0.888"	"17.601"	"10.738"	"54.944"	"156.677"	"97.454"	"115.701"	"66.449"	"78.48"	"82.234"	"113.4"	"21.679"
"1979"	"1.615"	"18.288"	"6.5"	"17.44"	"36.858"	"200.115"	"117.962"	"73.272"	"126.439"	"109.282"	"156.435"	"12.313"
"1980"	"0.283"	"6.056"	"10.658"	"63.099"	"59.708"	"162.773"	"135.603"	"106.86"	"39.119"	"145.252"	"88.653"	"42.308"
"1981"	"6.015"	"5.773"	"15.865"	"55.792"	"94.951"	"182.837"	"255.543"	"95.153"	"161.037"	"154.86"	"61.201"	"13.12"
"1982"	"0.081"	"0.121"	"12.03"	"55.146"	"108.919"	"248.156"	"95.96"	"86.231"	"34.395"	"82.678"	"110.453"	"8.801"
"1983"	"0.081"	"0.121"	"0.202"	"40.653"	"108.636"	"151.186"	"153.528"	"166.931"	"127.852"	"75.008"	"78.722"	"61.968"
"1984"	"30.399"	"73.272"	"62.735"	"96.323"	"33.669"	"116.71"	"210.732"	"48.929"	"89.783"	"71.334"	"43.559"	"17.682"
"1985"	"26.483"	"22.204"	"11.425"	"41.743"	"98.544"	"111.341"	"150.944"	"114.813"	"81.588"	"92.165"	"86.796"	"11.263"
"1986"	"8.276"	"23.576"	"3.23"	"83.647"	"73.877"	"91.075"	"188.287"	"115.903"	"65.803"	"69.073"	"84.697"	"13.605"
"1987"	"0.565"	"0.121"	"9.245"	"65.158"	"122.806"	"123.896"	"33.548"	"186.389"	"63.179"	"220.986"	"73.756"	"86.877"
"1988"	"0.081"	"5.208"	"18.086"	"107.708"	"37.464"	"454.609"	"197.854"	"165.316"	"238.669"	"14.17"	"64.552"	"12.474"
"1989"	"13.363"	"0.121"	"10.335"	"66.853"	"65.198"	"214.85"	"201.811"	"60.394"	"93.417"	"154.295"	"36.172"	"6.903"
"1990"	"5.813"	"7.63"	"9.81"	"9.729"	"154.255"	"195.755"	"143.637"	"39.442"	"39.966"	"164.912"	"109.363"	"13.04"
"1991"	"2.019"	"9.971"	"17.48"	"45.497"	"61.726"	"401.361"	"167.334"	"88.451"	"26.806"	"186.712"	"47.354"	"4.36"
"1992"	"3.23"	"0.121"	"0.202"	"16.996"	"120.101"	"297.569"	"147.755"	"105.487"	"69.921"	"166.769"	"117.074"	"9.083"
"1993"	"0.606"	"2.907"	"11.223"	"28.703"	"59.506"	"273.791"	"163.055"	"54.984"	"28.663"	"189.255"	"182.231"	"54.661"
"1994"	"5.127"	"34.032"	"14.937"	"67.257"	"106.537"	"114.369"	"157.605"	"96.646"	"39.199"	"195.351"	"54.984"	"9.245"
"1995"	"10.9"	"7.832"	"7.913"	"97.615"	"184.33"	"131.768"	"97.938"	"65.602"	"58.012"	"121.191"	"72.02"	"1.009"
"1996"	"6.58"	"10.658"	"0.202"	"165.599"	"25.554"	"279.967"	"151.671"	"108.434"	"84.697"	"186.43"	"41.541"	"20.952"
"1997"	"2.503"	"0.121"	"18.934"	"46.87"	"63.906"	"153.568"	"163.822"	"86.554"	"172.663"	"161.804"	"147.553"	"27.492"
"1998"	"2.584"	"0.202"	"0.202"	"67.257"	"141.78"	"118.567"	"152.276"	"163.217"	"149.45"	"188.852"	"109.444"	"51.109"
"1999"	"4.925"	"43.277"	"18.086"	"80.983"	"158.049"	"156.233"	"97.615"	"49.332"	"33.104"	"208.108"	"59.021"	"5.087"
"2000"	"2.664"	"45.174"	"12.999"	"89.46"	"9.971"	"119.052"	"54.661"	"273.791"	"146.746"	"113.521"	"45.578"	"23.94"
"2001"	"5.571"	"11.142"	"1.938"	"177.589"	"82.274"	"307.419"	"205.444"	"125.269"	"183.684"	"130.234"	"58.496"	"10.416"
"2002"	"0.242"	"7.509"	"15.22"	"33.467"	"136.492"	"124.744"	"29.591"	"55.509"	"32.982"	"246.581"	"97.938"	"5.692"
