
"Year"	"Jan"	"Feb"	"Mar"	"Apr"	"May"	"Jun"	"Jul"	"Aug"	"Sep"	"Oct"	"Nov"	"Dec"
"1901"	"61.818"	"23.444"	"4.177"	"8.506"	"8.874"	"102.642"	"171.353"	"266.566"	"208.246"	"23.641"	"5.664"	"0"
"1902"	"4.64"	"3.255"	"6.051"	"7.667"	"5.228"	"72.371"	"315.841"	"161.968"	"358.714"	"13.185"	"0.658"	"0.472"
"1903"	"6.501"	"5.236"	"4.98"	"5.286"	"27.475"	"172.638"	"119.49"	"191.451"	"159.812"	"104.299"	"0"	"0"
"1904"	"1.375"	"3.98"	"27.545"	"1.001"	"110.883"	"91.874"	"274.701"	"432.924"	"96.525"	"59.719"	"6.451"	"0.564"
"1905"	"7.684"	"31.386"	"28.986"	"7.041"	"13.014"	"19.123"	"417.356"	"296.361"	"385.303"	"13.905"	"0"	"0.614"
"1906"	"7.808"	"79.049"	"22.426"	"1.265"	"10.272"	"129.488"	"438.923"	"219.805"	"215.467"	"88.766"	"0.517"	"0.614"
"1907"	"0.119"	"61.994"	"23.608"	"35.831"	"11.922"	"264.067"	"177.9"	"276.132"	"149.058"	"14.956"	"0"	"0.995"
"1908"	"11.646"	"59.592"	"6.534"	"1.192"	"5.666"	"78.434"	"279.651"	"287.45"	"96.591"	"104.367"	"0"	"0.405"
"1909"	"2.741"	"6.23"	"0"	"36.607"	"5.075"	"213.786"	"368.626"	"360.656"	"163.811"	"7.877"	"0.127"	"2.88"
"1910"	"5.497"	"9.564"	"17.748"	"9.646"	"10.171"	"166.384"	"284.324"	"329.261"	"205.346"	"47.739"	"16.953"	"0"
"1911"	"9.314"	"0.2"	"22.284"	"2.078"	"12.611"	"368.327"	"165.399"	"268.4"	"258.489"	"101.705"	"34.292"	"0"
"1912"	"3.137"	"9.546"	"3.985"	"14.825"	"23.463"	"92.333"	"312.82"	"301.48"	"52.699"	"17.81"	"14.019"	"0"
"1913"	"0.119"	"66.551"	"32.788"	"0.741"	"35.266"	"352.409"	"223.036"	"330.691"	"151.745"	"81.56"	"2.459"	"9.495"
"1914"	"0.628"	"30.111"	"17.974"	"28.813"	"37.997"	"55.252"	"235.128"	"379.832"	"107.12"	"12.413"	"0"	"2.119"
"1915"	"3.343"	"64.606"	"11.942"	"3.545"	"16.412"	"116.837"	"264.106"	"245.795"	"246.999"	"50.129"	"22.457"	"0.04"
"1916"	"0.119"	"25.336"	"1.413"	"4.17"	"4.641"	"193.033"	"338.998"	"302.26"	"158.426"	"170.907"	"1.254"	"0"
"1917"	"2.079"	"33.615"	"5.713"	"5.074"	"48.68"	"147.704"	"272.102"	"415.423"	"143.611"	"216.749"	"0.231"	"0.335"
"1918"	"0.261"	"0.34"	"6.168"	"3.559"	"14.897"	"226.58"	"180.01"	"406.414"	"193.324"	"8.209"	"0"	"0.335"
"1919"	"41.793"	"8.67"	"13.182"	"11.808"	"40.924"	"147.013"	"301.982"	"436.109"	"181.28"	"129.962"	"1.593"	"0"
"1920"	"0.119"	"39.781"	"30.111"	"2.035"	"16.862"	"66.491"	"501.595"	"332.204"	"153.42"	"12.83"	"0"	"0"
"1921"	"34.089"	"9.904"	"1.468"	"2.85"	"4.7"	"207.576"	"287.164"	"438.504"	"103.232"	"10.281"	"0"	"0"
"1922"	"14.694"	"10.226"	"0.603"	"6.616"	"2.634"	"329.7"	"408.666"	"325.689"	"328.069"	"76.905"	"5.423"	"6.241"
"1923"	"0.173"	"73.396"	"0.98"	"1.692"	"3.515"	"104.307"	"306.547"	"491.502"	"206.589"	"25.22"	"4.07"	"0.206"
"1924"	"7.975"	"16.658"	"1.616"	"17.471"	"10.282"	"114.652"	"364.363"	"223.905"	"234.097"	"93.801"	"39.761"	"0.04"
"1925"	"9.881"	"4.565"	"5.349"	"5.972"	"17.272"	"104.848"	"305.628"	"448.666"	"151.598"	"19.878"	"10.05"	"0"
"1926"	"17.237"	"0.751"	"46.124"	"5.892"	"54.801"	"37.591"	"434.988"	"310.307"	"203.758"	"52.538"	"3.034"	"4.834"
"1927"	"19.406"	"52.572"	"36.256"	"1.329"	"14.586"	"63.561"	"293.772"	"366.013"	"132.318"	"49.309"	"28.96"	"0"
"1928"	"23.491"	"17.525"	"1.652"	"13.69"	"25.621"	"159.502"	"429.921"	"182.412"	"151.583"	"156.062"	"0"	"1.522"
"1929"	"23.012"	"4.604"	"3.916"	"4.292"	"14.684"	"142.234"	"354.348"	"282.988"	"68.407"	"254.855"	"0"	"8.844"
"1930"	"12.413"	"6.907"	"3.398"	"7.45"	"6.888"	"73.937"	"267.43"	"211.922"	"214.946"	"29.622"	"22.463"	"7.447"
"1931"	"2.498"	"60.089"	"16.148"	"0.959"	"7.759"	"64.122"	"502.095"	"349.763"	"244.593"	"68.494"	"11.324"	"1.249"
"1932"	"0.119"	"21.569"	"1.503"	"3.313"	"27.451"	"115.382"	"318.618"	"326.664"	"166.417"	"36.025"	"31.138"	"4.255"
"1933"	"27.887"	"29.811"	"2.598"	"25.281"	"26.993"	"145.668"	"371.603"	"381.127"	"151.155"	"85.092"	"0"	"0"
"1934"	"25.529"	"21.574"	"1.211"	"9.429"	"6.326"	"150.568"	"314.621"	"406.787"	"223.462"	"51.355"	"15.29"	"0.474"
"1935"	"3.612"	"19.511"	"2.402"	"13.346"	"5.226"	"133.044"	"265.973"	"509.744"	"201.612"	"13.092"	"0"	"0.319"
"1936"	"4.129"	"10.928"	"14.832"	"4.406"	"50.151"	"217.136"	"410.219"	"290.308"	"304.722"	"156.522"	"0.947"	"10.797"
"1937"	"0.119"	"58.393"	"3.656"	"23.12"	"15.102"	"77.178"	"262.483"	"321.201"	"214.739"	"134.296"	"0.055"	"0.054"
"1938"	"11.746"	"22.865"	"2.429"	"3.901"	"37.046"	"293.61"	"263.967"	"295.431"	"175.938"	"50.871"	"0.051"	"0"
"1939"	"5.629"	"34.761"	"10.544"	"5.682"	"6.05"	"177.71"	"402.26"	"260.74"	"242.744"	"53.42"	"0.228"	"0"
"1940"	"0.142"	"57.461"	"51.606"	"7.048"	"13.43"	"76.367"	"387.706"	"378.819"	"142.284"	"15.242"	"0"	"3.353"
"1941"	"15.566"	"8.929"	"10.302"	"2.409"	"19.099"	"175.007"	"256.932"	"365.609"	"204.037"	"61.627"	"3.537"	"0"
"1942"	"34.645"	"58.012"	"17.022"	"8.19"	"3.506"	"133.914"	"289.857"	"423.504"	"345.771"	"10.094"	"0.203"	"0.597"
"1943"	"19.678"	"17.817"	"4.406"	"30.272"	"25.607"	"91.043"	"363.465"	"534.685"	"219.205"	"47.048"	"0"	"0"
"1944"	"25.664"	"45.333"	"50.458"	"7.611"	"9.25"	"159.803"	"281.564"	"451.077"	"137.676"	"96.481"	"0"	"0.04"
"1945"	"54.183"	"31.166"	"1.263"	"2.623"	"24.396"	"152.943"	"241.539"	"144.076"	"273.929"	"138.418"	"0"	"1.826"
"1946"	"0.119"	"25.987"	"17.277"	"15.376"	"25.999"	"157.185"	"406.912"	"394.492"	"300.46"	"95.279"	"22.725"	"0.523"
"1947"	"28.006"	"11.883"	"17.517"	"1.218"	"9.89"	"85.848"	"384.37"	"221.463"	"325.704"	"75.843"	"0.152"	"1.326"
"1948"	"10.501"	"15.183"	"7.113"	"7.161"	"23.718"	"138.287"	"373.374"	"278.502"	"303.78"	"70.88"	"22.365"	"0.419"
"1949"	"3.798"	"57.404"	"10.698"	"5.554"	"44.287"	"195.609"	"346.844"	"450.162"	"147.651"	"128.248"	"0"	"0"
"1950"	"4.153"	"16.267"	"42.666"	"1.483"	"3.056"	"202.158"	"278.947"	"395.068"	"128.726"	"26.787"	"0.978"	"2.826"
"1951"	"4.783"	"2.399"	"37.039"	"21.227"	"5.014"	"105.298"	"373.052"	"280.935"	"230.351"	"78.227"	"13.566"	"0"
"1952"	"0.278"	"16.973"	"23.882"	"6.576"	"8.082"	"280.435"	"180.01"	"241.974"	"225.486"	"59.793"	"2.511"	"0.87"
"1953"	"57.329"	"3.809"	"1.575"	"5.015"	"4.182"	"143.443"	"388.611"	"336.077"	"245.787"	"7.974"	"0.051"	"0.081"
"1954"	"11.462"	"17.366"	"2.805"	"1.931"	"12.336"	"125.647"	"239.015"	"266.367"	"237.22"	"32.496"	"0"	"0.793"
"1955"	"10.035"	"17.404"	"1.666"	"3.589"	"3.013"	"115.508"	"455.071"	"145.551"	"102.924"	"103.201"	"2.464"	"1.032"
"1956"	"18.073"	"14.554"	"6.348"	"7.222"	"57.341"	"248.107"	"200.889"	"355.115"	"381.274"	"75.147"	"28.609"	"5.463"
"1957"	"14.262"	"4.013"	"12.973"	"0.763"	"3.437"	"114.164"	"383.79"	"214.378"	"141.469"	"5.012"	"0"	"1.358"
"1958"	"27.529"	"11.953"	"19.093"	"13.961"	"2.686"	"146.833"	"335.223"	"258.619"	"231.644"	"158.398"	"0.153"	"0.04"
"1959"	"75.615"	"1.276"	"0.262"	"0.157"	"15.53"	"104.482"	"242.679"	"278.981"	"269.699"	"178.315"	"0"	"0.004"
"1960"	"1.321"	"0.2"	"23.665"	"5.705"	"1.375"	"87.591"	"292.11"	"374.335"	"176.153"	"46.258"	"0.127"	"0"
"1961"	"17.661"	"55.111"	"0.206"	"0"	"5.803"	"190.008"	"232.88"	"323.081"	"227.274"	"87.272"	"3.209"	"4.304"
"1962"	"19.577"	"13.662"	"4.727"	"5.526"	"3.267"	"118.354"	"242.807"	"265.775"	"289.263"	"23.816"	"0"	"2.844"
"1963"	"6.46"	"3.319"	"35.967"	"4.295"	"56.694"	"142.432"	"330.579"	"329.476"	"185.481"	"104.746"	"15.187"	"0.04"
"1964"	"0.189"	"5.071"	"4.818"	"13.623"	"13.901"	"144.898"	"350.918"	"409.209"	"196.406"	"52.785"	"13.654"	"0"
"1965"	"1.989"	"2.101"	"7.9"	"26.661"	"7.847"	"51.708"	"315.863"	"161.529"	"151.471"	"37.094"	"3.572"	"1.364"
"1966"	"36.231"	"19.382"	"0"	"0.281"	"1.429"	"110.882"	"126.038"	"185.472"	"70.867"	"4.637"	"27.657"	"8.885"
"1967"	"11.545"	"0.25"	"31.96"	"8.544"	"8.81"	"68.673"	"296.532"	"436.438"	"153.338"	"15.651"	"0"	"2.667"
"1968"	"31.198"	"4.985"	"1.494"	"2.828"	"1.575"	"164.597"	"275.458"	"304.779"	"74.22"	"76.132"	"1.102"	"3.666"
"1969"	"4.773"	"19.79"	"2.77"	"9.871"	"38.173"	"162.973"	"352.299"	"310.894"	"199.641"	"12.982"	"19.137"	"0"
"1970"	"10.784"	"21.802"	"9.124"	"0.858"	"18.061"	"213.678"	"353.21"	"242.178"	"294.866"	"57.719"	"0.706"	"0"
"1971"	"23.275"	"14.838"	"4.501"	"25.914"	"55.889"	"375.568"	"372.298"	"415.935"	"116.343"	"114.618"	"0.413"	"0"
"1972"	"8.169"	"76.339"	"2.346"	"22.978"	"4.915"	"29.763"	"181.705"	"293.8"	"163.254"	"171.691"	"19.115"	"0.54"
"1973"	"54.799"	"5.224"	"3.416"	"1.047"	"8.738"	"179.579"	"258.697"	"323.327"	"228.732"	"219.014"	"7.699"	"0.155"
"1974"	"7.422"	"4.304"	"3.869"	"3.239"	"16.249"	"116.774"	"493.386"	"222.339"	"142.453"	"96.871"	"3.686"	"1.193"
"1975"	"62.599"	"10.818"	"17.511"	"1.949"	"17.779"	"68.205"	"374.362"	"131.749"	"231.905"	"60.418"	"1.72"	"0"
"1976"	"8.828"	"28.427"	"0.535"	"22.363"	"11.268"	"98.121"	"277.386"	"234.549"	"401.65"	"1.135"	"0.04"	"0"
"1977"	"3.068"	"8.578"	"0.823"	"34.471"	"94.51"	"109.294"	"400.485"	"258.81"	"209.703"	"71.478"	"25.16"	"9.714"
"1978"	"13.143"	"68.817"	"31.667"	"34.108"	"9.702"	"212.256"	"252.348"	"275.163"	"350.671"	"81.096"	"4.086"	"10.07"
"1979"	"19.958"	"19.002"	"0.689"	"13.276"	"4.196"	"86.98"	"414.2"	"204.848"	"114.476"	"39.961"	"36.392"	"8.508"
"1980"	"15.033"	"6.74"	"17.24"	"0.439"	"20.743"	"217.585"	"329.932"	"266.59"	"92.36"	"20.421"	"2.116"	"0.889"
"1981"	"17.416"	"8.853"	"24.607"	"8.471"	"27.807"	"55.358"	"365.294"	"187.98"	"175.829"	"0.645"	"7.955"	"2.401"
"1982"	"26.212"	"18.986"	"37.705"	"13.572"	"30.465"	"98.919"	"193.313"	"241.444"	"315.231"	"24.688"	"18.08"	"1.569"
"1983"	"18.343"	"6.927"	"5.488"	"15.87"	"47.367"	"128.606"	"383.311"	"176.531"	"127.362"	"94.622"	"0"	"4.112"
"1984"	"33.822"	"31.962"	"2.904"	"15.695"	"8.434"	"246.455"	"302.303"	"210.55"	"382.93"	"39.444"	"0.115"	"0"
"1985"	"12.417"	"5.905"	"0.744"	"3.062"	"12.586"	"89.051"	"375.293"	"240.328"	"175.621"	"93.612"	"0.381"	"7.884"
"1986"	"9.281"	"25.139"	"2.427"	"12.366"	"22.852"	"133.323"	"324.182"	"294.421"	"171.959"	"15.234"	"6.074"	"7.095"
"1987"	"2.78"	"15.036"	"8.375"	"4.788"	"19.061"	"143.521"	"272.85"	"496.829"	"488.786"	"118.298"	"10.409"	"1.78"
"1988"	"9.041"	"27.114"	"26.211"	"7.288"	"27.476"	"160.013"	"212.194"	"275.904"	"144.293"	"36.4"	"1.9"	"4.119"
"1989"	"8.587"	"14.477"	"5.599"	"1.296"	"46.47"	"178.932"	"256.313"	"261.916"	"188.701"	"56.511"	"8.501"	"10.766"
"1990"	"0.119"	"32.161"	"10.409"	"4.92"	"49.487"	"175.932"	"357.451"	"239.634"	"206.716"	"67.63"	"0.06"	"0.04"
"1991"	"18.792"	"5.267"	"27.675"	"9.113"	"16.765"	"113.436"	"163.679"	"489.446"	"164.74"	"24.887"	"1.105"	"8.875"
"1992"	"20.727"	"5.904"	"1.126"	"4.345"	"8.737"	"33.17"	"191.148"	"154.266"	"103.491"	"66.13"	"0.875"	"0"
"1993"	"10.156"	"0.2"	"10.422"	"4.268"	"24.864"	"37.736"	"106.023"	"183.069"	"261.795"	"76.072"	"1.543"	"0"
"1994"	"61.58"	"21.682"	"20.771"	"13.676"	"9.194"	"146.994"	"233.487"	"303.126"	"43.515"	"124.303"	"0.151"	"0"
"1995"	"14.308"	"21.64"	"16.077"	"1.622"	"17.497"	"28.282"	"196.284"	"232.857"	"200.397"	"10.075"	"14.428"	"0.318"
"1996"	"27.947"	"14.463"	"1.542"	"3.874"	"8.581"	"120.293"	"197.767"	"316.225"	"137.363"	"150.861"	"0"	"0"
"1997"	"19.628"	"10.386"	"3.382"	"4.849"	"58.573"	"51.544"	"187.016"	"335.063"	"116.168"	"37.98"	"26.824"	"8.571"
"1998"	"6.306"	"19.604"	"6.168"	"9.471"	"59.759"	"28.342"	"179.812"	"255.887"	"162.033"	"172.418"	"21.864"	"0"
"1999"	"24.358"	"11.34"	"0.876"	"0.005"	"28.552"	"98.356"	"267.166"	"250.604"	"134.907"	"29.494"	"0.632"	"0.129"
"2000"	"11.627"	"19.336"	"5.407"	"10.783"	"8.75"	"130.913"	"110.454"	"128.32"	"240.098"	"0.955"	"0"	"0.147"
"2001"	"2.752"	"1.617"	"24.742"	"10.103"	"11.725"	"29.482"	"219.153"	"271.779"	"48.993"	"91.677"	"0.056"	"0.16"
"2002"	"24.147"	"11.533"	"5.137"	"6.981"	"10.265"	"39.194"	"166.364"	"275.687"	"171.331"	"116.738"	"15.127"	"0.16"
