
"Year"	"Jan"	"Feb"	"Mar"	"Apr"	"May"	"Jun"	"Jul"	"Aug"	"Sep"	"Oct"	"Nov"	"Dec"
"1901"	"11.087"	"12.644"	"15.605"	"18.752"	"19.687"	"21.024"	"20.973"	"21.068"	"20.878"	"19.582"	"15.137"	"12.226"
"1902"	"11.336"	"12.44"	"16.354"	"16.86"	"20.09"	"20.229"	"21.072"	"20.967"	"20.678"	"18.037"	"14.343"	"11.581"
"1903"	"10.236"	"11.935"	"15.508"	"18.503"	"19.749"	"20.726"	"21.573"	"20.267"	"20.977"	"19.78"	"15.332"	"12.284"
"1904"	"10.535"	"12.598"	"15.808"	"17.252"	"19.396"	"21.119"	"21.024"	"20.967"	"20.977"	"19.083"	"14.49"	"11.28"
"1905"	"10.19"	"9.683"	"14.361"	"16.36"	"20.042"	"21.47"	"21.372"	"20.221"	"21.424"	"19.083"	"15.137"	"11.989"
"1906"	"11.093"	"11.988"	"14.708"	"17.355"	"20.149"	"21.076"	"21.719"	"19.872"	"21.777"	"18.936"	"15.337"	"12.133"
"1907"	"11.785"	"11.839"	"14.51"	"16.657"	"18.994"	"19.877"	"20.326"	"21.167"	"20.278"	"19.33"	"15.536"	"12.129"
"1908"	"11.038"	"12.434"	"16.305"	"19.101"	"19.193"	"20.724"	"20.573"	"20.967"	"20.731"	"18.984"	"14.836"	"11.83"
"1909"	"10.737"	"12.388"	"16.898"	"17.209"	"18.495"	"19.824"	"21.326"	"20.267"	"21.772"	"20.182"	"16.532"	"12.48"
"1910"	"10.941"	"12.135"	"15.252"	"17.357"	"19.644"	"19.628"	"19.973"	"20.568"	"21.177"	"18.834"	"15.537"	"11.726"
"1911"	"11.587"	"11.689"	"14.956"	"17.405"	"18.793"	"20.224"	"20.373"	"20.473"	"20.777"	"18.985"	"15.089"	"11.336"
"1912"	"11.037"	"12.538"	"15.31"	"16.46"	"19.391"	"20.328"	"20.426"	"20.416"	"20.578"	"18.584"	"15.432"	"12.08"
"1913"	"11.338"	"13.092"	"14.855"	"16.904"	"17.952"	"20.025"	"20.922"	"20.568"	"20.632"	"18.834"	"14.485"	"11.227"
"1914"	"10.785"	"12.089"	"15.657"	"16.655"	"18.945"	"20.623"	"21.173"	"19.722"	"20.632"	"17.684"	"15.137"	"12.48"
"1915"	"12.186"	"12.739"	"15.807"	"18.001"	"18.741"	"19.629"	"19.876"	"20.221"	"20.477"	"21.177"	"16.926"	"12.98"
"1916"	"11.032"	"12.644"	"16.253"	"17.156"	"19.151"	"20.623"	"20.235"	"20.768"	"21.072"	"18.932"	"16.131"	"11.631"
"1917"	"10.536"	"11.737"	"14.901"	"16.405"	"19.243"	"19.929"	"20.673"	"20.714"	"20.668"	"19.083"	"16.382"	"11.718"
"1918"	"10.79"	"12.089"	"15.554"	"17.399"	"20.181"	"18.929"	"20.682"	"20.368"	"20.878"	"18.884"	"14.927"	"12.28"
"1919"	"11.941"	"12.289"	"17.1"	"17.603"	"19.649"	"20.377"	"20.621"	"21.508"	"19.877"	"18.683"	"15.927"	"12.47"
"1920"	"12.231"	"11.84"	"14.858"	"16.908"	"18.797"	"20.029"	"21.567"	"20.42"	"20.878"	"19.032"	"15.57"	"13.019"
"1921"	"12.333"	"12.932"	"15.905"	"17.456"	"19.198"	"19.381"	"21.072"	"20.967"	"20.678"	"17.779"	"15.327"	"11.975"
"1922"	"12.041"	"13.132"	"16.302"	"18.098"	"19.944"	"19.877"	"21.272"	"20.967"	"20.973"	"19.032"	"16.17"	"12.48"
"1923"	"12.137"	"12.093"	"16.598"	"18.198"	"18.451"	"20.387"	"20.872"	"21.557"	"20.931"	"18.478"	"15.978"	"12.775"
"1924"	"11.389"	"12.289"	"17.493"	"18.304"	"18.5"	"20.623"	"21.126"	"20.967"	"20.477"	"20.173"	"16.287"	"12.17"
"1925"	"9.992"	"11.145"	"15.609"	"17.708"	"18.718"	"20.623"	"20.668"	"20.572"	"20.182"	"17.974"	"14.827"	"11.885"
"1926"	"11.292"	"12.187"	"14.809"	"16.952"	"19.344"	"19.923"	"20.872"	"21.262"	"20.773"	"19.378"	"14.983"	"13.132"
"1927"	"10.736"	"11.545"	"13.958"	"16.655"	"18.846"	"19.978"	"20.973"	"20.967"	"20.031"	"18.874"	"15.127"	"12.485"
"1928"	"11.851"	"13.683"	"16.3"	"18.755"	"18.996"	"20.074"	"21.217"	"20.967"	"20.778"	"18.341"	"14.137"	"12.785"
"1929"	"11.497"	"11.639"	"16.007"	"17.508"	"18.603"	"19.577"	"21.072"	"20.861"	"20.825"	"19.093"	"14.783"	"11.789"
"1930"	"9.792"	"12.599"	"15.358"	"17.357"	"19.74"	"19.377"	"21.419"	"20.768"	"21.232"	"18.289"	"15.598"	"12.036"
"1931"	"11.09"	"11.842"	"15.856"	"18.314"	"18.752"	"19.828"	"20.372"	"21.213"	"20.434"	"20.079"	"15.329"	"12.685"
"1932"	"11.441"	"11.642"	"16.453"	"18.502"	"19.208"	"20.08"	"20.872"	"20.673"	"20.883"	"19.588"	"15.937"	"12.485"
"1933"	"10.844"	"12.549"	"16.804"	"17.657"	"18.645"	"20.628"	"20.973"	"20.667"	"21.222"	"19.532"	"14.431"	"11.924"
"1934"	"11.493"	"12.288"	"16.405"	"18.212"	"18.761"	"19.189"	"20.872"	"20.714"	"20.928"	"19.093"	"14.578"	"11.929"
"1935"	"10.385"	"12.349"	"16.405"	"17.703"	"20.002"	"19.643"	"21.072"	"20.168"	"20.687"	"19.582"	"15.978"	"11.436"
"1936"	"9.893"	"11.593"	"16.505"	"18.01"	"19.795"	"20.829"	"21.072"	"20.967"	"20.973"	"18.732"	"15.983"	"12.68"
"1937"	"9.593"	"12.697"	"15.854"	"18.857"	"19.789"	"21.02"	"21.324"	"20.714"	"20.933"	"19.334"	"14.688"	"12.787"
"1938"	"11.494"	"12.139"	"16.762"	"18.908"	"19.682"	"20.434"	"20.572"	"20.777"	"20.83"	"19.629"	"14.241"	"12.494"
"1939"	"11.227"	"12.793"	"16.2"	"18.311"	"19.493"	"20.229"	"20.776"	"21.367"	"20.783"	"18.889"	"15.741"	"12.588"
"1940"	"10.427"	"12.345"	"14.002"	"18.808"	"19.188"	"20.628"	"20.863"	"21.367"	"20.425"	"19.382"	"15.285"	"13.08"
"1941"	"10.742"	"12.492"	"17.11"	"18.661"	"19.244"	"20.613"	"21.367"	"21.173"	"20.578"	"19.034"	"14.587"	"13.185"
"1942"	"11.336"	"13.287"	"16.41"	"18.404"	"19.048"	"20.273"	"21.512"	"20.967"	"20.467"	"19.779"	"15.732"	"11.832"
"1943"	"11.388"	"11.478"	"14.999"	"16.81"	"19.11"	"20.375"	"21.063"	"20.267"	"20.622"	"18.788"	"16.128"	"12.73"
"1944"	"10.54"	"11.74"	"16.007"	"17.349"	"19.444"	"20.274"	"21.263"	"21.062"	"19.934"	"19.083"	"14.988"	"13.03"
"1945"	"11.236"	"11.293"	"16.209"	"18.701"	"19.048"	"21.129"	"20.924"	"20.572"	"21.329"	"18.432"	"15.293"	"11.94"
"1946"	"11.735"	"14.383"	"16.356"	"18.089"	"19.543"	"20.433"	"20.682"	"21.467"	"20.977"	"18.883"	"16.236"	"13.035"
"1947"	"11.287"	"13.04"	"16.804"	"17.805"	"19.949"	"20.338"	"20.882"	"20.967"	"20.977"	"18.335"	"15.481"	"13.286"
"1948"	"11.581"	"12.137"	"15.149"	"17.898"	"17.942"	"20.23"	"20.577"	"21.068"	"21.177"	"18.588"	"16.185"	"11.885"
"1949"	"11.384"	"12.488"	"15.3"	"16.106"	"18.738"	"19.929"	"20.425"	"20.273"	"20.729"	"19.784"	"15.089"	"11.331"
"1950"	"10.981"	"12.035"	"15.502"	"17.703"	"19.498"	"19.982"	"20.872"	"20.272"	"20.878"	"19.092"	"15.432"	"12.68"
"1951"	"11.028"	"12.94"	"16.355"	"17.761"	"18.94"	"19.833"	"20.328"	"21.42"	"20.973"	"19.582"	"15.781"	"13.584"
"1952"	"11.784"	"14.132"	"15.395"	"18.699"	"19.396"	"21.424"	"21.268"	"21.173"	"20.487"	"19.94"	"16.128"	"13.113"
"1953"	"10.936"	"13.488"	"16.854"	"18.508"	"19.039"	"20.875"	"20.632"	"21.518"	"20.878"	"19.035"	"15.436"	"13.884"
"1954"	"10.331"	"14.038"	"16.351"	"18.263"	"19.341"	"19.779"	"20.084"	"20.277"	"21.078"	"18.535"	"14.726"	"12.49"
"1955"	"11.383"	"12.488"	"15.905"	"17.855"	"19.591"	"20.134"	"20.273"	"20.267"	"21.468"	"19.789"	"16.331"	"11.968"
"1956"	"10.981"	"13.026"	"15.915"	"18.803"	"19.184"	"19.919"	"21.217"	"20.967"	"21.016"	"19.432"	"15.58"	"12.581"
"1957"	"11.631"	"11.644"	"15.905"	"18.457"	"19.349"	"20.672"	"21.163"	"21.363"	"21.124"	"18.384"	"15.321"	"12.675"
"1958"	"11.275"	"11.989"	"16.49"	"19.203"	"18.9"	"22.263"	"21.859"	"20.168"	"21.573"	"19.282"	"15.475"	"12.67"
"1959"	"11.431"	"11.537"	"15.396"	"18.444"	"19.044"	"20.367"	"21.863"	"21.452"	"20.673"	"18.631"	"15.026"	"13.131"
"1960"	"11.287"	"13.472"	"15.842"	"19.251"	"20.987"	"21.119"	"20.863"	"21.911"	"20.877"	"19.778"	"15.538"	"13.069"
"1961"	"11.875"	"11.639"	"15.362"	"18.748"	"19.897"	"21.213"	"21.71"	"21.558"	"21.373"	"19.382"	"14.437"	"11.586"
"1962"	"10.567"	"12.621"	"15.662"	"19.202"	"19.113"	"20.124"	"21.568"	"20.273"	"21.177"	"18.783"	"14.98"	"12.48"
"1963"	"10.785"	"13.486"	"16.3"	"17.451"	"18.945"	"20.072"	"20.767"	"20.621"	"21.574"	"18.436"	"14.441"	"12.485"
"1964"	"10.64"	"12.393"	"15.569"	"16.96"	"18.949"	"19.338"	"19.773"	"20.777"	"20.788"	"19.793"	"15.894"	"11.885"
"1965"	"10.785"	"11.788"	"14.509"	"17.903"	"19.744"	"20.526"	"20.424"	"19.867"	"20.332"	"19.032"	"14.49"	"12.985"
"1966"	"11.735"	"13.737"	"16.996"	"18.512"	"20.295"	"19.229"	"21.168"	"20.172"	"20.578"	"18.283"	"16.789"	"12.489"
"1967"	"11.943"	"13.284"	"15.21"	"17.997"	"19.793"	"20.625"	"21.072"	"21.615"	"20.53"	"18.684"	"14.389"	"12.824"
"1968"	"11.236"	"11.789"	"15.906"	"17.604"	"18.745"	"20.419"	"20.973"	"21.268"	"20.918"	"18.458"	"15.388"	"12.137"
"1969"	"10.689"	"12.89"	"16.654"	"18.7"	"20.093"	"20.424"	"21.373"	"20.368"	"21.273"	"19.181"	"15.388"	"12.579"
"1970"	"10.388"	"12.294"	"15.914"	"18.357"	"19.302"	"20.824"	"20.618"	"21.068"	"20.083"	"18.787"	"15.531"	"12.284"
"1971"	"10.993"	"11.945"	"16.557"	"17.844"	"19.635"	"20.515"	"20.667"	"20.064"	"20.878"	"18.837"	"14.537"	"12.037"
"1972"	"11.689"	"12.186"	"15.71"	"16.914"	"19.854"	"20.879"	"21.177"	"21.163"	"20.886"	"19.435"	"15.694"	"12.584"
"1973"	"11.988"	"13.193"	"16.508"	"19.504"	"19.785"	"20.425"	"21.767"	"21.062"	"21.125"	"18.937"	"15.284"	"11.831"
"1974"	"10.884"	"12.886"	"15.753"	"16.909"	"19.438"	"20.527"	"19.624"	"20.967"	"20.372"	"20.079"	"16.793"	"11.582"
"1975"	"11.084"	"12.935"	"16.41"	"19.093"	"19.248"	"21.619"	"20.272"	"20.967"	"20.577"	"19.683"	"15.131"	"11.48"
"1976"	"11.18"	"13.19"	"15.915"	"18.203"	"19.287"	"19.271"	"20.572"	"20.568"	"20.873"	"18.584"	"16.132"	"12.031"
"1977"	"10.391"	"12.285"	"16.848"	"16.149"	"18.191"	"19.233"	"21.068"	"20.524"	"21.078"	"18.137"	"15.29"	"12.485"
"1978"	"10.287"	"12.798"	"15.557"	"17.903"	"19.539"	"20.724"	"20.769"	"21.807"	"20.465"	"19.931"	"15.244"	"12.484"
"1979"	"11.891"	"12.793"	"16.305"	"19.403"	"20.802"	"21.819"	"21.024"	"21.267"	"20.477"	"18.69"	"16.743"	"12.933"
"1980"	"11.09"	"12.483"	"15.71"	"18.614"	"19.241"	"21.319"	"21.518"	"21.016"	"21.129"	"18.683"	"15.842"	"13.28"
"1981"	"11.836"	"13.188"	"15.61"	"16.999"	"19.739"	"21.272"	"21.173"	"21.319"	"21.078"	"19.587"	"16.185"	"12.779"
"1982"	"12.28"	"12.538"	"15.905"	"16.956"	"20.444"	"20.323"	"20.973"	"21.468"	"20.777"	"19.083"	"15.085"	"12.275"
"1983"	"10.639"	"11.642"	"15.154"	"17.006"	"19"	"20.781"	"20.877"	"21.163"	"20.731"	"20.078"	"15.98"	"11.629"
"1984"	"10.292"	"12.439"	"16.543"	"18.009"	"18.495"	"20.767"	"20.473"	"21.216"	"19.978"	"19.321"	"14.789"	"12.993"
"1985"	"11.536"	"12.388"	"16.213"	"17.912"	"19.686"	"20.074"	"20.273"	"21.367"	"20.678"	"19.979"	"15.132"	"13.578"
"1986"	"11.587"	"13.641"	"16.709"	"17.164"	"19.887"	"21.372"	"20.872"	"21.072"	"20.378"	"18.183"	"15.08"	"12.78"
"1987"	"12.089"	"13.944"	"15.153"	"17.398"	"19.649"	"21.373"	"20.776"	"20.87"	"20.578"	"18.883"	"16.486"	"12.875"
"1988"	"11.846"	"13.788"	"15.761"	"18.862"	"19.149"	"21.314"	"20.973"	"20.368"	"20.578"	"19.683"	"16.438"	"14.329"
"1989"	"10.433"	"12.749"	"16.151"	"18.362"	"20.943"	"20.724"	"20.377"	"21.167"	"20.678"	"19.582"	"14.932"	"12.234"
"1990"	"12.078"	"12.904"	"14.357"	"15.922"	"19.837"	"20.623"	"20.967"	"21.668"	"20.438"	"19.083"	"17.185"	"13.475"
"1991"	"10.782"	"13.94"	"16.956"	"18.016"	"18.251"	"20.323"	"21.173"	"21.222"	"20.739"	"19.983"	"14.931"	"11.979"
"1992"	"11.231"	"10.588"	"16.526"	"18.619"	"19.048"	"21.034"	"20.313"	"21.468"	"21.329"	"18.928"	"15.732"	"11.226"
"1993"	"10.835"	"12.978"	"15.004"	"17.849"	"18.534"	"19.923"	"21.076"	"20.667"	"20.725"	"19.988"	"16.527"	"14.075"
"1994"	"12.386"	"12.588"	"15.919"	"17.85"	"20.592"	"21.114"	"21.42"	"21.858"	"22.026"	"18.336"	"15.947"	"12.481"
"1995"	"11.392"	"13.088"	"16.859"	"19.009"	"20.554"	"21.019"	"20.918"	"21.468"	"20.825"	"20.183"	"17.142"	"12.675"
"1996"	"11.487"	"13.579"	"15.905"	"19.452"	"19.444"	"21.114"	"20.921"	"20.967"	"21.719"	"19.582"	"16.542"	"14.184"
"1997"	"11.136"	"11.593"	"15.466"	"17.242"	"19.845"	"21.072"	"21.116"	"21.907"	"20.526"	"19.078"	"15.952"	"13.583"
"1998"	"11.388"	"13.235"	"15.055"	"18.747"	"21.377"	"20.834"	"21.616"	"21.068"	"21.974"	"20.978"	"17.632"	"13.836"
"1999"	"12.392"	"16.583"	"17.794"	"19.696"	"20.382"	"21.667"	"21.717"	"20.768"	"21.518"	"19.79"	"16.832"	"13.384"
"2000"	"10.844"	"13.474"	"15.156"	"17.807"	"19.839"	"21.067"	"22.068"	"20.967"	"20.477"	"19.729"	"15.633"	"12.932"
"2001"	"11.841"	"13.988"	"16.747"	"18.508"	"19.941"	"21.363"	"21.873"	"21.863"	"22.082"	"19.988"	"16.474"	"13.33"
"2002"	"12.288"	"14.484"	"17.052"	"18.355"	"19.793"	"20.823"	"21.669"	"21.363"	"21.173"	"19.629"	"16.683"	"13.28"
