
"Year"	"Jan"	"Feb"	"Mar"	"Apr"	"May"	"Jun"	"Jul"	"Aug"	"Sep"	"Oct"	"Nov"	"Dec"
"1901"	"46.806"	"18.251"	"10.929"	"1.505"	"27.344"	"33.382"	"290.697"	"499.025"	"169.791"	"4.44"	"0.056"	"7.145"
"1902"	"2.548"	"3.362"	"2.91"	"13.175"	"16.089"	"63.048"	"398.965"	"271.837"	"167.61"	"24.805"	"0"	"0"
"1903"	"17.163"	"3.855"	"13.026"	"3.479"	"10.994"	"47.75"	"163.901"	"333.066"	"96.033"	"104.294"	"0"	"0.85"
"1904"	"8.898"	"1.118"	"18.046"	"1.699"	"27.173"	"119.813"	"285.085"	"497.786"	"192.087"	"40.707"	"6.458"	"14.221"
"1905"	"59.281"	"34.903"	"14.637"	"6.834"	"15.36"	"31.899"	"223.957"	"247.333"	"120.644"	"0.425"	"0"	"5.754"
"1906"	"13.242"	"50.276"	"10.801"	"2.451"	"8.353"	"151.057"	"209.682"	"378.408"	"196.802"	"11.74"	"0"	"1.564"
"1907"	"8.717"	"46.577"	"31.602"	"23.525"	"15.348"	"59.789"	"310.206"	"249.154"	"14.924"	"0.91"	"0"	"0"
"1908"	"25.891"	"19.29"	"1.527"	"1.974"	"13.228"	"56.297"	"271.604"	"341.003"	"68.664"	"4.702"	"0.441"	"1.1"
"1909"	"25.402"	"9.973"	"0.335"	"28.218"	"8.287"	"318.902"	"509.426"	"292.998"	"86.926"	"6.752"	"0"	"25.451"
"1910"	"11.103"	"10.791"	"2.353"	"2.27"	"27.601"	"203.591"	"359.761"	"314.327"	"220.804"	"35.89"	"5.919"	"1.502"
"1911"	"43.796"	"0.462"	"47.603"	"8.327"	"1.166"	"122.209"	"78.983"	"306.237"	"274.352"	"41.496"	"20.591"	"0.855"
"1912"	"18.375"	"9.637"	"9.727"	"11.174"	"21.268"	"90.265"	"271.395"	"310.863"	"247.991"	"2.709"	"17.146"	"3.498"
"1913"	"2.369"	"38.682"	"22.758"	"3.848"	"40.351"	"273.969"	"177.208"	"192.125"	"35.924"	"7.061"	"4.583"	"16.942"
"1914"	"1.335"	"29.034"	"25.902"	"15.552"	"32.977"	"130.98"	"453.469"	"268.955"	"425.262"	"16.432"	"0.357"	"0"
"1915"	"9.92"	"49.226"	"38.933"	"9.671"	"13.42"	"112.153"	"258.421"	"569.149"	"142.156"	"33.288"	"0.084"	"4.146"
"1916"	"0.2"	"12.882"	"0.122"	"4.955"	"27.327"	"270.924"	"426.102"	"319.521"	"226.087"	"61.094"	"0.704"	"0"
"1917"	"6.802"	"31.496"	"23.963"	"18.504"	"67.702"	"239.782"	"330.445"	"285.036"	"308.435"	"90.549"	"0"	"8.022"
"1918"	"5.219"	"0.146"	"7.89"	"16.214"	"8.15"	"182.418"	"89.164"	"228.575"	"40.272"	"5.094"	"12.867"	"1.731"
"1919"	"40.912"	"10.603"	"8.606"	"18.652"	"19.171"	"105.339"	"290.897"	"313.383"	"175.743"	"34.941"	"1.543"	"2.307"
"1920"	"2.995"	"14.139"	"20.744"	"1.21"	"30.409"	"254.042"	"387.19"	"154.524"	"52.113"	"6.007"	"0"	"0.651"
"1921"	"41.56"	"2.281"	"1.508"	"1.192"	"1.282"	"90.69"	"250.637"	"413.41"	"197.183"	"69.666"	"0"	"0.174"
"1922"	"29.388"	"13.049"	"0.11"	"4.454"	"2.303"	"71.237"	"422.204"	"518.13"	"248.677"	"28.98"	"2.74"	"31.05"
"1923"	"7.005"	"38.908"	"0.335"	"0"	"13.177"	"39.819"	"232.362"	"302.552"	"247.022"	"92.714"	"11.011"	"11.066"
"1924"	"13.985"	"17.193"	"4.028"	"3.879"	"15.689"	"42.406"	"282.515"	"329.668"	"438.757"	"114.687"	"2.454"	"15.454"
"1925"	"14.044"	"0.722"	"2.893"	"5.898"	"34.905"	"282.986"	"506.389"	"386.95"	"153.916"	"7.279"	"11.289"	"0"
"1926"	"7.703"	"5.942"	"48.473"	"18.476"	"25.748"	"23.417"	"348.057"	"350.981"	"111.086"	"16.192"	"6.4"	"2.135"
"1927"	"4.31"	"31.426"	"12.448"	"5.162"	"39.036"	"66.528"	"231.564"	"509.904"	"114.949"	"156.45"	"3.786"	"2.72"
"1928"	"31.569"	"47.663"	"5.878"	"16.691"	"3.809"	"74.498"	"316.296"	"144.973"	"27.17"	"28.184"	"7.456"	"20.726"
"1929"	"54.056"	"1.996"	"4.905"	"9.2"	"8.471"	"144.444"	"272.21"	"377.396"	"61.287"	"71.727"	"0"	"33.339"
"1930"	"14.425"	"15.932"	"6.331"	"7.176"	"10.888"	"120.203"	"369.471"	"294.924"	"86.571"	"51.654"	"8.783"	"13.81"
"1931"	"1.615"	"30.769"	"9.144"	"0.629"	"13.849"	"48.812"	"278.754"	"232.394"	"384.561"	"156.045"	"0.936"	"0.056"
"1932"	"0.2"	"6.081"	"10.536"	"2.203"	"12.562"	"73.464"	"168.047"	"320.007"	"295.069"	"16.557"	"1.375"	"8.326"
"1933"	"14.087"	"28.589"	"5.669"	"20.088"	"45.503"	"197.4"	"341.562"	"319.842"	"192.471"	"159.109"	"0"	"0.302"
"1934"	"20.876"	"2.506"	"15.183"	"0.931"	"9.966"	"127.642"	"239.434"	"469.121"	"112.983"	"1.945"	"0.319"	"15.943"
"1935"	"33.954"	"14.312"	"4.569"	"13.494"	"2.139"	"50.394"	"337.198"	"248.25"	"149.883"	"1.33"	"6.4"	"12.3"
"1936"	"2.777"	"28.823"	"15.885"	"11.053"	"22.702"	"489.939"	"639.793"	"444.194"	"218.923"	"10.728"	"3.475"	"32.865"
"1937"	"1.587"	"53.859"	"2.547"	"16.805"	"20.795"	"126.62"	"338.235"	"239.122"	"200.289"	"37.085"	"0.694"	"11.859"
"1938"	"41.899"	"18.716"	"0.905"	"3.445"	"6.568"	"268.906"	"364.082"	"346.747"	"103.149"	"23.07"	"0.908"	"0"
"1939"	"13.538"	"18.672"	"8.524"	"10.658"	"5.679"	"179.855"	"254.783"	"219.413"	"122.621"	"37.173"	"0"	"0"
"1940"	"16.816"	"42.333"	"27.522"	"10.033"	"15.701"	"81.914"	"246.417"	"313.231"	"73.785"	"6.733"	"0.134"	"8.02"
"1941"	"21.325"	"8.932"	"3.366"	"0.196"	"26.397"	"90.125"	"123.099"	"240.666"	"143.182"	"12.199"	"0.908"	"7.732"
"1942"	"44.505"	"30.251"	"2.544"	"12.69"	"12.786"	"133.761"	"485.306"	"253.253"	"176.777"	"0.397"	"0"	"18.542"
"1943"	"19.505"	"4.11"	"6.001"	"25.021"	"7.051"	"143.871"	"164.236"	"544.843"	"112.415"	"2.492"	"0"	"0"
"1944"	"23.282"	"23.332"	"29.695"	"11.127"	"1.14"	"151.062"	"238.962"	"221.351"	"96.291"	"9.632"	"0.441"	"1.003"
"1945"	"31.642"	"1.027"	"5.121"	"15.331"	"8.126"	"45.208"	"361.19"	"243.381"	"346.8"	"92.359"	"0"	"6.75"
"1946"	"0.534"	"21.456"	"3.973"	"17.271"	"34.069"	"122.728"	"354.039"	"235.62"	"60.146"	"43.638"	"9.901"	"9.6"
"1947"	"14.306"	"19.55"	"19.765"	"1.792"	"8.454"	"60.43"	"314.761"	"360.076"	"241.557"	"12.361"	"1.338"	"2.607"
"1948"	"8.61"	"20.845"	"21.206"	"1.535"	"10.458"	"87.329"	"272.094"	"556.8"	"140.731"	"44.7"	"2.904"	"1.502"
"1949"	"1.004"	"34.997"	"5.303"	"12.185"	"18.925"	"65.422"	"458.351"	"345.824"	"232.72"	"66.162"	"0.495"	"1.053"
"1950"	"23.262"	"12.28"	"29.567"	"0.689"	"16.097"	"204.734"	"350.085"	"350.413"	"139.754"	"1.381"	"0.441"	"5.764"
"1951"	"15.665"	"16.021"	"22.7"	"9.139"	"14.966"	"120.786"	"155.343"	"326.234"	"197.685"	"24.437"	"16.238"	"0"
"1952"	"8.617"	"19.51"	"24.355"	"6.832"	"29.166"	"167.194"	"198.748"	"410.456"	"54.394"	"0.786"	"6.868"	"3.17"
"1953"	"38.936"	"8.977"	"1.669"	"7.016"	"3.944"	"119.551"	"455.426"	"302.015"	"83.852"	"0.341"	"0"	"2.48"
"1954"	"28.125"	"46.91"	"7.668"	"0.583"	"1.779"	"63.284"	"365.166"	"303.489"	"158.687"	"84.951"	"0"	"0.85"
"1955"	"32.949"	"9.339"	"8.281"	"11.373"	"7.405"	"131.287"	"386.406"	"328.577"	"174.496"	"149.985"	"0"	"0.894"
"1956"	"15.244"	"11.127"	"16.211"	"1.076"	"41.326"	"142.273"	"304.194"	"242.059"	"134.057"	"158.362"	"5.593"	"8.129"
"1957"	"39.923"	"0.77"	"29.088"	"10.03"	"11.453"	"94.345"	"277.158"	"253.289"	"269.067"	"19.511"	"2.994"	"21.946"
"1958"	"15.614"	"7.787"	"22.374"	"6.93"	"2.303"	"96.454"	"275.099"	"424.51"	"189.53"	"140.138"	"1.844"	"13.476"
"1959"	"27.09"	"11.373"	"7.261"	"6.441"	"45.92"	"43.513"	"367.43"	"258.228"	"107.523"	"96.203"	"9.916"	"0"
"1960"	"19.073"	"0.146"	"18.541"	"5.981"	"6.595"	"71.742"	"327.336"	"374.619"	"148.697"	"133.679"	"0"	"2.156"
"1961"	"41.284"	"34.425"	"0.335"	"6.137"	"13.709"	"116.13"	"334.722"	"449.978"	"145.135"	"119.802"	"0.569"	"12.448"
"1962"	"31.211"	"14.473"	"16.473"	"10.336"	"15.426"	"129.841"	"290.806"	"319.645"	"299"	"1.618"	"4.116"	"6.683"
"1963"	"13.803"	"7.374"	"27.512"	"13.354"	"29.482"	"127.816"	"296.282"	"370.264"	"297.733"	"18.821"	"9.493"	"6.88"
"1964"	"5.535"	"4.472"	"9.709"	"4.156"	"32.122"	"50.475"	"466.852"	"182.562"	"245.855"	"3.046"	"0"	"7.737"
"1965"	"6.605"	"21.911"	"19.102"	"17.755"	"9.748"	"29.31"	"236.755"	"242.189"	"73.286"	"28.696"	"0.537"	"1.027"
"1966"	"5.833"	"18.49"	"1.801"	"0.363"	"21.702"	"171.139"	"303.011"	"422.235"	"102.556"	"24.755"	"11.331"	"5.528"
"1967"	"1.188"	"3.447"	"40.168"	"4.103"	"2.331"	"83.175"	"292.105"	"547.45"	"127.066"	"5.251"	"1.872"	"25.645"
"1968"	"44.584"	"17.539"	"8.453"	"5.87"	"2.021"	"149.42"	"224.876"	"173.949"	"88.937"	"25.518"	"0"	"3.662"
"1969"	"17.526"	"7.799"	"7.253"	"11.784"	"29.889"	"60.69"	"356.194"	"327.402"	"388.557"	"4.139"	"2.097"	"0"
"1970"	"29.498"	"24.315"	"3.568"	"0.459"	"55.973"	"148.353"	"225.057"	"305.229"	"197.142"	"59.096"	"0"	"0"
"1971"	"16.734"	"15.922"	"9.434"	"16.912"	"55.43"	"223.188"	"363.681"	"392.298"	"255.963"	"156.394"	"8.249"	"0.122"
"1972"	"10.337"	"29.33"	"4.277"	"10.887"	"2.085"	"63.072"	"317.071"	"271.842"	"284.04"	"56.011"	"4.458"	"1.424"
"1973"	"18.112"	"12.709"	"11.183"	"0.168"	"15.811"	"193.585"	"219.824"	"400.387"	"136.625"	"116.667"	"0.056"	"0"
"1974"	"8.345"	"6.754"	"2.956"	"1.366"	"12.86"	"83.003"	"264.212"	"188.943"	"42.023"	"22.064"	"0"	"12.377"
"1975"	"36.088"	"15.126"	"17.045"	"3.995"	"4.983"	"169.677"	"332.351"	"283.635"	"246.467"	"27.973"	"0"	"0"
"1976"	"8.363"	"27.627"	"5.264"	"12.938"	"12.233"	"89.451"	"212.87"	"469.923"	"123.01"	"6.446"	"1.076"	"0.418"
"1977"	"21.485"	"7.367"	"0.981"	"15.132"	"41.523"	"123.944"	"348.683"	"201.316"	"140.281"	"34.596"	"0.233"	"10.539"
"1978"	"9.74"	"23.276"	"44.982"	"4.827"	"3.348"	"152.943"	"175.806"	"333.045"	"217.16"	"15.644"	"2.84"	"6.304"
"1979"	"18.4"	"25.64"	"12.873"	"7.61"	"29.534"	"88.322"	"202.141"	"178.602"	"24.522"	"0.772"	"16.711"	"4.85"
"1980"	"3.928"	"11.142"	"21.468"	"2.75"	"4.124"	"214.206"	"584.3"	"484.153"	"296.28"	"42.023"	"1.049"	"11.31"
"1981"	"25.154"	"7.462"	"29.617"	"1.257"	"37.222"	"154.097"	"477.924"	"208.851"	"105.095"	"0.341"	"21.206"	"1.992"
"1982"	"32.77"	"12.124"	"49.102"	"13.942"	"41.466"	"56.671"	"201.625"	"473.283"	"144.121"	"16.34"	"6.683"	"9.71"
"1983"	"36.475"	"6.341"	"9.656"	"38.907"	"52.924"	"163.175"	"244.237"	"184.124"	"350.775"	"50.308"	"0"	"5.961"
"1984"	"14.217"	"53.456"	"3.016"	"18.541"	"1.324"	"178.032"	"190.357"	"198.933"	"81.057"	"9.419"	"0"	"4.002"
"1985"	"8.778"	"1.037"	"1.152"	"13.202"	"22.065"	"120.591"	"300.944"	"321.912"	"195.724"	"122.11"	"0"	"22.654"
"1986"	"7.246"	"25.63"	"7.115"	"12.725"	"63.279"	"76.257"	"377.313"	"234.235"	"177.59"	"31.058"	"5.45"	"37.245"
"1987"	"14.569"	"19.657"	"7.831"	"3.327"	"44.449"	"8.824"	"85.2"	"219.163"	"64.592"	"32.95"	"0"	"5.4"
"1988"	"7.026"	"17.421"	"14.601"	"13.426"	"17.176"	"133.607"	"435.51"	"391.09"	"106.948"	"3.553"	"0.537"	"15.082"
"1989"	"30.161"	"6.859"	"12.953"	"0.938"	"15.036"	"144.38"	"282.694"	"243.588"	"168.484"	"8.046"	"4.47"	"3.082"
"1990"	"0.2"	"34.521"	"15.391"	"8.123"	"38.022"	"107.59"	"411.867"	"301.804"	"151.75"	"19.979"	"6.76"	"22.696"
"1991"	"4.643"	"17.897"	"12.941"	"14.541"	"48.227"	"32.186"	"17.097"	"212.977"	"85.19"	"0.341"	"3.211"	"14.797"
"1992"	"25.157"	"20.705"	"8.006"	"7.109"	"21.641"	"79.372"	"159.415"	"259.561"	"116.134"	"41.131"	"15.531"	"0"
"1993"	"16.627"	"4.436"	"20.755"	"8.488"	"31.802"	"192.062"	"344.637"	"161.143"	"315.386"	"1.912"	"0"	"0"
"1994"	"19.379"	"8.621"	"24.888"	"10.864"	"19.978"	"99.227"	"355.224"	"289.811"	"84.67"	"1.405"	"0"	"0.33"
"1995"	"28.563"	"25.399"	"33.69"	"11.688"	"3.386"	"69.399"	"240.279"	"396.101"	"248.837"	"0.341"	"11.838"	"8.156"
"1996"	"35.065"	"24.508"	"5.723"	"5.774"	"19.863"	"181.489"	"236.005"	"310.983"	"229.986"	"46.273"	"0"	"0"
"1997"	"13.049"	"3.38"	"9.932"	"3.548"	"31.942"	"180.444"	"78.099"	"247.458"	"109.824"	"43.588"	"14.473"	"11.575"
"1998"	"5.417"	"14.365"	"38.685"	"18.501"	"29.017"	"38.725"	"309.319"	"433.86"	"94.143"	"38.299"	"3.18"	"0"
"1999"	"15.309"	"16.321"	"0.056"	"0"	"21.224"	"120.826"	"173.757"	"132.396"	"199.93"	"47.859"	"0"	"5.109"
"2000"	"11.482"	"29.747"	"5.17"	"3.376"	"27.804"	"65.356"	"190.334"	"259.253"	"127.221"	"0.341"	"0"	"0"
"2001"	"6.148"	"7.144"	"5.991"	"17.02"	"45.026"	"109.02"	"181.814"	"120.731"	"57.796"	"21.334"	"0.496"	"1.497"
"2002"	"21.993"	"30.517"	"21.914"	"6.604"	"3.538"	"37.385"	"115.022"	"204.452"	"272.341"	"27.774"	"1.607"	"1.51"
