
"Year"	"Jan"	"Feb"	"Mar"	"Apr"	"May"	"Jun"	"Jul"	"Aug"	"Sep"	"Oct"	"Nov"	"Dec"
"1901"	"49.67"	"7.443"	"4.97"	"14.955"	"27.457"	"187.394"	"222.87"	"300.558"	"158.479"	"46.631"	"16.146"	"0.072"
"1902"	"0"	"0"	"16.215"	"38.612"	"32.845"	"170.615"	"371.563"	"226.075"	"402.774"	"40.524"	"0"	"1.164"
"1903"	"6.913"	"8.28"	"11.024"	"37.845"	"84.765"	"314.205"	"148.52"	"284.352"	"184.439"	"119.297"	"8.296"	"0"
"1904"	"0.637"	"6.854"	"21.344"	"14.514"	"271.498"	"243.845"	"322.489"	"250.804"	"129.923"	"22.236"	"9.161"	"0.242"
"1905"	"14.598"	"23.307"	"26.716"	"23.383"	"107.889"	"58.442"	"434.591"	"385.438"	"256.281"	"31.472"	"0.126"	"1.405"
"1906"	"20.873"	"47.599"	"20.14"	"5.836"	"64.428"	"200.48"	"350.508"	"222.138"	"135.255"	"155.692"	"2.822"	"0"
"1907"	"9.642"	"25.92"	"29.473"	"28.369"	"49.629"	"277.612"	"238.591"	"217.343"	"248.586"	"40.861"	"0"	"1.499"
"1908"	"10.523"	"25.237"	"5.61"	"5.18"	"51.459"	"223.978"	"302.752"	"250.95"	"140.189"	"24.431"	"0.04"	"0.634"
"1909"	"9.053"	"3.916"	"0"	"66.396"	"42.276"	"314.353"	"296.079"	"352.524"	"226.553"	"28.538"	"1.074"	"2.853"
"1910"	"2.32"	"13.122"	"19.623"	"42.008"	"44.92"	"247.28"	"403.082"	"313.933"	"191"	"79.805"	"5.801"	"0"
"1911"	"14.809"	"0.383"	"18.34"	"8.61"	"58.804"	"439.957"	"251.41"	"268.637"	"273.195"	"127.308"	"11.272"	"0"
"1912"	"1.587"	"10.715"	"8.151"	"47.429"	"75.362"	"219.864"	"361.915"	"261.39"	"71.641"	"34.192"	"10.593"	"1.974"
"1913"	"0"	"35.392"	"28.807"	"4.735"	"104.478"	"509.98"	"209.978"	"319.579"	"221.848"	"58.327"	"0.841"	"18.205"
"1914"	"0"	"26.172"	"13.962"	"27.222"	"101.743"	"117.983"	"413.502"	"324.862"	"128.203"	"42.156"	"0.08"	"2.829"
"1915"	"1.907"	"32.667"	"15.388"	"18.083"	"93.087"	"280.741"	"319.253"	"295.78"	"219.021"	"53.522"	"8.149"	"0"
"1916"	"0.3"	"9.154"	"4.642"	"20.775"	"26.796"	"273.25"	"345.772"	"264.359"	"299.451"	"238.278"	"9.227"	"0"
"1917"	"1.689"	"19.526"	"5.866"	"16.625"	"112.045"	"231.893"	"387.828"	"150.839"	"354.053"	"228.947"	"10.283"	"0"
"1918"	"1.433"	"2.633"	"7.771"	"31.751"	"96.011"	"250.742"	"256.493"	"467.897"	"209.494"	"27.094"	"0"	"0.912"
"1919"	"22.308"	"7.489"	"10.089"	"10.524"	"103.289"	"171.73"	"321.204"	"357.392"	"204.642"	"119.415"	"5.716"	"0"
"1920"	"4.596"	"24.138"	"29.993"	"13.66"	"56.518"	"137.841"	"380.24"	"231.4"	"367.527"	"26.977"	"0"	"0"
"1921"	"34.297"	"3.382"	"7.531"	"15.125"	"38.268"	"211.219"	"346.89"	"358.744"	"208.419"	"40.302"	"0.056"	"0"
"1922"	"11.673"	"6.982"	"0.503"	"6.695"	"27.755"	"506.313"	"389.666"	"300.897"	"267.425"	"46.944"	"0"	"10.041"
"1923"	"0.437"	"39.398"	"0.803"	"6.296"	"35.381"	"189.887"	"220.141"	"288.947"	"151.732"	"68.926"	"0.941"	"0.412"
"1924"	"4.184"	"6.531"	"1.232"	"28.752"	"52.752"	"246.455"	"376.318"	"331.871"	"256.343"	"83.074"	"38.023"	"0"
"1925"	"32.744"	"4.045"	"5.627"	"63.072"	"72.837"	"174.657"	"412.975"	"273.882"	"247.81"	"34.31"	"2.462"	"0"
"1926"	"27.53"	"0.383"	"45.775"	"17.637"	"140.005"	"76.204"	"488.425"	"290.139"	"237.121"	"49.348"	"0"	"4.601"
"1927"	"30.081"	"45.908"	"32.688"	"6.615"	"72.138"	"188.837"	"292.867"	"341.8"	"111.936"	"52.358"	"21.881"	"0"
"1928"	"40.615"	"6.95"	"1.79"	"12.645"	"99.685"	"306.007"	"428.692"	"194.334"	"250.746"	"132.202"	"0.539"	"1.277"
"1929"	"32.813"	"0.581"	"8.552"	"24.142"	"79.233"	"253.081"	"365.7"	"195.189"	"83.238"	"268.319"	"0.496"	"5.052"
"1930"	"8.164"	"9.672"	"7.057"	"18.506"	"68.025"	"183.081"	"321.912"	"237.036"	"179.584"	"70.99"	"17.661"	"7.613"
"1931"	"9.308"	"30.066"	"16.466"	"3.939"	"51.071"	"134.365"	"568.458"	"191.993"	"431.306"	"44.534"	"5.423"	"0.92"
"1932"	"0"	"18.843"	"4.404"	"23.451"	"83.803"	"188.836"	"240.177"	"256.078"	"250.368"	"43.803"	"34.66"	"6.564"
"1933"	"39.07"	"12.268"	"2.006"	"33.998"	"85.018"	"196.232"	"467.717"	"396.568"	"156.08"	"68.265"	"0"	"0"
"1934"	"24.575"	"26.983"	"0.908"	"39.027"	"62.576"	"272.783"	"359.95"	"281.19"	"268.55"	"59.986"	"2.939"	"0.901"
"1935"	"9.845"	"17.396"	"4.864"	"6.936"	"39.385"	"181.363"	"204.554"	"493.587"	"274.54"	"27.19"	"0"	"0.364"
"1936"	"5.652"	"10.99"	"13.343"	"15.475"	"140.223"	"217.85"	"414.331"	"235.053"	"455.659"	"80.365"	"0.234"	"14.648"
"1937"	"0"	"29.882"	"4.098"	"51.098"	"64.22"	"172.411"	"177.776"	"373.509"	"285.358"	"133.274"	"0.229"	"0.279"
"1938"	"4.146"	"19.707"	"7.529"	"10.352"	"107.194"	"426.621"	"296.068"	"259.749"	"153.574"	"51.985"	"2.978"	"0"
"1939"	"5.095"	"19.201"	"7.706"	"14.053"	"55.084"	"221.247"	"429.678"	"253.261"	"324.902"	"114.978"	"0.381"	"0"
"1940"	"0.234"	"33.516"	"34.695"	"9.153"	"59.914"	"182.807"	"420.253"	"288.747"	"157.731"	"43.845"	"0.134"	"3.267"
"1941"	"20.726"	"4.13"	"10.279"	"15.241"	"60.502"	"260.092"	"292.407"	"307.95"	"267.027"	"107.654"	"4.545"	"0.04"
"1942"	"15.266"	"31.258"	"7.444"	"19.871"	"27.22"	"174.398"	"297.57"	"476.996"	"419.421"	"28.511"	"0.893"	"0.634"
"1943"	"29.655"	"11.23"	"15.502"	"71.695"	"88.79"	"170.574"	"457.771"	"291.487"	"247.36"	"50.944"	"0.056"	"0.032"
"1944"	"25.109"	"20.44"	"42.239"	"32.144"	"51.634"	"261.378"	"256.428"	"386.484"	"167.517"	"54.233"	"0.016"	"0"
"1945"	"54.028"	"17.24"	"4.043"	"26.486"	"70.176"	"199.291"	"280.797"	"263.685"	"315.431"	"179.557"	"0"	"1.277"
"1946"	"0"	"13.217"	"20.736"	"32.892"	"85.092"	"161.69"	"394.289"	"271.804"	"245.546"	"150.534"	"12.106"	"0"
"1947"	"10.981"	"4.973"	"17.14"	"7.52"	"52.834"	"162.861"	"463.59"	"234.339"	"328.236"	"53.775"	"0.183"	"1.262"
"1948"	"5.671"	"8.039"	"5.974"	"69.266"	"108.774"	"139.121"	"352.974"	"253.318"	"262.69"	"107.946"	"8.342"	"0"
"1949"	"5.981"	"30.219"	"8.886"	"24.126"	"126.114"	"424.453"	"356.905"	"418.79"	"153.773"	"47.363"	"0.102"	"0"
"1950"	"1.502"	"15.316"	"34.828"	"10.562"	"17.856"	"364.311"	"195.87"	"286.124"	"171.572"	"62.957"	"4.445"	"0"
"1951"	"7.569"	"0"	"33.18"	"8.187"	"30.459"	"181.174"	"437.741"	"320.926"	"275.328"	"93.621"	"18.611"	"0"
"1952"	"0"	"6.847"	"19.834"	"40.325"	"34.891"	"436.627"	"262.026"	"287.847"	"252.524"	"97.764"	"14.321"	"0"
"1953"	"56.69"	"4.906"	"10.183"	"7.733"	"32.243"	"216.289"	"438.286"	"233.864"	"285.703"	"6.288"	"0.387"	"0.752"
"1954"	"26.386"	"4.354"	"2.338"	"7.268"	"65.127"	"322.121"	"388.758"	"268.969"	"282.343"	"65.404"	"0"	"1.245"
"1955"	"28.771"	"8.07"	"2.941"	"24.977"	"24.096"	"271.684"	"628.22"	"178.031"	"158.694"	"68.223"	"5.803"	"1.555"
"1956"	"20.665"	"15.781"	"11.228"	"60.002"	"148.515"	"313.976"	"238.48"	"305.303"	"303.892"	"131.607"	"30.795"	"6.719"
"1957"	"13.696"	"5.812"	"8.532"	"0.339"	"36.113"	"137.841"	"299.596"	"136.539"	"204.175"	"54.317"	"0.056"	"2.176"
"1958"	"21.261"	"10.857"	"14.666"	"22.431"	"38.811"	"164.453"	"309.438"	"443.916"	"207.474"	"111.542"	"1.241"	"0"
"1959"	"15.173"	"0"	"3.066"	"5.518"	"64.154"	"131.313"	"340.692"	"302.485"	"394.61"	"256.689"	"0"	"0.005"
"1960"	"0.808"	"0"	"23.577"	"1.544"	"31.879"	"123.734"	"303.746"	"225.326"	"259.899"	"41.571"	"0.773"	"0"
"1961"	"8.713"	"54.06"	"1.953"	"1.619"	"42.605"	"187.483"	"219.131"	"267.357"	"279.119"	"89.423"	"3.143"	"4.025"
"1962"	"17.708"	"10.62"	"4.586"	"12.937"	"53.138"	"163.87"	"258.1"	"403.947"	"214.193"	"41.56"	"0"	"2.642"
"1963"	"1.235"	"1.505"	"40.474"	"42.667"	"120.426"	"201.966"	"295.024"	"147.975"	"195.482"	"201.414"	"12.207"	"0.182"
"1964"	"0.392"	"0.345"	"4.648"	"37.315"	"40.792"	"163.766"	"335.984"	"262.793"	"140.452"	"45.277"	"0.043"	"0"
"1965"	"0"	"7.239"	"10.224"	"32.067"	"55.733"	"87.542"	"305.603"	"278.38"	"149.998"	"26.589"	"8.374"	"0.493"
"1966"	"30.494"	"4.399"	"0.199"	"5.238"	"34.128"	"211.232"	"163.184"	"263.255"	"157.018"	"21.141"	"30.261"	"7.226"
"1967"	"7.169"	"0.494"	"44.122"	"55.295"	"19.636"	"135.658"	"277.272"	"320.401"	"125.917"	"27.757"	"0.088"	"0.529"
"1968"	"26.141"	"1.719"	"6.455"	"10.601"	"18.417"	"372.19"	"364.012"	"237.235"	"120.847"	"177.204"	"2.874"	"3.744"
"1969"	"3.819"	"4.306"	"12.857"	"21.117"	"95.871"	"139.255"	"301.418"	"327.763"	"205.086"	"48.99"	"17.221"	"0"
"1970"	"16.476"	"15.771"	"5.893"	"6.404"	"47.649"	"245.428"	"340.736"	"236.53"	"249.124"	"107.748"	"1.898"	"0"
"1971"	"14.131"	"7.342"	"8.839"	"101.42"	"83.695"	"296.276"	"349.982"	"311.983"	"216.065"	"135.604"	"3.69"	"0"
"1972"	"11.137"	"13.204"	"1.146"	"18.755"	"36.569"	"157.809"	"242.267"	"179.507"	"329.779"	"54.399"	"1.667"	"0.121"
"1973"	"23.921"	"8.478"	"10.53"	"4.476"	"79.115"	"348.951"	"220.774"	"301.426"	"303.679"	"307.527"	"31.914"	"5.173"
"1974"	"12.252"	"0.121"	"21.617"	"25.423"	"93.386"	"161.645"	"494.793"	"240.186"	"258.91"	"70.186"	"5.596"	"1.996"
"1975"	"20.943"	"7.3"	"2.456"	"13.551"	"100.226"	"269.572"	"411.673"	"99.352"	"390.032"	"44.502"	"1.96"	"0"
"1976"	"1.711"	"22.931"	"1.022"	"34.65"	"102.967"	"206.494"	"296.567"	"345.708"	"189.285"	"13.28"	"0.307"	"0"
"1977"	"2.041"	"8.647"	"1.616"	"45.365"	"98.052"	"204.074"	"395.856"	"177.264"	"112.68"	"135.879"	"17.409"	"20.651"
"1978"	"7.69"	"22.901"	"37.977"	"35.528"	"99.44"	"230.201"	"327.361"	"220.318"	"324.465"	"106.616"	"21.313"	"2.059"
"1979"	"21.296"	"24.812"	"0.795"	"33.158"	"23.507"	"143.583"	"358.344"	"299.472"	"162.827"	"140.401"	"7.324"	"28.342"
"1980"	"10.822"	"11.922"	"29.172"	"2.812"	"105.688"	"253.738"	"320.032"	"195.458"	"164.068"	"33.055"	"8.605"	"0.121"
"1981"	"17.566"	"4.124"	"23.226"	"50.314"	"96.097"	"164.945"	"407.511"	"195.336"	"136.48"	"0.841"	"1.96"	"8.815"
"1982"	"2.518"	"6.232"	"12.433"	"44.277"	"35.266"	"122.22"	"192.198"	"121.815"	"257.356"	"53.968"	"7.112"	"0.246"
"1983"	"26.004"	"4.012"	"7.474"	"21.307"	"117.402"	"195.66"	"526.924"	"171.506"	"141.008"	"118.14"	"0.094"	"9.277"
"1984"	"27.213"	"13.775"	"6.228"	"32.116"	"72.455"	"364.154"	"469.108"	"193.335"	"634.214"	"32.219"	"0"	"0"
"1985"	"7.037"	"7.51"	"2.071"	"8.176"	"81.953"	"105.809"	"425.417"	"92.029"	"208.167"	"38.103"	"1.983"	"27.555"
"1986"	"3.679"	"2.868"	"0.127"	"50.072"	"110.877"	"193.817"	"260.753"	"191.461"	"214.778"	"78.401"	"16.503"	"6.427"
"1987"	"0.437"	"17.664"	"16.642"	"27.357"	"71.889"	"169.882"	"286.709"	"527.654"	"285.834"	"216.938"	"6.378"	"2.143"
"1988"	"5.979"	"32.371"	"21.2"	"24.552"	"67.407"	"129.386"	"346.915"	"529.626"	"176.581"	"27.457"	"14.434"	"5.469"
"1989"	"25.807"	"13.469"	"4.223"	"1.821"	"104.249"	"261.811"	"298.596"	"249.665"	"337.522"	"45.522"	"9.404"	"2.881"
"1990"	"0"	"17.992"	"8.094"	"30.153"	"189.143"	"192.511"	"309.253"	"275.223"	"253.973"	"128.915"	"1.712"	"0.186"
"1991"	"22.211"	"2.179"	"18.734"	"18.63"	"36.556"	"167.534"	"289.092"	"436.579"	"231.82"	"50.323"	"0.71"	"7.449"
"1992"	"10.961"	"3.726"	"3.44"	"20.753"	"73.995"	"68.697"	"346.061"	"229.605"	"167.417"	"26.428"	"0.668"	"0.418"
"1993"	"32.819"	"4.934"	"18.248"	"25.624"	"88.575"	"147.143"	"184.478"	"278.47"	"288.47"	"66.855"	"4.282"	"0"
"1994"	"56.866"	"11.41"	"14.543"	"43.217"	"39.552"	"119.225"	"240.804"	"329.745"	"104.51"	"105.133"	"10.354"	"0.321"
"1995"	"33.378"	"18.19"	"11.189"	"15.838"	"58.945"	"158.033"	"253.534"	"205.165"	"288.636"	"22.762"	"23.627"	"1.652"
"1996"	"20.514"	"9.835"	"3.388"	"28.753"	"65.778"	"59.879"	"218.721"	"335.158"	"160.959"	"109.388"	"0"	"0"
"1997"	"18.311"	"12.563"	"13.682"	"19.774"	"149.58"	"80.509"	"203.165"	"294.965"	"240.048"	"66.138"	"17.09"	"12.427"
"1998"	"4.27"	"23.623"	"11.27"	"28.68"	"145.447"	"71.963"	"221.824"	"269.449"	"217.703"	"234.246"	"13.483"	"0"
"1999"	"13.447"	"4.204"	"1.537"	"1.32"	"101.537"	"162.752"	"307.626"	"299.314"	"186.095"	"61.748"	"3.667"	"0.067"
"2000"	"11.598"	"11.144"	"9.464"	"19.696"	"61.403"	"202.818"	"142.718"	"225.034"	"258.868"	"12.305"	"0.07"	"0.07"
"2001"	"2.565"	"3.177"	"20.915"	"23.499"	"96.009"	"105.989"	"258"	"242.962"	"117.833"	"110.684"	"1.277"	"0"
"2002"	"20.092"	"5.021"	"8.335"	"30.47"	"50.527"	"123.435"	"217.334"	"254.598"	"199.732"	"110.747"	"13.287"	"0"
