
"Year"	"Jan"	"Feb"	"Mar"	"Apr"	"May"	"Jun"	"Jul"	"Aug"	"Sep"	"Oct"	"Nov"	"Dec"
"1901"	"0.268"	"3.227"	"0.674"	"77.609"	"61.693"	"95.375"	"75.28"	"35.867"	"96.119"	"73.814"	"74.265"	"0.028"
"1902"	"0.028"	"0"	"0.317"	"21.901"	"52.838"	"76.131"	"12.085"	"39.357"	"199.551"	"100.962"	"50.08"	"6.259"
"1903"	"1.095"	"0"	"0"	"1.72"	"51.532"	"58.173"	"111.19"	"78.433"	"137.373"	"253.489"	"104.426"	"18.058"
"1904"	"2.575"	"0"	"18.214"	"7.768"	"57.493"	"76.808"	"49.379"	"26.404"	"88.59"	"166.509"	"0.303"	"0"
"1905"	"0"	"9.54"	"11.974"	"30.916"	"13.078"	"110.912"	"29.19"	"114.161"	"50.885"	"137.786"	"0.501"	"0"
"1906"	"10.289"	"0"	"0"	"0.305"	"28.354"	"112.204"	"45.558"	"130.647"	"140.871"	"64.358"	"24.865"	"44.156"
"1907"	"0.405"	"0"	"7.205"	"109.626"	"0.888"	"73.998"	"100.777"	"46.987"	"51.563"	"1.139"	"23.677"	"2.205"
"1908"	"0.795"	"0.239"	"18.621"	"8.031"	"17.135"	"20.574"	"34.742"	"36.567"	"295.07"	"18.178"	"0.303"	"0"
"1909"	"5.655"	"0"	"4.375"	"25.196"	"19.442"	"38.883"	"52.641"	"151.844"	"155.579"	"11.855"	"6.454"	"0.142"
"1910"	"0"	"0"	"16.574"	"11.045"	"44.619"	"27.261"	"99.311"	"100.837"	"179.713"	"36.542"	"84.53"	"0"
"1911"	"0"	"0"	"0.021"	"9.042"	"32.264"	"44.394"	"70.746"	"47.294"	"78.154"	"66.188"	"8.682"	"2.334"
"1912"	"0"	"0.919"	"0"	"42.639"	"18.726"	"19.032"	"53.145"	"104.042"	"87.214"	"97.646"	"72.415"	"0"
"1913"	"0"	"0.022"	"0"	"16.809"	"105.664"	"31.024"	"93.836"	"10.821"	"81.884"	"94.521"	"0.911"	"1.102"
"1914"	"0"	"0"	"2.301"	"10.588"	"25.93"	"44.89"	"64.433"	"116.745"	"170.376"	"61.026"	"55.775"	"21.154"
"1915"	"8.378"	"5.144"	"23.058"	"30.001"	"33.307"	"66.345"	"125.528"	"38.433"	"204.127"	"129.503"	"52.644"	"0.256"
"1916"	"0"	"0"	"0"	"12.778"	"60.057"	"63.444"	"115.295"	"36.535"	"161.119"	"198.663"	"89.521"	"0"
"1917"	"0"	"3.583"	"33.894"	"11.975"	"47.784"	"79.508"	"57.828"	"132.674"	"242.213"	"157.443"	"41.298"	"0"
"1918"	"1.815"	"0"	"4.847"	"6.401"	"106.753"	"12.155"	"8.685"	"32.979"	"214.143"	"6.301"	"54.119"	"4.082"
"1919"	"4.374"	"0"	"0.026"	"6.54"	"66.08"	"61.084"	"26.84"	"9.424"	"196.634"	"46.254"	"57.589"	"7.536"
"1920"	"8.238"	"0"	"0"	"1.977"	"39.05"	"23.528"	"28.11"	"78.08"	"142.224"	"44.169"	"2.671"	"0"
"1921"	"3.037"	"0"	"0"	"34.905"	"3.156"	"52.583"	"99.294"	"15.529"	"57.834"	"226.86"	"111.612"	"0"
"1922"	"1.702"	"0"	"0"	"23.559"	"50.558"	"22.943"	"31.286"	"18.689"	"51.518"	"147.244"	"69.704"	"0"
"1923"	"0.272"	"2.535"	"25.499"	"13.557"	"33.024"	"14.637"	"72.61"	"17.656"	"76.593"	"16.785"	"0.303"	"0"
"1924"	"0.487"	"0"	"0.553"	"25.699"	"29.483"	"25.873"	"24.373"	"104.304"	"173.289"	"42.009"	"23.751"	"1.73"
"1925"	"0"	"0"	"0.03"	"11.2"	"61.095"	"8.479"	"28.482"	"75.628"	"73.888"	"177.641"	"33.043"	"53.964"
"1926"	"12.055"	"1.309"	"1.13"	"30.904"	"63.699"	"35.985"	"28.893"	"28.887"	"108.112"	"47.619"	"1.136"	"0"
"1927"	"0"	"0.003"	"8.513"	"1.616"	"54.268"	"50.488"	"110.676"	"19.21"	"115.764"	"64.514"	"82.567"	"0"
"1928"	"0"	"6.214"	"9.1"	"9.769"	"5.757"	"85.024"	"116.009"	"62.748"	"135.559"	"98.266"	"0.665"	"10.329"
"1929"	"0"	"3.886"	"0.005"	"56.949"	"37.85"	"69.015"	"8.454"	"10.193"	"144.699"	"111.05"	"44.664"	"3.977"
"1930"	"0.34"	"0.001"	"5.351"	"28.118"	"43.502"	"38.012"	"46.867"	"23.25"	"139.073"	"197.119"	"36.553"	"10.578"
"1931"	"0"	"0"	"4.256"	"13.564"	"37.876"	"74.482"	"31.109"	"11.858"	"169.612"	"82.055"	"68.849"	"11.243"
"1932"	"0"	"0.235"	"0.328"	"5.048"	"31.21"	"61.119"	"40.257"	"151.671"	"93.333"	"123.654"	"95.169"	"1.385"
"1933"	"0"	"2.037"	"16.272"	"45.724"	"115.034"	"39.938"	"78.636"	"114.355"	"160.339"	"203.812"	"63.333"	"30.004"
"1934"	"0"	"0"	"0"	"26.803"	"6.178"	"44.447"	"173.633"	"33.743"	"58.263"	"68.27"	"71.982"	"0"
"1935"	"6.675"	"0"	"0.537"	"20.862"	"5.222"	"100.642"	"75.738"	"147.738"	"78.363"	"91.41"	"3.855"	"0.2"
"1936"	"0"	"2.826"	"12.608"	"12.439"	"34.178"	"53.152"	"20.503"	"68.856"	"97.456"	"51.63"	"95.938"	"0.052"
"1937"	"0"	"4.523"	"16.087"	"86.836"	"21.385"	"26.43"	"41.037"	"25.972"	"129.244"	"93.556"	"0.331"	"2.357"
"1938"	"0"	"2.176"	"14.273"	"4.458"	"32.885"	"62.151"	"64.325"	"97.841"	"200.444"	"20.217"	"1.046"	"0.094"
"1939"	"0"	"0"	"2.821"	"23.302"	"9.378"	"26.939"	"38.523"	"77.771"	"126.06"	"170.433"	"29.144"	"0"
"1940"	"0"	"0.02"	"0"	"33.959"	"138.058"	"88.551"	"55.023"	"68.849"	"124.668"	"177.376"	"10.346"	"0.866"
"1941"	"1.404"	"1.035"	"2.534"	"17.857"	"62.194"	"31.194"	"20.947"	"78.164"	"133.261"	"56.159"	"0.303"	"24.767"
"1942"	"0"	"0.273"	"0"	"32.36"	"18.459"	"145.58"	"25.891"	"51.007"	"47.397"	"44.903"	"15.011"	"3.697"
"1943"	"6.048"	"0"	"14.714"	"31.964"	"73.268"	"56.472"	"35.328"	"49.492"	"168.743"	"196.236"	"77.749"	"0"
"1944"	"0"	"0.811"	"15.875"	"7.156"	"23.451"	"87.084"	"73.569"	"7.672"	"180.766"	"207.006"	"58.783"	"0"
"1945"	"0"	"0"	"0"	"23.656"	"21.435"	"29.238"	"103.414"	"33.964"	"129.23"	"76.599"	"7.465"	"0"
"1946"	"0"	"7.849"	"9.534"	"12.38"	"83.365"	"57.246"	"51.118"	"55.04"	"105.376"	"118.379"	"114.205"	"7.468"
"1947"	"3.826"	"2.219"	"0.767"	"11.97"	"27.172"	"77.849"	"71.032"	"129.138"	"116.501"	"45.969"	"5.372"	"24.787"
"1948"	"0.414"	"0"	"13.189"	"47.447"	"40.338"	"14.43"	"30.85"	"144.517"	"106.139"	"49.522"	"136.006"	"0"
"1949"	"0"	"0.001"	"0.005"	"6.331"	"38.193"	"48.569"	"64.047"	"93.811"	"250.205"	"125.868"	"16.092"	"0"
"1950"	"0"	"0.907"	"0.488"	"0.501"	"22.566"	"78.154"	"39.249"	"136.15"	"109.257"	"168.884"	"28.364"	"0"
"1951"	"0"	"0"	"1.979"	"21.338"	"51.147"	"76.333"	"154.117"	"47.772"	"189.815"	"100.353"	"13.126"	"0"
"1952"	"0"	"5.197"	"0"	"24.713"	"142.341"	"19.878"	"25.003"	"26.096"	"70.551"	"107.052"	"0.303"	"18.913"
"1953"	"0"	"0"	"0"	"28.911"	"1.703"	"38.689"	"84.432"	"20.754"	"158.122"	"236.952"	"0.303"	"0"
"1954"	"0"	"0"	"13.27"	"17.912"	"31.377"	"27.515"	"144.171"	"132.583"	"17.95"	"49.819"	"0.303"	"4.685"
"1955"	"0"	"0"	"21.669"	"39.044"	"118.031"	"37.52"	"72.033"	"163.211"	"179.737"	"103.476"	"30.186"	"0"
"1956"	"0"	"0.014"	"0"	"47.991"	"85.963"	"66.97"	"172.897"	"49.8"	"163.305"	"265.665"	"60.63"	"15.156"
"1957"	"0"	"0.003"	"4.131"	"37.668"	"64.952"	"83.615"	"85.416"	"73.924"	"66.021"	"169.528"	"15.218"	"0"
"1958"	"0"	"0.925"	"7.222"	"28.392"	"66.533"	"28.428"	"65.779"	"87.644"	"111.993"	"82.591"	"44.071"	"0"
"1959"	"0"	"0"	"0.431"	"17.426"	"67.408"	"80.075"	"89.354"	"71.234"	"149.38"	"55.848"	"10.522"	"2.973"
"1960"	"0"	"0"	"22.798"	"11.643"	"49.198"	"44.262"	"30.532"	"4.611"	"237.837"	"100.926"	"27.311"	"0"
"1961"	"0"	"0"	"2.56"	"24.164"	"100.309"	"69.499"	"134.238"	"42.234"	"20.017"	"148.526"	"8.678"	"0"
"1962"	"0.149"	"0.535"	"0.364"	"113.74"	"74.785"	"64.946"	"48.229"	"82.405"	"99.657"	"154.528"	"43.353"	"54.954"
"1963"	"0"	"1.255"	"7.847"	"63.506"	"65.774"	"56.537"	"28.041"	"153.433"	"57.198"	"230.069"	"0.773"	"0.699"
"1964"	"0"	"0.01"	"0.317"	"10.116"	"4.786"	"82.538"	"133.293"	"44.439"	"345.643"	"145.133"	"46.831"	"4.644"
"1965"	"0.142"	"0.012"	"0"	"35.045"	"17.967"	"74.683"	"40.658"	"71.512"	"123.621"	"1.133"	"11.636"	"54.822"
"1966"	"11.284"	"0"	"0.575"	"20.695"	"31.246"	"27.019"	"125.446"	"66.267"	"179.095"	"46.293"	"74.867"	"38.185"
"1967"	"3.637"	"0"	"0.648"	"38.221"	"12.018"	"71.115"	"109.782"	"37.764"	"129.134"	"163.452"	"0.707"	"1.661"
"1968"	"0.004"	"2.309"	"1.24"	"35.222"	"43.662"	"98.148"	"86.572"	"3.995"	"299.806"	"114.807"	"42.573"	"28.877"
"1969"	"0"	"0"	"5.897"	"13.43"	"96.186"	"54.487"	"73.65"	"116.415"	"85.834"	"115.243"	"26.409"	"7.09"
"1970"	"0.602"	"0"	"1.763"	"59.519"	"49.852"	"32.643"	"76.097"	"113.498"	"171.212"	"116.974"	"0.303"	"0"
"1971"	"0"	"0"	"0.139"	"15.933"	"76.867"	"24.667"	"39.118"	"45.305"	"77.733"	"176.282"	"0.568"	"0"
"1972"	"0"	"0.006"	"0"	"28.04"	"40.01"	"55.348"	"30.608"	"5.81"	"115.757"	"31.508"	"28.284"	"3.67"
"1973"	"0"	"0"	"0"	"4.69"	"27.381"	"94.536"	"36.027"	"108.875"	"81.442"	"195.972"	"16.678"	"7.763"
"1974"	"0"	"0"	"0.926"	"42.602"	"144.517"	"50.924"	"54.16"	"59.182"	"200.152"	"220.383"	"6.811"	"0"
"1975"	"1.087"	"0"	"1.654"	"3.659"	"87.845"	"31.244"	"136.653"	"83.678"	"137.232"	"242.715"	"23.83"	"0"
"1976"	"0"	"0"	"0.138"	"31.392"	"20.758"	"45.335"	"45.796"	"92.193"	"49.294"	"5.994"	"45.161"	"0"
"1977"	"0"	"0.526"	"7.225"	"79.518"	"105.16"	"74.624"	"63.526"	"97.496"	"24.266"	"143.002"	"72.653"	"0"
"1978"	"0"	"3.827"	"0.774"	"41.533"	"93.986"	"63.446"	"74.427"	"74.876"	"244.362"	"71.731"	"58.566"	"20.824"
"1979"	"0.002"	"6.487"	"3.573"	"0.639"	"77.825"	"56.511"	"45.178"	"25.45"	"259.38"	"38.236"	"68.474"	"0"
"1980"	"0"	"0"	"4.043"	"30.634"	"27.522"	"49.708"	"53.58"	"75.181"	"121.507"	"33.116"	"21.748"	"6.038"
"1981"	"8.669"	"0"	"9.017"	"24.531"	"73.537"	"69.889"	"56.441"	"78.883"	"226.628"	"139.249"	"84.898"	"7.504"
"1982"	"0"	"0"	"0"	"13.893"	"54.867"	"64.717"	"98.723"	"39.305"	"161.174"	"74.783"	"92.015"	"0"
"1983"	"0"	"0"	"0.04"	"0.305"	"52.911"	"80.837"	"92.089"	"84.64"	"225.935"	"125.529"	"17.787"	"15.032"
"1984"	"0"	"0.008"	"3.168"	"21.046"	"3.416"	"32.431"	"110.354"	"29.41"	"86.419"	"73.845"	"0.336"	"1.655"
"1985"	"0.382"	"0"	"5.868"	"9.113"	"23.719"	"57.884"	"57.054"	"36.777"	"49.217"	"101.127"	"6.694"	"5.9"
"1986"	"3.649"	"1.922"	"0"	"46.296"	"7.813"	"79.984"	"44.367"	"79.917"	"89.975"	"40.732"	"54.08"	"21.157"
"1987"	"1.254"	"0.133"	"8.76"	"13.745"	"49.543"	"45.432"	"53.469"	"59.358"	"109.887"	"127.023"	"35.871"	"23.08"
"1988"	"0"	"5.243"	"0"	"59.164"	"16.106"	"52.79"	"111.858"	"88.564"	"229.677"	"34.372"	"2.425"	"20.072"
"1989"	"0"	"0"	"9.952"	"26.456"	"15.933"	"66.546"	"133.709"	"33.207"	"137.82"	"87.161"	"4.26"	"4.016"
"1990"	"0.354"	"0"	"4.295"	"14.551"	"160.416"	"58.589"	"43.723"	"74.148"	"63.775"	"109.287"	"36.233"	"0.885"
"1991"	"0.246"	"0"	"0"	"47.904"	"46.095"	"91.611"	"66.353"	"75.778"	"146.892"	"99.158"	"23.856"	"0"
"1992"	"0"	"0"	"0"	"14.523"	"57.001"	"82.07"	"53.528"	"89.613"	"164.655"	"98.787"	"58.265"	"0"
"1993"	"0"	"0"	"6.427"	"23.45"	"31.683"	"60.927"	"79.62"	"69.246"	"86.545"	"180.003"	"5.198"	"22.61"
"1994"	"2.807"	"0.86"	"3.065"	"47.195"	"16.233"	"66.021"	"82.447"	"72.875"	"59.384"	"247.407"	"30.322"	"0.584"
"1995"	"5.715"	"0"	"7.537"	"12.769"	"78.692"	"57.56"	"75.388"	"66.317"	"141.974"	"279.796"	"26.504"	"0"
"1996"	"0"	"0.132"	"0"	"59.646"	"20.783"	"71.974"	"65.501"	"107.306"	"146.613"	"148.426"	"51.79"	"1.102"
"1997"	"3.018"	"0"	"5.618"	"59.917"	"21.758"	"49.934"	"65.411"	"87.185"	"63.373"	"136.202"	"56.502"	"44.755"
"1998"	"0"	"0"	"0"	"13.362"	"31.658"	"50.975"	"90.483"	"107.117"	"127.556"	"190.709"	"23.063"	"3.555"
"1999"	"0"	"0.462"	"0"	"14.395"	"97.849"	"45.765"	"73.068"	"43.372"	"75.079"	"153.372"	"5.671"	"0.01"
"2000"	"0"	"2.705"	"0"	"29.93"	"70.863"	"87.087"	"62.31"	"140.388"	"137.368"	"86.874"	"6.176"	"2.11"
"2001"	"2.717"	"0"	"9.309"	"28.257"	"9.686"	"77.032"	"32.297"	"69.233"	"95.452"	"138.337"	"18.514"	"1.21"
"2002"	"2.718"	"0.25"	"2.426"	"11.311"	"64.356"	"89.557"	"24.189"	"69.334"	"31.028"	"150.687"	"4.056"	"0.201"
