
"Year"	"Jan"	"Feb"	"Mar"	"Apr"	"May"	"Jun"	"Jul"	"Aug"	"Sep"	"Oct"	"Nov"	"Dec"
"1901"	"20.171"	"34.268"	"21.174"	"50.747"	"25.485"	"132.397"	"189.604"	"271.78"	"178.433"	"17.182"	"16.224"	"0"
"1902"	"8.124"	"0.32"	"0.242"	"4.492"	"13.342"	"110.262"	"286.437"	"324.765"	"201.067"	"15.656"	"3.17"	"20.257"
"1903"	"3.518"	"6.81"	"1.121"	"1.835"	"53.64"	"186.96"	"602.759"	"298.624"	"179.097"	"78.088"	"2.606"	"4.938"
"1904"	"0.548"	"2.485"	"27.542"	"0.203"	"66.469"	"236.911"	"217.265"	"475.883"	"174.495"	"48.475"	"0.092"	"4.815"
"1905"	"4.832"	"8.595"	"22.072"	"77.292"	"38.466"	"143.335"	"291.309"	"412.269"	"477.222"	"3.799"	"0.011"	"0.156"
"1906"	"6.585"	"20.758"	"16.82"	"0.203"	"13.65"	"387.854"	"418.328"	"341.972"	"157.842"	"28.93"	"2.411"	"2.686"
"1907"	"0.671"	"21.898"	"17.365"	"112.589"	"13.377"	"315.522"	"190.199"	"379.537"	"106.151"	"4.762"	"4.716"	"7.828"
"1908"	"12.88"	"5.334"	"9.343"	"5.817"	"16.388"	"332.43"	"287.678"	"409.736"	"218.592"	"26.643"	"0.011"	"1.053"
"1909"	"1.142"	"10.66"	"0.669"	"74.776"	"37.675"	"207.582"	"441.155"	"244.406"	"139.524"	"4.874"	"0.011"	"5.597"
"1910"	"1.874"	"0.893"	"5.645"	"14.536"	"13.253"	"233.722"	"393.197"	"322.194"	"279.497"	"123.643"	"16.914"	"0"
"1911"	"3.507"	"0.228"	"20.808"	"1.693"	"16.374"	"335.183"	"237.1"	"375.778"	"275.535"	"87.741"	"17.769"	"0.25"
"1912"	"1.024"	"31.675"	"0.862"	"22.074"	"18.816"	"42.997"	"420.701"	"361.001"	"233.044"	"18.598"	"11.091"	"0.598"
"1913"	"0"	"26.675"	"15.378"	"10.207"	"26.535"	"215.131"	"311.674"	"343.386"	"197.916"	"47.711"	"0.902"	"4.229"
"1914"	"0.9"	"5.653"	"24.411"	"50.796"	"23.42"	"274.051"	"345.354"	"312.54"	"281.318"	"13.601"	"0.011"	"8.751"
"1915"	"40.092"	"28.058"	"30.153"	"19.675"	"25.305"	"159.417"	"281.224"	"360.521"	"216.205"	"75.293"	"9.315"	"0.268"
"1916"	"0"	"6.493"	"0.1"	"10.1"	"19.974"	"177.098"	"271.492"	"364.122"	"220.849"	"66.25"	"6.176"	"0"
"1917"	"0.69"	"31.828"	"4.082"	"13.954"	"58.661"	"251.162"	"333.274"	"277.725"	"383.698"	"188.787"	"0.598"	"0.108"
"1918"	"28.096"	"1.408"	"8.527"	"9.2"	"49.798"	"332.009"	"227.184"	"442.301"	"148.267"	"6.653"	"1.976"	"7.436"
"1919"	"48.432"	"36.694"	"31.375"	"7.337"	"27.12"	"282.166"	"349.495"	"460.083"	"178.986"	"114.302"	"19.649"	"4.763"
"1920"	"8.468"	"3.222"	"20.77"	"15.812"	"11.063"	"109.405"	"388.073"	"310.79"	"96.854"	"17.708"	"0.011"	"0"
"1921"	"22.002"	"2.584"	"0.1"	"8.941"	"0.218"	"262.231"	"318.34"	"328.406"	"239.918"	"21.428"	"0.011"	"0"
"1922"	"6.756"	"0.056"	"0.1"	"5.033"	"13.392"	"259.862"	"416.756"	"278.726"	"272.472"	"49.025"	"19.97"	"0.108"
"1923"	"0.079"	"19.231"	"13.282"	"23.172"	"4.902"	"82.194"	"312.203"	"317.555"	"205.221"	"33.539"	"5.073"	"0.035"
"1924"	"37.508"	"4.954"	"6.478"	"18.266"	"12.96"	"88.424"	"278.744"	"324.143"	"281.033"	"62.712"	"13.922"	"1.803"
"1925"	"0"	"0.712"	"2.096"	"11.482"	"82.062"	"242.01"	"439.242"	"554.088"	"144.576"	"20.043"	"7.127"	"0.086"
"1926"	"18.567"	"0.763"	"45.82"	"40.537"	"49.697"	"156.604"	"355.226"	"622.249"	"339.5"	"71.266"	"1.407"	"2.538"
"1927"	"6.249"	"8.328"	"44.018"	"2.417"	"14.827"	"271.03"	"513.909"	"504.777"	"81.176"	"88.511"	"12.285"	"1.261"
"1928"	"2.795"	"7.989"	"8.914"	"9.892"	"16.039"	"144.776"	"605.826"	"245.497"	"285.097"	"98.674"	"0.015"	"2.578"
"1929"	"10.213"	"23.794"	"1.475"	"25.821"	"6.692"	"224.625"	"635.982"	"561.368"	"225.23"	"72.277"	"0.011"	"14.148"
"1930"	"0.654"	"0.126"	"25.258"	"25.379"	"11.501"	"197.701"	"282.024"	"217.74"	"234.877"	"53.364"	"26.742"	"3.154"
"1931"	"0.279"	"12.503"	"13.86"	"21.738"	"15.762"	"48.753"	"359.825"	"466.797"	"218.836"	"130.447"	"21.522"	"1.113"
"1932"	"0"	"17.087"	"4.09"	"10.781"	"19.281"	"116.537"	"533.07"	"368.201"	"239.289"	"14.034"	"19.093"	"0.331"
"1933"	"1.527"	"4.956"	"13.845"	"43.308"	"52.923"	"253.117"	"349.885"	"368.502"	"211.021"	"67.132"	"7.397"	"7.06"
"1934"	"3.131"	"0.572"	"1.798"	"13.611"	"0.856"	"256.827"	"454.299"	"571.039"	"267.21"	"75.58"	"15.863"	"0.942"
"1935"	"2.239"	"1.844"	"1.268"	"22.463"	"5.791"	"134.87"	"427.477"	"309.387"	"229.315"	"6.648"	"0.011"	"0"
"1936"	"0.805"	"43.455"	"20.14"	"5.04"	"43.901"	"370.24"	"501.188"	"378.283"	"253.596"	"84.404"	"10.025"	"2.473"
"1937"	"0"	"37.402"	"29.02"	"64.031"	"6.958"	"150.8"	"480.594"	"214.507"	"183.951"	"67.12"	"0.011"	"0"
"1938"	"8.235"	"14.969"	"15.942"	"21.709"	"28.773"	"256.051"	"281.829"	"313.981"	"208.778"	"155.944"	"7.294"	"0"
"1939"	"5.905"	"5.608"	"32.799"	"28.134"	"1.365"	"139.284"	"357.551"	"299.059"	"179.712"	"98.229"	"5.132"	"0.01"
"1940"	"0.187"	"16.943"	"34.951"	"20.455"	"27.695"	"191.277"	"384.254"	"402.114"	"70.148"	"65.249"	"8.514"	"3.66"
"1941"	"6.662"	"5.056"	"21.754"	"5.629"	"25.307"	"274.674"	"184.56"	"271.013"	"120.592"	"26.634"	"5.57"	"0"
"1942"	"9.062"	"34.701"	"7.658"	"41.871"	"16.755"	"127.98"	"495.91"	"373.582"	"182.022"	"15.598"	"1.125"	"0.334"
"1943"	"37.039"	"1.33"	"0.413"	"26.055"	"43.453"	"143.098"	"359.979"	"366.928"	"214.708"	"80.16"	"1.717"	"0"
"1944"	"13.538"	"30.067"	"77.239"	"25.868"	"21.564"	"109.244"	"518.035"	"392.629"	"233.121"	"91.675"	"2.313"	"0"
"1945"	"24.516"	"3.459"	"0.1"	"34.525"	"14.038"	"180.04"	"420.446"	"265.002"	"362.714"	"63.201"	"8.694"	"3.177"
"1946"	"0"	"7.16"	"7.391"	"41.551"	"28.576"	"221.343"	"485.41"	"371.105"	"217.665"	"58.363"	"6.354"	"0.467"
"1947"	"24.714"	"5.67"	"29.54"	"13.409"	"5.064"	"143.021"	"525.424"	"349.437"	"331.906"	"49.485"	"6.93"	"6.329"
"1948"	"4.48"	"7.315"	"19.009"	"16.896"	"13.107"	"214.161"	"254.253"	"282.064"	"303.596"	"36.564"	"38.621"	"0.331"
"1949"	"0"	"5.199"	"4.028"	"11.686"	"41.372"	"205.957"	"239.41"	"413.6"	"235.472"	"178.047"	"0.011"	"0"
"1950"	"2.861"	"22.678"	"26.973"	"8.156"	"7.351"	"121.064"	"398.429"	"282.373"	"102.462"	"9.663"	"18.107"	"2.493"
"1951"	"2.602"	"1.191"	"48.775"	"18.492"	"33.242"	"147.552"	"466.078"	"300.624"	"149.848"	"61.205"	"0.879"	"0"
"1952"	"0.075"	"7.32"	"13.605"	"21.348"	"18.324"	"124.776"	"385.299"	"269.529"	"288.519"	"40.025"	"0.011"	"10.262"
"1953"	"19.567"	"0.026"	"0.1"	"23.698"	"6.822"	"157.633"	"283.145"	"476.821"	"215.109"	"53.012"	"1.736"	"0"
"1954"	"2.236"	"2.429"	"11.382"	"16.16"	"14.159"	"115.637"	"389.666"	"378.24"	"358.854"	"44.177"	"0.011"	"0.152"
"1955"	"7.586"	"2.228"	"31.699"	"19.835"	"7.338"	"123.168"	"331.257"	"455.675"	"248.973"	"144.202"	"1.39"	"0"
"1956"	"4.677"	"4.165"	"1.501"	"1.481"	"58.524"	"239.559"	"500.818"	"417.028"	"201.672"	"38.261"	"11.608"	"2.694"
"1957"	"2.065"	"1.553"	"33.156"	"37.846"	"15.829"	"192.191"	"481.485"	"372.191"	"101.948"	"55.47"	"0.011"	"0.836"
"1958"	"4.711"	"6.062"	"17.039"	"25.604"	"22.395"	"69.983"	"413.282"	"319.649"	"283.633"	"110.079"	"9.919"	"0"
"1959"	"18.201"	"3.328"	"0.1"	"16.225"	"43.42"	"252.121"	"331.925"	"342.628"	"257.131"	"77.836"	"0.011"	"2.188"
"1960"	"3.821"	"0.026"	"21.644"	"23.839"	"42.341"	"224.47"	"371.776"	"314.702"	"159.678"	"88.656"	"0.126"	"0.016"
"1961"	"6.565"	"30.632"	"29.626"	"14.873"	"31.95"	"182.17"	"373.637"	"340.998"	"279.261"	"113.959"	"10.604"	"5.255"
"1962"	"8.024"	"20.949"	"9.055"	"31.447"	"16.921"	"156.797"	"330.045"	"349.449"	"215.582"	"10.659"	"4.685"	"25.247"
"1963"	"2.828"	"3.574"	"16.533"	"36.326"	"31.855"	"115.782"	"278.479"	"385.426"	"263.887"	"89.505"	"0.481"	"0"
"1964"	"0"	"33.096"	"6.771"	"40.13"	"10"	"147.795"	"270.337"	"460.571"	"197.75"	"71.365"	"4.397"	"0"
"1965"	"6.877"	"0.449"	"22.961"	"18.283"	"20.254"	"156.929"	"362.069"	"195.66"	"187.223"	"6.657"	"0.011"	"0.819"
"1966"	"48.304"	"0.358"	"5.854"	"17.063"	"24.873"	"194.69"	"260.707"	"272.393"	"170.089"	"15.492"	"7.186"	"7.951"
"1967"	"2.307"	"0.026"	"58.896"	"17.581"	"10.982"	"233.264"	"302.309"	"429.385"	"198.245"	"13.875"	"0.011"	"43.949"
"1968"	"18.763"	"10.262"	"27.801"	"45.578"	"13.25"	"159.865"	"330.387"	"215.977"	"319.427"	"70.257"	"4.991"	"1.626"
"1969"	"0.412"	"0.493"	"6.231"	"10.375"	"25.563"	"110.658"	"586.337"	"320.888"	"283.184"	"24.375"	"9.524"	"34.316"
"1970"	"9.547"	"9.187"	"33.971"	"23.872"	"23.493"	"257.645"	"316.522"	"532.333"	"213.084"	"12.611"	"0.024"	"0"
"1971"	"7.474"	"9.349"	"4.317"	"38.121"	"51.004"	"311.12"	"261.535"	"409.354"	"153.321"	"79.129"	"0.011"	"0"
"1972"	"3.459"	"20.939"	"0.246"	"14.973"	"8.34"	"127.733"	"382.212"	"319.275"	"227.608"	"53.053"	"20.7"	"0.574"
"1973"	"0.927"	"1.098"	"5.406"	"11.415"	"3.264"	"188.91"	"198.962"	"288.656"	"146.323"	"103.03"	"0.37"	"0.208"
"1974"	"0"	"1.032"	"3.848"	"6.432"	"23.771"	"271.247"	"312.482"	"215.511"	"110.025"	"106.9"	"6.026"	"0"
"1975"	"2.626"	"11.641"	"13.735"	"12.779"	"20.285"	"339.272"	"322.709"	"328.886"	"314.11"	"122.376"	"1.351"	"0"
"1976"	"4.348"	"0.787"	"8.161"	"45.612"	"34.947"	"95.524"	"387.821"	"366.759"	"259.184"	"0.692"	"14.705"	"1.658"
"1977"	"3.164"	"1.012"	"2.688"	"43.545"	"46.609"	"220.402"	"374.996"	"379.313"	"164.753"	"32.385"	"39.635"	"14.035"
"1978"	"20.437"	"23.218"	"27.5"	"51.425"	"18.285"	"273.209"	"303.98"	"384.217"	"202.601"	"29.227"	"11.072"	"8.84"
"1979"	"6.152"	"9.186"	"0.1"	"9.642"	"5.663"	"248.026"	"352.72"	"368.955"	"200.537"	"50.886"	"8.136"	"3.657"
"1980"	"1.632"	"1.73"	"5.359"	"11.423"	"10.716"	"342.365"	"390.082"	"273.981"	"161.763"	"16.222"	"0.011"	"2.516"
"1981"	"20.886"	"1.157"	"34.824"	"30.326"	"29.012"	"123.498"	"324.725"	"269.141"	"251.645"	"15.149"	"3.085"	"3.896"
"1982"	"10.952"	"6.359"	"26.605"	"20.377"	"24.737"	"183.589"	"344.073"	"428.203"	"254.652"	"13.374"	"15.96"	"1.459"
"1983"	"0.859"	"14.525"	"10.775"	"13.267"	"34.681"	"173.391"	"338.609"	"288.453"	"182.479"	"52.245"	"0.883"	"2.975"
"1984"	"11.529"	"14.231"	"2.666"	"12.769"	"21.068"	"257.278"	"373.104"	"288.658"	"126.282"	"28.728"	"0.015"	"0"
"1985"	"27.549"	"1.151"	"2.046"	"6.768"	"14.643"	"243.354"	"362.99"	"371.317"	"168.748"	"132.882"	"0.011"	"0.681"
"1986"	"28.042"	"23.399"	"1.759"	"14.985"	"15.601"	"210.884"	"310.482"	"409.957"	"113.067"	"15.347"	"16.31"	"9.676"
"1987"	"5.33"	"3.47"	"14.864"	"5.638"	"27.25"	"120.553"	"267.242"	"390.127"	"172.88"	"40.939"	"14.723"	"1.311"
"1988"	"1.526"	"5.699"	"14.409"	"32.444"	"27.614"	"202.247"	"358.277"	"268.362"	"180.008"	"27.44"	"4.78"	"0.634"
"1989"	"0.072"	"0.026"	"40.063"	"2.948"	"29.808"	"205.069"	"274.269"	"343.857"	"172.04"	"19.477"	"1.992"	"10.563"
"1990"	"2.844"	"37.503"	"39.322"	"4.948"	"76.133"	"307.398"	"413.592"	"477.616"	"159.243"	"116.843"	"5.119"	"4.04"
"1991"	"14.298"	"2.255"	"20.201"	"21.266"	"11.828"	"224.872"	"391.71"	"373.265"	"178.015"	"24.277"	"4.748"	"6.925"
"1992"	"8.691"	"2.304"	"0.1"	"8.697"	"16.176"	"139.488"	"316.702"	"327.841"	"150.943"	"39.306"	"6.669"	"0"
"1993"	"1.149"	"3.725"	"31.48"	"6.136"	"37.796"	"158.473"	"340.3"	"220.112"	"262.053"	"88.836"	"0.03"	"0.113"
"1994"	"13.071"	"11.79"	"25.164"	"14.873"	"31.466"	"214.6"	"504.008"	"385.897"	"180.955"	"83.891"	"3.104"	"0"
"1995"	"10.096"	"1.729"	"59.977"	"11.51"	"30.143"	"172.557"	"412.901"	"261.876"	"229.007"	"61.625"	"5.237"	"0"
"1996"	"12.252"	"4.089"	"7.289"	"29.259"	"2.374"	"131.792"	"303.218"	"292.314"	"123.484"	"55.676"	"8.388"	"0"
"1997"	"16.313"	"0.036"	"34.27"	"23.315"	"13.94"	"57.477"	"237.575"	"270.275"	"174.069"	"29.974"	"29.16"	"25.202"
"1998"	"1.676"	"21.145"	"12.203"	"15.96"	"37.806"	"106.4"	"240.763"	"224.634"	"166.369"	"100.198"	"35.717"	"0"
"1999"	"5.92"	"5.104"	"0.1"	"0.203"	"34.668"	"172.14"	"223.876"	"547.07"	"182.197"	"60.09"	"0.155"	"0"
"2000"	"1.256"	"30.017"	"0.1"	"12.318"	"26.982"	"282.079"	"265.869"	"253.246"	"125.45"	"42.267"	"0.024"	"0"
"2001"	"1.14"	"0.026"	"21.694"	"23.513"	"37.101"	"213.478"	"328.224"	"414.66"	"90.978"	"74.339"	"11.926"	"0"
"2002"	"53.098"	"4.25"	"5.827"	"17.368"	"27.773"	"193.774"	"196.095"	"405.488"	"104.852"	"40.29"	"2.77"	"0"
