
"Year"	"Jan"	"Feb"	"Mar"	"Apr"	"May"	"Jun"	"Jul"	"Aug"	"Sep"	"Oct"	"Nov"	"Dec"
"1901"	"39.83"	"10.53"	"16.714"	"3.165"	"25.209"	"22.316"	"260.572"	"186.635"	"41.779"	"0.326"	"0"	"4.823"
"1902"	"0.216"	"2.982"	"9.959"	"12.116"	"14.551"	"41.441"	"162.61"	"139.405"	"92.52"	"4.919"	"1.083"	"0"
"1903"	"19.195"	"4.714"	"16.251"	"2.257"	"12.414"	"18.762"	"176.1"	"159.068"	"69.918"	"9.215"	"0"	"4.815"
"1904"	"24.232"	"1.319"	"50.612"	"4.903"	"12.141"	"52.305"	"102.262"	"167.2"	"70.508"	"2.086"	"16.409"	"5.104"
"1905"	"61.81"	"36.496"	"9.453"	"3.894"	"6.752"	"22.057"	"107.812"	"83.292"	"228.24"	"3.244"	"0"	"12.697"
"1906"	"8.692"	"70.734"	"14.67"	"3.886"	"10.136"	"52.326"	"91.573"	"182.522"	"240.249"	"0.937"	"0"	"4.072"
"1907"	"15.573"	"46.371"	"32.965"	"27.314"	"6.161"	"56.703"	"124.139"	"168.68"	"4.675"	"1.599"	"0.2"	"0"
"1908"	"36.225"	"12.584"	"1.375"	"11.297"	"10.108"	"53.285"	"161.663"	"412.421"	"92.431"	"0.664"	"0.415"	"4.566"
"1909"	"24.907"	"13.349"	"1.018"	"39.335"	"3.667"	"145.254"	"298.181"	"162.446"	"179.503"	"0.676"	"0.894"	"46.639"
"1910"	"26.597"	"8.957"	"2.19"	"14.514"	"10.994"	"124.019"	"177.839"	"175.758"	"57.908"	"1.982"	"0.895"	"4.016"
"1911"	"58.662"	"3.148"	"60.779"	"8.619"	"6.627"	"71.147"	"58.753"	"149.107"	"83.839"	"3.833"	"32.661"	"0.465"
"1912"	"40.845"	"8.447"	"9.162"	"21.648"	"11.299"	"35.069"	"104.511"	"207.903"	"67.176"	"0.279"	"17.137"	"5.944"
"1913"	"6.19"	"34.738"	"25.539"	"5.025"	"48.181"	"94.404"	"162.598"	"199.563"	"18.533"	"1.443"	"4.366"	"15.716"
"1914"	"16.111"	"38.991"	"22.315"	"18.14"	"18.336"	"49.485"	"281.319"	"128.687"	"229.951"	"20.514"	"11.986"	"9.909"
"1915"	"7.295"	"55.17"	"23.609"	"8.584"	"6.453"	"50.804"	"77.821"	"205.51"	"92.424"	"15.055"	"0"	"4.404"
"1916"	"1.002"	"10.555"	"2.087"	"5.302"	"15.199"	"74.741"	"373.858"	"156.043"	"86.963"	"9.407"	"0.338"	"0"
"1917"	"5.58"	"13.352"	"15.958"	"25.687"	"30.076"	"114.135"	"148.8"	"275.26"	"214.825"	"19.97"	"0"	"5.59"
"1918"	"3.065"	"1.595"	"25.075"	"28.095"	"3.119"	"71.344"	"45.505"	"116.691"	"21.932"	"0.511"	"14.074"	"6.047"
"1919"	"60.772"	"16.664"	"11.85"	"15.985"	"15.049"	"24.089"	"237.802"	"151.274"	"56.943"	"2.569"	"1.998"	"9.968"
"1920"	"19.422"	"16.612"	"18.092"	"3.666"	"18.626"	"63.258"	"106.017"	"132.385"	"32.324"	"0.579"	"0"	"0.463"
"1921"	"19.119"	"1.738"	"1.788"	"2.132"	"5.903"	"53.217"	"223.008"	"213.135"	"88.987"	"11.749"	"0"	"8.534"
"1922"	"21.625"	"15.478"	"3.536"	"4.629"	"4.978"	"52.43"	"149.01"	"180.342"	"285.128"	"3.364"	"2.62"	"35.799"
"1923"	"26.924"	"44.322"	"4.054"	"17.361"	"18.51"	"9.28"	"168.295"	"198.16"	"63.956"	"12.81"	"10.473"	"25.106"
"1924"	"34.926"	"41.217"	"7.375"	"3.019"	"22.135"	"9.234"	"237.699"	"107.218"	"178.225"	"10.733"	"1.325"	"41.105"
"1925"	"15.007"	"2.013"	"4.522"	"4.375"	"18.346"	"168.632"	"223.483"	"201.516"	"26.059"	"2.322"	"18.697"	"0"
"1926"	"12.739"	"4.783"	"40.968"	"16.152"	"13.684"	"10.362"	"156.662"	"290.85"	"51.853"	"1.037"	"6.159"	"8.37"
"1927"	"1.078"	"24.234"	"7.08"	"6.763"	"22.603"	"25.212"	"122.451"	"229.632"	"40.691"	"14.709"	"0"	"24.135"
"1928"	"21.794"	"35.414"	"8.661"	"16.182"	"4.811"	"39.956"	"158.091"	"125.289"	"130.018"	"0.174"	"16.835"	"17.76"
"1929"	"27.203"	"2.917"	"4.375"	"7.598"	"4.207"	"138.582"	"126.131"	"312.819"	"22.652"	"5.99"	"0"	"48.236"
"1930"	"20.312"	"9.922"	"4.955"	"19.011"	"8.23"	"36.116"	"241.196"	"112.524"	"38.775"	"4.668"	"7.418"	"7.005"
"1931"	"24.992"	"31.65"	"14.763"	"5.732"	"16.407"	"11.403"	"269.416"	"217.81"	"153.383"	"23.065"	"0.895"	"0"
"1932"	"17.274"	"3.891"	"14.294"	"4.91"	"7.629"	"36.191"	"141.164"	"112.17"	"91.79"	"1.101"	"0.415"	"26.627"
"1933"	"10.576"	"19.402"	"10.538"	"14.52"	"14.858"	"62.611"	"168.361"	"265.105"	"124.904"	"14.954"	"6.698"	"0.374"
"1934"	"17.56"	"4.162"	"15.35"	"1.168"	"5.445"	"47.042"	"149.639"	"230.939"	"22.968"	"0"	"0"	"13.148"
"1935"	"61.796"	"47.333"	"7.818"	"15.901"	"5.612"	"4.864"	"110.699"	"111.938"	"61.578"	"0.193"	"14.337"	"7.644"
"1936"	"3.915"	"34.262"	"21.737"	"14.217"	"10.553"	"230.426"	"292.92"	"189.627"	"92.615"	"10.254"	"2.156"	"28.53"
"1937"	"2.813"	"78.72"	"4.405"	"26.93"	"10.275"	"36.74"	"258.843"	"62.615"	"85.845"	"5.323"	"0.703"	"17.48"
"1938"	"43.735"	"25.327"	"1.872"	"5.086"	"1.501"	"169.866"	"123.577"	"124.71"	"17.356"	"7.119"	"0.931"	"0.749"
"1939"	"12.161"	"43.53"	"19.731"	"7.822"	"5.558"	"60.469"	"118.922"	"81.534"	"62.356"	"5.632"	"0"	"0"
"1940"	"41.227"	"40.339"	"17.458"	"7.585"	"6.912"	"85.121"	"101.454"	"144.167"	"49.42"	"0.743"	"0.23"	"5.478"
"1941"	"27.459"	"10.245"	"5.287"	"2.52"	"21.205"	"62.931"	"98.39"	"85.47"	"144.26"	"1.001"	"1.224"	"11.606"
"1942"	"29.759"	"32.035"	"12.677"	"21.377"	"18.353"	"57.728"	"225.271"	"186.277"	"76.712"	"1.689"	"0.465"	"25.374"
"1943"	"25.783"	"2.758"	"6.914"	"15.106"	"7.149"	"98.399"	"105.154"	"148.778"	"40.113"	"0"	"0"	"0"
"1944"	"28.05"	"32.3"	"17.988"	"22.227"	"1.017"	"74.256"	"136.469"	"139.638"	"74.255"	"0.774"	"1.462"	"8.393"
"1945"	"33.324"	"0.581"	"12.106"	"34.694"	"8.476"	"62.499"	"220.094"	"124.555"	"173.073"	"9.604"	"0.2"	"1.243"
"1946"	"1.24"	"13.137"	"8.298"	"12.465"	"24.033"	"75.581"	"168.578"	"158.764"	"18.413"	"14.146"	"8.746"	"10.78"
"1947"	"15.003"	"18.363"	"14.934"	"0.867"	"4.89"	"15.361"	"97.796"	"232.461"	"96.764"	"9.378"	"0.931"	"9.39"
"1948"	"5.006"	"35.061"	"39.047"	"9.625"	"6.263"	"52.696"	"252.359"	"241.064"	"66.046"	"3.867"	"4.165"	"14.516"
"1949"	"6.475"	"40.112"	"14.65"	"8.913"	"8.108"	"23.438"	"361.929"	"107.332"	"107.76"	"5.093"	"0.552"	"1.34"
"1950"	"62.916"	"24.519"	"37.488"	"2.955"	"9.316"	"49.614"	"300.677"	"199.823"	"276.457"	"0.252"	"0.452"	"0.715"
"1951"	"24.533"	"14.08"	"23.706"	"17.311"	"16.767"	"38.295"	"134.37"	"139.053"	"52.409"	"2.979"	"18.356"	"0.67"
"1952"	"13.569"	"14.287"	"25.536"	"5.572"	"15.834"	"58.21"	"132.645"	"121.021"	"11.319"	"1.147"	"7.18"	"2.559"
"1953"	"40.728"	"5.164"	"4.804"	"8.574"	"4.387"	"38.757"	"250.749"	"211.436"	"135.741"	"1.393"	"2.577"	"6.081"
"1954"	"26.385"	"56.678"	"5.047"	"1.14"	"6.997"	"35.271"	"238.052"	"96.037"	"269.404"	"12.907"	"0"	"1.056"
"1955"	"22.634"	"2.411"	"23.463"	"13.087"	"13.53"	"40.473"	"146.166"	"151.901"	"237.985"	"24.406"	"0"	"3.578"
"1956"	"20.602"	"7.745"	"20.759"	"5.348"	"17.7"	"118.839"	"193.246"	"178.068"	"23.007"	"29.329"	"0"	"3.95"
"1957"	"73.119"	"3.18"	"25.768"	"25.817"	"12.058"	"31.971"	"134.384"	"270.647"	"74.243"	"6.148"	"10.428"	"17.413"
"1958"	"9.339"	"6.167"	"8.743"	"6.765"	"3.446"	"50.76"	"161.578"	"169.743"	"235.21"	"17.67"	"1.741"	"27.871"
"1959"	"31.824"	"15.65"	"13.547"	"4.611"	"22.379"	"12.148"	"290.638"	"234.174"	"66.478"	"12.993"	"26.861"	"0.193"
"1960"	"24.343"	"0.973"	"23.84"	"11.085"	"4.547"	"38.999"	"142.556"	"128.737"	"86.091"	"11.86"	"0"	"6.595"
"1961"	"77.053"	"33.007"	"5.775"	"13.764"	"9.815"	"34.25"	"254.894"	"178.473"	"142.212"	"18.957"	"0.906"	"13.312"
"1962"	"34.837"	"27.556"	"19.807"	"2.258"	"11.835"	"24.252"	"171.894"	"159.772"	"206.089"	"0.096"	"10.886"	"9.852"
"1963"	"4.079"	"15.992"	"31.228"	"7.885"	"24.593"	"30.787"	"119.087"	"125.4"	"105.712"	"1.835"	"6.355"	"16.159"
"1964"	"21.975"	"5.153"	"10.55"	"9.689"	"19.427"	"50.817"	"320.664"	"158.313"	"104.466"	"0"	"2.228"	"8.688"
"1965"	"10.023"	"29.292"	"17.059"	"32.077"	"15.21"	"7.081"	"168.978"	"138.296"	"10.283"	"7.561"	"8.192"	"0"
"1966"	"3.186"	"48.11"	"14.488"	"8.364"	"22.816"	"97.669"	"176.388"	"186.734"	"179.801"	"12.397"	"8.029"	"1.529"
"1967"	"0.396"	"17.342"	"46.247"	"5.401"	"3.469"	"16.899"	"129.34"	"354.901"	"49.398"	"3.443"	"2.826"	"40.797"
"1968"	"35.797"	"31.202"	"11.373"	"4.439"	"5.794"	"36.685"	"140.848"	"191.064"	"18.249"	"10.343"	"0"	"7.873"
"1969"	"11.149"	"10.573"	"22.186"	"25.958"	"21.222"	"21.661"	"224.936"	"143.085"	"164.862"	"1.772"	"0.691"	"0"
"1970"	"23.344"	"17.641"	"10.442"	"0.563"	"17.488"	"58.01"	"75.78"	"203.243"	"51.313"	"4.506"	"0"	"0.031"
"1971"	"6.991"	"17.116"	"8.214"	"18.089"	"39.022"	"84.663"	"192.054"	"293.915"	"68.865"	"14.466"	"5.992"	"0"
"1972"	"11.265"	"19.672"	"6.944"	"7.442"	"2.203"	"20.871"	"146.897"	"144.311"	"178.619"	"12.109"	"10.607"	"8.092"
"1973"	"18.681"	"17.061"	"13.496"	"0.989"	"16"	"64.606"	"154.263"	"253.381"	"91.1"	"8.964"	"0"	"12.785"
"1974"	"9.813"	"11.426"	"3.11"	"1.242"	"14.165"	"33.429"	"197.719"	"96.21"	"17.41"	"1.196"	"0"	"11.314"
"1975"	"32.685"	"26.529"	"23.611"	"2.896"	"1.64"	"112.493"	"239.446"	"172.701"	"189.769"	"2.586"	"0"	"0"
"1976"	"13.358"	"33.602"	"14.04"	"11.993"	"13.856"	"96.558"	"183.171"	"497.942"	"137.218"	"10.578"	"0"	"0.248"
"1977"	"30.36"	"1.703"	"1.632"	"30.745"	"41.263"	"110.877"	"207.233"	"150.334"	"66.513"	"18.22"	"0.725"	"9.323"
"1978"	"6.144"	"9.749"	"53.26"	"8.658"	"1.03"	"84.889"	"263.352"	"346.309"	"164.347"	"0.85"	"7.294"	"2.415"
"1979"	"15.029"	"42.547"	"33.19"	"6.823"	"25.165"	"43.594"	"156.41"	"101.999"	"79.561"	"5.54"	"11.857"	"2.246"
"1980"	"13.415"	"13.698"	"23.859"	"5.66"	"5.177"	"119.389"	"456.843"	"309.064"	"120.451"	"7.913"	"7.442"	"8.54"
"1981"	"78.564"	"19.087"	"40.995"	"3.008"	"9.004"	"18.599"	"411.756"	"107.428"	"19.075"	"6.036"	"35.92"	"0.79"
"1982"	"27.286"	"17.734"	"83.388"	"17.045"	"36.366"	"16.498"	"76.518"	"244.203"	"14.014"	"1.423"	"19.006"	"19.161"
"1983"	"50.705"	"23.187"	"34.945"	"36.065"	"59.48"	"57.277"	"176.513"	"228.309"	"117.355"	"18.766"	"0"	"3.595"
"1984"	"3.302"	"61.561"	"8.463"	"17.259"	"0.664"	"43.063"	"366.914"	"221.886"	"120.938"	"0.206"	"0"	"16.596"
"1985"	"12.174"	"1.563"	"5.699"	"20.625"	"21.001"	"74.884"	"271.652"	"198.271"	"126.54"	"20.534"	"1.45"	"22.71"
"1986"	"3.99"	"37.466"	"13.284"	"13.805"	"30.56"	"78.688"	"265.936"	"210.087"	"115.041"	"6.258"	"4.282"	"26.248"
"1987"	"26.364"	"24.729"	"15.798"	"8.289"	"24.413"	"50.534"	"84.197"	"106.728"	"16.676"	"11.141"	"0"	"5.976"
"1988"	"6.812"	"17.432"	"38.529"	"10.808"	"4.337"	"54.696"	"285.513"	"189.014"	"141.294"	"16.632"	"0.327"	"22.007"
"1989"	"47.295"	"7.674"	"17.096"	"2.251"	"9.324"	"45.474"	"240.996"	"147.739"	"66.181"	"0.838"	"7.796"	"3.312"
"1990"	"3.349"	"61.434"	"48.458"	"11.5"	"22.642"	"29.456"	"220.705"	"241.073"	"207.159"	"3.715"	"12.322"	"36.782"
"1991"	"1.215"	"24.864"	"14.081"	"35.774"	"22.898"	"98.002"	"40.834"	"193.091"	"64.391"	"2.294"	"4.61"	"8.659"
"1992"	"36.938"	"39.608"	"13.068"	"9.19"	"31.532"	"33.381"	"127.688"	"213.873"	"99.775"	"4.099"	"24.611"	"1.435"
"1993"	"13.406"	"15.71"	"16.615"	"17.026"	"17.629"	"66.11"	"189.134"	"50.279"	"153.686"	"0"	"0"	"0"
"1994"	"16.257"	"8.904"	"11.286"	"6.812"	"48.171"	"40.696"	"183.091"	"143.575"	"124.636"	"1.72"	"0"	"5.626"
"1995"	"30.836"	"77.599"	"31.327"	"6.573"	"0.902"	"70.961"	"163.184"	"303.519"	"135.204"	"1.852"	"14.506"	"1.093"
"1996"	"36.722"	"32.722"	"18.424"	"6.548"	"22.223"	"185.728"	"130.319"	"295.736"	"75.18"	"7.752"	"0"	"0.858"
"1997"	"22.66"	"10.538"	"15.945"	"38.933"	"21.874"	"127.353"	"235.629"	"282.167"	"62.254"	"20.536"	"16.735"	"3.955"
"1998"	"24.156"	"33.379"	"33.251"	"22.216"	"18.912"	"13.645"	"220.629"	"166.048"	"63.739"	"16.645"	"3.129"	"0.858"
"1999"	"9.68"	"8.049"	"6.772"	"2.454"	"14.609"	"74.586"	"78.842"	"132.366"	"90.973"	"3.767"	"0.759"	"3.396"
"2000"	"16.157"	"27.431"	"6.494"	"1.998"	"14.32"	"81.023"	"229.758"	"128.454"	"47.912"	"0"	"3.312"	"0.466"
"2001"	"7.047"	"6.856"	"12.411"	"10.313"	"25.478"	"66.996"	"268.33"	"38.112"	"41.47"	"0.42"	"0.842"	"1.42"
"2002"	"12.104"	"24.323"	"23.182"	"5.56"	"14.07"	"49.869"	"91.569"	"122.119"	"163.458"	"0.579"	"0"	"4.157"
