
"Year"	"Jan"	"Feb"	"Mar"	"Apr"	"May"	"Jun"	"Jul"	"Aug"	"Sep"	"Oct"	"Nov"	"Dec"
"1901"	"78.174"	"49.555"	"24.536"	"16.018"	"15.71"	"58.643"	"296.35"	"362.082"	"187.185"	"9.433"	"0.668"	"0.051"
"1902"	"21.327"	"4.087"	"0.464"	"3.305"	"2.103"	"28.531"	"306.941"	"204.671"	"209.358"	"9.966"	"5.319"	"7.429"
"1903"	"7.34"	"4.395"	"1.842"	"0.809"	"31.318"	"105.315"	"295.625"	"360.072"	"224.004"	"82.912"	"0"	"0.051"
"1904"	"4.634"	"16.254"	"44.807"	"0.018"	"31.084"	"91.138"	"239.591"	"462.286"	"145.26"	"43.364"	"2.415"	"13.592"
"1905"	"17.859"	"21.306"	"27.261"	"10.4"	"14.72"	"57.157"	"294.525"	"361.293"	"386.265"	"1.765"	"0"	"2.578"
"1906"	"6.609"	"55.873"	"36.004"	"0"	"5.731"	"192.219"	"500.52"	"343.892"	"159.763"	"18.393"	"0.299"	"10.442"
"1907"	"0.809"	"114.54"	"17.19"	"32.656"	"3.384"	"225.499"	"218.926"	"462.334"	"68.608"	"0.341"	"8.096"	"3.374"
"1908"	"30.197"	"43.358"	"15.17"	"3.454"	"0.476"	"91.197"	"340.807"	"442.526"	"116.145"	"28.819"	"0"	"5.554"
"1909"	"6.958"	"12.435"	"3.797"	"45.655"	"25.124"	"177.694"	"388.702"	"228.669"	"152.817"	"0.419"	"0"	"34.379"
"1910"	"8.931"	"3.854"	"11.438"	"2.162"	"3.644"	"194.28"	"214.558"	"359.626"	"270.002"	"53.713"	"50.312"	"0.051"
"1911"	"21.505"	"1.351"	"32.005"	"0.608"	"2.479"	"316.895"	"79.271"	"324.685"	"248.128"	"64.502"	"39.105"	"0.07"
"1912"	"6.107"	"35.494"	"3.181"	"5.908"	"7.372"	"44.71"	"334.99"	"400.257"	"122.039"	"2.16"	"27.945"	"3.726"
"1913"	"0.209"	"74.06"	"39.939"	"0.229"	"34.426"	"222.283"	"257.453"	"443.711"	"102.389"	"19.385"	"1.966"	"26.873"
"1914"	"5.642"	"22.075"	"35.2"	"34.318"	"17.041"	"111.553"	"342.282"	"343.594"	"135.52"	"9.668"	"0"	"17.343"
"1915"	"57.636"	"44.293"	"44.213"	"7.632"	"10.072"	"102.951"	"300.667"	"311.637"	"250.13"	"78.961"	"20.616"	"2.537"
"1916"	"0.209"	"32.726"	"0.181"	"2.263"	"16.851"	"185.55"	"253.61"	"455.031"	"212.747"	"68.65"	"8.45"	"0.051"
"1917"	"4.298"	"80.144"	"15.585"	"3.648"	"54.041"	"157.735"	"320.588"	"421.297"	"218.711"	"97.159"	"0.019"	"3.388"
"1918"	"28.655"	"7.746"	"5.416"	"3"	"41.639"	"337.99"	"108.191"	"383.245"	"85.11"	"1.949"	"3.716"	"15.047"
"1919"	"108.327"	"54.565"	"24.685"	"5.435"	"23.546"	"196.284"	"305.088"	"565.274"	"177.654"	"65.603"	"24.608"	"9.221"
"1920"	"14.812"	"13.159"	"44"	"0.35"	"9.323"	"62.598"	"531.726"	"377.59"	"99.955"	"0.982"	"0"	"0.051"
"1921"	"55.039"	"10.937"	"0.181"	"1.349"	"0.014"	"222.687"	"362.824"	"391.326"	"246.839"	"1.796"	"0"	"0.051"
"1922"	"32.835"	"1.167"	"0.181"	"3.429"	"0.446"	"211.881"	"298.313"	"366.665"	"276.792"	"19.912"	"35.315"	"4.463"
"1923"	"0.805"	"36.881"	"28.382"	"7.681"	"1.126"	"66.635"	"429.354"	"529.332"	"238.718"	"9.421"	"3.695"	"1.338"
"1924"	"59.639"	"22.799"	"15.813"	"7.271"	"3.317"	"29.314"	"360.791"	"295.011"	"167.612"	"35.237"	"11.98"	"11.663"
"1925"	"0.209"	"2.895"	"3.116"	"0.238"	"21.941"	"118.951"	"328.895"	"506.845"	"154.755"	"5.694"	"27.525"	"0.051"
"1926"	"13.169"	"4.099"	"87.806"	"17.08"	"54.01"	"39.452"	"329.217"	"501.355"	"284.805"	"83.91"	"4.353"	"12.968"
"1927"	"16.286"	"39.938"	"46.352"	"0.057"	"2.952"	"120.731"	"441.942"	"341.615"	"85.566"	"63.082"	"39.307"	"7.694"
"1928"	"17.385"	"50.205"	"6.08"	"6.809"	"11.219"	"113.729"	"483.831"	"176.224"	"104.947"	"108.524"	"0"	"26.26"
"1929"	"63.281"	"28.346"	"1.913"	"3.324"	"2.865"	"98.455"	"566.229"	"369.521"	"196.039"	"65.587"	"0"	"54.32"
"1930"	"4.028"	"5.08"	"3.131"	"16.145"	"10.43"	"119.702"	"344.56"	"251.864"	"151.316"	"39.881"	"18.799"	"14.27"
"1931"	"1.303"	"55.712"	"24.934"	"3.321"	"8.155"	"60.801"	"459.591"	"400.782"	"206.941"	"117.546"	"14.145"	"5.865"
"1932"	"0.209"	"30.849"	"11.043"	"1.965"	"13.573"	"103.779"	"452.961"	"285.89"	"197.007"	"17.312"	"13.626"	"1.612"
"1933"	"1.105"	"23.087"	"21.015"	"42.314"	"44.459"	"146.278"	"296.279"	"438.363"	"159.202"	"71.4"	"0.786"	"4.466"
"1934"	"19.318"	"2.384"	"8.869"	"4.691"	"0.014"	"157.559"	"305.366"	"511.534"	"234.348"	"29.403"	"37.337"	"6.104"
"1935"	"9.964"	"13.17"	"1.494"	"16.258"	"1.247"	"129.946"	"385.125"	"417.554"	"188.665"	"3.867"	"0"	"2.882"
"1936"	"4.084"	"49.238"	"31.202"	"4.642"	"23.564"	"226.37"	"303.729"	"340.831"	"225.284"	"78.281"	"10.955"	"17.899"
"1937"	"0.209"	"70.107"	"28.735"	"37.947"	"6.168"	"164.874"	"423.786"	"267.993"	"178.456"	"86.687"	"0"	"0.051"
"1938"	"46.133"	"20.154"	"1.423"	"7.53"	"18.576"	"245.632"	"296.872"	"399.186"	"183.324"	"84.271"	"0.442"	"0.051"
"1939"	"19.754"	"18.422"	"47.395"	"13.181"	"0.033"	"125.848"	"376.741"	"497.156"	"141.185"	"26.54"	"0.321"	"0.162"
"1940"	"1.181"	"34.78"	"51.951"	"14.444"	"8.411"	"81.245"	"463.189"	"450.416"	"101.715"	"36.863"	"9.017"	"13.511"
"1941"	"32.576"	"27.22"	"17.901"	"2.421"	"8.618"	"172.61"	"224.909"	"346.61"	"113.221"	"12.589"	"1.454"	"0.051"
"1942"	"56.15"	"93.914"	"13.244"	"12.437"	"0.86"	"105.531"	"429.962"	"396.093"	"225.508"	"15.763"	"0.039"	"5.514"
"1943"	"60.303"	"5.829"	"0.868"	"13.347"	"25.94"	"68.352"	"341.111"	"530.474"	"274.067"	"87.418"	"2.027"	"0.051"
"1944"	"27.366"	"94.971"	"90.334"	"3.291"	"2.856"	"100.604"	"523.2"	"572.06"	"161.771"	"80.098"	"0.645"	"0.779"
"1945"	"57.2"	"14.314"	"0.181"	"13.457"	"12.561"	"193.094"	"427.527"	"213.18"	"212.754"	"51.837"	"0.531"	"9.455"
"1946"	"0.209"	"34.232"	"9.402"	"15.119"	"17.216"	"215.01"	"344.344"	"392.252"	"157.667"	"32.877"	"19.303"	"4.105"
"1947"	"43.296"	"29.069"	"41.932"	"4.699"	"1.123"	"69.063"	"456.233"	"367.848"	"302.372"	"18.488"	"1.291"	"5.915"
"1948"	"23.852"	"13.299"	"21.569"	"5.774"	"6.217"	"216.795"	"303.222"	"417.488"	"249.827"	"31.122"	"61.687"	"1.612"
"1949"	"0.209"	"31.456"	"7.059"	"5.237"	"43.949"	"142.468"	"310.258"	"541.644"	"238.396"	"145.558"	"0.027"	"0.051"
"1950"	"17.631"	"53.358"	"55.352"	"1.781"	"4.129"	"107.962"	"407.833"	"288.561"	"126.614"	"3.323"	"1.789"	"17.648"
"1951"	"16.086"	"9.517"	"48.882"	"12.97"	"16.729"	"121.067"	"302.147"	"328.545"	"170.102"	"57.166"	"0.029"	"0.051"
"1952"	"0.786"	"29.728"	"34.385"	"4.815"	"9.683"	"132.158"	"151.253"	"292.583"	"161.2"	"14.807"	"0"	"4.536"
"1953"	"30.93"	"6.379"	"0.181"	"13.664"	"0.456"	"80.183"	"384.446"	"394.34"	"222.296"	"14.137"	"0.063"	"1.809"
"1954"	"13.886"	"12.57"	"7.738"	"0.993"	"4.165"	"117.869"	"286.94"	"335.441"	"255.318"	"7.755"	"0"	"0.829"
"1955"	"46.645"	"11.138"	"8.325"	"4.252"	"2.815"	"86.828"	"371.574"	"465.992"	"275.283"	"104.839"	"0.34"	"0.288"
"1956"	"29.073"	"12.633"	"5.765"	"0.441"	"46.746"	"213.632"	"449.804"	"343.242"	"297.298"	"36.824"	"51.958"	"16.242"
"1957"	"10.95"	"1.083"	"39.141"	"28.868"	"4.391"	"126.535"	"407.749"	"303.705"	"140.768"	"6.573"	"0"	"5.152"
"1958"	"21.378"	"22.525"	"27.872"	"12.341"	"0.73"	"59.353"	"412.267"	"330.549"	"208.812"	"81.455"	"21.428"	"0.779"
"1959"	"51.69"	"19.314"	"0.181"	"12.951"	"49.046"	"99.248"	"284.23"	"366.173"	"191.268"	"72.227"	"0"	"0.331"
"1960"	"23.258"	"0.242"	"20.57"	"13.447"	"15.453"	"132.785"	"422.861"	"407.448"	"92.523"	"70.228"	"0"	"0.051"
"1961"	"29.751"	"41.646"	"5.651"	"3.096"	"13.885"	"85.213"	"370.465"	"481.257"	"321.926"	"66.135"	"4.399"	"30.469"
"1962"	"19.902"	"39.34"	"23.822"	"8.931"	"12.421"	"84.749"	"267.14"	"352.46"	"270.713"	"7.874"	"9.941"	"54.409"
"1963"	"17.567"	"21.362"	"26.474"	"12.312"	"22.553"	"108.071"	"351.25"	"395.151"	"227.276"	"35.259"	"1.56"	"0.779"
"1964"	"0.209"	"42.106"	"8.912"	"9.538"	"6.263"	"128.627"	"350.872"	"492.317"	"160.047"	"25.173"	"12.201"	"0.051"
"1965"	"11.367"	"0.337"	"30.082"	"16.033"	"5.634"	"91.911"	"258.105"	"208.366"	"188.829"	"11.825"	"0"	"5.088"
"1966"	"49.799"	"3.006"	"11.368"	"4.246"	"28.341"	"215.862"	"219.989"	"214.403"	"74.885"	"6.182"	"28.855"	"27.865"
"1967"	"2.749"	"0.242"	"58.573"	"6.969"	"12.731"	"131.951"	"331.606"	"618.494"	"205.224"	"4.411"	"0"	"100.555"
"1968"	"38.871"	"20.283"	"16.616"	"12.506"	"0.441"	"105.621"	"272.321"	"367.101"	"222.354"	"18.029"	"0.29"	"4.949"
"1969"	"2.417"	"3.059"	"6.154"	"2.48"	"20.005"	"79.205"	"518.874"	"389.99"	"183.434"	"1.858"	"12.494"	"4.668"
"1970"	"40.011"	"41.611"	"24.947"	"0.777"	"29.451"	"171.121"	"382.203"	"472.507"	"314.606"	"13.358"	"0"	"0.051"
"1971"	"18.503"	"12.475"	"11.858"	"13.645"	"22.104"	"310.514"	"288.453"	"483.22"	"146.312"	"96.769"	"0"	"0.051"
"1972"	"21.438"	"49.296"	"0.54"	"12.057"	"0.279"	"61.859"	"229.508"	"478.649"	"100.032"	"51.191"	"20.369"	"3.217"
"1973"	"5.755"	"7.42"	"0.77"	"1.882"	"0.38"	"74.085"	"454.387"	"441.528"	"211.643"	"58.584"	"0.678"	"0.563"
"1974"	"0.209"	"4.752"	"2.133"	"0.686"	"6.646"	"95.585"	"381.549"	"330.05"	"100.148"	"110.837"	"2.668"	"0.051"
"1975"	"8.291"	"35.423"	"36.235"	"0.999"	"3.089"	"176.743"	"346.05"	"249.951"	"199.668"	"51.415"	"0.574"	"0.051"
"1976"	"26.996"	"3.289"	"7.7"	"33.757"	"17.698"	"53.242"	"303.188"	"360.704"	"342.307"	"0.341"	"21.686"	"0.26"
"1977"	"19.554"	"8.635"	"6.945"	"14.198"	"41.548"	"204.251"	"382.528"	"345.544"	"229.679"	"32.868"	"42.602"	"36.503"
"1978"	"44.762"	"86.197"	"43.082"	"33.11"	"8.227"	"238.194"	"218.228"	"394.703"	"201.608"	"22.44"	"4.327"	"48.067"
"1979"	"37.635"	"23.457"	"0.181"	"4.706"	"3.279"	"112.987"	"303.197"	"351.864"	"138.873"	"23.391"	"32.49"	"5.455"
"1980"	"1.045"	"5.246"	"3.965"	"1.7"	"2.371"	"241.555"	"275.119"	"451.53"	"72.959"	"7.839"	"0"	"19.011"
"1981"	"31.706"	"4.886"	"42.66"	"7.367"	"15.449"	"96.521"	"402.967"	"283.952"	"257.399"	"5.212"	"11.894"	"22.992"
"1982"	"64.249"	"19.665"	"43.88"	"5.361"	"25.115"	"127.701"	"284.782"	"467.078"	"339.204"	"8.816"	"32.824"	"9.626"
"1983"	"5.205"	"14.239"	"4.662"	"13.159"	"27.563"	"122.782"	"291.459"	"287.426"	"171.287"	"45.065"	"0.455"	"6.623"
"1984"	"45.523"	"51.31"	"1.223"	"10.49"	"1.496"	"185.453"	"309.323"	"283.619"	"146.267"	"23.642"	"0"	"0.051"
"1985"	"32.203"	"4.499"	"0.181"	"9.647"	"6.54"	"110.971"	"376.033"	"414.043"	"132.39"	"109.172"	"0"	"1.767"
"1986"	"45.275"	"60.584"	"1.282"	"2.303"	"27.526"	"128.656"	"254.64"	"430.84"	"141.154"	"4.221"	"7.421"	"43.432"
"1987"	"21.017"	"18.228"	"23.598"	"0.203"	"10.382"	"54.42"	"226.957"	"432.919"	"183.166"	"51.374"	"29.124"	"12.053"
"1988"	"9.603"	"9.511"	"30.563"	"13.612"	"8.363"	"180.586"	"230.213"	"322.725"	"182.431"	"20.322"	"8.327"	"14.252"
"1989"	"0.809"	"0.242"	"42.345"	"0.265"	"9.723"	"159.225"	"275.976"	"282.119"	"104.674"	"19.535"	"6.71"	"49.856"
"1990"	"2.736"	"42.193"	"16.95"	"4.427"	"35.4"	"323.898"	"404.688"	"416.326"	"158.716"	"37.94"	"0.019"	"12.68"
"1991"	"32.028"	"13.324"	"21.741"	"11.56"	"4.383"	"162.518"	"242.918"	"390.742"	"129.741"	"3.959"	"2.903"	"44.047"
"1992"	"29.919"	"11.143"	"0.181"	"5.601"	"6.752"	"49.259"	"139.587"	"261.187"	"189.093"	"50.938"	"2.756"	"0.051"
"1993"	"6.374"	"16.841"	"35.639"	"0.844"	"22.783"	"84.144"	"279.124"	"218.154"	"225.1"	"41.152"	"0"	"0.826"
"1994"	"69.819"	"58.063"	"48.648"	"9.933"	"2.889"	"257.879"	"516.945"	"408.583"	"194.057"	"77.503"	"0"	"0.051"
"1995"	"39.472"	"16.442"	"66.145"	"7.671"	"5.426"	"88.676"	"311.977"	"324.89"	"218.7"	"12.365"	"9.708"	"13.515"
"1996"	"41.446"	"23.533"	"3.372"	"11.63"	"0.904"	"157.425"	"275.108"	"390.445"	"127.709"	"71.582"	"7.7"	"0.051"
"1997"	"29.079"	"0.242"	"1.579"	"6.746"	"18.706"	"72.266"	"178.137"	"332.06"	"185.95"	"38.768"	"40.781"	"64.45"
"1998"	"7.524"	"39.788"	"35.801"	"6.105"	"28.006"	"80.404"	"246.054"	"400.738"	"183.636"	"52.116"	"39.363"	"0.051"
"1999"	"37.098"	"40.587"	"0.181"	"0"	"24.836"	"70.258"	"336.611"	"360.551"	"203.392"	"49.502"	"0"	"0.087"
"2000"	"6.734"	"23.027"	"0.181"	"2.912"	"20.881"	"150.175"	"293.31"	"166.135"	"191.672"	"4.655"	"0"	"0.051"
"2001"	"4.262"	"1.119"	"30.361"	"11.538"	"15.742"	"144.24"	"255.158"	"348.471"	"88.525"	"85.727"	"2.985"	"0.051"
"2002"	"67.548"	"25.094"	"2.648"	"4.083"	"14.869"	"142.434"	"130.213"	"383.393"	"147.537"	"59.733"	"11.522"	"3.043"
