
"Year"	"Jan"	"Feb"	"Mar"	"Apr"	"May"	"Jun"	"Jul"	"Aug"	"Sep"	"Oct"	"Nov"	"Dec"
"1901"	"19.037"	"2.838"	"21.515"	"159.495"	"113.57"	"476.469"	"389.737"	"351.233"	"283.538"	"120.476"	"56.703"	"14.121"
"1902"	"3.595"	"1.513"	"103.56"	"258.65"	"204.936"	"456.851"	"456.831"	"366.297"	"267.562"	"53.687"	"4.218"	"2.122"
"1903"	"9.052"	"21.399"	"66.723"	"95.058"	"231.611"	"549.036"	"300.345"	"487.057"	"330.612"	"130.723"	"10.942"	"2.254"
"1904"	"1.907"	"23.708"	"25.989"	"215.645"	"299.31"	"479.922"	"505.14"	"376.657"	"193.644"	"107.662"	"15.176"	"2.733"
"1905"	"11.4"	"7.565"	"54.028"	"159.291"	"270.47"	"285.102"	"264.818"	"612.827"	"288.852"	"43.497"	"10.548"	"15.269"
"1906"	"8.049"	"21.997"	"40.419"	"154.806"	"189.52"	"374.599"	"443.771"	"268.416"	"302.262"	"166.857"	"11.392"	"2.279"
"1907"	"21.141"	"20.477"	"104.434"	"222.568"	"213.727"	"537.117"	"511.299"	"272.559"	"323.149"	"29.588"	"2.28"	"8.718"
"1908"	"6.131"	"8.064"	"19.266"	"172.543"	"328.618"	"416.401"	"368.922"	"324.243"	"224.843"	"43.905"	"9.68"	"2.234"
"1909"	"5.305"	"4.023"	"3.738"	"153.701"	"291.612"	"606.841"	"441.444"	"247.985"	"181.094"	"137.522"	"4.88"	"3.794"
"1910"	"6.614"	"10.774"	"64.266"	"156.163"	"199.588"	"399.554"	"511.011"	"242.691"	"103.111"	"133.254"	"11"	"2.6"
"1911"	"26.373"	"4.603"	"26.073"	"140.697"	"276.83"	"433.522"	"446.083"	"452.487"	"402.782"	"163.1"	"16.307"	"2.35"
"1912"	"1.547"	"32.528"	"49.628"	"256.754"	"224.354"	"544.893"	"533.613"	"493.908"	"169.585"	"66.766"	"16.899"	"3.737"
"1913"	"2.289"	"32.69"	"45.179"	"140.517"	"321.247"	"410.824"	"386.964"	"312.431"	"248.127"	"236.771"	"4.501"	"58.865"
"1914"	"1.533"	"25.579"	"15.918"	"213.332"	"193.863"	"383.66"	"507.569"	"466.967"	"277.52"	"34.17"	"14.97"	"3.333"
"1915"	"1.381"	"29.78"	"61.967"	"173.05"	"420.067"	"606.778"	"547.845"	"384.612"	"193.82"	"26.986"	"3.779"	"2.95"
"1916"	"3.756"	"7.552"	"38.9"	"139.927"	"180.634"	"316.495"	"371.17"	"370.922"	"185.331"	"185.361"	"13.593"	"1.763"
"1917"	"2.341"	"27.837"	"22.87"	"161.619"	"111.197"	"453.09"	"875.668"	"434.078"	"407.178"	"157.547"	"22.325"	"1.496"
"1918"	"1.202"	"13.829"	"38.443"	"88.239"	"181.508"	"534.402"	"651.926"	"576.607"	"318.106"	"81.553"	"4.985"	"2.155"
"1919"	"9.518"	"7.95"	"8.754"	"141.009"	"176.801"	"435.571"	"521.82"	"272.6"	"378.987"	"74.797"	"14.449"	"1.245"
"1920"	"12.48"	"13.604"	"79.745"	"149.188"	"191.21"	"434.673"	"389.439"	"283.616"	"301.336"	"72.397"	"3.683"	"2.985"
"1921"	"27.92"	"14.364"	"63.314"	"321.069"	"256.08"	"454.661"	"691.976"	"434.119"	"170.445"	"117.088"	"11.031"	"3.519"
"1922"	"8.311"	"3.974"	"6.32"	"56.905"	"208.235"	"340.534"	"483.607"	"490.354"	"233.292"	"72.714"	"5.326"	"5.606"
"1923"	"1.377"	"25.932"	"8.665"	"154.657"	"260.171"	"616.425"	"301.918"	"389.791"	"199.583"	"40.276"	"8.854"	"12.762"
"1924"	"5.443"	"12.983"	"9.576"	"136.033"	"276.327"	"418.696"	"512.322"	"384.094"	"355.014"	"43.881"	"40.38"	"1.982"
"1925"	"3.549"	"4.582"	"23.25"	"141.367"	"342.729"	"325.388"	"576.66"	"210.264"	"290.656"	"72.39"	"3.493"	"2.452"
"1926"	"9.88"	"4.619"	"89.695"	"120.474"	"191.416"	"263.401"	"436.296"	"253.118"	"118.085"	"133.33"	"3.776"	"10.206"
"1927"	"25.658"	"43.932"	"58.351"	"146.292"	"201.559"	"425.295"	"483.565"	"486.222"	"392.328"	"108.094"	"12.206"	"2.021"
"1928"	"9.641"	"7.7"	"21.19"	"123.734"	"364.537"	"316.34"	"293.976"	"432.023"	"100.557"	"188.461"	"16.738"	"1.763"
"1929"	"14.821"	"3.128"	"53.218"	"139.025"	"404.431"	"509.011"	"361.801"	"494.243"	"164.866"	"104.746"	"7.873"	"4.108"
"1930"	"6.609"	"20.216"	"61.798"	"165.05"	"180.137"	"494.175"	"382.994"	"547.012"	"364.766"	"188.628"	"40.792"	"1.999"
"1931"	"2.316"	"12.332"	"45.094"	"158.782"	"282.14"	"364.726"	"754.519"	"490.987"	"259.549"	"113.439"	"6.505"	"20.019"
"1932"	"2.163"	"16.389"	"34.525"	"143.041"	"231.74"	"417.636"	"405.596"	"207.368"	"268.866"	"110.873"	"21.132"	"23.515"
"1933"	"11.888"	"12.936"	"7.779"	"163.182"	"246.183"	"323.732"	"503.773"	"287.284"	"136.487"	"226.759"	"3.355"	"1.746"
"1934"	"12.386"	"38.777"	"6.058"	"140.691"	"403.334"	"688.222"	"542.248"	"299.849"	"211.044"	"206.11"	"26.864"	"1.878"
"1935"	"1.033"	"18.579"	"27.07"	"34.465"	"140.188"	"432.989"	"530.554"	"394.866"	"226.246"	"1.796"	"2.1"	"2.283"
"1936"	"3.93"	"28.088"	"26.22"	"145.318"	"344.699"	"409.292"	"563.523"	"384.843"	"293.366"	"116.859"	"4.28"	"10.839"
"1937"	"1.213"	"24.931"	"11.963"	"77.965"	"250.397"	"251.927"	"386.68"	"663.487"	"311.093"	"80.165"	"4.939"	"0.424"
"1938"	"6.873"	"44.136"	"94.114"	"108.537"	"192.023"	"382.483"	"821.636"	"385.396"	"268.466"	"115.749"	"26.628"	"2.056"
"1939"	"1.967"	"6.304"	"6.343"	"66.258"	"230.564"	"406.11"	"478.657"	"168.393"	"383.352"	"147.385"	"0.2"	"1.79"
"1940"	"0.607"	"29.399"	"92.468"	"78.664"	"274.607"	"601.827"	"406.17"	"321.526"	"389.056"	"68.671"	"11.02"	"18.319"
"1941"	"4.804"	"8.627"	"27.211"	"138.537"	"321.258"	"562.02"	"225.047"	"266.223"	"232.83"	"103.044"	"17.988"	"4.88"
"1942"	"0.819"	"9.888"	"120.916"	"186.479"	"227.698"	"461.698"	"381.382"	"457.468"	"530.769"	"12.966"	"0.741"	"0"
"1943"	"20.329"	"5.268"	"85.18"	"203.907"	"261.732"	"431.45"	"513.367"	"272.81"	"364.831"	"37.261"	"5.134"	"3.16"
"1944"	"17.834"	"2.105"	"18.068"	"55.239"	"228.366"	"258.717"	"289.314"	"223.477"	"252.543"	"29.234"	"2.462"	"3.219"
"1945"	"34.23"	"10.539"	"34.499"	"84.433"	"313.795"	"490.45"	"517.416"	"317.745"	"288.271"	"205.606"	"2.28"	"1.924"
"1946"	"0"	"13.104"	"90.258"	"77.538"	"237.744"	"402.258"	"387.51"	"163.97"	"241.982"	"395.527"	"11.932"	"0"
"1947"	"0.727"	"0.931"	"33.676"	"133.341"	"317.913"	"384.974"	"695.853"	"344.606"	"291.06"	"87.378"	"0.916"	"6.176"
"1948"	"1.372"	"3.107"	"89.406"	"117.157"	"628.414"	"278.747"	"489.625"	"332.325"	"285.124"	"217.142"	"25.655"	"0.734"
"1949"	"13.287"	"4.478"	"14.444"	"246.455"	"292.742"	"395.992"	"346.705"	"517.17"	"590.515"	"107.513"	"4.884"	"2.615"
"1950"	"2.007"	"9.392"	"28.005"	"56.98"	"149.963"	"487.546"	"482.996"	"383.865"	"123.853"	"166.531"	"20.824"	"2.268"
"1951"	"2.135"	"17.085"	"50.169"	"127.102"	"189.763"	"596.28"	"550.246"	"377.569"	"205.995"	"206.166"	"50.835"	"3.643"
"1952"	"3.501"	"20.423"	"54.574"	"107.759"	"337.5"	"487.623"	"479.354"	"530.978"	"391.938"	"155.54"	"33.677"	"0.149"
"1953"	"15.141"	"6.11"	"82.617"	"90.647"	"215.969"	"463.828"	"494.267"	"180.296"	"341.566"	"23.772"	"0.2"	"13.585"
"1954"	"22.57"	"5.569"	"10.761"	"101.361"	"287.019"	"350.477"	"579.826"	"534.59"	"235.385"	"41.244"	"0.2"	"25.994"
"1955"	"1.702"	"3.999"	"48.26"	"203.324"	"155.548"	"577.656"	"676.506"	"322.785"	"212.286"	"83.096"	"8.951"	"16.591"
"1956"	"9.541"	"2.586"	"68.56"	"171.34"	"264.623"	"659.348"	"344.212"	"468.783"	"232.173"	"70.296"	"16.797"	"4.93"
"1957"	"11.921"	"11.331"	"7.868"	"115.848"	"209.321"	"361.557"	"812.377"	"418.321"	"312.338"	"90.4"	"4.133"	"21.249"
"1958"	"17.248"	"29.994"	"10.532"	"81.121"	"306.518"	"212.728"	"501.176"	"504.084"	"202.761"	"68.337"	"0.2"	"1.231"
"1959"	"23.181"	"9.11"	"85.628"	"89.78"	"270.979"	"558.828"	"420.306"	"171.815"	"364.691"	"272.004"	"1.287"	"0.229"
"1960"	"4.7"	"27.975"	"21.874"	"14.238"	"157.232"	"303.484"	"532.036"	"236.476"	"363.581"	"27.683"	"2.554"	"1.817"
"1961"	"2.951"	"2.74"	"40.145"	"62.156"	"257.271"	"402.804"	"401.422"	"449.052"	"463.519"	"29.185"	"9.11"	"0.752"
"1962"	"18.329"	"15.031"	"26.855"	"135.216"	"158.235"	"935.487"	"396.461"	"406.518"	"383"	"104.639"	"0.685"	"2.171"
"1963"	"6.221"	"12.473"	"45.056"	"94.911"	"367.085"	"397.732"	"517.171"	"469.384"	"161.845"	"124.272"	"23.097"	"3.884"
"1964"	"0.874"	"5.5"	"72.048"	"147.665"	"174.33"	"342.37"	"500.642"	"273.084"	"193.912"	"79.985"	"2.725"	"0.381"
"1965"	"0.002"	"13.559"	"28.052"	"150.039"	"368.435"	"332.64"	"596.256"	"425.573"	"209.706"	"44.876"	"86.598"	"1.206"
"1966"	"17.058"	"3.028"	"9.703"	"66.534"	"242.736"	"755.507"	"373.425"	"479.943"	"314.273"	"96.455"	"11.711"	"3.647"
"1967"	"2.037"	"7.242"	"81.553"	"177.719"	"155.059"	"305.55"	"421.861"	"247.757"	"308.748"	"16.704"	"14.306"	"0.294"
"1968"	"18.247"	"48.536"	"20.842"	"128.456"	"287.133"	"495.141"	"515.192"	"287.018"	"262.741"	"123.409"	"3.109"	"0.471"
"1969"	"10.488"	"1.011"	"93.592"	"50.718"	"189.109"	"441.535"	"531.148"	"396.058"	"273.585"	"76.877"	"2.981"	"0.001"
"1970"	"10.652"	"13.3"	"19.683"	"90.826"	"220.9"	"598.961"	"509.195"	"335.245"	"206.14"	"265.47"	"9.262"	"0"
"1971"	"2.621"	"8.472"	"92.754"	"110.475"	"123.419"	"671.928"	"614.541"	"361.611"	"181.533"	"159.288"	"69.394"	"2.292"
"1972"	"4.166"	"7.623"	"45.102"	"179.173"	"213.579"	"253.451"	"406.507"	"387.057"	"296.467"	"31.433"	"14.773"	"0.114"
"1973"	"9.274"	"22.796"	"18.033"	"168.403"	"255.03"	"618.835"	"493.474"	"413.745"	"266.881"	"163.003"	"38.337"	"68.748"
"1974"	"6.045"	"1.74"	"15.862"	"98.033"	"174.268"	"399.348"	"717.643"	"345.193"	"208.344"	"61.434"	"1.854"	"2.841"
"1975"	"4.492"	"53.149"	"23.61"	"92.619"	"198.97"	"442.069"	"513.508"	"362.119"	"342.095"	"102.826"	"0.279"	"0.841"
"1976"	"24.411"	"7.972"	"35.923"	"103.838"	"166.046"	"589.233"	"403.893"	"350.568"	"182.84"	"32.985"	"4.515"	"0.21"
"1977"	"2.739"	"4.238"	"31.278"	"269.471"	"423.407"	"506.016"	"415.799"	"387.662"	"399.579"	"128.287"	"30.33"	"12.897"
"1978"	"5.813"	"4.099"	"40.576"	"184.358"	"275.807"	"455.285"	"589.188"	"487.091"	"298.991"	"162.457"	"26.946"	"0.947"
"1979"	"0.585"	"11.176"	"51.649"	"76.888"	"112.779"	"355.72"	"547.325"	"379.501"	"236.304"	"200.271"	"7.847"	"27.022"
"1980"	"26.146"	"6.281"	"42.593"	"116.555"	"356.855"	"395.832"	"594.004"	"420.699"	"245.705"	"87.257"	"1.96"	"0.173"
"1981"	"30.803"	"8.57"	"40.07"	"209.086"	"324.374"	"403.019"	"602.903"	"312.063"	"172.858"	"11.248"	"0.553"	"65.051"
"1982"	"0"	"8.184"	"31.806"	"250.811"	"139.486"	"352.615"	"235.989"	"266.44"	"122.486"	"57.189"	"34.554"	"8.517"
"1983"	"9.486"	"9.803"	"35.807"	"182.52"	"243.13"	"235.169"	"294.541"	"355.704"	"324.303"	"172.94"	"0.609"	"8.084"
"1984"	"15.888"	"6.148"	"20.554"	"153.256"	"235.479"	"354.084"	"443.198"	"339.255"	"370.549"	"86.087"	"3.893"	"4.423"
"1985"	"6.421"	"7.9"	"28.72"	"169.679"	"290.518"	"307.227"	"869.82"	"226.091"	"292.145"	"65.736"	"6.285"	"23.919"
"1986"	"1.196"	"2.674"	"41.568"	"288.326"	"104.476"	"454.44"	"893.838"	"303.22"	"338.006"	"300.047"	"8.584"	"15.56"
"1987"	"4.661"	"24.574"	"45.025"	"185.129"	"193.169"	"266.11"	"509.451"	"450.826"	"336.013"	"70.388"	"2.467"	"0.364"
"1988"	"2.972"	"12.412"	"26.416"	"180.043"	"365.457"	"389.257"	"567.102"	"447.9"	"277.056"	"118.118"	"94.377"	"10.046"
"1989"	"3.099"	"30.873"	"23.591"	"158.311"	"358.479"	"494.206"	"568.085"	"247.429"	"396.673"	"35.231"	"2.462"	"4.211"
"1990"	"0.517"	"8.701"	"49.086"	"134.775"	"193.515"	"415.534"	"608.9"	"279.646"	"287.099"	"280.995"	"0.2"	"0.413"
"1991"	"46.497"	"22.285"	"30.298"	"136.491"	"259.013"	"539.475"	"542.07"	"570.191"	"375.904"	"255.497"	"0.395"	"13.291"
"1992"	"5.947"	"12.209"	"55.746"	"302.495"	"168.263"	"372.675"	"422.482"	"432.187"	"188.964"	"148.28"	"2.094"	"10.053"
"1993"	"25.501"	"32.068"	"41.852"	"315.365"	"232.522"	"304.202"	"276.106"	"452.571"	"376.266"	"58.96"	"15.784"	"0.769"
"1994"	"12.163"	"16.035"	"58.189"	"267.305"	"172.246"	"303.444"	"574.764"	"516.201"	"111.807"	"41.811"	"21.018"	"0.947"
"1995"	"32.774"	"7.885"	"27.391"	"204.212"	"227.407"	"583.972"	"576.845"	"377.326"	"327.006"	"24.832"	"71.259"	"11.432"
"1996"	"6.08"	"12.653"	"31.153"	"44.451"	"451.063"	"437.349"	"455.986"	"390.795"	"229.583"	"160.696"	"0.2"	"0"
"1997"	"11.08"	"33.884"	"52.967"	"168.53"	"197.648"	"401.656"	"313.956"	"244.576"	"369.38"	"24.272"	"11.333"	"23.651"
"1998"	"1.34"	"6.919"	"73.682"	"188.655"	"155.832"	"418.104"	"489.618"	"472.193"	"297.069"	"215.039"	"3.674"	"0"
"1999"	"0.001"	"5.201"	"13.945"	"34.85"	"409.745"	"431.581"	"518.319"	"495.38"	"324.953"	"130.093"	"16.989"	"0.713"
"2000"	"10.11"	"6.631"	"82.946"	"38.277"	"383.769"	"438.547"	"346.688"	"523.675"	"289.145"	"36.093"	"2.009"	"0.713"
"2001"	"0.971"	"7.849"	"9.936"	"158.619"	"298.723"	"613.657"	"476.608"	"285.443"	"270.056"	"209.714"	"6.656"	"0.386"
"2002"	"7.838"	"17.881"	"38.771"	"243.782"	"310.28"	"502.591"	"529.035"	"321.004"	"305.193"	"52.722"	"23.655"	"0"
