
"Year"	"Jan"	"Feb"	"Mar"	"Apr"	"May"	"Jun"	"Jul"	"Aug"	"Sep"	"Oct"	"Nov"	"Dec"
"1901"	"9.529"	"21.719"	"21.004"	"40.817"	"22.831"	"186.655"	"37.839"	"99.422"	"67.34"	"63.41"	"94.618"	"10.482"
"1902"	"60.154"	"0.159"	"24.101"	"25.848"	"51.538"	"39.308"	"63.37"	"22.156"	"62.735"	"159.814"	"68.73"	"84.731"
"1903"	"26.206"	"1.31"	"0.278"	"70.874"	"94.42"	"65.315"	"76.592"	"139.366"	"36.807"	"112.883"	"85.128"	"102.281"
"1904"	"29.66"	"0.675"	"5.241"	"19.972"	"21.362"	"189.196"	"66.467"	"51.419"	"39.586"	"83.977"	"5.797"	"24.657"
"1905"	"2.501"	"0.238"	"1.787"	"50.863"	"61.504"	"81.714"	"20.488"	"129.043"	"22.672"	"83.977"	"37.085"	"0.516"
"1906"	"6.631"	"17.709"	"8.14"	"18.225"	"26.92"	"61.901"	"47.805"	"49.791"	"6.79"	"110.897"	"66.03"	"74.607"
"1907"	"34.544"	"0.437"	"19.059"	"59.677"	"42.882"	"68.174"	"60.868"	"81.396"	"32.717"	"96.206"	"75.52"	"53.404"
"1908"	"7.544"	"12.15"	"7.743"	"27.476"	"40.976"	"44.272"	"39.348"	"79.252"	"70.08"	"83.977"	"43.041"	"11.753"
"1909"	"43.279"	"10.681"	"12.468"	"10.522"	"100.614"	"49.711"	"83.62"	"19.932"	"18.503"	"66.745"	"38.197"	"19.059"
"1910"	"5.598"	"12.19"	"6.353"	"52.213"	"16.637"	"59.955"	"71.073"	"214.528"	"30.295"	"129.956"	"81.555"	"0.516"
"1911"	"0.794"	"5.4"	"5.559"	"10.403"	"44.351"	"89.139"	"55.429"	"8.378"	"50.227"	"149.491"	"79.689"	"99.939"
"1912"	"4.765"	"12.031"	"6.194"	"75.321"	"121.538"	"129.479"	"36.886"	"44.51"	"28.35"	"223.621"	"39.983"	"47.13"
"1913"	"11.872"	"2.621"	"4.328"	"14.453"	"26.364"	"81.753"	"57.255"	"5.916"	"19.892"	"172.441"	"55.866"	"71.549"
"1914"	"1.191"	"1.231"	"5.321"	"21.242"	"81.237"	"17.351"	"69.167"	"28.945"	"44.549"	"143.138"	"51.141"	"185.186"
"1915"	"8.854"	"6.075"	"17.907"	"46.733"	"12.745"	"251.018"	"24.935"	"39.11"	"72.701"	"51.458"	"101.05"	"54.357"
"1916"	"0.159"	"2.621"	"5.956"	"45.582"	"51.379"	"120.307"	"59.638"	"32.32"	"30.216"	"77.743"	"53.285"	"16.001"
"1917"	"4.129"	"17.034"	"40.936"	"16.24"	"77.187"	"73.217"	"16.081"	"15.445"	"48.56"	"37.164"	"101.805"	"44.51"
"1918"	"79.054"	"4.646"	"17.828"	"14.77"	"182.883"	"26.245"	"6.313"	"14.016"	"29.501"	"99.144"	"67.46"	"84.056"
"1919"	"22.95"	"2.184"	"2.978"	"27.595"	"63.807"	"25.213"	"14.215"	"39.15"	"142.185"	"72.423"	"86.161"	"79.292"
"1920"	"67.38"	"0.556"	"7.147"	"107.88"	"6.313"	"181.732"	"45.82"	"13.897"	"38.117"	"103.433"	"178.833"	"10.998"
"1921"	"34.822"	"1.231"	"3.335"	"37.561"	"10.641"	"135.554"	"75.321"	"55.468"	"10.204"	"158.583"	"64.839"	"37.601"
"1922"	"22.434"	"3.216"	"4.804"	"79.212"	"89.973"	"75.559"	"99.899"	"9.37"	"17.272"	"81.714"	"155.685"	"13.54"
"1923"	"23.625"	"0.159"	"31.169"	"16.16"	"44.589"	"92.275"	"24.697"	"112.843"	"60.829"	"130.829"	"34.147"	"48.877"
"1924"	"9.45"	"0.159"	"20.17"	"31.129"	"64.323"	"149.61"	"293.661"	"15.167"	"110.302"	"98.311"	"75.996"	"24.697"
"1925"	"20.012"	"3.573"	"39.03"	"29.978"	"21.004"	"29.501"	"29.898"	"23.109"	"99.422"	"144.091"	"133.648"	"39.348"
"1926"	"75.798"	"0.318"	"35.06"	"3.851"	"101.686"	"43.676"	"111.255"	"29.739"	"70.557"	"40.857"	"38.792"	"22.672"
"1927"	"22.553"	"17.113"	"27.754"	"53.642"	"48.679"	"41.016"	"18.384"	"12.269"	"134.244"	"115.066"	"104.544"	"5.122"
"1928"	"20.925"	"60.233"	"6.71"	"25.531"	"14.413"	"67.38"	"53.92"	"33.472"	"6.234"	"47.766"	"92.077"	"75.718"
"1929"	"82.508"	"19.217"	"37.879"	"54.754"	"41.095"	"100.256"	"25.729"	"17.51"	"71.907"	"97.636"	"66.467"	"70.715"
"1930"	"11.872"	"37.482"	"32.836"	"46.416"	"98.39"	"68.492"	"7.346"	"8.219"	"70.993"	"117.369"	"87.114"	"51.141"
"1931"	"40.936"	"0.159"	"0.874"	"35.814"	"18.264"	"70.199"	"16.478"	"94.578"	"6.075"	"35.06"	"65.752"	"198.726"
"1932"	"0.159"	"19.297"	"10.998"	"40.698"	"83.54"	"19.059"	"37.641"	"116.138"	"38.594"	"99.542"	"75.401"	"52.689"
"1933"	"1.628"	"4.169"	"16.517"	"19.178"	"159.695"	"134.244"	"73.177"	"42.961"	"81.237"	"65.871"	"67.142"	"15.763"
"1934"	"92.593"	"0.159"	"24.617"	"13.262"	"16.597"	"65.633"	"9.45"	"26.245"	"2.065"	"123.603"	"24.419"	"0.516"
"1935"	"36.291"	"8.775"	"4.646"	"54.396"	"14.532"	"41.135"	"26.682"	"63.926"	"43.517"	"107.205"	"123.325"	"31.328"
"1936"	"2.104"	"17.669"	"46.138"	"2.343"	"141.788"	"78.021"	"46.694"	"20.051"	"135.713"	"69.683"	"99.422"	"32.757"
"1937"	"8.219"	"8.695"	"9.053"	"71.311"	"19.972"	"21.084"	"69.445"	"25.253"	"35.06"	"144.17"	"85.168"	"14.254"
"1938"	"1.39"	"94.578"	"48.599"	"38.673"	"11.237"	"41.333"	"90.489"	"190.586"	"32.638"	"68.81"	"25.451"	"18.82"
"1939"	"28.072"	"2.303"	"16.756"	"50.664"	"33.869"	"60.789"	"20.766"	"56.501"	"10.045"	"80.086"	"112.406"	"6.035"
"1940"	"0.238"	"6.909"	"8.219"	"87.828"	"93.427"	"61.067"	"31.526"	"51.776"	"77.704"	"92.315"	"66.943"	"50.783"
"1941"	"18.264"	"3.137"	"0.476"	"71.271"	"41.016"	"70.993"	"10.879"	"34.742"	"81.753"	"82.945"	"121.538"	"22.275"
"1942"	"0.159"	"1.231"	"7.981"	"39.07"	"123.762"	"140.398"	"23.625"	"36.728"	"19.892"	"71.748"	"30.136"	"137.659"
"1943"	"87.948"	"16.398"	"7.385"	"32.4"	"56.858"	"124.516"	"12.745"	"6.591"	"23.982"	"141.034"	"67.817"	"24.339"
"1944"	"0.357"	"8.1"	"36.172"	"29.382"	"53.007"	"96.206"	"14.929"	"3.931"	"13.937"	"69.485"	"91.283"	"103.671"
"1945"	"5.36"	"4.05"	"10.284"	"45.264"	"1.787"	"80.046"	"64.085"	"12.666"	"6.591"	"146.354"	"95.293"	"50.545"
"1946"	"4.646"	"0.278"	"52.848"	"28.111"	"9.013"	"77.108"	"10.681"	"69.008"	"25.61"	"133.926"	"111.612"	"161.164"
"1947"	"12.984"	"14.532"	"28.588"	"110.183"	"39.189"	"75.679"	"39.825"	"146.95"	"61.226"	"94.499"	"15.287"	"13.182"
"1948"	"30.295"	"18.066"	"36.053"	"27.516"	"53.602"	"132.298"	"31.129"	"80.284"	"13.976"	"101.725"	"134.601"	"16.676"
"1949"	"1.946"	"2.621"	"0.635"	"52.371"	"132.696"	"15.803"	"90.568"	"49.513"	"46.733"	"45.979"	"46.654"	"9.132"
"1950"	"0.159"	"72.383"	"16.994"	"72.383"	"83.977"	"66.467"	"22.751"	"16.12"	"102.44"	"93.665"	"70.199"	"20.289"
"1951"	"17.55"	"1.31"	"11.594"	"73.415"	"44.669"	"142.701"	"30.097"	"7.544"	"118.322"	"68.055"	"136.15"	"4.804"
"1952"	"13.857"	"36.092"	"7.941"	"29.779"	"113.2"	"54.396"	"6.115"	"23.267"	"5.241"	"57.255"	"72.78"	"41.969"
"1953"	"66.507"	"7.068"	"13.54"	"42.525"	"1.668"	"116.615"	"198.607"	"33.194"	"43.676"	"133.291"	"72.184"	"0.516"
"1954"	"40.5"	"0.913"	"71.946"	"74.051"	"20.488"	"44.788"	"65.514"	"73.614"	"16.915"	"138.969"	"9.41"	"73.415"
"1955"	"25.173"	"1.787"	"2.621"	"89.655"	"142.463"	"43.636"	"11.237"	"4.129"	"74.765"	"37.641"	"92.236"	"53.007"
"1956"	"15.048"	"19.138"	"4.09"	"10.006"	"82.627"	"81.515"	"6.869"	"122.054"	"59.479"	"67.499"	"66.626"	"18.264"
"1957"	"0.516"	"4.566"	"20.726"	"29.144"	"165.175"	"118.719"	"46.892"	"11.395"	"1.707"	"122.372"	"89.655"	"31.883"
"1958"	"2.501"	"39.705"	"33.988"	"51.935"	"73.058"	"74.765"	"61.543"	"108.833"	"9.768"	"52.411"	"33.075"	"4.328"
"1959"	"0.159"	"38.276"	"1.231"	"13.619"	"143.694"	"78.696"	"150.126"	"43.994"	"62.814"	"52.213"	"47.567"	"25.054"
"1960"	"6.115"	"31.288"	"19.535"	"78.061"	"155.804"	"7.981"	"151.754"	"11.475"	"21.52"	"83.143"	"115.543"	"14.095"
"1961"	"66.149"	"34.305"	"12.031"	"54.396"	"39.705"	"250.7"	"123.921"	"20.051"	"40.023"	"79.451"	"74.487"	"31.725"
"1962"	"24.022"	"16.359"	"16.041"	"37.363"	"150.087"	"23.267"	"34.861"	"106.53"	"93.308"	"112.406"	"22.712"	"38.991"
"1963"	"18.225"	"13.897"	"42.485"	"56.739"	"30.256"	"92.593"	"91.322"	"106.927"	"26.166"	"56.699"	"132.894"	"39.03"
"1964"	"7.782"	"1.747"	"42.445"	"25.451"	"23.545"	"17.312"	"248.516"	"58.208"	"86.518"	"53.563"	"92.236"	"0.516"
"1965"	"0.159"	"3.335"	"10.482"	"32.201"	"59.399"	"12.031"	"43.994"	"11.435"	"73.336"	"83.143"	"64.124"	"180.501"
"1966"	"0.754"	"6.154"	"7.663"	"36.608"	"2.224"	"69.802"	"28.389"	"13.579"	"117.607"	"63.211"	"105.219"	"49.751"
"1967"	"57.295"	"2.978"	"34.861"	"15.326"	"165.651"	"85.923"	"63.727"	"28.826"	"58.486"	"193.008"	"9.569"	"19.773"
"1968"	"0.159"	"11.197"	"13.301"	"39.507"	"6.115"	"23.307"	"79.927"	"20.885"	"26.364"	"104.465"	"40.817"	"33.392"
"1969"	"11.435"	"19.297"	"12.309"	"69.604"	"54.436"	"17.709"	"69.048"	"67.698"	"38.078"	"100.375"	"51.855"	"46.416"
"1970"	"28.31"	"7.187"	"25.332"	"85.883"	"47.924"	"40.619"	"13.976"	"20.17"	"48.044"	"154.97"	"48.957"	"12.745"
"1971"	"27.198"	"17.55"	"25.967"	"23.585"	"66.308"	"61.305"	"49.91"	"40.658"	"56.421"	"75.281"	"23.585"	"109.865"
"1972"	"14.215"	"0.159"	"1.946"	"13.341"	"145.044"	"15.088"	"19.734"	"13.063"	"70.954"	"148.538"	"47.249"	"84.056"
"1973"	"0.159"	"0.159"	"2.819"	"66.824"	"47.091"	"56.302"	"62.099"	"17.788"	"5.201"	"115.94"	"47.924"	"23.148"
"1974"	"0.159"	"85.446"	"13.857"	"87.828"	"120.03"	"16.994"	"65.633"	"90.37"	"95.69"	"34.028"	"134.006"	"7.465"
"1975"	"0.159"	"9.37"	"47.249"	"36.648"	"34.663"	"30.414"	"43.716"	"78.736"	"91.64"	"72.979"	"93.109"	"9.093"
"1976"	"0.159"	"0.159"	"30.414"	"34.107"	"21.52"	"249.152"	"15.723"	"64.323"	"56.342"	"65.037"	"112.922"	"41.413"
"1977"	"0.159"	"26.007"	"15.088"	"35.655"	"83.024"	"29.382"	"34.464"	"106.411"	"45.82"	"129.479"	"155.248"	"19.654"
"1978"	"2.898"	"8.537"	"14.215"	"32.36"	"81.555"	"47.885"	"28.032"	"17.59"	"45.344"	"65.593"	"114.51"	"84.017"
"1979"	"1.787"	"5.678"	"0.556"	"3.812"	"26.206"	"49.711"	"30.931"	"56.62"	"79.451"	"64.839"	"143.813"	"17.669"
"1980"	"0.834"	"3.176"	"5.321"	"35.655"	"45.701"	"41.929"	"51.538"	"69.842"	"24.181"	"83.302"	"82.349"	"63.767"
"1981"	"19.972"	"5.241"	"14.016"	"26.364"	"64.68"	"63.608"	"106.688"	"51.696"	"81.237"	"115.344"	"53.801"	"40.46"
"1982"	"0.278"	"0.159"	"11.038"	"26.484"	"57.057"	"72.343"	"37.323"	"29.501"	"24.736"	"58.963"	"106.688"	"28.508"
"1983"	"0.397"	"0.159"	"0.476"	"13.142"	"66.745"	"50.069"	"65.157"	"114.074"	"71.986"	"60.114"	"64.839"	"159.457"
"1984"	"73.852"	"73.495"	"77.148"	"52.967"	"14.691"	"40.698"	"110.302"	"22.751"	"56.461"	"55.945"	"65.752"	"36.45"
"1985"	"72.82"	"27.198"	"5.797"	"25.253"	"64.998"	"39.507"	"73.336"	"68.055"	"50.585"	"64.561"	"77.902"	"26.206"
"1986"	"3.812"	"22.314"	"3.176"	"52.332"	"46.495"	"24.022"	"94.38"	"63.449"	"24.419"	"43.795"	"76.115"	"29.064"
"1987"	"1.668"	"0.159"	"2.74"	"32.836"	"83.977"	"45.701"	"11.634"	"101.527"	"38.832"	"157.154"	"74.408"	"190.467"
"1988"	"0.159"	"6.234"	"17.47"	"58.923"	"9.807"	"206.826"	"77.902"	"87.193"	"145.878"	"10.244"	"64.124"	"20.726"
"1989"	"37.323"	"0.159"	"9.331"	"42.882"	"39.825"	"83.58"	"84.017"	"31.844"	"54.595"	"96.206"	"38.951"	"16.001"
"1990"	"16.081"	"9.172"	"8.497"	"1.271"	"100.058"	"83.858"	"69.564"	"16.319"	"23.386"	"102.003"	"114.431"	"28.707"
"1991"	"5.718"	"12.07"	"16.637"	"22.434"	"27.039"	"153.025"	"78.418"	"45.423"	"13.778"	"114.034"	"49.433"	"10.8"
"1992"	"9.013"	"0.159"	"0.159"	"9.728"	"81.356"	"111.135"	"57.454"	"58.407"	"41.413"	"112.128"	"122.134"	"22.116"
"1993"	"1.866"	"3.613"	"3.375"	"12.348"	"33.948"	"107.681"	"74.209"	"25.134"	"9.013"	"124.754"	"194.715"	"106.053"
"1994"	"14.413"	"41.532"	"13.54"	"41.889"	"70.834"	"46.297"	"69.564"	"54.198"	"22.95"	"132.894"	"56.461"	"21.441"
"1995"	"11.673"	"10.085"	"3.375"	"57.573"	"122.332"	"46.892"	"39.07"	"23.426"	"29.144"	"79.133"	"76.195"	"2.541"
"1996"	"18.423"	"13.023"	"0.159"	"93.784"	"7.782"	"99.065"	"73.415"	"45.026"	"46.416"	"130.035"	"46.535"	"43.795"
"1997"	"2.025"	"0.159"	"11.554"	"20.488"	"40.063"	"59.241"	"83.183"	"41.175"	"103.83"	"93.07"	"131.346"	"60.233"
"1998"	"7.584"	"0.238"	"0.159"	"28.866"	"93.586"	"45.463"	"53.245"	"73.018"	"90.171"	"123.802"	"110.5"	"112.883"
"1999"	"14.294"	"47.13"	"16.994"	"40.539"	"96.405"	"59.876"	"38.276"	"23.228"	"16.279"	"140.875"	"53.126"	"10.998"
"2000"	"7.941"	"55.349"	"12.269"	"45.979"	"2.025"	"41.413"	"16.2"	"148.419"	"93.308"	"56.699"	"48.957"	"53.245"
"2001"	"16.001"	"13.381"	"1.35"	"93.268"	"54.039"	"139.882"	"95.134"	"70.318"	"112.128"	"85.684"	"59.717"	"23.148"
"2002"	"0.715"	"9.053"	"14.294"	"20.012"	"82.309"	"33.233"	"11.356"	"30.533"	"19.178"	"173.672"	"102.996"	"12.745"
