
"Year"	"Jan"	"Feb"	"Mar"	"Apr"	"May"	"Jun"	"Jul"	"Aug"	"Sep"	"Oct"	"Nov"	"Dec"
"1901"	"22.27"	"13.792"	"41.297"	"130.967"	"143.275"	"383.493"	"303.433"	"309.728"	"255.627"	"158.172"	"133.649"	"2.637"
"1902"	"10.936"	"17.433"	"28.555"	"155.589"	"196.218"	"402.194"	"510.05"	"374.798"	"396.245"	"65.359"	"13.646"	"1.451"
"1903"	"20.377"	"20.091"	"61.743"	"105.773"	"151.52"	"474.717"	"279.238"	"465.741"	"174.839"	"133.932"	"65.593"	"2.191"
"1904"	"21.402"	"41.649"	"72.415"	"248.989"	"194.015"	"203.691"	"291.166"	"424.269"	"159.92"	"53.417"	"52.787"	"1.808"
"1905"	"20.526"	"13.363"	"167.384"	"97.39"	"163.175"	"262.148"	"367.976"	"461.977"	"135.626"	"145.714"	"41.877"	"17.922"
"1906"	"14.005"	"54.064"	"64.097"	"227.727"	"119.839"	"322.787"	"378.327"	"428.145"	"150.602"	"82.615"	"36.414"	"0.017"
"1907"	"13.562"	"49.523"	"75.583"	"150.93"	"116.777"	"364.705"	"434.02"	"258.428"	"247.89"	"35.808"	"4.66"	"5.225"
"1908"	"14.749"	"24.177"	"20.476"	"171.251"	"215.019"	"521.929"	"513.099"	"180.998"	"288.493"	"98.408"	"8.119"	"1.659"
"1909"	"38.56"	"9.047"	"6.373"	"114.487"	"265.597"	"519.045"	"292.778"	"424.007"	"118.757"	"84.545"	"18.447"	"2.447"
"1910"	"10.217"	"33.26"	"96.69"	"107.801"	"149.604"	"654.607"	"436.449"	"348.969"	"135.929"	"237.509"	"31.995"	"16.223"
"1911"	"32.998"	"25.201"	"46.108"	"160.582"	"334.764"	"464.825"	"379.931"	"338.26"	"238.352"	"309.654"	"44.922"	"3.372"
"1912"	"11.651"	"51.459"	"42.379"	"94.78"	"131.658"	"291.138"	"401.889"	"313.861"	"248.028"	"203.074"	"71.486"	"14.615"
"1913"	"12.581"	"55.823"	"50.097"	"198.909"	"308.829"	"332.464"	"277.451"	"311.939"	"171.278"	"221.306"	"13.313"	"20.111"
"1914"	"2.186"	"45.518"	"55.891"	"86.218"	"174.105"	"349.399"	"358.38"	"448.699"	"130.958"	"79.655"	"8.013"	"15.887"
"1915"	"7.102"	"36.5"	"73.08"	"88.772"	"366.911"	"336.314"	"542.54"	"415.658"	"198.5"	"138.164"	"16.596"	"2.39"
"1916"	"12.13"	"16.959"	"67.333"	"143.883"	"325.478"	"323.754"	"357.066"	"321.363"	"189.461"	"212.072"	"73.549"	"8.627"
"1917"	"5.309"	"79.519"	"28.05"	"116.909"	"186.876"	"438.549"	"397.506"	"286.672"	"161.722"	"129.836"	"84.804"	"0.017"
"1918"	"7.32"	"7.623"	"78.845"	"76.063"	"200.454"	"570.048"	"399.396"	"395.727"	"250.267"	"90.402"	"1.951"	"0.312"
"1919"	"9.805"	"13.415"	"6.211"	"70.258"	"226.834"	"361.588"	"435.293"	"202.993"	"275.198"	"252.612"	"52.626"	"3.051"
"1920"	"4.435"	"31.453"	"124.738"	"70.013"	"198.882"	"340.279"	"274.844"	"422.941"	"229.811"	"68.608"	"0.932"	"4.043"
"1921"	"32.826"	"13.432"	"79.813"	"119.497"	"340.723"	"385.331"	"390.45"	"385.575"	"290.261"	"164.198"	"12.813"	"6.543"
"1922"	"13.052"	"3.897"	"40.928"	"144.305"	"136.998"	"388.426"	"427.133"	"347.891"	"149.302"	"189.307"	"23.313"	"6.362"
"1923"	"0.492"	"66.943"	"6.646"	"115.711"	"265.226"	"429.273"	"406.872"	"247.145"	"214.717"	"52.339"	"7.904"	"4.846"
"1924"	"7.955"	"19.231"	"22.531"	"109.126"	"217.212"	"425.025"	"545.325"	"427.711"	"259.169"	"131.636"	"103.05"	"0.323"
"1925"	"20.973"	"32.217"	"54.623"	"130.799"	"327.857"	"260.496"	"384.83"	"328.351"	"235.331"	"90.76"	"10.317"	"2.163"
"1926"	"20.074"	"25.008"	"63.678"	"75.735"	"171.73"	"402.262"	"510.912"	"236.976"	"160.055"	"202.54"	"43.372"	"13.848"
"1927"	"27.91"	"41.59"	"66.05"	"179.104"	"153.244"	"364.801"	"368.489"	"261.193"	"483.181"	"296.41"	"26.011"	"0.017"
"1928"	"5.009"	"20.39"	"56.28"	"56.062"	"256.899"	"365.621"	"430.263"	"327.644"	"296.831"	"269.323"	"23.186"	"2.035"
"1929"	"11.756"	"6.55"	"31.47"	"141.284"	"465.674"	"400.747"	"300.973"	"262.456"	"199.703"	"89.174"	"55.159"	"3.005"
"1930"	"13.997"	"15.695"	"40.271"	"148.132"	"109.653"	"463.336"	"169.751"	"373.874"	"359.917"	"260.252"	"118.135"	"4.617"
"1931"	"6.312"	"37.427"	"26.166"	"225.232"	"198.222"	"566.376"	"492.798"	"199.624"	"190.872"	"114.677"	"22.052"	"25.826"
"1932"	"15.242"	"23.488"	"34.581"	"69.843"	"389.858"	"445.165"	"342.096"	"459.053"	"198.712"	"83.237"	"120.329"	"11.062"
"1933"	"7.628"	"19.932"	"23.259"	"115.983"	"201.684"	"408.165"	"325.428"	"374.716"	"131.562"	"63.908"	"7.009"	"2"
"1934"	"17.191"	"54.348"	"16.605"	"156.989"	"236.654"	"568.695"	"443.473"	"249.074"	"215.353"	"210.969"	"51.482"	"4.547"
"1935"	"4.843"	"30.196"	"38.436"	"64.238"	"180.62"	"522.963"	"308.891"	"514.901"	"245.565"	"40.516"	"19.742"	"1.841"
"1936"	"19.88"	"51.003"	"32.139"	"112.509"	"222.779"	"352.137"	"383.997"	"264.03"	"259.37"	"159.614"	"26.477"	"16.387"
"1937"	"6.602"	"31.574"	"30.068"	"76.421"	"221.225"	"272.398"	"300.393"	"451.391"	"157.375"	"64.505"	"6.092"	"5.704"
"1938"	"38.141"	"23.594"	"61.823"	"98.556"	"182.826"	"490.116"	"407.082"	"418.557"	"328.116"	"194.936"	"84.839"	"3.724"
"1939"	"4.867"	"35.286"	"21.483"	"112.978"	"207.588"	"481.92"	"369.158"	"211.721"	"276.733"	"121.67"	"7.071"	"1.662"
"1940"	"2.215"	"48.168"	"151.919"	"34.51"	"254.104"	"378.676"	"289.53"	"208.8"	"258.181"	"99.788"	"15.425"	"26.199"
"1941"	"11.351"	"32.768"	"71.354"	"65.425"	"290.261"	"406.716"	"277.326"	"313.143"	"338.63"	"76.661"	"4.943"	"9.018"
"1942"	"9.803"	"19.806"	"94.255"	"105.737"	"331.821"	"507.219"	"264.335"	"307.848"	"263.286"	"12.591"	"15.245"	"0.082"
"1943"	"29.337"	"39.116"	"86.064"	"83.013"	"293.243"	"353.303"	"304.98"	"397.153"	"270.669"	"113.714"	"9.321"	"3.524"
"1944"	"24.197"	"23.312"	"38.615"	"61.835"	"290.724"	"435.284"	"328.632"	"282.386"	"269.857"	"150.799"	"20.6"	"24.173"
"1945"	"22.452"	"30.022"	"57.961"	"75.939"	"212.238"	"473.674"	"466.917"	"322.723"	"199.276"	"172.245"	"0.332"	"13.318"
"1946"	"1.756"	"17.961"	"41.722"	"72.79"	"160.471"	"448.52"	"409.125"	"334.84"	"204.502"	"212.106"	"7.885"	"0.417"
"1947"	"11.36"	"14.748"	"38.861"	"178.231"	"189.315"	"328.448"	"485.867"	"359.515"	"455.628"	"346.647"	"11.849"	"19.572"
"1948"	"12.583"	"46.575"	"45.368"	"190.065"	"449.571"	"365.687"	"526.17"	"322.487"	"137.499"	"134.342"	"24.584"	"5.875"
"1949"	"30.488"	"14.347"	"88.849"	"164.33"	"242.603"	"402.05"	"371.7"	"299.334"	"335.114"	"184.913"	"28.029"	"11.73"
"1950"	"10.798"	"49.381"	"58.081"	"79.281"	"175.675"	"446.218"	"332.671"	"361.066"	"236.795"	"211.535"	"49.943"	"6.75"
"1951"	"6.278"	"5.844"	"59.28"	"143.336"	"172.827"	"567.417"	"463.957"	"280.701"	"229.951"	"193.17"	"60.032"	"27.317"
"1952"	"15.821"	"4.775"	"68.106"	"169.872"	"184.995"	"441.395"	"423.139"	"383.294"	"421.09"	"225.268"	"63.81"	"1.579"
"1953"	"11.993"	"16.498"	"102.707"	"65.981"	"286.076"	"497.082"	"475.239"	"266.977"	"259.5"	"196.9"	"6.946"	"2.029"
"1954"	"15.915"	"65.496"	"49.689"	"139.54"	"261.04"	"545.638"	"404.171"	"373.763"	"290.96"	"198.689"	"1.191"	"20.13"
"1955"	"4.659"	"16.807"	"118.796"	"57.937"	"223.033"	"352.374"	"626.499"	"305.637"	"174.492"	"133.58"	"50.247"	"5.883"
"1956"	"29.547"	"4.223"	"109.586"	"93.963"	"279.781"	"464.771"	"289.57"	"254.435"	"196.5"	"148.616"	"58.956"	"5.01"
"1957"	"39.559"	"52.452"	"21.086"	"97.432"	"253.682"	"455.952"	"371.231"	"350.695"	"250.142"	"75.731"	"27.481"	"10.99"
"1958"	"11.047"	"58.357"	"22.202"	"77.366"	"395.72"	"286.685"	"423.397"	"516.69"	"218.385"	"258.353"	"1.478"	"8.104"
"1959"	"27.93"	"60.939"	"109.101"	"101.809"	"382.067"	"474.614"	"328.279"	"305.161"	"199.787"	"223.439"	"19.773"	"10.591"
"1960"	"0.256"	"10.098"	"26.009"	"51.974"	"200.482"	"343.96"	"526.633"	"321.679"	"250.365"	"55.477"	"26.6"	"8.291"
"1961"	"10.946"	"16.885"	"102.728"	"123.401"	"216.054"	"322.934"	"361.94"	"346.779"	"191.399"	"175.593"	"26.105"	"7.242"
"1962"	"21.18"	"30.618"	"14.682"	"72.473"	"167.759"	"384.971"	"285.879"	"393.728"	"95.301"	"108.246"	"13.784"	"6.409"
"1963"	"2.261"	"10.773"	"43.18"	"120.866"	"157.928"	"369.962"	"373.229"	"300.197"	"156.331"	"119.867"	"20.514"	"4.06"
"1964"	"27.271"	"38.032"	"73.918"	"133.039"	"147.03"	"457.501"	"540.056"	"318.203"	"261.892"	"228.116"	"11.494"	"18.412"
"1965"	"3.944"	"34.499"	"33.259"	"79.105"	"96.519"	"474.43"	"408.74"	"432.454"	"246.089"	"73.261"	"118.001"	"25.008"
"1966"	"12.756"	"10.242"	"26.702"	"74.155"	"186.285"	"551.324"	"365.952"	"475.368"	"250.89"	"128.617"	"39.822"	"27.968"
"1967"	"37.44"	"10.966"	"88.157"	"84.898"	"141.393"	"294.948"	"303.439"	"246.439"	"278.168"	"80.642"	"13.919"	"1.809"
"1968"	"23.153"	"26.52"	"53.717"	"128.882"	"311.518"	"314.52"	"480.39"	"405.167"	"251.487"	"67.875"	"8.905"	"0.252"
"1969"	"25.389"	"1.449"	"79.317"	"119.32"	"184.923"	"390.925"	"443.307"	"427.737"	"163.336"	"68.138"	"18.782"	"2.048"
"1970"	"35.047"	"34.712"	"91.571"	"122.431"	"342.107"	"234.209"	"432.033"	"331.124"	"188.725"	"175.98"	"31.065"	"2.435"
"1971"	"19.641"	"19.281"	"12.264"	"86.567"	"147.94"	"289.132"	"385.831"	"318.349"	"193.368"	"251.633"	"63.571"	"12.246"
"1972"	"18.365"	"37.05"	"52.077"	"155.513"	"198.928"	"294.338"	"364.622"	"237.896"	"85.89"	"46.6"	"5.153"	"5.325"
"1973"	"19.603"	"30.234"	"31.826"	"139.659"	"234.568"	"591.982"	"253.998"	"271.864"	"282.475"	"111.246"	"77.299"	"10.586"
"1974"	"21.095"	"8.868"	"76.296"	"188.323"	"151.485"	"372.976"	"575.041"	"326.796"	"309.853"	"137.789"	"34.931"	"1.813"
"1975"	"7.435"	"37.456"	"29.975"	"91.378"	"227.623"	"248.996"	"377.596"	"351.699"	"193.439"	"127.47"	"53.656"	"7.352"
"1976"	"3.686"	"38.402"	"86.421"	"110.945"	"142.424"	"447.331"	"512.328"	"268.15"	"72.969"	"55.281"	"26.416"	"3.014"
"1977"	"9.446"	"61.121"	"48.056"	"252.523"	"221.282"	"415.701"	"434.307"	"371.625"	"161.576"	"136.986"	"37.489"	"26.353"
"1978"	"3.086"	"18.945"	"24.088"	"82.445"	"192.461"	"382.987"	"359.715"	"147.478"	"183.062"	"65.731"	"60.482"	"0.514"
"1979"	"10.379"	"6.857"	"34.853"	"33.433"	"99.588"	"233.476"	"331.492"	"308.189"	"266.212"	"208.509"	"19.558"	"35.577"
"1980"	"7.079"	"24.878"	"88.783"	"158.506"	"195.58"	"251.625"	"393.365"	"408.452"	"227.562"	"167.072"	"0.332"	"1.779"
"1981"	"23.806"	"28.225"	"95.797"	"162.493"	"239.395"	"378.162"	"439.265"	"367.061"	"182.568"	"57.947"	"8.492"	"35.343"
"1982"	"0.856"	"36.333"	"30.393"	"180.008"	"127.279"	"379.803"	"272.806"	"376.793"	"213.445"	"19.529"	"82.023"	"15.503"
"1983"	"26.732"	"60.106"	"71.917"	"108.604"	"184.333"	"357.186"	"481.706"	"345.27"	"293.963"	"130.895"	"17.319"	"34.717"
"1984"	"15.582"	"8.144"	"27.034"	"144.486"	"315.007"	"366.641"	"392.246"	"275.576"	"311.778"	"143.895"	"0.682"	"25.521"
"1985"	"7.443"	"14.185"	"97.241"	"166.95"	"103.518"	"450.28"	"356.12"	"271.013"	"206.382"	"63.636"	"11.79"	"6.716"
"1986"	"7.222"	"12.647"	"28.092"	"168.721"	"55.258"	"192.746"	"395.125"	"253.506"	"263.121"	"176.844"	"56.921"	"3.58"
"1987"	"2.826"	"18.732"	"79.085"	"143.479"	"142.148"	"210.731"	"409.701"	"288.868"	"331.683"	"77.098"	"24.942"	"21.171"
"1988"	"5.791"	"22.246"	"65.943"	"81.232"	"329.547"	"256.771"	"473.177"	"480.639"	"244.854"	"209.942"	"35.687"	"5.721"
"1989"	"5.411"	"42.595"	"31.99"	"90.037"	"145.196"	"318.958"	"384.886"	"218.182"	"266.003"	"263.119"	"21.998"	"8.536"
"1990"	"6.878"	"46.248"	"81.753"	"156.752"	"165.002"	"450.677"	"430.241"	"190.286"	"395.621"	"85.711"	"13.851"	"7.472"
"1991"	"15.095"	"13.104"	"56.287"	"81.049"	"333.253"	"329.701"	"337.143"	"340.106"	"283.678"	"277.503"	"29.174"	"31.66"
"1992"	"16.505"	"61.271"	"65.059"	"105.828"	"171.656"	"304.58"	"455.948"	"405.318"	"252.13"	"143.62"	"9.596"	"14.631"
"1993"	"39.804"	"81.449"	"69.516"	"61.795"	"247.225"	"478.957"	"393.522"	"416.052"	"332.016"	"79.549"	"1.638"	"0.035"
"1994"	"15.778"	"45.085"	"110.034"	"105.843"	"169.316"	"361.858"	"244.962"	"342.877"	"209.029"	"125.449"	"23.96"	"3.718"
"1995"	"16.177"	"35.333"	"43.117"	"61.32"	"219.449"	"395.053"	"389.097"	"249.734"	"311.77"	"60.247"	"86.336"	"5.446"
"1996"	"8.548"	"24.79"	"110.967"	"104.55"	"402.356"	"185.37"	"445.446"	"276.093"	"138.654"	"118.288"	"6.709"	"2.031"
"1997"	"8.526"	"22.986"	"61.448"	"63.745"	"153.328"	"315.764"	"375.058"	"247.68"	"296.22"	"38.664"	"16.407"	"31.341"
"1998"	"17.694"	"58.754"	"109.258"	"77.683"	"274.082"	"306.737"	"413.755"	"324.833"	"111.909"	"68.227"	"69.654"	"0.017"
"1999"	"0.492"	"3.703"	"17.484"	"98.37"	"258.157"	"254.781"	"431.61"	"354.821"	"165.606"	"161.411"	"29.353"	"2.78"
"2000"	"23.875"	"19.843"	"61.756"	"169.403"	"259.075"	"200.026"	"311.254"	"403.042"	"237.334"	"71.113"	"6.722"	"1.985"
"2001"	"1.471"	"19.496"	"53.011"	"127.366"	"242.118"	"325.369"	"381.495"	"356.688"	"244.821"	"174.169"	"27.104"	"1.24"
"2002"	"35.429"	"7.318"	"52.462"	"191.597"	"248.53"	"380.469"	"448.854"	"283.834"	"201.956"	"54.484"	"32.167"	"2.439"
