
"Year"	"Jan"	"Feb"	"Mar"	"Apr"	"May"	"Jun"	"Jul"	"Aug"	"Sep"	"Oct"	"Nov"	"Dec"
"1901"	"86.632"	"42.468"	"26.685"	"9.254"	"16.626"	"45.725"	"354.184"	"389.482"	"205.353"	"9.953"	"0.393"	"0.136"
"1902"	"21.911"	"3.408"	"0.27"	"2.772"	"3.799"	"37.034"	"374.776"	"226.069"	"190.498"	"9.99"	"6.951"	"6.325"
"1903"	"7.511"	"3.527"	"1.008"	"0.571"	"23.027"	"115.371"	"280.679"	"450.643"	"265.046"	"78.236"	"0"	"0.136"
"1904"	"5.056"	"19.14"	"40.839"	"0.072"	"15.887"	"73.472"	"259.211"	"471.363"	"159.719"	"55.827"	"4.234"	"28.481"
"1905"	"19.349"	"18.838"	"24.268"	"9.144"	"16.09"	"52.817"	"314.871"	"366.872"	"342.567"	"1.14"	"0"	"1.572"
"1906"	"5.487"	"47.022"	"34.509"	"0"	"4.24"	"182.427"	"516.963"	"342.499"	"151.054"	"11.539"	"0.133"	"12.579"
"1907"	"1.089"	"135.265"	"12.254"	"26.104"	"2.339"	"166.261"	"243.013"	"494.592"	"32.857"	"0.335"	"11.485"	"2.235"
"1908"	"32.598"	"33.928"	"14.619"	"4.55"	"0.07"	"78.877"	"375.909"	"486.977"	"106.232"	"16.627"	"0"	"8.111"
"1909"	"8.782"	"15.474"	"5.212"	"47.329"	"21.873"	"210.245"	"369.291"	"226.397"	"173.757"	"0.335"	"0"	"49.451"
"1910"	"9.607"	"2.743"	"6.733"	"1.011"	"4.277"	"216.284"	"219.685"	"364.739"	"284.07"	"54.413"	"71.529"	"0.136"
"1911"	"28.581"	"1.551"	"42.003"	"1.428"	"1.004"	"285.357"	"79.177"	"338.714"	"264.574"	"71.499"	"44.372"	"0.136"
"1912"	"14.141"	"34.985"	"4.616"	"4.111"	"4.746"	"52.9"	"349.966"	"418.73"	"135.083"	"0.907"	"38.885"	"4.977"
"1913"	"0.229"	"76.671"	"41.226"	"0"	"32.1"	"224.52"	"257.375"	"461.911"	"91.134"	"10.107"	"1.385"	"32.193"
"1914"	"5.358"	"22.262"	"36.938"	"30.094"	"17.437"	"121.538"	"440.312"	"325.772"	"132.08"	"9.788"	"0"	"17.617"
"1915"	"48.789"	"47.324"	"61.199"	"8.759"	"7.956"	"126.826"	"344.227"	"348.938"	"261.557"	"90.252"	"18.109"	"4.658"
"1916"	"0.229"	"35.35"	"0.195"	"1.729"	"15.919"	"188.048"	"265.446"	"524.719"	"231.966"	"84.619"	"12.632"	"0.136"
"1917"	"4.051"	"93.304"	"23.918"	"2.832"	"52.355"	"196.245"	"343.671"	"388.687"	"244.335"	"77.493"	"0"	"7.76"
"1918"	"16.272"	"8.75"	"3.771"	"2.788"	"38.591"	"380.534"	"94.763"	"381.127"	"62.138"	"1.749"	"5.275"	"17.86"
"1919"	"116.708"	"53.534"	"20.801"	"4.052"	"18.324"	"186.038"	"319.217"	"587.255"	"178.898"	"56.451"	"33.019"	"11.439"
"1920"	"23.907"	"11.351"	"43.966"	"0"	"8.232"	"67.45"	"530.7"	"358.446"	"98.14"	"0.444"	"0"	"0.136"
"1921"	"48.771"	"7.393"	"0.195"	"0.904"	"0"	"218.268"	"368.684"	"368.676"	"276.764"	"1.754"	"0"	"0.136"
"1922"	"43.984"	"2.288"	"0.195"	"3.04"	"0"	"198.58"	"303.248"	"407.834"	"270.583"	"11.184"	"44.953"	"10.78"
"1923"	"1.063"	"27.26"	"32.216"	"7.106"	"0.961"	"57.216"	"437.372"	"539.999"	"240.955"	"13.601"	"2.64"	"3.773"
"1924"	"66.239"	"18.939"	"17.78"	"4.363"	"2.169"	"24.865"	"384.732"	"354.404"	"154.468"	"28.218"	"12.659"	"15.965"
"1925"	"0.229"	"1.709"	"1.843"	"0"	"18.328"	"125.904"	"419.8"	"411.897"	"203.378"	"4.348"	"37.49"	"0.136"
"1926"	"16.166"	"4.495"	"98.524"	"17.372"	"46.433"	"36.346"	"329.358"	"514.554"	"310.372"	"84.611"	"4.138"	"9.202"
"1927"	"18.47"	"38.983"	"44.463"	"0.072"	"1.675"	"136.788"	"490.716"	"293.759"	"94.374"	"65.29"	"55.089"	"9.887"
"1928"	"19.566"	"70.171"	"6.175"	"7.405"	"8.268"	"113.068"	"487.92"	"161.337"	"86.31"	"105.225"	"0"	"51.892"
"1929"	"64.046"	"27.204"	"1.208"	"2.659"	"1.573"	"102.929"	"644.727"	"390.357"	"205.725"	"45.719"	"0"	"59.769"
"1930"	"3.817"	"11.242"	"2.222"	"14.167"	"10.206"	"143.136"	"406.529"	"275.172"	"135.262"	"40.726"	"15.717"	"18.571"
"1931"	"3.319"	"49.498"	"22.419"	"2.882"	"7.353"	"78.148"	"461.417"	"380.119"	"230.417"	"126.527"	"13.259"	"5.314"
"1932"	"0.229"	"29.157"	"12.624"	"1.632"	"10.567"	"114.593"	"405.491"	"298.463"	"197.339"	"18.402"	"14.052"	"1.035"
"1933"	"0.632"	"22.654"	"25.519"	"44.07"	"44.311"	"156.593"	"313.816"	"447.433"	"155.721"	"69.542"	"0.495"	"4.581"
"1934"	"22.796"	"1.537"	"17.686"	"3.439"	"0"	"174.412"	"302.767"	"491.837"	"238.325"	"23.218"	"43.458"	"8.122"
"1935"	"10.671"	"18.948"	"0.934"	"14.279"	"1.099"	"157.063"	"399.111"	"398.342"	"191.956"	"3.802"	"0"	"7.855"
"1936"	"5.345"	"61.73"	"30.949"	"4.35"	"16.471"	"222.295"	"326.366"	"356.486"	"231.26"	"61.758"	"14.284"	"24.139"
"1937"	"0.229"	"72.378"	"32.522"	"33.556"	"4.834"	"196.908"	"432.562"	"275.292"	"179.291"	"82.361"	"0"	"0.136"
"1938"	"48.279"	"18.389"	"0.491"	"7.871"	"13.368"	"297.73"	"335.753"	"430.739"	"214.656"	"83.65"	"0"	"0.136"
"1939"	"20.049"	"19.635"	"49.283"	"13.452"	"0"	"136.937"	"374.164"	"578.066"	"151.88"	"21.846"	"0"	"0.224"
"1940"	"1.106"	"29.441"	"48.424"	"14.092"	"7.6"	"96.261"	"489.536"	"466.323"	"108.273"	"36.267"	"12.075"	"15.846"
"1941"	"45.507"	"29.682"	"15.741"	"2.319"	"6.91"	"165.099"	"230.691"	"324.013"	"106.134"	"6.222"	"0.821"	"0.136"
"1942"	"55.461"	"94.219"	"7.775"	"11.67"	"0.332"	"110.46"	"431.368"	"386.859"	"208.682"	"15.544"	"0"	"12.28"
"1943"	"76.885"	"4.221"	"0.507"	"11.229"	"21.401"	"64.362"	"328.653"	"546.9"	"294.676"	"84.798"	"2.717"	"0.136"
"1944"	"30.787"	"89.072"	"95.201"	"3.099"	"1.205"	"105.033"	"556.019"	"622.121"	"150.077"	"72.074"	"0.754"	"2.218"
"1945"	"74.643"	"8.851"	"0.195"	"14.97"	"9.432"	"191.169"	"454.864"	"269.477"	"186.104"	"42.88"	"0"	"20.4"
"1946"	"0.229"	"44.062"	"5.419"	"12.323"	"13.42"	"228.131"	"353.747"	"391.882"	"105.517"	"25.266"	"29.458"	"6.738"
"1947"	"64.138"	"33.174"	"42.889"	"5.076"	"0.504"	"66.554"	"507.656"	"414.706"	"274.691"	"10.436"	"2.027"	"4.032"
"1948"	"44.33"	"14.238"	"21.45"	"5.352"	"3.809"	"268.087"	"338.145"	"508.982"	"235.728"	"28.248"	"78.803"	"1.035"
"1949"	"0.229"	"38.832"	"4.142"	"4.43"	"37.405"	"156.459"	"344.676"	"567.764"	"243.157"	"142.98"	"0.075"	"0.136"
"1950"	"16.85"	"56.102"	"60.671"	"1.661"	"3.82"	"113.247"	"433.326"	"288.498"	"125.602"	"1.565"	"0.753"	"23.61"
"1951"	"20.438"	"14.636"	"49.742"	"10.357"	"15.154"	"157.467"	"319.893"	"384.742"	"165.435"	"50.877"	"0"	"0.136"
"1952"	"0.736"	"35.007"	"40.529"	"3.86"	"9.023"	"148.17"	"169.986"	"335.974"	"139.846"	"8.939"	"0"	"2.109"
"1953"	"25.185"	"15.613"	"0.195"	"13.158"	"0.07"	"106.778"	"419.461"	"389.577"	"221.07"	"12.337"	"0"	"5.133"
"1954"	"13.353"	"12.765"	"9.185"	"0.629"	"2.932"	"132.229"	"330.556"	"362.276"	"256.002"	"5.715"	"0"	"0.507"
"1955"	"59.735"	"17.104"	"7.89"	"3.851"	"2.892"	"111.341"	"438.833"	"544.622"	"301.277"	"107.669"	"0.133"	"0.739"
"1956"	"27.504"	"16.229"	"8.594"	"0.431"	"37.103"	"246.128"	"480.764"	"337.745"	"293.312"	"45.811"	"81.529"	"18.232"
"1957"	"13.109"	"0.84"	"50.998"	"28.45"	"3.826"	"147.905"	"397.747"	"342.517"	"141.703"	"4.493"	"0"	"6.793"
"1958"	"23.136"	"23.695"	"37.794"	"10.03"	"0"	"64.054"	"392.914"	"365.354"	"188.363"	"65.499"	"29.55"	"2.218"
"1959"	"45.797"	"23.32"	"0.195"	"12.681"	"50.834"	"98.031"	"274.725"	"418.511"	"178.17"	"76.533"	"0"	"0.136"
"1960"	"42.045"	"0.262"	"15.786"	"12.208"	"13.997"	"144.3"	"476.163"	"451.514"	"79.839"	"71.137"	"0"	"0.136"
"1961"	"36.979"	"34.844"	"4.417"	"2.819"	"12.606"	"64.118"	"405.714"	"542.723"	"339.439"	"62.446"	"5.755"	"34.121"
"1962"	"17.062"	"44.277"	"28.135"	"11.311"	"12.003"	"76.59"	"289.747"	"400.771"	"289.005"	"5.124"	"13.74"	"64.506"
"1963"	"16.647"	"26.279"	"23.395"	"13.277"	"16.974"	"124.055"	"428.215"	"414.339"	"245.827"	"41.671"	"1.663"	"2.218"
"1964"	"0.229"	"32.861"	"10.793"	"5.684"	"4.749"	"120.771"	"381.577"	"489.174"	"157.307"	"18.573"	"8.83"	"0.136"
"1965"	"13.725"	"0.472"	"38.443"	"15.998"	"4.531"	"98.177"	"245.599"	"229.105"	"190.05"	"12.409"	"0"	"5.533"
"1966"	"30.947"	"4.75"	"12.859"	"3.88"	"27.05"	"279.035"	"248.059"	"222.993"	"69.232"	"6.114"	"47.162"	"25.827"
"1967"	"1.874"	"0.262"	"62.265"	"6.951"	"11.205"	"136.487"	"358.374"	"651.487"	"189.12"	"2.65"	"0"	"113.908"
"1968"	"40.643"	"22.222"	"18.836"	"11.614"	"0"	"119.755"	"284.273"	"359.876"	"231.936"	"15.236"	"0"	"6.488"
"1969"	"3.834"	"3.464"	"6.761"	"1.146"	"18.898"	"77.565"	"569.744"	"397.808"	"170.388"	"0.449"	"12.217"	"0.136"
"1970"	"47.483"	"57.279"	"23.097"	"0.229"	"32.144"	"171.446"	"421.296"	"509.079"	"371.267"	"14.219"	"0"	"0.136"
"1971"	"20.141"	"15.909"	"13.902"	"14.817"	"19.945"	"329.52"	"253.317"	"498.794"	"168.315"	"101.693"	"0"	"0.136"
"1972"	"20.295"	"45.323"	"0.333"	"7.975"	"0"	"61.648"	"205.296"	"509.478"	"105.38"	"46.727"	"23.082"	"2.984"
"1973"	"6.109"	"19.212"	"0.27"	"1.269"	"0.075"	"60.153"	"565.132"	"523.468"	"210.24"	"49.512"	"0.492"	"0.72"
"1974"	"0.229"	"3.822"	"2.242"	"0.563"	"5.066"	"105.424"	"388.31"	"367.116"	"96.332"	"102.616"	"2.015"	"0.136"
"1975"	"13.502"	"39.129"	"39.149"	"1.724"	"1.238"	"221.671"	"324.142"	"290.736"	"179.603"	"47.03"	"0.329"	"0.136"
"1976"	"27.244"	"2.074"	"8.411"	"30.335"	"16.894"	"54.398"	"292.901"	"381.429"	"328.798"	"0.335"	"29.796"	"0.136"
"1977"	"19.269"	"13.788"	"7.946"	"8.996"	"27.06"	"230.296"	"384.799"	"344.419"	"219.302"	"38.721"	"43.112"	"42.423"
"1978"	"44.734"	"92.226"	"42.931"	"26.473"	"7.282"	"239.432"	"215.111"	"408.821"	"181.083"	"17.999"	"5.204"	"46.749"
"1979"	"61.841"	"34.8"	"0.195"	"3.646"	"5.82"	"129.996"	"301.312"	"384.432"	"103.253"	"21.703"	"47.375"	"5.496"
"1980"	"1.15"	"7.737"	"3.71"	"0.744"	"1.038"	"238.02"	"308.354"	"568.157"	"90.75"	"6.272"	"0"	"30.044"
"1981"	"25.419"	"3.28"	"39.222"	"5.99"	"12.23"	"135.476"	"444.607"	"369.908"	"267.602"	"4.958"	"12.752"	"26.736"
"1982"	"76.248"	"20.199"	"38.208"	"3.326"	"19.937"	"136.973"	"300.297"	"458.586"	"317.001"	"13.642"	"34.273"	"9.607"
"1983"	"5.93"	"8.749"	"2.421"	"10.388"	"19.799"	"137.46"	"286.036"	"352.698"	"206.151"	"43.49"	"0.324"	"7.963"
"1984"	"62.663"	"58.385"	"0.64"	"8.825"	"0.572"	"196.976"	"311.276"	"294.179"	"127.714"	"19.091"	"0"	"0.136"
"1985"	"36.154"	"3.909"	"0.195"	"12.151"	"5.112"	"118.07"	"363.72"	"450.334"	"157.533"	"130.554"	"0"	"2.638"
"1986"	"42.486"	"67.104"	"0.863"	"0.726"	"34.968"	"123.337"	"243.556"	"477.343"	"154.236"	"5.8"	"7.504"	"54.525"
"1987"	"23.646"	"20.019"	"28.654"	"0.011"	"8.939"	"53.315"	"201.987"	"380.965"	"74.406"	"60.663"	"32.368"	"18.713"
"1988"	"9.853"	"5.032"	"29.255"	"11.37"	"6.124"	"194.713"	"230.095"	"383.032"	"178.433"	"13.491"	"10.714"	"28.284"
"1989"	"0.809"	"0.262"	"45.082"	"0.461"	"3.722"	"156.397"	"323.03"	"255.732"	"91.929"	"14.73"	"6.906"	"48.727"
"1990"	"1.155"	"37.923"	"14.115"	"7.124"	"33.716"	"404.539"	"380.779"	"462.245"	"174.129"	"27.439"	"0"	"16.299"
"1991"	"27.222"	"15.637"	"13.561"	"10.898"	"4.754"	"163.677"	"202.557"	"270.398"	"94.628"	"1.295"	"3.308"	"49.546"
"1992"	"28.034"	"13.633"	"0.195"	"4.905"	"8.723"	"50.76"	"106.791"	"247.821"	"231.521"	"48.079"	"1.91"	"0.136"
"1993"	"5.885"	"18.452"	"24.179"	"0.318"	"19.417"	"95.538"	"248.552"	"204.956"	"183.097"	"34.086"	"0"	"0.924"
"1994"	"66.732"	"67.419"	"51.655"	"8.892"	"1.871"	"309.087"	"552.242"	"415.154"	"233.747"	"57.689"	"0"	"0.136"
"1995"	"56.156"	"23.122"	"66.487"	"9.617"	"3.142"	"101.461"	"332.396"	"361.905"	"213.702"	"10.243"	"16.789"	"28.007"
"1996"	"38.703"	"29.605"	"3.287"	"20.065"	"0.584"	"182.11"	"283.357"	"436.007"	"131.447"	"68.104"	"9.928"	"0.136"
"1997"	"31.732"	"0.262"	"2.635"	"8.491"	"12.002"	"111.005"	"146.725"	"311.182"	"226.789"	"37.328"	"48.628"	"77.866"
"1998"	"19.391"	"38.112"	"45.477"	"3.66"	"24.583"	"120.854"	"304.413"	"489.516"	"197.204"	"28.7"	"43.823"	"0.136"
"1999"	"38.434"	"56.739"	"0.195"	"0"	"23.363"	"55.966"	"401.371"	"373.206"	"238.168"	"51.773"	"0"	"0.151"
"2000"	"6.184"	"16.698"	"0.195"	"0.934"	"20.214"	"144.368"	"344.986"	"198.603"	"217.126"	"4.256"	"0"	"0.136"
"2001"	"5.778"	"2.052"	"24.15"	"13.626"	"14.532"	"191.532"	"273.228"	"353.392"	"110.544"	"86.186"	"5.81"	"0.136"
"2002"	"42.265"	"30.877"	"1.005"	"2.935"	"12.415"	"158.17"	"130.752"	"405.673"	"155.727"	"56.174"	"14.908"	"6.334"
