
"Year"	"Jan"	"Feb"	"Mar"	"Apr"	"May"	"Jun"	"Jul"	"Aug"	"Sep"	"Oct"	"Nov"	"Dec"
"1901"	"12.462"	"12.873"	"14.037"	"15.098"	"14.979"	"13.693"	"13.31"	"13.196"	"13.582"	"13.578"	"13.347"	"12.629"
"1902"	"12.669"	"13.066"	"14.416"	"15.124"	"15.185"	"14.012"	"13.486"	"13.592"	"13.204"	"13.755"	"13.353"	"12.789"
"1903"	"12.554"	"12.891"	"13.848"	"14.878"	"14.655"	"13.739"	"13.233"	"13.196"	"13.205"	"13.375"	"12.72"	"12.178"
"1904"	"12.333"	"12.936"	"13.911"	"14.895"	"14.676"	"13.357"	"13.126"	"13.262"	"13.404"	"13.726"	"12.945"	"12.411"
"1905"	"12.219"	"12.823"	"13.595"	"14.32"	"14.804"	"14.142"	"13.464"	"13.387"	"13.437"	"13.726"	"13.403"	"12.386"
"1906"	"12.451"	"12.82"	"13.74"	"15.006"	"15.14"	"13.642"	"13.182"	"13.197"	"13.128"	"13.578"	"13.375"	"12.689"
"1907"	"12.666"	"12.995"	"13.962"	"14.187"	"14.632"	"13.615"	"13.232"	"12.88"	"13.408"	"13.683"	"13.374"	"12.507"
"1908"	"12.522"	"12.818"	"13.554"	"14.941"	"14.583"	"13.793"	"12.927"	"13.031"	"13.356"	"13.651"	"12.823"	"12.153"
"1909"	"12.062"	"12.794"	"14.068"	"14.622"	"14.749"	"13.678"	"12.927"	"13.236"	"13.028"	"13.48"	"13.1"	"12.487"
"1910"	"12.442"	"13.064"	"14.087"	"14.871"	"14.779"	"13.46"	"13.356"	"13.011"	"13.004"	"13.276"	"12.35"	"12.076"
"1911"	"12.522"	"12.556"	"13.841"	"14.622"	"14.702"	"13.557"	"13.277"	"13.133"	"13.56"	"13.63"	"13.375"	"12.961"
"1912"	"12.489"	"13.352"	"14.119"	"15.099"	"15.037"	"13.79"	"13.28"	"13.165"	"13.458"	"13.574"	"13.048"	"12.33"
"1913"	"12.311"	"13.043"	"13.771"	"14.853"	"14.989"	"13.636"	"13.108"	"13.283"	"13.513"	"13.555"	"13.051"	"12.515"
"1914"	"12.466"	"13.017"	"13.867"	"14.626"	"15.041"	"13.97"	"13.311"	"13.167"	"13.56"	"13.908"	"13.554"	"12.666"
"1915"	"12.676"	"12.918"	"13.965"	"14.965"	"15.007"	"13.99"	"13.538"	"13.462"	"13.441"	"13.632"	"13.329"	"12.33"
"1916"	"12.384"	"12.693"	"14.22"	"15.002"	"14.785"	"13.379"	"13.414"	"13.196"	"13.254"	"13.378"	"13.103"	"12.279"
"1917"	"12.442"	"12.861"	"13.737"	"14.724"	"14.457"	"13.277"	"13.515"	"13.163"	"13.153"	"13.051"	"12.671"	"12.135"
"1918"	"12.314"	"12.532"	"13.833"	"14.549"	"14.223"	"13.514"	"13.689"	"13.435"	"13.457"	"13.886"	"13.663"	"12.441"
"1919"	"12.701"	"12.97"	"13.817"	"14.97"	"14.753"	"13.636"	"13.283"	"13.168"	"13.505"	"13.73"	"13.278"	"12.54"
"1920"	"12.724"	"13.095"	"14.267"	"14.797"	"14.926"	"13.74"	"13.283"	"13.255"	"13.458"	"13.831"	"13.296"	"12.383"
"1921"	"12.68"	"12.939"	"14.22"	"14.79"	"15.012"	"13.739"	"13.204"	"13.106"	"13.08"	"13.629"	"12.945"	"12.433"
"1922"	"12.498"	"12.987"	"14.092"	"14.97"	"14.724"	"13.539"	"12.999"	"13.054"	"13.176"	"13.579"	"13.224"	"12.225"
"1923"	"12.361"	"12.633"	"13.935"	"14.8"	"14.683"	"13.965"	"12.956"	"13.105"	"13.204"	"13.63"	"13.022"	"12.739"
"1924"	"12.421"	"13.046"	"14.344"	"15.205"	"15.063"	"13.808"	"13.233"	"13.337"	"13.304"	"13.475"	"12.877"	"12.382"
"1925"	"12.122"	"12.461"	"14.083"	"15.102"	"14.701"	"13.408"	"13.331"	"13.287"	"13.56"	"13.955"	"13.404"	"12.654"
"1926"	"12.676"	"13.207"	"14.218"	"14.622"	"14.931"	"14.19"	"13.643"	"13.416"	"13.437"	"13.527"	"13.029"	"12.441"
"1927"	"12.378"	"12.997"	"14.073"	"14.852"	"14.728"	"13.608"	"13.098"	"13.24"	"13.458"	"13.527"	"12.673"	"12.588"
"1928"	"12.676"	"12.74"	"13.911"	"15.002"	"15.044"	"13.743"	"13.311"	"13.105"	"13.309"	"13.476"	"13.348"	"12.512"
"1929"	"12.446"	"12.841"	"14.208"	"14.87"	"14.98"	"13.387"	"13.331"	"13.359"	"13.513"	"13.526"	"13.462"	"12.49"
"1930"	"12.374"	"12.865"	"13.911"	"14.796"	"14.65"	"13.642"	"13.261"	"13.197"	"13.408"	"13.775"	"13.149"	"12.76"
"1931"	"12.891"	"13.073"	"14.02"	"15.205"	"15.168"	"14.145"	"13.287"	"13.34"	"13.408"	"13.508"	"13.374"	"12.636"
"1932"	"12.667"	"12.94"	"13.906"	"14.97"	"14.655"	"13.736"	"13.028"	"13.337"	"13.353"	"13.73"	"13.325"	"12.607"
"1933"	"12.572"	"12.921"	"13.911"	"14.866"	"14.447"	"13.375"	"13.229"	"13.003"	"13.103"	"13.324"	"13.356"	"12.483"
"1934"	"12.169"	"12.805"	"13.661"	"14.798"	"14.83"	"13.536"	"13.182"	"13.014"	"13.462"	"13.752"	"12.691"	"12.48"
"1935"	"12.303"	"12.841"	"14.068"	"14.593"	"14.96"	"13.74"	"12.977"	"13.032"	"12.949"	"13.63"	"12.992"	"12.635"
"1936"	"12.428"	"13.027"	"13.859"	"14.779"	"14.809"	"13.107"	"13.127"	"13.032"	"13.356"	"13.578"	"13.303"	"12.64"
"1937"	"12.3"	"13.049"	"13.866"	"14.52"	"14.706"	"13.536"	"12.877"	"13.236"	"13.337"	"13.425"	"13.252"	"12.233"
"1938"	"12.424"	"12.979"	"14.185"	"14.973"	"14.927"	"13.161"	"12.977"	"12.999"	"13.102"	"12.898"	"12.827"	"12.691"
"1939"	"12.517"	"12.834"	"13.661"	"14.595"	"14.737"	"13.735"	"12.873"	"13.032"	"13.181"	"13.527"	"13.149"	"12.562"
"1940"	"12.089"	"12.889"	"13.715"	"14.441"	"14.922"	"13.586"	"13.108"	"13.032"	"13.386"	"13.679"	"13.4"	"12.536"
"1941"	"12.403"	"13.343"	"14.424"	"15.385"	"15.363"	"13.837"	"13.465"	"13.61"	"13.676"	"14.104"	"13.93"	"13.353"
"1942"	"12.588"	"13.245"	"14.615"	"14.485"	"15.214"	"13.59"	"12.857"	"12.759"	"12.861"	"13.9"	"13.172"	"12.941"
"1943"	"12.817"	"12.869"	"13.795"	"14.618"	"14.276"	"13.078"	"12.923"	"13.082"	"12.795"	"13.218"	"13.325"	"12.29"
"1944"	"12.522"	"12.547"	"13.297"	"14.42"	"15.082"	"13.739"	"13.127"	"13.2"	"13.404"	"13.508"	"13.334"	"12.786"
"1945"	"12.121"	"12.946"	"14.211"	"14.431"	"14.766"	"13.637"	"13.13"	"13.332"	"13.033"	"13.457"	"13.076"	"12.315"
"1946"	"12.135"	"12.814"	"13.947"	"14.402"	"14.411"	"13.234"	"13.028"	"13.003"	"13.153"	"13.781"	"13.204"	"12.942"
"1947"	"12.557"	"12.697"	"13.893"	"14.197"	"14.818"	"13.76"	"13.148"	"13.457"	"13.051"	"13.105"	"12.881"	"12.669"
"1948"	"12.845"	"12.823"	"13.99"	"14.524"	"14.732"	"13.739"	"13.149"	"13.204"	"12.881"	"13.56"	"13.68"	"12.09"
"1949"	"12.418"	"12.619"	"13.976"	"14.531"	"14.4"	"13.506"	"13.251"	"13.304"	"12.996"	"13.458"	"12.805"	"12.501"
"1950"	"12.44"	"12.591"	"13.743"	"14.677"	"14.737"	"13.674"	"12.994"	"13.255"	"12.916"	"13.149"	"12.87"	"12.555"
"1951"	"12.573"	"12.939"	"13.846"	"14.321"	"14.884"	"13.307"	"13.2"	"13.168"	"13.831"	"13.831"	"13.879"	"12.182"
"1952"	"12.747"	"13.226"	"13.595"	"15.002"	"15.114"	"13.609"	"13.337"	"13.082"	"13.254"	"13.444"	"12.585"	"13.208"
"1953"	"12.373"	"13.089"	"14.795"	"14.279"	"15.066"	"14.023"	"13.05"	"13.043"	"13.182"	"13.607"	"13.026"	"12.345"
"1954"	"12.451"	"13.314"	"13.893"	"14.7"	"14.758"	"13.757"	"12.824"	"13.029"	"12.757"	"13.171"	"12.772"	"12.808"
"1955"	"12.821"	"13.449"	"13.944"	"14.503"	"14.324"	"13.184"	"13.08"	"12.722"	"13.578"	"13.479"	"12.622"	"12.207"
"1956"	"12.271"	"12.666"	"14.249"	"15.002"	"13.78"	"12.959"	"12.598"	"12.69"	"12.727"	"13.223"	"13.251"	"12.462"
"1957"	"12.608"	"12.994"	"13.439"	"14.822"	"14.891"	"13.786"	"13.262"	"13.079"	"13.305"	"13.905"	"13.404"	"13.346"
"1958"	"12.741"	"13.046"	"14.116"	"15.099"	"14.979"	"14.172"	"13.228"	"13.236"	"12.96"	"13.429"	"13.651"	"12.934"
"1959"	"12.878"	"13.419"	"14.22"	"14.811"	"15.106"	"13.536"	"12.854"	"13.167"	"13.327"	"13.48"	"13.403"	"13.113"
"1960"	"12.878"	"13.295"	"13.969"	"14.779"	"14.579"	"13.698"	"13.284"	"13.276"	"13.223"	"13.531"	"13.441"	"12.942"
"1961"	"12.845"	"12.796"	"14.569"	"15.154"	"14.23"	"13.263"	"12.675"	"13.032"	"12.902"	"13.378"	"13.348"	"12.988"
"1962"	"12.146"	"13.346"	"14.016"	"14.702"	"14.752"	"14"	"13.111"	"13.082"	"13.283"	"13.828"	"13.167"	"12.642"
"1963"	"12.605"	"12.994"	"14.211"	"14.452"	"14.789"	"13.415"	"13.365"	"12.915"	"13.286"	"13.437"	"13.615"	"13.213"
"1964"	"12.492"	"13.369"	"14.321"	"15.113"	"14.904"	"13.84"	"13.336"	"12.811"	"12.975"	"13.478"	"12.896"	"12.362"
"1965"	"12.466"	"12.848"	"13.844"	"14.6"	"14.84"	"13.51"	"12.88"	"13.276"	"13.45"	"14.184"	"13.832"	"13.233"
"1966"	"12.854"	"13.622"	"14.325"	"15.124"	"14.535"	"13.972"	"13.435"	"13.642"	"13.584"	"13.726"	"13.404"	"12.742"
"1967"	"12.61"	"13.209"	"13.911"	"15.099"	"15.386"	"14.239"	"13.174"	"13.087"	"13.228"	"13.53"	"13.461"	"13.466"
"1968"	"12.542"	"13.39"	"14.012"	"14.837"	"15.254"	"13.913"	"13.171"	"13.2"	"13.549"	"13.483"	"13.385"	"12.964"
"1969"	"12.552"	"13.623"	"14.696"	"15.255"	"15.41"	"14.041"	"13.032"	"13.387"	"13.102"	"13.748"	"13.75"	"13.04"
"1970"	"12.918"	"13.267"	"14.134"	"15.118"	"14.866"	"13.456"	"13.204"	"12.953"	"13.026"	"13.568"	"13.343"	"12.16"
"1971"	"12.311"	"13.237"	"13.915"	"14.912"	"14.834"	"13.206"	"13.142"	"13.029"	"13.517"	"13.166"	"13.153"	"12.631"
"1972"	"12.41"	"12.617"	"14.352"	"15.006"	"14.681"	"14.426"	"13.397"	"13.393"	"13.669"	"14.113"	"13.759"	"13.222"
"1973"	"12.927"	"13.514"	"14.449"	"15.771"	"15.441"	"13.736"	"13.344"	"13.001"	"13.172"	"13.523"	"13.236"	"12.777"
"1974"	"12.763"	"13.256"	"14.412"	"15.061"	"14.898"	"13.598"	"12.996"	"13.131"	"13.53"	"13.265"	"12.856"	"12.509"
"1975"	"12.394"	"13.419"	"14.097"	"15.28"	"14.507"	"13.497"	"13.083"	"12.998"	"13.136"	"13.223"	"12.72"	"12.203"
"1976"	"12.152"	"12.851"	"14.052"	"14.616"	"14.538"	"13.524"	"13.323"	"13.263"	"13.523"	"14.337"	"14.175"	"13.277"
"1977"	"12.676"	"13.491"	"14.074"	"14.706"	"14.586"	"13.743"	"12.958"	"13.485"	"13.601"	"13.875"	"13.734"	"12.396"
"1978"	"12.826"	"12.808"	"13.803"	"14.866"	"14.769"	"13.277"	"13.145"	"13.127"	"13.135"	"13.846"	"13.662"	"13.186"
"1979"	"13.132"	"12.722"	"14.046"	"15.017"	"14.978"	"13.802"	"13.236"	"13.056"	"13.482"	"13.981"	"13.405"	"13.28"
"1980"	"12.601"	"13.305"	"14.034"	"14.809"	"15.07"	"13.611"	"13.086"	"13.195"	"13.375"	"13.976"	"13.711"	"12.503"
"1981"	"12.228"	"13.217"	"14.154"	"14.768"	"14.741"	"13.546"	"13.233"	"12.88"	"13.377"	"13.755"	"13.286"	"13.038"
"1982"	"12.676"	"13.432"	"14.395"	"14.78"	"14.864"	"13.918"	"13.385"	"13.239"	"13.366"	"14.209"	"13.576"	"13.289"
"1983"	"12.582"	"12.779"	"14.077"	"14.729"	"15.274"	"14.412"	"13.578"	"13.264"	"13.301"	"13.518"	"12.932"	"13.091"
"1984"	"12.774"	"13.571"	"14.457"	"14.795"	"15.566"	"13.564"	"13.148"	"13.015"	"13.187"	"13.54"	"13.212"	"13.082"
"1985"	"13.303"	"13.405"	"14.728"	"15.129"	"14.738"	"13.289"	"13.109"	"13.035"	"13.463"	"13.313"	"13.33"	"13.468"
"1986"	"12.659"	"13.066"	"14.823"	"15.271"	"15.093"	"13.839"	"13.396"	"13.032"	"13.726"	"13.988"	"13.56"	"13.227"
"1987"	"12.589"	"13.244"	"14.042"	"15.054"	"15.121"	"13.932"	"13.6"	"13.594"	"13.949"	"13.798"	"13.809"	"13.173"
"1988"	"12.873"	"13.608"	"14.476"	"15.298"	"15.464"	"13.972"	"13.362"	"13.266"	"13.425"	"13.662"	"13.51"	"12.837"
"1989"	"12.924"	"13.369"	"14.105"	"15.031"	"14.961"	"13.463"	"13.272"	"13.061"	"13.363"	"13.487"	"13.469"	"13.044"
"1990"	"12.901"	"13.049"	"13.82"	"14.9"	"14.767"	"13.564"	"13.2"	"12.935"	"13.395"	"13.781"	"13.307"	"13.143"
"1991"	"12.682"	"13.403"	"14.551"	"14.726"	"15.121"	"14.115"	"13.089"	"13.078"	"13.655"	"13.651"	"13.604"	"12.289"
"1992"	"12.507"	"12.871"	"14.714"	"15.032"	"15.089"	"14.163"	"13.52"	"13.236"	"13.51"	"13.48"	"13.63"	"12.461"
"1993"	"12.737"	"13.045"	"13.716"	"15.054"	"15.283"	"14.031"	"13.136"	"13.257"	"13.183"	"13.781"	"13.609"	"12.654"
"1994"	"12.728"	"13.027"	"14.742"	"14.645"	"15.164"	"13.518"	"13.108"	"13.167"	"13.303"	"13.629"	"13.208"	"12.462"
"1995"	"12.276"	"13.37"	"14.26"	"15.135"	"14.831"	"14.545"	"13.562"	"13.553"	"13.459"	"13.81"	"13.585"	"12.994"
"1996"	"12.948"	"13.558"	"14.737"	"14.99"	"15.466"	"14.07"	"13.416"	"13.236"	"13.428"	"13.304"	"13.539"	"12.709"
"1997"	"12.355"	"12.713"	"14.42"	"14.568"	"15.254"	"14.2"	"13.504"	"13.2"	"13.69"	"14.213"	"14.066"	"13.701"
"1998"	"12.984"	"13.241"	"14.493"	"15.499"	"15.523"	"14.404"	"13.552"	"13.592"	"13.44"	"13.582"	"13.509"	"12.737"
"1999"	"12.328"	"13.742"	"14.577"	"15.07"	"14.656"	"13.408"	"13.215"	"13.348"	"13.41"	"13.793"	"13.568"	"12.779"
"2000"	"13.036"	"12.946"	"14.06"	"15.121"	"14.75"	"13.649"	"13.09"	"13.197"	"13.622"	"13.731"	"13.698"	"12.689"
"2001"	"12.911"	"13.552"	"13.961"	"15.121"	"15.095"	"13.989"	"13.344"	"13.197"	"13.614"	"13.56"	"13.93"	"13.029"
"2002"	"12.642"	"13.688"	"14.948"	"15.285"	"15.313"	"13.954"	"13.418"	"13.268"	"13.645"	"14.01"	"13.789"	"13.138"
