
"Year"	"Jan"	"Feb"	"Mar"	"Apr"	"May"	"Jun"	"Jul"	"Aug"	"Sep"	"Oct"	"Nov"	"Dec"
"1901"	"44.168"	"2.899"	"7.996"	"0.428"	"7.845"	"36.35"	"377.846"	"461.726"	"82.712"	"17.379"	"0.2"	"1.823"
"1902"	"9.757"	"2.838"	"0"	"3.348"	"0.841"	"29.538"	"368.583"	"141.094"	"212.558"	"9.891"	"113.37"	"3.683"
"1903"	"3.675"	"0.166"	"0.164"	"0"	"12.608"	"29.942"	"299.806"	"258.127"	"339.571"	"32.056"	"0.2"	"0.041"
"1904"	"0.994"	"8.848"	"24.46"	"0"	"18.869"	"81.433"	"450.716"	"190.689"	"81.807"	"5.097"	"3.972"	"11.787"
"1905"	"4.167"	"8.631"	"1.953"	"0"	"3.114"	"15.11"	"246.81"	"166.697"	"217.083"	"0.183"	"0.205"	"1.564"
"1906"	"0.077"	"8.253"	"1.818"	"0"	"2.339"	"131.269"	"460.544"	"156.698"	"379.431"	"1.357"	"0.2"	"4.809"
"1907"	"16.909"	"29.763"	"0.812"	"11.2"	"5.371"	"69.221"	"217.203"	"463.076"	"9.794"	"0.183"	"9.052"	"0.041"
"1908"	"10.695"	"0"	"6.825"	"2.087"	"0.721"	"55.817"	"467.265"	"470.108"	"67.878"	"0.946"	"4.487"	"0.405"
"1909"	"7.618"	"7.406"	"0"	"7.998"	"5.799"	"165.118"	"274.807"	"318.378"	"162.31"	"0.183"	"0.2"	"16.524"
"1910"	"2.223"	"0.325"	"0"	"1.835"	"4.077"	"108.342"	"176.145"	"334.731"	"252.257"	"5.406"	"21.944"	"0.041"
"1911"	"11.442"	"0"	"9.865"	"0"	"0"	"145.98"	"179.173"	"178.037"	"263.183"	"4.795"	"70.094"	"2.206"
"1912"	"4.083"	"8.153"	"0.197"	"1.706"	"0.033"	"29.345"	"339.344"	"282.976"	"128.528"	"0.204"	"85.392"	"1.344"
"1913"	"0.011"	"10.029"	"2.295"	"0"	"22.231"	"137.348"	"205.053"	"136.667"	"90.697"	"0.183"	"0.2"	"15.53"
"1914"	"0.011"	"1.298"	"11.534"	"2.368"	"27.322"	"103.74"	"431.259"	"184.027"	"198.294"	"1.567"	"3.183"	"2.317"
"1915"	"5.986"	"20.672"	"26.105"	"13.187"	"10.591"	"69.383"	"249.501"	"378.054"	"163.433"	"43.545"	"2.175"	"2.044"
"1916"	"0.011"	"13.224"	"0"	"1.73"	"5.607"	"96.979"	"278.269"	"331.627"	"222.654"	"50.879"	"12.049"	"0.041"
"1917"	"10.883"	"20.143"	"2.123"	"2.931"	"39.384"	"92.41"	"348.826"	"370.315"	"305.729"	"20.896"	"0.2"	"0.713"
"1918"	"2.671"	"1.656"	"0.693"	"0"	"17.296"	"102.487"	"205.624"	"212.206"	"98.945"	"0.207"	"19.149"	"4.184"
"1919"	"41.116"	"0.024"	"0.016"	"18.617"	"15.31"	"81.163"	"348.591"	"647.177"	"88.364"	"38.879"	"17.883"	"4.223"
"1920"	"6.233"	"2.243"	"0.51"	"0.007"	"29.171"	"118.143"	"392.557"	"121.42"	"87.631"	"0.183"	"0.2"	"0.041"
"1921"	"12.827"	"2.459"	"0"	"0"	"0"	"183.128"	"180.662"	"309.639"	"284.524"	"0.995"	"0.2"	"0.041"
"1922"	"23.001"	"3.684"	"0.358"	"0.091"	"1.512"	"128.826"	"431.83"	"172.878"	"259.159"	"1.49"	"28.759"	"12.838"
"1923"	"3.955"	"2.364"	"4.933"	"2.465"	"8.468"	"15.819"	"555.738"	"469.851"	"296.098"	"12.484"	"2.673"	"13.172"
"1924"	"8.551"	"1.406"	"0"	"0"	"8.303"	"44.178"	"274.643"	"308.39"	"246.18"	"19.901"	"0.465"	"11.16"
"1925"	"0.011"	"0"	"0"	"0"	"36.944"	"111.151"	"506.648"	"273.455"	"88.752"	"4.44"	"58.141"	"0.563"
"1926"	"7.206"	"3.246"	"15.087"	"7.131"	"30.893"	"22.466"	"275.374"	"478.405"	"281.43"	"15.478"	"4.193"	"1.758"
"1927"	"0.011"	"9.27"	"10.789"	"6.743"	"0.519"	"60.795"	"475.942"	"160.13"	"128.482"	"39.831"	"129.779"	"17.361"
"1928"	"3.852"	"42.304"	"2.811"	"3.303"	"1.733"	"51.77"	"440.287"	"150.392"	"146.109"	"32.036"	"4.45"	"88.803"
"1929"	"5.471"	"10.529"	"0"	"12.751"	"0"	"81.911"	"433.291"	"362.426"	"78.308"	"3.577"	"0.2"	"23.26"
"1930"	"1.84"	"2.477"	"0"	"3.863"	"6.294"	"106.185"	"517.878"	"184.826"	"130.967"	"5.489"	"5.236"	"0.041"
"1931"	"1.601"	"6.325"	"0"	"0"	"2.387"	"56.992"	"320.396"	"403.809"	"411.785"	"70.691"	"100.373"	"0.072"
"1932"	"0.011"	"16.157"	"10.197"	"5.476"	"0.08"	"31.008"	"705.16"	"212.424"	"249.749"	"9.952"	"0.2"	"0.041"
"1933"	"0.023"	"3.085"	"4.634"	"9.849"	"22.042"	"215.651"	"246.742"	"280.853"	"415.685"	"9.012"	"3.234"	"8.528"
"1934"	"11.894"	"0"	"4.178"	"0"	"0"	"198.008"	"408.556"	"607.834"	"523.613"	"1.381"	"60.967"	"30.872"
"1935"	"8.077"	"6.833"	"0"	"21.422"	"3.994"	"103.098"	"478.813"	"305.285"	"264.486"	"14.821"	"1.834"	"30.642"
"1936"	"0.011"	"6.197"	"9.446"	"6.698"	"11.887"	"183.638"	"260.539"	"191.116"	"269.49"	"0.183"	"71.493"	"3.293"
"1937"	"0.011"	"28.097"	"0.136"	"9.789"	"3.721"	"187.131"	"355.032"	"220.655"	"172.768"	"23.08"	"14.263"	"6.356"
"1938"	"18.177"	"0"	"1.874"	"0.093"	"26.94"	"237.674"	"401.532"	"209.304"	"116.632"	"72.325"	"0.205"	"0.041"
"1939"	"13.692"	"1.839"	"3.636"	"1.659"	"0"	"83.492"	"505.948"	"236.971"	"121.298"	"2.861"	"2.09"	"4.358"
"1940"	"6.679"	"8.134"	"6.787"	"3.926"	"28.235"	"100.736"	"488.066"	"340.3"	"122.072"	"8.136"	"8.178"	"14.759"
"1941"	"19.842"	"22.052"	"8.061"	"0.438"	"2.748"	"60.548"	"257.485"	"212.834"	"107.221"	"0.183"	"0.2"	"0.041"
"1942"	"26.964"	"21.21"	"0.691"	"3.5"	"0.518"	"103.491"	"651.092"	"415.361"	"187.062"	"0.995"	"0.2"	"19.486"
"1943"	"29.966"	"0"	"0.011"	"9.646"	"18.829"	"106.806"	"350.887"	"290.252"	"176.514"	"20.91"	"0.2"	"0.041"
"1944"	"14.154"	"15.024"	"25.004"	"14.957"	"0.303"	"71.202"	"748.028"	"448.254"	"145.73"	"17.431"	"0.2"	"5.954"
"1945"	"36.977"	"0"	"0"	"12.022"	"6.245"	"177.479"	"484.743"	"311.452"	"277.562"	"2.158"	"0.2"	"0.041"
"1946"	"0.011"	"6.028"	"0"	"13.719"	"5.805"	"188.843"	"337.825"	"473.965"	"71.289"	"14.714"	"76.068"	"11.402"
"1947"	"26.984"	"11.819"	"3.757"	"2.557"	"0.871"	"71.104"	"575.872"	"519.289"	"386.442"	"11.858"	"0.884"	"7.163"
"1948"	"61.068"	"1.66"	"0.039"	"3.17"	"5.877"	"113.697"	"465.241"	"307.249"	"178.582"	"9.794"	"77.147"	"0.041"
"1949"	"0.011"	"1.556"	"0.06"	"0.008"	"5.834"	"97.672"	"325.623"	"262.163"	"471.578"	"39.065"	"0.2"	"0.041"
"1950"	"12.631"	"1.642"	"3.53"	"0"	"3.308"	"25.102"	"353.153"	"319.998"	"190.161"	"1.027"	"0.302"	"22.582"
"1951"	"5.213"	"17.665"	"3.347"	"5.379"	"12.2"	"46.213"	"391.753"	"256.099"	"223.725"	"17.849"	"10.218"	"0.041"
"1952"	"0.011"	"16.181"	"1.325"	"2.276"	"1.3"	"154.022"	"371.098"	"369.115"	"61.93"	"0.412"	"0.2"	"22.011"
"1953"	"12.897"	"0"	"0"	"2.091"	"0.747"	"24.637"	"383.374"	"264.496"	"125.014"	"9.667"	"0.2"	"0.041"
"1954"	"33.142"	"15.112"	"5.157"	"0"	"0"	"55.118"	"235.828"	"271.947"	"452.659"	"18.272"	"0.2"	"0.041"
"1955"	"17.384"	"0"	"0"	"0.158"	"0.817"	"150.913"	"199.314"	"501.007"	"381.104"	"53.95"	"0.2"	"0.041"
"1956"	"14.88"	"0.107"	"2.545"	"3.011"	"4.937"	"150.315"	"673.039"	"360.176"	"171.055"	"23.993"	"49.369"	"7.646"
"1957"	"17.214"	"0"	"14.366"	"5.283"	"10.359"	"68.229"	"300.814"	"271.028"	"181.004"	"3.786"	"2.344"	"1.726"
"1958"	"1.267"	"0.555"	"1.316"	"0.697"	"6.419"	"67.016"	"512.985"	"360.203"	"240.695"	"86.894"	"8.595"	"1.108"
"1959"	"17.866"	"3.295"	"0"	"6.306"	"28.546"	"83.974"	"335.835"	"516.345"	"379.271"	"25.374"	"13.712"	"0.041"
"1960"	"38.856"	"0"	"5.173"	"1.723"	"4.473"	"89.104"	"274.195"	"708.578"	"70.05"	"66.769"	"0.2"	"2.218"
"1961"	"28.87"	"3.309"	"1.012"	"1.233"	"12.006"	"90.792"	"387.135"	"400.238"	"262.024"	"99.549"	"31.278"	"4.977"
"1962"	"9.478"	"10.218"	"8.729"	"21.185"	"5.377"	"37.409"	"365.474"	"522.126"	"405.271"	"0.183"	"10.098"	"26.266"
"1963"	"16.104"	"10.144"	"1.315"	"6.724"	"3.556"	"90.295"	"302.582"	"271.965"	"316.153"	"6.126"	"15.465"	"4.746"
"1964"	"0.011"	"0.401"	"12.007"	"0"	"19.729"	"94.046"	"310.347"	"408.348"	"202.734"	"2.026"	"0.2"	"1.108"
"1965"	"15.416"	"1.976"	"2.019"	"10.538"	"1.676"	"40.79"	"259.252"	"228.868"	"178.692"	"7.301"	"0.2"	"20.094"
"1966"	"1.514"	"1.144"	"0.725"	"0"	"12.556"	"72.239"	"322.62"	"202.611"	"79.567"	"0.185"	"69.167"	"2.621"
"1967"	"0.381"	"0"	"24.476"	"0.395"	"0.092"	"73.042"	"305.175"	"370.972"	"186.346"	"0.818"	"0.2"	"97.401"
"1968"	"9.672"	"7.958"	"7.281"	"0.435"	"0"	"62.152"	"468.774"	"309.143"	"62.924"	"31.683"	"0.2"	"0.589"
"1969"	"1.54"	"1.397"	"0.688"	"0"	"10.542"	"35.262"	"513.059"	"445.625"	"196.989"	"0.183"	"115.237"	"0.041"
"1970"	"30.239"	"13.808"	"15.632"	"6.039"	"10.66"	"146.863"	"135.776"	"442.7"	"199.464"	"1.703"	"0.2"	"0.041"
"1971"	"9.705"	"1.626"	"0.009"	"1.489"	"13.972"	"231.528"	"325.586"	"262.684"	"156.432"	"73.163"	"0.911"	"0.041"
"1972"	"0.398"	"2.04"	"0"	"0"	"2.994"	"45.261"	"124.377"	"471.573"	"183.923"	"40.546"	"25.658"	"6.68"
"1973"	"1.795"	"10.886"	"0"	"0"	"4.842"	"27.028"	"528.53"	"484.943"	"206.92"	"19.868"	"0.2"	"24.253"
"1974"	"0.011"	"6.153"	"0.353"	"9.055"	"17.092"	"79.638"	"288.867"	"498.998"	"69.35"	"42.021"	"0.2"	"0.041"
"1975"	"5.003"	"9.841"	"0.26"	"0"	"2.389"	"126.691"	"316.832"	"387.38"	"239.622"	"22.806"	"0.2"	"0.041"
"1976"	"7.49"	"0.298"	"2.346"	"8.009"	"7.906"	"102.905"	"325.962"	"356.757"	"166.736"	"0.183"	"55.285"	"4.523"
"1977"	"6.683"	"0.896"	"6.282"	"2.973"	"8.109"	"268.179"	"325.15"	"361.311"	"179.321"	"15.27"	"60.76"	"0.61"
"1978"	"13.62"	"61.441"	"20.8"	"6.546"	"0"	"178.04"	"315.099"	"549.711"	"177.128"	"3.816"	"5.947"	"52.493"
"1979"	"39.41"	"19.671"	"1.909"	"0"	"23.58"	"54.52"	"382.089"	"226.601"	"33.068"	"6.535"	"35.101"	"5.32"
"1980"	"1.709"	"1.57"	"2.147"	"0"	"0.176"	"185.778"	"283.68"	"350.416"	"51.205"	"1.845"	"0.911"	"35.309"
"1981"	"10.866"	"1.64"	"4.995"	"0"	"10.933"	"68.646"	"185.301"	"285.725"	"102.595"	"3.826"	"6.247"	"16.837"
"1982"	"72.025"	"4.577"	"4.39"	"3.622"	"4.235"	"69.761"	"201.138"	"720.862"	"121.131"	"6.161"	"91.229"	"4.129"
"1983"	"7.823"	"0.893"	"0.307"	"4.044"	"8.345"	"83.146"	"440.659"	"422.561"	"490.969"	"41.491"	"0.2"	"1.118"
"1984"	"38.35"	"20.979"	"2.833"	"2.918"	"3.898"	"86.545"	"146.062"	"337.931"	"58.789"	"6.908"	"0.353"	"0.117"
"1985"	"11.212"	"0"	"1.979"	"14.252"	"18.962"	"69.333"	"355.452"	"394.032"	"187.327"	"77.271"	"0.2"	"1.463"
"1986"	"6.76"	"25.19"	"8.252"	"0"	"13.862"	"103.496"	"309.191"	"142.224"	"44.383"	"12.828"	"0.2"	"29.104"
"1987"	"19.362"	"27.245"	"0.402"	"0"	"16.704"	"57.768"	"183.065"	"346.858"	"160.705"	"5.881"	"0.762"	"25.922"
"1988"	"4.767"	"2.048"	"0.931"	"9.572"	"0.081"	"148.193"	"218.54"	"202.867"	"114.598"	"2.603"	"0.213"	"2.135"
"1989"	"5.199"	"0"	"10.623"	"0"	"1.349"	"77.683"	"191.123"	"370.403"	"58.477"	"0.237"	"0.926"	"9.694"
"1990"	"0.106"	"23.944"	"1.411"	"0"	"21.782"	"317.396"	"522.838"	"488.982"	"350.147"	"4.222"	"0.291"	"9.458"
"1991"	"0.011"	"4.084"	"7.107"	"13.742"	"9.72"	"96.601"	"168.07"	"403.169"	"47.03"	"0.188"	"2.152"	"5.737"
"1992"	"9.907"	"5.353"	"0.335"	"0.055"	"29.997"	"9.393"	"68.203"	"233.041"	"316.214"	"3.318"	"3.1"	"0.041"
"1993"	"0.349"	"5.659"	"1.677"	"0.296"	"9.4"	"86.733"	"188.224"	"175.955"	"128.352"	"15.586"	"0.347"	"1.589"
"1994"	"30.472"	"10.625"	"10.601"	"3.591"	"18.575"	"218.425"	"638.258"	"364.472"	"91.079"	"6.873"	"0.208"	"0.041"
"1995"	"28.229"	"6.017"	"18.224"	"6.525"	"1.88"	"79.623"	"351.119"	"130.327"	"213.652"	"14.772"	"4.372"	"18.811"
"1996"	"24.072"	"4.595"	"6.531"	"23.442"	"10.242"	"85.729"	"253.171"	"463.338"	"86.425"	"14.995"	"0.21"	"0.041"
"1997"	"5.443"	"0"	"0.066"	"2.887"	"12.845"	"57.062"	"332.325"	"317.092"	"105.946"	"32.948"	"128.689"	"66.446"
"1998"	"0.76"	"6.885"	"14.781"	"2.885"	"0.62"	"102.787"	"145.171"	"323.495"	"259.079"	"15.614"	"69.123"	"0.041"
"1999"	"5.727"	"48.735"	"0"	"0"	"6.991"	"54.019"	"340.744"	"349.038"	"297.78"	"50.284"	"0.2"	"0.266"
"2000"	"0.382"	"2.777"	"0.016"	"0.112"	"19.312"	"74.293"	"651.823"	"118.635"	"46.924"	"2.211"	"0.87"	"0.041"
"2001"	"7.773"	"0.759"	"3.571"	"2.317"	"31.803"	"288.116"	"332.258"	"161.457"	"14.436"	"22.456"	"3.297"	"0.041"
"2002"	"0.478"	"30.287"	"2.357"	"3.21"	"15.467"	"84.809"	"64.679"	"333.737"	"116.368"	"6.401"	"15.17"	"3.906"
