
"Year"	"Jan"	"Feb"	"Mar"	"Apr"	"May"	"Jun"	"Jul"	"Aug"	"Sep"	"Oct"	"Nov"	"Dec"
"1901"	"19.522"	"20.04"	"20.553"	"21.433"	"20.993"	"19.326"	"19.036"	"18.965"	"19.469"	"19.678"	"19.306"	"18.862"
"1902"	"18.938"	"19.529"	"20.918"	"21.435"	"21.431"	"19.689"	"18.887"	"19.4"	"19.104"	"19.605"	"19.525"	"19.518"
"1903"	"19.522"	"19.82"	"20.773"	"21.362"	"20.847"	"19.545"	"18.598"	"18.82"	"18.885"	"19.313"	"18.8"	"18.425"
"1904"	"18.502"	"19.089"	"20.115"	"20.996"	"20.484"	"18.669"	"18.306"	"18.891"	"19.249"	"19.678"	"19.016"	"18.935"
"1905"	"18.866"	"19.816"	"20.406"	"20.78"	"20.847"	"19.543"	"19.036"	"19.036"	"19.469"	"19.605"	"19.6"	"18.787"
"1906"	"19.3"	"19.671"	"20.48"	"21.724"	"21.355"	"19.249"	"18.525"	"18.745"	"18.96"	"19.605"	"19.379"	"19.079"
"1907"	"18.866"	"19.6"	"20.479"	"20.415"	"20.776"	"19.18"	"18.67"	"18.233"	"19.249"	"19.749"	"19.38"	"19.006"
"1908"	"19.082"	"19.456"	"20.117"	"21.213"	"20.629"	"19.249"	"18.014"	"18.599"	"19.247"	"19.678"	"18.942"	"18.644"
"1909"	"18.573"	"19.38"	"20.625"	"20.851"	"20.703"	"19.178"	"18.233"	"18.745"	"18.96"	"19.605"	"19.233"	"19.079"
"1910"	"19.009"	"19.525"	"20.551"	"21.069"	"20.92"	"18.958"	"18.741"	"18.454"	"18.812"	"19.24"	"18.729"	"18.571"
"1911"	"19.009"	"18.8"	"20.406"	"21.071"	"20.774"	"19.031"	"18.452"	"18.818"	"19.614"	"19.605"	"19.6"	"19.37"
"1912"	"18.645"	"20.037"	"20.844"	"21.433"	"21.282"	"19.178"	"18.67"	"18.672"	"19.395"	"19.46"	"19.162"	"18.716"
"1913"	"18.72"	"19.673"	"20.479"	"21.362"	"21.357"	"19.253"	"18.527"	"18.892"	"19.541"	"19.534"	"19.38"	"19.371"
"1914"	"18.793"	"19.745"	"20.698"	"21.217"	"21.284"	"19.616"	"18.816"	"18.745"	"19.614"	"19.898"	"19.745"	"19.37"
"1915"	"19.3"	"19.745"	"20.406"	"21.217"	"21.138"	"19.836"	"18.962"	"19.107"	"19.469"	"19.824"	"19.379"	"18.862"
"1916"	"18.647"	"19.454"	"20.844"	"21.433"	"20.993"	"18.814"	"19.034"	"18.892"	"19.104"	"19.311"	"19.233"	"18.716"
"1917"	"18.867"	"19.456"	"20.117"	"21.071"	"20.631"	"18.814"	"19.253"	"18.82"	"18.958"	"19.022"	"19.015"	"18.715"
"1918"	"18.718"	"18.58"	"20.044"	"21.071"	"19.973"	"19.18"	"19.107"	"18.963"	"19.395"	"20.188"	"19.964"	"19.153"
"1919"	"19.449"	"19.816"	"20.404"	"21.579"	"20.849"	"19.105"	"18.669"	"18.672"	"19.395"	"19.824"	"19.16"	"19.226"
"1920"	"19.011"	"19.745"	"20.991"	"21.069"	"21.213"	"19.104"	"18.816"	"18.672"	"19.249"	"19.749"	"19.233"	"18.789"
"1921"	"19.3"	"19.452"	"20.916"	"20.851"	"21.211"	"19.324"	"18.598"	"18.598"	"18.96"	"19.605"	"19.162"	"18.789"
"1922"	"18.937"	"19.527"	"20.625"	"21.215"	"20.555"	"19.031"	"18.305"	"18.527"	"19.031"	"19.532"	"19.087"	"18.498"
"1923"	"18.649"	"19.089"	"20.117"	"21.144"	"20.922"	"19.395"	"18.233"	"18.525"	"19.031"	"19.605"	"19.454"	"19.373"
"1924"	"18.938"	"19.818"	"20.773"	"21.506"	"21.211"	"19.104"	"18.377"	"18.818"	"19.249"	"19.532"	"19.091"	"18.862"
"1925"	"18.864"	"19.309"	"20.333"	"21.215"	"20.557"	"19.033"	"18.741"	"18.745"	"19.541"	"19.824"	"19.308"	"18.86"
"1926"	"19.157"	"19.745"	"20.844"	"21.071"	"21.284"	"19.687"	"19.253"	"19.256"	"19.395"	"19.605"	"19.382"	"19.153"
"1927"	"19.229"	"19.891"	"20.916"	"21.433"	"20.7"	"19.031"	"18.233"	"18.963"	"19.32"	"19.461"	"19.018"	"19.299"
"1928"	"19.449"	"19.529"	"20.406"	"21.36"	"21.43"	"19.47"	"18.891"	"18.599"	"19.395"	"19.46"	"19.527"	"19.082"
"1929"	"19.009"	"19.6"	"20.553"	"20.778"	"20.996"	"18.96"	"18.818"	"19.034"	"19.469"	"19.534"	"19.671"	"19.3"
"1930"	"19.084"	"19.529"	"20.627"	"21.069"	"20.555"	"19.249"	"18.962"	"18.891"	"19.395"	"19.678"	"19.454"	"19.37"
"1931"	"19.229"	"19.747"	"20.844"	"21.433"	"21.575"	"19.687"	"18.889"	"18.889"	"19.104"	"19.825"	"19.525"	"19.226"
"1932"	"18.573"	"19.454"	"20.042"	"21.215"	"20.409"	"19.251"	"18.452"	"18.963"	"19.104"	"19.603"	"19.452"	"19.006"
"1933"	"19.084"	"19.674"	"20.26"	"20.995"	"20.044"	"18.596"	"18.306"	"18.379"	"18.74"	"19.022"	"19.527"	"18.937"
"1934"	"19.013"	"19.016"	"20.115"	"20.924"	"20.991"	"19.251"	"18.67"	"18.674"	"19.614"	"19.751"	"18.798"	"18.642"
"1935"	"19.229"	"19.674"	"20.625"	"20.924"	"21.43"	"19.397"	"18.379"	"18.381"	"18.74"	"19.531"	"18.871"	"19.226"
"1936"	"19.449"	"19.891"	"20.26"	"21.142"	"20.845"	"18.45"	"18.379"	"18.454"	"19.176"	"19.532"	"19.454"	"19.52"
"1937"	"19.157"	"20.109"	"20.773"	"20.78"	"20.849"	"19.105"	"18.233"	"18.963"	"19.469"	"19.386"	"19.235"	"18.935"
"1938"	"19.231"	"20.109"	"20.844"	"21.067"	"20.993"	"18.887"	"18.306"	"18.308"	"18.887"	"18.949"	"19.089"	"19.299"
"1939"	"18.791"	"19.162"	"20.188"	"20.705"	"20.993"	"19.178"	"18.16"	"18.527"	"19.104"	"19.605"	"19.237"	"18.935"
"1940"	"18.503"	"19.306"	"20.479"	"20.486"	"20.92"	"19.178"	"18.525"	"18.454"	"19.395"	"19.678"	"19.233"	"19.155"
"1941"	"19.304"	"19.747"	"21.062"	"21.652"	"21.359"	"19.253"	"19.18"	"19.109"	"19.176"	"19.825"	"19.891"	"19.153"
"1942"	"18.866"	"19.82"	"20.991"	"21.431"	"21.355"	"19.251"	"18.525"	"18.528"	"19.176"	"19.676"	"19.162"	"19.516"
"1943"	"19.082"	"19.454"	"20.769"	"20.778"	"20.338"	"18.523"	"18.089"	"18.672"	"18.521"	"18.949"	"19.16"	"19.153"
"1944"	"19.229"	"19.456"	"20.335"	"20.707"	"20.991"	"19.178"	"18.456"	"18.963"	"19.322"	"19.678"	"19.527"	"19.153"
"1945"	"19.009"	"19.962"	"20.844"	"20.996"	"21.211"	"19.397"	"18.596"	"18.672"	"19.105"	"19.532"	"19.308"	"19.151"
"1946"	"18.354"	"19.527"	"20.623"	"20.995"	"20.993"	"19.033"	"18.527"	"18.234"	"19.031"	"19.751"	"19.379"	"19.226"
"1947"	"19.522"	"19.456"	"20.625"	"20.488"	"21.501"	"19.251"	"18.454"	"18.672"	"18.812"	"19.169"	"19.164"	"19.373"
"1948"	"19.449"	"19.818"	"20.773"	"21.217"	"20.922"	"19.251"	"18.452"	"18.454"	"18.96"	"19.751"	"19.816"	"19.153"
"1949"	"18.867"	"19.382"	"20.989"	"21.359"	"20.631"	"19.033"	"18.452"	"18.747"	"18.887"	"19.605"	"19.235"	"18.791"
"1950"	"18.866"	"19.454"	"20.479"	"21.142"	"21.284"	"19.105"	"18.087"	"18.672"	"18.596"	"19.096"	"18.945"	"18.862"
"1951"	"19.158"	"19.529"	"20.771"	"20.851"	"21.14"	"18.814"	"18.381"	"19.036"	"19.541"	"19.969"	"19.962"	"18.937"
"1952"	"19.375"	"20.037"	"20.625"	"21.359"	"21.14"	"19.18"	"18.745"	"18.672"	"19.104"	"19.167"	"19.089"	"19.299"
"1953"	"19.157"	"19.454"	"21.279"	"20.851"	"21.502"	"20.053"	"18.308"	"18.963"	"19.176"	"19.68"	"19.382"	"19.226"
"1954"	"19.522"	"19.962"	"20.551"	"21.357"	"21.14"	"19.326"	"18.163"	"18.456"	"18.889"	"19.096"	"18.945"	"19.373"
"1955"	"19.452"	"20.109"	"20.698"	"20.996"	"20.264"	"18.885"	"18.527"	"18.385"	"19.397"	"19.46"	"18.944"	"18.864"
"1956"	"18.867"	"19.676"	"21.062"	"21.502"	"20.118"	"18.741"	"17.945"	"18.601"	"18.96"	"19.096"	"19.456"	"19.228"
"1957"	"19.087"	"19.893"	"20.264"	"21.215"	"21.135"	"19.326"	"18.672"	"18.747"	"19.324"	"19.824"	"19.525"	"19.882"
"1958"	"19.449"	"20.108"	"20.915"	"21.36"	"20.702"	"19.616"	"18.82"	"18.745"	"19.107"	"19.313"	"19.671"	"19.593"
"1959"	"19.594"	"20.037"	"21.064"	"21.433"	"21.14"	"19.107"	"18.31"	"18.749"	"19.176"	"19.603"	"19.747"	"19.518"
"1960"	"19.594"	"19.966"	"20.771"	"21.14"	"20.553"	"19.397"	"18.816"	"18.963"	"18.814"	"19.532"	"19.091"	"19.3"
"1961"	"19.522"	"19.889"	"21.06"	"21.433"	"20.555"	"18.96"	"18.163"	"18.745"	"18.96"	"19.386"	"19.529"	"19.591"
"1962"	"19.231"	"19.893"	"20.551"	"20.998"	"20.555"	"20.051"	"18.889"	"18.599"	"19.249"	"19.532"	"19.818"	"19.662"
"1963"	"19.525"	"19.529"	"20.698"	"20.998"	"21.213"	"19.397"	"18.962"	"18.745"	"19.614"	"19.678"	"20.037"	"19.591"
"1964"	"19.009"	"19.964"	"20.989"	"21.942"	"21.719"	"19.47"	"18.741"	"18.601"	"18.74"	"19.603"	"18.944"	"19.006"
"1965"	"18.937"	"19.6"	"20.55"	"20.996"	"20.993"	"19.178"	"18.527"	"18.454"	"19.104"	"20.186"	"19.962"	"19.442"
"1966"	"19.594"	"20.328"	"20.986"	"21.357"	"20.993"	"19.614"	"18.887"	"19.398"	"19.467"	"19.605"	"19.452"	"19.299"
"1967"	"19.009"	"19.454"	"20.26"	"21.36"	"21.135"	"19.614"	"18.308"	"18.599"	"19.178"	"19.461"	"19.671"	"19.662"
"1968"	"19.086"	"19.745"	"20.625"	"20.707"	"20.993"	"19.249"	"18.085"	"18.962"	"19.104"	"19.751"	"19.742"	"19.37"
"1969"	"19.229"	"20.037"	"21.279"	"21.577"	"21.209"	"19.612"	"18.377"	"18.891"	"18.814"	"19.46"	"19.454"	"19.373"
"1970"	"19.302"	"19.6"	"20.477"	"20.922"	"20.482"	"18.96"	"18.523"	"18.308"	"18.885"	"19.167"	"19.091"	"18.789"
"1971"	"19.3"	"19.527"	"20.26"	"21.069"	"20.627"	"18.377"	"18.305"	"18.452"	"19.102"	"19.167"	"19.016"	"18.86"
"1972"	"18.5"	"19.233"	"20.26"	"21.359"	"20.335"	"19.831"	"18.669"	"18.891"	"19.541"	"19.751"	"19.671"	"19.593"
"1973"	"19.302"	"20.035"	"20.989"	"21.869"	"21.502"	"19.397"	"18.891"	"18.162"	"19.178"	"19.605"	"19.452"	"19.226"
"1974"	"19.011"	"19.673"	"20.916"	"21.433"	"20.629"	"19.398"	"18.454"	"18.306"	"19.249"	"19.313"	"19.38"	"19.3"
"1975"	"18.937"	"20.18"	"20.844"	"21.504"	"20.629"	"19.029"	"18.233"	"18.452"	"18.665"	"19.095"	"19.237"	"18.789"
"1976"	"18.283"	"19.377"	"20.915"	"20.776"	"21.211"	"19.689"	"18.669"	"18.599"	"19.324"	"20.04"	"19.671"	"19.664"
"1977"	"19.157"	"20.109"	"21.06"	"21.506"	"20.629"	"19.397"	"18.596"	"19.04"	"19.393"	"19.753"	"19.742"	"19.37"
"1978"	"19.371"	"19.816"	"20.771"	"21.217"	"20.333"	"18.596"	"18.085"	"18.452"	"19.105"	"19.822"	"19.889"	"19.664"
"1979"	"20.031"	"20.328"	"20.918"	"21.359"	"20.991"	"19.614"	"18.162"	"18.818"	"19.175"	"19.749"	"19.596"	"20.026"
"1980"	"19.229"	"20.037"	"20.916"	"21.355"	"21.28"	"18.736"	"18.372"	"18.596"	"19.175"	"19.531"	"19.745"	"19.591"
"1981"	"19.302"	"19.82"	"20.553"	"21.069"	"20.991"	"18.954"	"18.59"	"18.16"	"18.883"	"19.676"	"19.379"	"19.447"
"1982"	"19.302"	"20.109"	"20.987"	"21.581"	"20.918"	"19.618"	"18.889"	"18.963"	"19.541"	"20.406"	"20.184"	"19.735"
"1983"	"19.449"	"20.255"	"21.133"	"21.653"	"22.015"	"20.42"	"19.255"	"18.965"	"19.178"	"19.896"	"19.6"	"19.809"
"1984"	"19.596"	"20.111"	"20.627"	"20.924"	"21.867"	"18.96"	"18.452"	"18.745"	"19.322"	"19.532"	"19.893"	"19.518"
"1985"	"20.029"	"20.328"	"21.426"	"21.652"	"21.138"	"18.814"	"18.82"	"18.745"	"19.614"	"19.607"	"19.674"	"19.953"
"1986"	"19.523"	"19.893"	"21.28"	"21.8"	"21.504"	"19.472"	"19.327"	"18.599"	"19.469"	"20.188"	"19.891"	"20.175"
"1987"	"19.522"	"19.598"	"20.847"	"21.36"	"21.284"	"19.543"	"19.767"	"19.036"	"20.269"	"20.115"	"20.257"	"19.955"
"1988"	"19.449"	"20.693"	"21.28"	"21.36"	"21.211"	"19.909"	"19.109"	"19.036"	"19.178"	"20.115"	"19.891"	"19.664"
"1989"	"19.522"	"19.671"	"20.551"	"21.215"	"21.211"	"19.178"	"18.525"	"18.82"	"19.322"	"19.896"	"19.889"	"19.664"
"1990"	"19.375"	"20.038"	"20.844"	"21.581"	"20.557"	"19.545"	"18.816"	"18.674"	"19.541"	"19.896"	"19.745"	"19.735"
"1991"	"20.106"	"20.253"	"21.206"	"21.362"	"21.798"	"19.616"	"18.527"	"18.381"	"19.833"	"19.68"	"19.598"	"19.153"
"1992"	"18.866"	"19.816"	"20.622"	"21.579"	"21.211"	"19.765"	"18.598"	"18.818"	"19.395"	"19.531"	"19.816"	"19.08"
"1993"	"19.302"	"19.891"	"20.627"	"21.506"	"21.428"	"19.47"	"18.598"	"19.038"	"19.397"	"19.678"	"19.818"	"19.373"
"1994"	"19.449"	"20.037"	"21.133"	"20.925"	"21.43"	"19.397"	"18.599"	"18.891"	"19.543"	"19.751"	"19.749"	"19.229"
"1995"	"19.451"	"20.402"	"20.771"	"21.36"	"20.922"	"20.271"	"19.182"	"19.182"	"19.541"	"20.117"	"20.18"	"19.516"
"1996"	"19.74"	"20.184"	"21.208"	"21.217"	"21.796"	"19.836"	"19.107"	"18.892"	"19.395"	"19.68"	"20.037"	"19.079"
"1997"	"19.523"	"20.038"	"20.916"	"20.634"	"21.357"	"20.125"	"19.178"	"19.038"	"19.76"	"20.186"	"20.473"	"20.464"
"1998"	"20.106"	"20.767"	"21.499"	"21.871"	"21.646"	"20.053"	"19.034"	"19.182"	"19.395"	"19.896"	"20.111"	"19.809"
"1999"	"19.667"	"20.18"	"21.499"	"21.215"	"20.266"	"19.18"	"18.816"	"19.109"	"19.834"	"19.969"	"19.964"	"19.591"
"2000"	"19.813"	"20.255"	"20.918"	"21.359"	"20.849"	"18.96"	"18.745"	"18.672"	"19.541"	"19.824"	"20.182"	"19.447"
"2001"	"19.958"	"20.913"	"21.135"	"21.359"	"21.138"	"19.541"	"19.034"	"18.818"	"19.833"	"19.751"	"20.108"	"19.736"
"2002"	"20.033"	"19.962"	"21.426"	"21.65"	"21.284"	"19.543"	"19.255"	"19.255"	"20.271"	"20.26"	"20.182"	"20.029"
