
"Year"	"Jan"	"Feb"	"Mar"	"Apr"	"May"	"Jun"	"Jul"	"Aug"	"Sep"	"Oct"	"Nov"	"Dec"
"1901"	"22.477"	"3.808"	"25.123"	"170.287"	"119.849"	"456.154"	"352.538"	"337.213"	"268.612"	"113.807"	"68.046"	"12.863"
"1902"	"4.3"	"2.803"	"101.599"	"275.961"	"219.569"	"438.031"	"444.511"	"358.637"	"294.638"	"48.171"	"3.913"	"1.491"
"1903"	"11.35"	"23.421"	"72.227"	"99.683"	"231.67"	"535.183"	"270.758"	"479.53"	"297.601"	"124.536"	"14.61"	"1.639"
"1904"	"3.163"	"26.795"	"32.044"	"239.541"	"301.116"	"441.381"	"444.812"	"382.848"	"175.414"	"87.865"	"17.862"	"2.255"
"1905"	"13.789"	"7.867"	"61.826"	"164.035"	"263.126"	"260.092"	"274.743"	"576.919"	"239.304"	"41.108"	"13.611"	"16.828"
"1906"	"9.237"	"26.198"	"46.425"	"184.274"	"184.691"	"359.473"	"398.66"	"276.632"	"260.707"	"139.98"	"12.698"	"1.415"
"1907"	"23.021"	"24.142"	"108.1"	"235.132"	"213.363"	"504.497"	"483.785"	"255.919"	"304.578"	"18.686"	"1.465"	"8.422"
"1908"	"7.418"	"9.923"	"19.356"	"192.474"	"336.514"	"434.677"	"389.907"	"287.784"	"229.369"	"41.916"	"9.034"	"1.819"
"1909"	"10.626"	"3.8"	"3.558"	"162.478"	"307.118"	"607.667"	"397.973"	"272.662"	"157.064"	"116.828"	"4.342"	"3.609"
"1910"	"7.219"	"13.217"	"73.246"	"160.241"	"194.78"	"407.951"	"474.13"	"245.816"	"86.529"	"146.416"	"12.408"	"5.306"
"1911"	"30.332"	"6.022"	"28.753"	"150.605"	"293.462"	"420.87"	"419.681"	"418.12"	"359.124"	"168.971"	"21.028"	"2.243"
"1912"	"2.782"	"36.871"	"52.045"	"263.354"	"221.618"	"514.815"	"516.712"	"469.537"	"182.681"	"65.378"	"19.41"	"4.048"
"1913"	"3.489"	"38.341"	"48.446"	"161.366"	"360.547"	"394.909"	"343.258"	"300.066"	"227.896"	"234.883"	"3.925"	"61.438"
"1914"	"1.853"	"28.309"	"21.24"	"220.718"	"193.893"	"352.461"	"473.558"	"443.743"	"241.894"	"35.559"	"15.518"	"2.879"
"1915"	"1.88"	"32.483"	"70.213"	"167.609"	"443.21"	"585.555"	"554.02"	"373.089"	"188.166"	"29.352"	"5.43"	"3.138"
"1916"	"5.937"	"8.698"	"45.868"	"149.299"	"216.516"	"333.475"	"348.055"	"355.338"	"165.383"	"163.722"	"14.047"	"2.154"
"1917"	"3.326"	"34.876"	"24.176"	"174.936"	"125.338"	"445.042"	"793.499"	"407.22"	"356.029"	"142.586"	"24.426"	"0.941"
"1918"	"1.808"	"15.501"	"45.365"	"88.074"	"187.824"	"561.502"	"587.797"	"508.287"	"284.344"	"74.117"	"4.212"	"1.621"
"1919"	"9.905"	"8.99"	"7.887"	"143.773"	"202.146"	"432.367"	"499.551"	"240.856"	"339.222"	"109.676"	"15.251"	"0.925"
"1920"	"12.979"	"16.677"	"91.147"	"146.345"	"197.564"	"423.738"	"357.136"	"285.936"	"268.198"	"64.395"	"2.821"	"3.991"
"1921"	"30.226"	"16.151"	"71.982"	"331.084"	"291.284"	"436.278"	"578.301"	"433.587"	"182.434"	"118.056"	"10.675"	"5.168"
"1922"	"10.67"	"4.254"	"9.161"	"62.709"	"211.599"	"341.175"	"455.922"	"466.636"	"212.467"	"67.859"	"5.421"	"4.737"
"1923"	"0.993"	"30.366"	"6.627"	"158.428"	"284.622"	"588.746"	"354.228"	"369.294"	"216.76"	"38.184"	"9.517"	"12.305"
"1924"	"6.062"	"14.438"	"10.588"	"135.261"	"300.38"	"405.869"	"517.362"	"378.247"	"326.453"	"58.916"	"43.708"	"1.795"
"1925"	"4.86"	"6.187"	"28.72"	"142.153"	"376.177"	"334.96"	"532.24"	"223.449"	"281.152"	"62.478"	"2.483"	"1.621"
"1926"	"10.822"	"4.729"	"97.251"	"124.728"	"210.65"	"267.627"	"439.699"	"231.64"	"104.889"	"144.222"	"9.354"	"9.838"
"1927"	"27.781"	"48.738"	"64.989"	"157.611"	"198.801"	"409.973"	"450.418"	"447.325"	"388.718"	"117.608"	"13.081"	"1.275"
"1928"	"10.519"	"8.771"	"25.189"	"125.425"	"384.983"	"345.016"	"287.456"	"430.026"	"118.919"	"177.909"	"19.259"	"2.154"
"1929"	"14.509"	"3.079"	"54.41"	"146.268"	"460.164"	"480.64"	"326.643"	"453.966"	"157.164"	"94.642"	"13.179"	"3.874"
"1930"	"7.316"	"22.642"	"66.752"	"184.751"	"164.054"	"479.942"	"346.878"	"522.905"	"363.7"	"170.477"	"48.505"	"2.369"
"1931"	"2.639"	"15.088"	"48.188"	"191.094"	"292.308"	"406.077"	"691.015"	"436.39"	"240.47"	"108.913"	"7.274"	"23.267"
"1932"	"5.301"	"18.649"	"37.073"	"141.407"	"274.621"	"412.915"	"377.398"	"229.18"	"247.136"	"108.159"	"33.149"	"26.026"
"1933"	"13.341"	"16.216"	"9.325"	"174.366"	"250.676"	"337.181"	"447.732"	"314.691"	"120.924"	"193.157"	"3.938"	"1.833"
"1934"	"13.344"	"42.122"	"7.036"	"161.522"	"414.915"	"664.659"	"491.947"	"274.782"	"196.783"	"180.508"	"29.109"	"2.155"
"1935"	"2.463"	"25.054"	"35.812"	"48.513"	"173.849"	"510.212"	"439.394"	"362.741"	"238.592"	"3.848"	"5.169"	"3.136"
"1936"	"7.699"	"37.738"	"28.352"	"132.325"	"322.99"	"450.16"	"479.737"	"358.18"	"278.248"	"99.938"	"10.708"	"14.819"
"1937"	"3.322"	"28.919"	"17.104"	"92.787"	"279.757"	"275.774"	"363.173"	"603.26"	"303.79"	"78.165"	"6.435"	"1.038"
"1938"	"10.614"	"34.323"	"76.735"	"145.041"	"189.521"	"367.406"	"674.326"	"398.89"	"259.157"	"123.727"	"32.725"	"2.27"
"1939"	"2.078"	"9.024"	"7.815"	"73.172"	"231.444"	"416.8"	"434.03"	"160.405"	"351.241"	"132.352"	"0.205"	"1.213"
"1940"	"1.042"	"32.074"	"106.383"	"75.923"	"286.667"	"565.91"	"360.259"	"285.57"	"346.854"	"63.595"	"11.784"	"22.104"
"1941"	"5.779"	"10.167"	"30.665"	"160.087"	"393.534"	"535.069"	"226.399"	"272.927"	"249.993"	"89.798"	"14.521"	"6.879"
"1942"	"1.234"	"13.515"	"106.624"	"186.285"	"271.076"	"422.94"	"330.339"	"433.951"	"470.822"	"11.084"	"1.852"	"0.01"
"1943"	"21.467"	"8.496"	"99.911"	"212.971"	"308.678"	"384.403"	"435.684"	"304.887"	"349.612"	"55.166"	"6.066"	"3.995"
"1944"	"22.06"	"5.241"	"25.233"	"59.187"	"269.905"	"297.936"	"284.893"	"237.154"	"238.003"	"48.325"	"4.572"	"7.619"
"1945"	"35.363"	"12.281"	"37.931"	"106.463"	"331.891"	"504.445"	"489.184"	"296.412"	"238.354"	"172.528"	"1.465"	"4.544"
"1946"	"0"	"12.806"	"76.79"	"86.298"	"244.449"	"434.057"	"366.229"	"205.141"	"241.219"	"319.086"	"11.927"	"0.054"
"1947"	"1.926"	"2.37"	"42.322"	"148.176"	"294.395"	"378.34"	"642.236"	"343.024"	"310.689"	"126.999"	"2.337"	"7.431"
"1948"	"3.205"	"6.055"	"71.552"	"152.482"	"645.321"	"309.216"	"481.634"	"318.105"	"213.263"	"187.749"	"28.609"	"1.746"
"1949"	"14.583"	"4.868"	"22.787"	"256.942"	"314.446"	"382.366"	"328.731"	"473.528"	"537.303"	"113.053"	"6.307"	"4.32"
"1950"	"2.848"	"11.706"	"33.806"	"60.96"	"166.55"	"482.239"	"443.131"	"370.72"	"129.764"	"162.988"	"22.95"	"2.799"
"1951"	"3.528"	"12.157"	"43.153"	"147.915"	"195.547"	"571.045"	"484.252"	"311.831"	"181.912"	"187.019"	"42.949"	"8.66"
"1952"	"4.196"	"15.637"	"70.806"	"109.146"	"360.006"	"382.28"	"415.819"	"490.996"	"388.458"	"164.39"	"30.111"	"0.58"
"1953"	"18.9"	"12.773"	"101.809"	"114.537"	"245.592"	"414.535"	"410.173"	"185.537"	"329.204"	"36.649"	"0.472"	"15.885"
"1954"	"22.804"	"11.467"	"12.28"	"139.603"	"255.526"	"356.756"	"432.152"	"523.973"	"213.731"	"57.692"	"0.2"	"18.482"
"1955"	"3.843"	"7.439"	"70.048"	"170.886"	"174.255"	"487.251"	"653.048"	"334.711"	"165.02"	"82.624"	"11.222"	"23.026"
"1956"	"14.566"	"5.006"	"97.848"	"189.277"	"335.142"	"679.131"	"325.317"	"439.985"	"240.107"	"78.453"	"22.084"	"7.768"
"1957"	"17.224"	"18.929"	"11.051"	"152.904"	"286.809"	"377.517"	"683.271"	"399.012"	"256.59"	"81.403"	"8.203"	"24.623"
"1958"	"17.79"	"28.077"	"8.779"	"90.202"	"388.412"	"229.462"	"473.174"	"465.092"	"207.565"	"102.704"	"0.201"	"2.958"
"1959"	"28.579"	"11.711"	"77.238"	"102.113"	"340.069"	"486.886"	"369.169"	"173.251"	"279.188"	"214.986"	"4.412"	"2.599"
"1960"	"3.528"	"21.648"	"16.913"	"24.569"	"221.118"	"325.653"	"515.008"	"213.175"	"308.612"	"29.838"	"4.93"	"4.107"
"1961"	"3.676"	"4.782"	"63.171"	"90.311"	"278.937"	"373.478"	"416.153"	"435.724"	"383.809"	"58.005"	"12.01"	"1.641"
"1962"	"19.761"	"17.613"	"28.108"	"135.441"	"171.079"	"736.411"	"321.499"	"364.543"	"240.041"	"91.648"	"2.401"	"2.943"
"1963"	"5.751"	"12.484"	"45.152"	"104.033"	"338.474"	"353.763"	"497.489"	"436.043"	"141.685"	"105.646"	"19.419"	"5.741"
"1964"	"3.344"	"11.622"	"75.416"	"164.888"	"189.163"	"410.191"	"476.523"	"272.397"	"180.927"	"107.502"	"3.592"	"4.364"
"1965"	"0.662"	"19.21"	"37.581"	"172.902"	"349.634"	"385.463"	"535.863"	"400.151"	"217.383"	"39.809"	"77.603"	"2.131"
"1966"	"16.127"	"4.341"	"14.793"	"81.585"	"263.078"	"697.857"	"353.614"	"487.221"	"272.968"	"79.605"	"21.866"	"4.584"
"1967"	"4.966"	"7.19"	"98.052"	"182.823"	"217.755"	"302.76"	"284.845"	"260.557"	"326.709"	"17.731"	"20.052"	"1.062"
"1968"	"13.019"	"54.173"	"25.356"	"146.077"	"400.448"	"426.272"	"441.773"	"333.938"	"202.149"	"62.399"	"0.378"	"0.01"
"1969"	"15.831"	"0.239"	"119.957"	"63.784"	"120.912"	"476.184"	"433.376"	"387.853"	"273.942"	"89.108"	"10.028"	"0.447"
"1970"	"14.808"	"14.827"	"22.356"	"98.184"	"246.397"	"520.326"	"565.809"	"390.041"	"206.313"	"249.871"	"13.898"	"0.01"
"1971"	"4.788"	"6.775"	"91.689"	"141.469"	"136.103"	"496.7"	"468.217"	"390.348"	"154.383"	"167.929"	"71.958"	"5.367"
"1972"	"8.748"	"12.399"	"38.506"	"159.908"	"268.942"	"325.759"	"442.737"	"323.911"	"184.868"	"24.176"	"8.243"	"1.163"
"1973"	"5.119"	"22.904"	"18.832"	"203.622"	"306.694"	"518.398"	"382.705"	"274.506"	"312.73"	"66.943"	"29.543"	"60.448"
"1974"	"18.261"	"1.393"	"17.042"	"112.686"	"206.142"	"494.124"	"704.49"	"381.734"	"217.401"	"83.184"	"4.14"	"0.36"
"1975"	"4.457"	"55.137"	"19.579"	"81.002"	"220.372"	"373.803"	"523.267"	"312.845"	"303.643"	"123.491"	"1.556"	"2.395"
"1976"	"28.227"	"18.374"	"38.274"	"111.328"	"165.374"	"655.247"	"367.992"	"315.586"	"134.857"	"53.524"	"6.817"	"1.099"
"1977"	"7.592"	"5.02"	"44.115"	"381.098"	"354.953"	"498.158"	"606.911"	"380.978"	"248.055"	"188.066"	"24.635"	"18.135"
"1978"	"0.667"	"4.619"	"26.103"	"144.496"	"283.127"	"472.673"	"460.926"	"371.074"	"279.864"	"132.12"	"28.506"	"0.01"
"1979"	"1.715"	"7.824"	"39.691"	"48.352"	"175.412"	"366.877"	"495.554"	"251.218"	"242.291"	"223.167"	"8.923"	"43.457"
"1980"	"29.332"	"9.457"	"53.462"	"141.124"	"327.222"	"439.856"	"530.895"	"495.725"	"190.409"	"80.375"	"1.563"	"0.01"
"1981"	"28.537"	"10.261"	"41.468"	"139.81"	"318.884"	"299.176"	"566.908"	"331.952"	"191.46"	"14.532"	"0.497"	"50.97"
"1982"	"0.087"	"9.771"	"27.365"	"294.002"	"150.769"	"359.327"	"262.624"	"328.657"	"155.027"	"49.896"	"50.017"	"10.57"
"1983"	"15.837"	"22.513"	"48.063"	"167.624"	"298.41"	"247.827"	"334.056"	"298.805"	"388.435"	"167.811"	"0.738"	"13.977"
"1984"	"11.487"	"1.59"	"14.777"	"168.31"	"271.064"	"400.111"	"543.427"	"226.252"	"387.936"	"57.066"	"10.75"	"10.489"
"1985"	"0.98"	"16.25"	"39.931"	"171.477"	"215.42"	"340.426"	"751.173"	"190.569"	"282.194"	"17.073"	"3.321"	"17.356"
"1986"	"2.12"	"3.398"	"11.202"	"267.324"	"73.089"	"270.327"	"569.427"	"299.012"	"279.262"	"278.831"	"14.816"	"1.211"
"1987"	"6.755"	"22.852"	"73.972"	"202.269"	"166.655"	"207.413"	"610.743"	"390.78"	"357.383"	"88.09"	"3.775"	"2.113"
"1988"	"6.635"	"14.792"	"43.622"	"193.841"	"455.553"	"283.672"	"476.448"	"491.301"	"258.865"	"120.088"	"93.755"	"12.456"
"1989"	"0.991"	"30.873"	"13.263"	"112.574"	"198.535"	"348.113"	"537.06"	"292.111"	"371.912"	"127.549"	"3.578"	"5.034"
"1990"	"1.685"	"11.713"	"69.849"	"223.938"	"148.604"	"467.961"	"679.767"	"198.722"	"312.8"	"203.661"	"0.243"	"1.368"
"1991"	"38.675"	"3.484"	"39.611"	"125.186"	"383.588"	"500.215"	"426.224"	"537.546"	"328.44"	"299.821"	"1.926"	"6.985"
"1992"	"11.321"	"24.14"	"38.929"	"311.896"	"216.654"	"371.473"	"441.673"	"414.945"	"211.334"	"129.485"	"3.429"	"9.087"
"1993"	"30.072"	"41.666"	"65.446"	"224.521"	"320.915"	"459.567"	"312.764"	"471.257"	"335.334"	"55.891"	"4.768"	"0.049"
"1994"	"15.933"	"17.673"	"67.341"	"233.772"	"189.861"	"340.074"	"367.758"	"367.576"	"115.902"	"134.253"	"11.919"	"0.01"
"1995"	"23.745"	"10.643"	"29.868"	"153.382"	"280.014"	"631.678"	"600.476"	"370.237"	"411.381"	"27.684"	"57.193"	"5.227"
"1996"	"8.957"	"16.869"	"46.436"	"62.734"	"509.026"	"336.648"	"431.897"	"345.749"	"189.296"	"163.599"	"0.2"	"0.01"
"1997"	"12.119"	"29.514"	"53.523"	"157.463"	"205.063"	"382.609"	"312.753"	"241.393"	"324.545"	"21.52"	"11.468"	"28.081"
"1998"	"3.006"	"12.412"	"82.365"	"167.903"	"201.808"	"466.141"	"441.197"	"412.523"	"249.29"	"186.968"	"5.475"	"0.01"
"1999"	"0.227"	"8.987"	"15.216"	"69.006"	"376.234"	"412.231"	"460.617"	"456.549"	"268.531"	"135.498"	"19.447"	"0.801"
"2000"	"12.084"	"8.495"	"69.419"	"77.782"	"396.149"	"420.913"	"333.65"	"506.771"	"266.213"	"40.959"	"3.685"	"0.802"
"2001"	"1.102"	"10.593"	"14.465"	"172.538"	"310.599"	"491.115"	"436.224"	"266.674"	"264.158"	"196.771"	"8.795"	"0.904"
"2002"	"11.484"	"16.121"	"49.4"	"258.64"	"317.606"	"464.894"	"463.541"	"298.081"	"271.615"	"44.859"	"30.407"	"0.01"
