
"Year"	"Jan"	"Feb"	"Mar"	"Apr"	"May"	"Jun"	"Jul"	"Aug"	"Sep"	"Oct"	"Nov"	"Dec"
"1901"	"22.39"	"23.525"	"28.03"	"31.766"	"33.714"	"31.505"	"27.003"	"25.615"	"27.358"	"26.798"	"22.559"	"20.595"
"1902"	"23.277"	"25.049"	"29.828"	"33.041"	"35.208"	"32.667"	"28.058"	"27.807"	"26.78"	"26.605"	"22.214"	"20.829"
"1903"	"22.605"	"23.329"	"28.115"	"32.265"	"32.54"	"32.617"	"27.034"	"26.501"	"26.63"	"25.332"	"21.241"	"20.076"
"1904"	"22.538"	"24.146"	"28.173"	"33.175"	"34.364"	"30.216"	"27.425"	"26.834"	"26.266"	"26.289"	"21.502"	"20.992"
"1905"	"21.573"	"22.13"	"27.844"	"30.281"	"35.114"	"32.676"	"27.606"	"26.978"	"26.231"	"26.044"	"23.297"	"20.034"
"1906"	"21.873"	"24.351"	"28.03"	"32.938"	"35.285"	"29.97"	"27.208"	"26.848"	"26"	"25.737"	"23.227"	"21.434"
"1907"	"22.16"	"24.061"	"27.766"	"30.036"	"32.978"	"30.965"	"27.918"	"25.384"	"27.664"	"27.731"	"24.364"	"20.313"
"1908"	"21.313"	"24.507"	"27.51"	"33.05"	"34.603"	"31.365"	"26.546"	"25.72"	"26.833"	"26.331"	"22.204"	"19.276"
"1909"	"23.513"	"25.115"	"29.604"	"30.575"	"34.026"	"29.999"	"26.543"	"27.057"	"26.219"	"26.004"	"22.888"	"21.889"
"1910"	"22.328"	"23.748"	"28.493"	"32.546"	"34.192"	"29.755"	"27.629"	"26.657"	"26.109"	"25.328"	"20.881"	"20.595"
"1911"	"22.609"	"22.842"	"27.217"	"32.29"	"35.28"	"30.062"	"28.025"	"26.116"	"26.973"	"27.075"	"24.656"	"21.341"
"1912"	"22.772"	"25.308"	"28.941"	"32.362"	"34.721"	"33.723"	"27.721"	"26.236"	"27.137"	"26.554"	"22.602"	"19.964"
"1913"	"21.321"	"25.731"	"28.048"	"33.683"	"33.621"	"29.871"	"27.136"	"26.473"	"27.139"	"26.881"	"22.947"	"21.663"
"1914"	"22.043"	"25.354"	"28.026"	"31.323"	"33.836"	"29.907"	"26.88"	"26.484"	"26.679"	"26.471"	"24.079"	"21.195"
"1915"	"21.651"	"24.127"	"27.49"	"31.464"	"34.418"	"33.157"	"28.162"	"26.4"	"26.832"	"26.647"	"24.811"	"20.056"
"1916"	"21.706"	"24.199"	"28.944"	"32.915"	"34.265"	"28.37"	"27.535"	"26.473"	"26.565"	"26.227"	"22.878"	"19.6"
"1917"	"21.472"	"22.987"	"26.843"	"30.223"	"32.33"	"29.023"	"26.636"	"26.9"	"25.759"	"25.555"	"21.744"	"20.819"
"1918"	"20.282"	"24.393"	"28.156"	"31.42"	"32.939"	"29.024"	"28.382"	"26.549"	"27.778"	"26.582"	"23.75"	"21.23"
"1919"	"23.188"	"25.001"	"29.031"	"31.615"	"33.853"	"29.222"	"27.101"	"26.345"	"26.966"	"25.425"	"24.023"	"20.564"
"1920"	"21.918"	"23.757"	"28.706"	"31.954"	"32.564"	"31.681"	"27.169"	"27.425"	"27.857"	"28.096"	"23.495"	"21.325"
"1921"	"22.972"	"24.312"	"30.117"	"33.346"	"35.687"	"29.736"	"27.83"	"26.678"	"26.042"	"25.665"	"21.239"	"21.22"
"1922"	"21.748"	"24.978"	"28.822"	"32.769"	"34.413"	"30.305"	"27.023"	"26.748"	"26.081"	"25.713"	"22.142"	"19.256"
"1923"	"21.668"	"23.673"	"28.094"	"32.298"	"33.879"	"33.518"	"26.876"	"26.142"	"26.449"	"24.815"	"22.51"	"21.676"
"1924"	"23.074"	"25.896"	"29.806"	"33.599"	"34.649"	"32.299"	"27.666"	"26.922"	"26.361"	"24.834"	"21.342"	"20.856"
"1925"	"20.548"	"23.157"	"28.262"	"33.499"	"32.939"	"29.636"	"26.589"	"26.267"	"27.248"	"26.775"	"23.33"	"19.871"
"1926"	"22.386"	"25.142"	"28.459"	"30.045"	"33.314"	"33.823"	"27.922"	"26.13"	"26.76"	"26.176"	"22.074"	"20.732"
"1927"	"23.746"	"25.056"	"28.487"	"32.894"	"34.464"	"30.876"	"26.585"	"26.848"	"27.277"	"26.056"	"20.863"	"21.408"
"1928"	"22.661"	"24.285"	"28.684"	"32.131"	"35.291"	"30.818"	"26.894"	"27.17"	"26.755"	"26.096"	"23.324"	"21.028"
"1929"	"22.14"	"23.678"	"29.226"	"31.771"	"35.446"	"30.232"	"27.183"	"27.254"	"26.849"	"26.322"	"23.115"	"21.534"
"1930"	"22.602"	"22.802"	"28.985"	"31.986"	"34.326"	"31.346"	"27.32"	"26.532"	"26.917"	"26.935"	"22.31"	"22.181"
"1931"	"22.669"	"26.053"	"28.718"	"33.411"	"35.078"	"32.222"	"27.144"	"26.305"	"26.445"	"25.441"	"22.446"	"20.46"
"1932"	"21.79"	"22.861"	"27.557"	"31.606"	"34.161"	"31.165"	"26.625"	"26.893"	"26.814"	"27.233"	"23.405"	"20.913"
"1933"	"22.453"	"25.52"	"28.666"	"31.493"	"31.321"	"28.915"	"27.314"	"26.263"	"26.256"	"25.705"	"22.998"	"20.806"
"1934"	"21.073"	"23.953"	"28.255"	"32.772"	"34.881"	"31.131"	"26.926"	"25.907"	"25.988"	"25.382"	"21.292"	"20.871"
"1935"	"21.478"	"24.226"	"27.887"	"30.375"	"35.028"	"31.256"	"26.249"	"26.323"	"25.872"	"26.621"	"22.868"	"22.255"
"1936"	"23.124"	"24.086"	"28.3"	"31.375"	"34.456"	"28.773"	"27.702"	"26.279"	"26.665"	"25.893"	"23.646"	"21.161"
"1937"	"20.818"	"24.854"	"27.557"	"31.311"	"33.968"	"31.348"	"26.431"	"26.891"	"26.743"	"25.642"	"23.505"	"20.888"
"1938"	"24.195"	"23.334"	"29.854"	"32.375"	"34.258"	"27.242"	"26.149"	"26.613"	"26.783"	"25.325"	"22.143"	"20.439"
"1939"	"22.773"	"25.52"	"27.458"	"31.955"	"34.664"	"30.825"	"26.898"	"26.753"	"26.65"	"26.604"	"21.917"	"20.118"
"1940"	"21.474"	"24.991"	"27.301"	"31.84"	"34.118"	"30.516"	"26.133"	"26.092"	"26.958"	"26.405"	"23.527"	"21.86"
"1941"	"22.533"	"24.418"	"29.92"	"33.472"	"35.259"	"32.284"	"27.583"	"26.806"	"27.504"	"27.4"	"23.461"	"22.451"
"1942"	"22.665"	"24.549"	"29.364"	"32.93"	"34.836"	"31.921"	"26.221"	"26.139"	"25.955"	"26.101"	"22.68"	"21.107"
"1943"	"23.281"	"22.342"	"28.475"	"31.794"	"33.816"	"29.723"	"26.639"	"26.137"	"25.916"	"25.048"	"22.891"	"19.257"
"1944"	"22.165"	"23.751"	"27.089"	"31.077"	"35.158"	"31.381"	"26.566"	"26.373"	"26.856"	"25.89"	"22.391"	"22.229"
"1945"	"21.629"	"23.64"	"28.405"	"31.096"	"34.838"	"31.442"	"26.706"	"26.501"	"26.224"	"25.975"	"21.616"	"19.846"
"1946"	"21.335"	"24.529"	"28.832"	"32.545"	"34.043"	"29.163"	"26.848"	"26.282"	"26.525"	"27.198"	"23.858"	"22.874"
"1947"	"22.401"	"24.693"	"28.626"	"32.052"	"35.016"	"32.171"	"27.155"	"27.183"	"26.347"	"24.985"	"23.241"	"21.538"
"1948"	"22.494"	"24.387"	"28.242"	"32.731"	"35.753"	"30.724"	"26.869"	"26.288"	"25.95"	"27.263"	"24.385"	"19.617"
"1949"	"21.911"	"23.39"	"29.18"	"32.911"	"34.211"	"29.41"	"26.978"	"27.213"	"25.888"	"26.343"	"21.789"	"21.403"
"1950"	"22.28"	"23.607"	"27.716"	"32.555"	"34.733"	"31.395"	"27.044"	"27.614"	"26.613"	"25.934"	"21.859"	"21.124"
"1951"	"21.379"	"24.325"	"29.037"	"31.666"	"34.692"	"31.149"	"28.161"	"26.445"	"27.544"	"27.575"	"23.901"	"20.531"
"1952"	"22.412"	"25.804"	"28.115"	"33.526"	"35.353"	"31.664"	"28.103"	"26.323"	"27.356"	"26.809"	"22.022"	"23.246"
"1953"	"22.44"	"26.839"	"30.886"	"32.945"	"35.575"	"32.56"	"27.389"	"26.218"	"27.272"	"26.249"	"22.521"	"20.999"
"1954"	"21.363"	"25.863"	"29.209"	"33.385"	"35.991"	"31.367"	"27.093"	"26.984"	"25.606"	"24.813"	"22.151"	"21.341"
"1955"	"22.743"	"26.07"	"30.063"	"31.087"	"34.355"	"30.478"	"27.256"	"25.991"	"26.464"	"25.755"	"21.431"	"20.637"
"1956"	"22.709"	"24.561"	"29.708"	"33.104"	"33.885"	"29.136"	"25.982"	"26.509"	"26.501"	"25.855"	"22.713"	"21.512"
"1957"	"22.911"	"23.805"	"27.562"	"31.465"	"33.842"	"31.949"	"27.148"	"26.414"	"27.191"	"26.881"	"24.639"	"23.345"
"1958"	"23.023"	"25.06"	"28.991"	"33.229"	"35.35"	"33.399"	"26.97"	"26.92"	"26.415"	"26.433"	"24.502"	"21.521"
"1959"	"23.137"	"25.489"	"29.511"	"32.75"	"35.413"	"31.321"	"26.614"	"26.023"	"26.339"	"26.749"	"23.762"	"21.895"
"1960"	"22.101"	"25.201"	"27.755"	"32.238"	"34.38"	"29.964"	"27.485"	"26.191"	"27.18"	"26.017"	"22.864"	"22.754"
"1961"	"23.402"	"23.502"	"30.129"	"32.983"	"34.07"	"30.247"	"26.661"	"26.561"	"25.72"	"25.23"	"23.079"	"20.781"
"1962"	"20.629"	"24.506"	"28.018"	"31.41"	"33.703"	"31.438"	"27.477"	"26.878"	"26.15"	"25.666"	"23.226"	"21.026"
"1963"	"21.09"	"24.766"	"28.415"	"31.02"	"33.991"	"30.044"	"27.705"	"26.137"	"27.049"	"26.581"	"24.402"	"21.779"
"1964"	"22.415"	"25.281"	"29.898"	"33.647"	"34.394"	"31.005"	"27.185"	"25.807"	"26.805"	"26.789"	"22.481"	"21.111"
"1965"	"22.489"	"24.559"	"28.495"	"31.599"	"35.315"	"31.129"	"26.801"	"26.806"	"26.43"	"26.839"	"23.513"	"21.918"
"1966"	"21.577"	"25.335"	"28.21"	"32.409"	"33.322"	"32.08"	"28.772"	"27.216"	"26.932"	"27.32"	"25.163"	"21.376"
"1967"	"22.324"	"25.401"	"28.252"	"31.939"	"34.646"	"31.445"	"27.553"	"26.493"	"26.823"	"26.683"	"24.071"	"22.844"
"1968"	"21.132"	"24.153"	"27.376"	"30.755"	"33.89"	"31.479"	"27.55"	"25.885"	"27.477"	"25.677"	"22.953"	"21.789"
"1969"	"22.556"	"26.285"	"31.102"	"33.761"	"34.623"	"32"	"26.965"	"26.237"	"25.771"	"26.196"	"24.848"	"21.42"
"1970"	"22.705"	"26.471"	"29.358"	"33.247"	"35.095"	"28.615"	"27.763"	"26.287"	"26.492"	"26.126"	"22.003"	"19.734"
"1971"	"22.038"	"25.028"	"27.991"	"33.154"	"33.31"	"28.803"	"27.853"	"27.553"	"27.433"	"26.178"	"22.229"	"19.993"
"1972"	"21.642"	"24.087"	"30.337"	"32.346"	"34.475"	"32.265"	"27.804"	"26.426"	"27.122"	"26.897"	"23.306"	"22.971"
"1973"	"23.247"	"25.914"	"30.018"	"34.874"	"36.079"	"31.571"	"26.61"	"26.177"	"26.457"	"26.05"	"22.298"	"22.003"
"1974"	"21.061"	"24.991"	"29.747"	"33.091"	"33.424"	"30.848"	"28.42"	"26.256"	"28.328"	"26.194"	"21.738"	"20.24"
"1975"	"20.5"	"24.606"	"28.643"	"33.139"	"34.862"	"29.888"	"26.886"	"26.318"	"26.101"	"26.697"	"21.055"	"19.353"
"1976"	"21.047"	"24.825"	"28.678"	"32.001"	"33.891"	"30.232"	"27.092"	"26.384"	"26.321"	"27.296"	"25.899"	"23.122"
"1977"	"21.569"	"25.589"	"30.688"	"32.349"	"33.23"	"30.846"	"27.552"	"26.067"	"26.401"	"26.607"	"25.27"	"20.815"
"1978"	"21.259"	"24.334"	"27.72"	"32.055"	"35.258"	"29.637"	"26.274"	"25.793"	"27.393"	"27.131"	"25.833"	"21.416"
"1979"	"23.524"	"24.09"	"28.245"	"32.225"	"32.871"	"32.139"	"27.701"	"26.487"	"27.666"	"27.866"	"25.718"	"22.006"
"1980"	"23.549"	"26.008"	"29.478"	"33.51"	"35.56"	"28.911"	"27.393"	"25.844"	"27.665"	"27.771"	"25.647"	"21.524"
"1981"	"20.695"	"25.929"	"27.997"	"32.457"	"33.736"	"31.235"	"26.555"	"26.193"	"26.917"	"26.844"	"22.644"	"21.181"
"1982"	"23.823"	"24.859"	"28.399"	"31.975"	"33.295"	"31.815"	"28.467"	"26.852"	"27.351"	"27.159"	"24.955"	"23.262"
"1983"	"22.77"	"25.117"	"29.407"	"32.156"	"34.847"	"32.75"	"28.555"	"27.241"	"26.561"	"25.537"	"21.93"	"20.57"
"1984"	"23.129"	"24.119"	"29.538"	"32.713"	"35.575"	"30.431"	"27.733"	"26.181"	"27.031"	"26.939"	"22.716"	"22.587"
"1985"	"24.325"	"25.219"	"30.616"	"32.645"	"34.757"	"30.072"	"27.266"	"26.597"	"28.196"	"25.579"	"23.324"	"22.897"
"1986"	"22.597"	"25.343"	"29.831"	"33.088"	"34.756"	"30.373"	"27.398"	"26.248"	"28.586"	"28.102"	"23.191"	"22.595"
"1987"	"23.335"	"25.443"	"28.977"	"32.956"	"33.214"	"31.977"	"28.453"	"27.382"	"28.779"	"27.06"	"24.961"	"21.833"
"1988"	"23.8"	"26.567"	"29.562"	"32.813"	"35.734"	"31.33"	"26.961"	"27.423"	"27.254"	"25.799"	"23.412"	"21.329"
"1989"	"22.326"	"24.445"	"27.777"	"32.103"	"34.866"	"29.855"	"27.153"	"25.329"	"26.539"	"26.281"	"24.654"	"21.192"
"1990"	"23.029"	"24.76"	"27.447"	"32.829"	"31.478"	"28.1"	"26.803"	"26.598"	"26.978"	"25.889"	"24.388"	"22.167"
"1991"	"21.9"	"26.218"	"29.472"	"31.922"	"35.114"	"29.627"	"27.303"	"26.368"	"28.051"	"26.975"	"23.659"	"21.242"
"1992"	"22.563"	"24.421"	"30.186"	"32.345"	"34.633"	"32.583"	"28.779"	"26.064"	"26.74"	"26.562"	"23.507"	"20.622"
"1993"	"22.856"	"24.233"	"28.004"	"32.776"	"35.333"	"32.854"	"27.525"	"26.659"	"26.943"	"26.922"	"23.402"	"19.917"
"1994"	"22.43"	"24.671"	"29.835"	"31.051"	"35.228"	"29.419"	"25.955"	"25.754"	"26.749"	"27.066"	"23.327"	"20.852"
"1995"	"19.777"	"24.639"	"28.065"	"32.013"	"33.321"	"33.108"	"27.804"	"27.753"	"27.496"	"26.879"	"24.454"	"23.823"
"1996"	"24.386"	"25.954"	"30.364"	"32.643"	"35.348"	"31.316"	"28.338"	"26.922"	"27.138"	"25.866"	"23.298"	"21.107"
"1997"	"20.545"	"23.397"	"28.804"	"29.841"	"33.428"	"30.343"	"27.268"	"27"	"26.71"	"26.287"	"25.805"	"22.807"
"1998"	"23.012"	"24.665"	"28.52"	"33.15"	"35.695"	"33.001"	"28.438"	"27.587"	"27.074"	"27.296"	"24.127"	"20.663"
"1999"	"21.151"	"25.861"	"29.496"	"33.65"	"33.568"	"29.445"	"27.26"	"26.537"	"26.18"	"26.364"	"23.762"	"20.968"
"2000"	"22.798"	"24.545"	"28.256"	"33.98"	"33.323"	"29.255"	"26.648"	"27.502"	"27.505"	"28.087"	"25.087"	"21.873"
"2001"	"22.863"	"26.361"	"29.661"	"31.424"	"35.057"	"29.414"	"27.54"	"26.595"	"28.532"	"26.685"	"24.656"	"23.387"
"2002"	"22.433"	"26.582"	"29.671"	"33.487"	"35.01"	"30.206"	"28.131"	"25.556"	"26.62"	"27.048"	"23.801"	"22.951"
